 2017-02-08 18:37:55.161523+01 | 1486575475.16152 | pgbench_accounts |        694026240
 2017-02-08 18:37:55.161523+01 | 1486575475.16152 | pgbench_tellers  |            24576
 2017-02-08 18:37:55.161523+01 | 1486575475.16152 | pgbench_history  |                0
 2017-02-08 18:37:55.161523+01 | 1486575475.16152 | pgbench_branches |             8192

 2017-02-08 18:37:56.239146+01 | 1486575476.23915 | pgbench_accounts |        694026240
 2017-02-08 18:37:56.239146+01 | 1486575476.23915 | pgbench_tellers  |            24576
 2017-02-08 18:37:56.239146+01 | 1486575476.23915 | pgbench_history  |                0
 2017-02-08 18:37:56.239146+01 | 1486575476.23915 | pgbench_branches |             8192

 2017-02-08 18:37:57.29985+01 | 1486575477.29985 | pgbench_accounts |        694026240
 2017-02-08 18:37:57.29985+01 | 1486575477.29985 | pgbench_tellers  |            24576
 2017-02-08 18:37:57.29985+01 | 1486575477.29985 | pgbench_history  |                0
 2017-02-08 18:37:57.29985+01 | 1486575477.29985 | pgbench_branches |             8192

 2017-02-08 18:37:58.369245+01 | 1486575478.36925 | pgbench_accounts |        694026240
 2017-02-08 18:37:58.369245+01 | 1486575478.36925 | pgbench_tellers  |            24576
 2017-02-08 18:37:58.369245+01 | 1486575478.36925 | pgbench_history  |                0
 2017-02-08 18:37:58.369245+01 | 1486575478.36925 | pgbench_branches |             8192

 2017-02-08 18:37:59.432746+01 | 1486575479.43275 | pgbench_accounts |        694026240
 2017-02-08 18:37:59.432746+01 | 1486575479.43275 | pgbench_tellers  |            24576
 2017-02-08 18:37:59.432746+01 | 1486575479.43275 | pgbench_history  |                0
 2017-02-08 18:37:59.432746+01 | 1486575479.43275 | pgbench_branches |             8192

 2017-02-08 18:38:00.497628+01 | 1486575480.49763 | pgbench_accounts |        694026240
 2017-02-08 18:38:00.497628+01 | 1486575480.49763 | pgbench_tellers  |            24576
 2017-02-08 18:38:00.497628+01 | 1486575480.49763 | pgbench_history  |                0
 2017-02-08 18:38:00.497628+01 | 1486575480.49763 | pgbench_branches |             8192

 2017-02-08 18:38:01.561517+01 | 1486575481.56152 | pgbench_accounts |        694026240
 2017-02-08 18:38:01.561517+01 | 1486575481.56152 | pgbench_tellers  |            24576
 2017-02-08 18:38:01.561517+01 | 1486575481.56152 | pgbench_history  |                0
 2017-02-08 18:38:01.561517+01 | 1486575481.56152 | pgbench_branches |             8192

 2017-02-08 18:38:02.630437+01 | 1486575482.63044 | pgbench_accounts |        694026240
 2017-02-08 18:38:02.630437+01 | 1486575482.63044 | pgbench_tellers  |            24576
 2017-02-08 18:38:02.630437+01 | 1486575482.63044 | pgbench_history  |                0
 2017-02-08 18:38:02.630437+01 | 1486575482.63044 | pgbench_branches |             8192

 2017-02-08 18:38:03.695366+01 | 1486575483.69537 | pgbench_accounts |        694026240
 2017-02-08 18:38:03.695366+01 | 1486575483.69537 | pgbench_tellers  |            24576
 2017-02-08 18:38:03.695366+01 | 1486575483.69537 | pgbench_history  |                0
 2017-02-08 18:38:03.695366+01 | 1486575483.69537 | pgbench_branches |             8192

 2017-02-08 18:38:04.762956+01 | 1486575484.76296 | pgbench_accounts |        694026240
 2017-02-08 18:38:04.762956+01 | 1486575484.76296 | pgbench_tellers  |            24576
 2017-02-08 18:38:04.762956+01 | 1486575484.76296 | pgbench_history  |                0
 2017-02-08 18:38:04.762956+01 | 1486575484.76296 | pgbench_branches |             8192

 2017-02-08 18:38:05.826291+01 | 1486575485.82629 | pgbench_accounts |        694026240
 2017-02-08 18:38:05.826291+01 | 1486575485.82629 | pgbench_tellers  |            24576
 2017-02-08 18:38:05.826291+01 | 1486575485.82629 | pgbench_history  |                0
 2017-02-08 18:38:05.826291+01 | 1486575485.82629 | pgbench_branches |             8192

 2017-02-08 18:38:06.903365+01 | 1486575486.90336 | pgbench_accounts |        694026240
 2017-02-08 18:38:06.903365+01 | 1486575486.90336 | pgbench_tellers  |            24576
 2017-02-08 18:38:06.903365+01 | 1486575486.90336 | pgbench_history  |                0
 2017-02-08 18:38:06.903365+01 | 1486575486.90336 | pgbench_branches |             8192

 2017-02-08 18:38:07.972794+01 | 1486575487.97279 | pgbench_accounts |        694026240
 2017-02-08 18:38:07.972794+01 | 1486575487.97279 | pgbench_tellers  |            24576
 2017-02-08 18:38:07.972794+01 | 1486575487.97279 | pgbench_history  |                0
 2017-02-08 18:38:07.972794+01 | 1486575487.97279 | pgbench_branches |             8192

 2017-02-08 18:38:09.029455+01 | 1486575489.02945 | pgbench_accounts |        694026240
 2017-02-08 18:38:09.029455+01 | 1486575489.02945 | pgbench_tellers  |            24576
 2017-02-08 18:38:09.029455+01 | 1486575489.02945 | pgbench_history  |                0
 2017-02-08 18:38:09.029455+01 | 1486575489.02945 | pgbench_branches |             8192

 2017-02-08 18:38:10.095397+01 | 1486575490.0954 | pgbench_accounts |        694026240
 2017-02-08 18:38:10.095397+01 | 1486575490.0954 | pgbench_tellers  |            24576
 2017-02-08 18:38:10.095397+01 | 1486575490.0954 | pgbench_history  |                0
 2017-02-08 18:38:10.095397+01 | 1486575490.0954 | pgbench_branches |             8192

 2017-02-08 18:38:11.174615+01 | 1486575491.17461 | pgbench_accounts |        694026240
 2017-02-08 18:38:11.174615+01 | 1486575491.17461 | pgbench_tellers  |            24576
 2017-02-08 18:38:11.174615+01 | 1486575491.17461 | pgbench_history  |                0
 2017-02-08 18:38:11.174615+01 | 1486575491.17461 | pgbench_branches |             8192

 2017-02-08 18:38:12.242273+01 | 1486575492.24227 | pgbench_accounts |        694026240
 2017-02-08 18:38:12.242273+01 | 1486575492.24227 | pgbench_tellers  |            24576
 2017-02-08 18:38:12.242273+01 | 1486575492.24227 | pgbench_history  |                0
 2017-02-08 18:38:12.242273+01 | 1486575492.24227 | pgbench_branches |             8192

 2017-02-08 18:38:13.308526+01 | 1486575493.30853 | pgbench_accounts |        694026240
 2017-02-08 18:38:13.308526+01 | 1486575493.30853 | pgbench_tellers  |            24576
 2017-02-08 18:38:13.308526+01 | 1486575493.30853 | pgbench_history  |                0
 2017-02-08 18:38:13.308526+01 | 1486575493.30853 | pgbench_branches |             8192

 2017-02-08 18:38:14.367306+01 | 1486575494.36731 | pgbench_accounts |        694026240
 2017-02-08 18:38:14.367306+01 | 1486575494.36731 | pgbench_tellers  |            24576
 2017-02-08 18:38:14.367306+01 | 1486575494.36731 | pgbench_history  |                0
 2017-02-08 18:38:14.367306+01 | 1486575494.36731 | pgbench_branches |             8192

 2017-02-08 18:38:15.439303+01 | 1486575495.4393 | pgbench_accounts |        694026240
 2017-02-08 18:38:15.439303+01 | 1486575495.4393 | pgbench_tellers  |            24576
 2017-02-08 18:38:15.439303+01 | 1486575495.4393 | pgbench_history  |                0
 2017-02-08 18:38:15.439303+01 | 1486575495.4393 | pgbench_branches |             8192

 2017-02-08 18:38:16.509813+01 | 1486575496.50981 | pgbench_accounts |        694026240
 2017-02-08 18:38:16.509813+01 | 1486575496.50981 | pgbench_tellers  |            24576
 2017-02-08 18:38:16.509813+01 | 1486575496.50981 | pgbench_history  |                0
 2017-02-08 18:38:16.509813+01 | 1486575496.50981 | pgbench_branches |             8192

 2017-02-08 18:38:17.571908+01 | 1486575497.57191 | pgbench_accounts |        694026240
 2017-02-08 18:38:17.571908+01 | 1486575497.57191 | pgbench_tellers  |            24576
 2017-02-08 18:38:17.571908+01 | 1486575497.57191 | pgbench_history  |                0
 2017-02-08 18:38:17.571908+01 | 1486575497.57191 | pgbench_branches |             8192

 2017-02-08 18:38:18.635394+01 | 1486575498.63539 | pgbench_accounts |        694026240
 2017-02-08 18:38:18.635394+01 | 1486575498.63539 | pgbench_tellers  |            24576
 2017-02-08 18:38:18.635394+01 | 1486575498.63539 | pgbench_history  |                0
 2017-02-08 18:38:18.635394+01 | 1486575498.63539 | pgbench_branches |             8192

 2017-02-08 18:38:19.691714+01 | 1486575499.69171 | pgbench_accounts |        694026240
 2017-02-08 18:38:19.691714+01 | 1486575499.69171 | pgbench_tellers  |            24576
 2017-02-08 18:38:19.691714+01 | 1486575499.69171 | pgbench_history  |                0
 2017-02-08 18:38:19.691714+01 | 1486575499.69171 | pgbench_branches |             8192

 2017-02-08 18:38:20.754768+01 | 1486575500.75477 | pgbench_accounts |        694026240
 2017-02-08 18:38:20.754768+01 | 1486575500.75477 | pgbench_tellers  |            24576
 2017-02-08 18:38:20.754768+01 | 1486575500.75477 | pgbench_history  |                0
 2017-02-08 18:38:20.754768+01 | 1486575500.75477 | pgbench_branches |             8192

 2017-02-08 18:38:21.833159+01 | 1486575501.83316 | pgbench_accounts |        694026240
 2017-02-08 18:38:21.833159+01 | 1486575501.83316 | pgbench_tellers  |            24576
 2017-02-08 18:38:21.833159+01 | 1486575501.83316 | pgbench_history  |                0
 2017-02-08 18:38:21.833159+01 | 1486575501.83316 | pgbench_branches |             8192

 2017-02-08 18:38:22.907122+01 | 1486575502.90712 | pgbench_accounts |        694026240
 2017-02-08 18:38:22.907122+01 | 1486575502.90712 | pgbench_tellers  |            24576
 2017-02-08 18:38:22.907122+01 | 1486575502.90712 | pgbench_history  |                0
 2017-02-08 18:38:22.907122+01 | 1486575502.90712 | pgbench_branches |             8192

 2017-02-08 18:38:23.973437+01 | 1486575503.97344 | pgbench_accounts |        694026240
 2017-02-08 18:38:23.973437+01 | 1486575503.97344 | pgbench_tellers  |            24576
 2017-02-08 18:38:23.973437+01 | 1486575503.97344 | pgbench_history  |                0
 2017-02-08 18:38:23.973437+01 | 1486575503.97344 | pgbench_branches |             8192

 2017-02-08 18:38:25.049282+01 | 1486575505.04928 | pgbench_accounts |        694026240
 2017-02-08 18:38:25.049282+01 | 1486575505.04928 | pgbench_tellers  |            24576
 2017-02-08 18:38:25.049282+01 | 1486575505.04928 | pgbench_history  |                0
 2017-02-08 18:38:25.049282+01 | 1486575505.04928 | pgbench_branches |             8192

 2017-02-08 18:38:26.113717+01 | 1486575506.11372 | pgbench_accounts |        694026240
 2017-02-08 18:38:26.113717+01 | 1486575506.11372 | pgbench_tellers  |            24576
 2017-02-08 18:38:26.113717+01 | 1486575506.11372 | pgbench_history  |                0
 2017-02-08 18:38:26.113717+01 | 1486575506.11372 | pgbench_branches |             8192

 2017-02-08 18:38:27.188998+01 | 1486575507.189 | pgbench_accounts |        694026240
 2017-02-08 18:38:27.188998+01 | 1486575507.189 | pgbench_tellers  |            24576
 2017-02-08 18:38:27.188998+01 | 1486575507.189 | pgbench_history  |                0
 2017-02-08 18:38:27.188998+01 | 1486575507.189 | pgbench_branches |             8192

 2017-02-08 18:38:28.248754+01 | 1486575508.24875 | pgbench_accounts |        694026240
 2017-02-08 18:38:28.248754+01 | 1486575508.24875 | pgbench_tellers  |            24576
 2017-02-08 18:38:28.248754+01 | 1486575508.24875 | pgbench_history  |                0
 2017-02-08 18:38:28.248754+01 | 1486575508.24875 | pgbench_branches |             8192

 2017-02-08 18:38:29.30797+01 | 1486575509.30797 | pgbench_accounts |        694026240
 2017-02-08 18:38:29.30797+01 | 1486575509.30797 | pgbench_tellers  |            24576
 2017-02-08 18:38:29.30797+01 | 1486575509.30797 | pgbench_history  |                0
 2017-02-08 18:38:29.30797+01 | 1486575509.30797 | pgbench_branches |             8192

 2017-02-08 18:38:30.372848+01 | 1486575510.37285 | pgbench_accounts |        694026240
 2017-02-08 18:38:30.372848+01 | 1486575510.37285 | pgbench_tellers  |            24576
 2017-02-08 18:38:30.372848+01 | 1486575510.37285 | pgbench_history  |                0
 2017-02-08 18:38:30.372848+01 | 1486575510.37285 | pgbench_branches |             8192

 2017-02-08 18:38:31.445315+01 | 1486575511.44531 | pgbench_accounts |        694026240
 2017-02-08 18:38:31.445315+01 | 1486575511.44531 | pgbench_tellers  |            24576
 2017-02-08 18:38:31.445315+01 | 1486575511.44531 | pgbench_history  |                0
 2017-02-08 18:38:31.445315+01 | 1486575511.44531 | pgbench_branches |             8192

 2017-02-08 18:38:32.521228+01 | 1486575512.52123 | pgbench_accounts |        694026240
 2017-02-08 18:38:32.521228+01 | 1486575512.52123 | pgbench_tellers  |            24576
 2017-02-08 18:38:32.521228+01 | 1486575512.52123 | pgbench_history  |                0
 2017-02-08 18:38:32.521228+01 | 1486575512.52123 | pgbench_branches |             8192

 2017-02-08 18:38:33.590992+01 | 1486575513.59099 | pgbench_accounts |        694026240
 2017-02-08 18:38:33.590992+01 | 1486575513.59099 | pgbench_tellers  |            24576
 2017-02-08 18:38:33.590992+01 | 1486575513.59099 | pgbench_history  |                0
 2017-02-08 18:38:33.590992+01 | 1486575513.59099 | pgbench_branches |             8192

 2017-02-08 18:38:34.65173+01 | 1486575514.65173 | pgbench_accounts |        694026240
 2017-02-08 18:38:34.65173+01 | 1486575514.65173 | pgbench_tellers  |            24576
 2017-02-08 18:38:34.65173+01 | 1486575514.65173 | pgbench_history  |                0
 2017-02-08 18:38:34.65173+01 | 1486575514.65173 | pgbench_branches |             8192

 2017-02-08 18:38:35.722419+01 | 1486575515.72242 | pgbench_accounts |        694026240
 2017-02-08 18:38:35.722419+01 | 1486575515.72242 | pgbench_tellers  |            24576
 2017-02-08 18:38:35.722419+01 | 1486575515.72242 | pgbench_history  |                0
 2017-02-08 18:38:35.722419+01 | 1486575515.72242 | pgbench_branches |             8192

 2017-02-08 18:38:36.7927+01 | 1486575516.7927 | pgbench_accounts |        694026240
 2017-02-08 18:38:36.7927+01 | 1486575516.7927 | pgbench_tellers  |            24576
 2017-02-08 18:38:36.7927+01 | 1486575516.7927 | pgbench_history  |                0
 2017-02-08 18:38:36.7927+01 | 1486575516.7927 | pgbench_branches |             8192

 2017-02-08 18:38:37.853298+01 | 1486575517.8533 | pgbench_accounts |        694026240
 2017-02-08 18:38:37.853298+01 | 1486575517.8533 | pgbench_tellers  |            24576
 2017-02-08 18:38:37.853298+01 | 1486575517.8533 | pgbench_history  |                0
 2017-02-08 18:38:37.853298+01 | 1486575517.8533 | pgbench_branches |             8192

 2017-02-08 18:38:38.936119+01 | 1486575518.93612 | pgbench_accounts |        694026240
 2017-02-08 18:38:38.936119+01 | 1486575518.93612 | pgbench_tellers  |            24576
 2017-02-08 18:38:38.936119+01 | 1486575518.93612 | pgbench_history  |                0
 2017-02-08 18:38:38.936119+01 | 1486575518.93612 | pgbench_branches |             8192

 2017-02-08 18:38:40.00418+01 | 1486575520.00418 | pgbench_accounts |        694026240
 2017-02-08 18:38:40.00418+01 | 1486575520.00418 | pgbench_tellers  |            24576
 2017-02-08 18:38:40.00418+01 | 1486575520.00418 | pgbench_history  |                0
 2017-02-08 18:38:40.00418+01 | 1486575520.00418 | pgbench_branches |             8192

 2017-02-08 18:38:41.074613+01 | 1486575521.07461 | pgbench_accounts |        694026240
 2017-02-08 18:38:41.074613+01 | 1486575521.07461 | pgbench_tellers  |            24576
 2017-02-08 18:38:41.074613+01 | 1486575521.07461 | pgbench_history  |                0
 2017-02-08 18:38:41.074613+01 | 1486575521.07461 | pgbench_branches |             8192

 2017-02-08 18:38:42.14196+01 | 1486575522.14196 | pgbench_accounts |        694026240
 2017-02-08 18:38:42.14196+01 | 1486575522.14196 | pgbench_tellers  |            24576
 2017-02-08 18:38:42.14196+01 | 1486575522.14196 | pgbench_history  |                0
 2017-02-08 18:38:42.14196+01 | 1486575522.14196 | pgbench_branches |             8192

 2017-02-08 18:38:43.214542+01 | 1486575523.21454 | pgbench_accounts |        694026240
 2017-02-08 18:38:43.214542+01 | 1486575523.21454 | pgbench_tellers  |            24576
 2017-02-08 18:38:43.214542+01 | 1486575523.21454 | pgbench_history  |                0
 2017-02-08 18:38:43.214542+01 | 1486575523.21454 | pgbench_branches |             8192

 2017-02-08 18:38:44.277304+01 | 1486575524.2773 | pgbench_accounts |        694026240
 2017-02-08 18:38:44.277304+01 | 1486575524.2773 | pgbench_tellers  |            24576
 2017-02-08 18:38:44.277304+01 | 1486575524.2773 | pgbench_history  |                0
 2017-02-08 18:38:44.277304+01 | 1486575524.2773 | pgbench_branches |             8192

 2017-02-08 18:38:45.353679+01 | 1486575525.35368 | pgbench_accounts |        694026240
 2017-02-08 18:38:45.353679+01 | 1486575525.35368 | pgbench_tellers  |            24576
 2017-02-08 18:38:45.353679+01 | 1486575525.35368 | pgbench_history  |                0
 2017-02-08 18:38:45.353679+01 | 1486575525.35368 | pgbench_branches |             8192

 2017-02-08 18:38:46.412394+01 | 1486575526.41239 | pgbench_accounts |        694026240
 2017-02-08 18:38:46.412394+01 | 1486575526.41239 | pgbench_tellers  |            24576
 2017-02-08 18:38:46.412394+01 | 1486575526.41239 | pgbench_history  |                0
 2017-02-08 18:38:46.412394+01 | 1486575526.41239 | pgbench_branches |             8192

 2017-02-08 18:38:47.466102+01 | 1486575527.4661 | pgbench_accounts |        694026240
 2017-02-08 18:38:47.466102+01 | 1486575527.4661 | pgbench_tellers  |            24576
 2017-02-08 18:38:47.466102+01 | 1486575527.4661 | pgbench_history  |                0
 2017-02-08 18:38:47.466102+01 | 1486575527.4661 | pgbench_branches |             8192

 2017-02-08 18:38:48.544612+01 | 1486575528.54461 | pgbench_accounts |        694026240
 2017-02-08 18:38:48.544612+01 | 1486575528.54461 | pgbench_tellers  |            24576
 2017-02-08 18:38:48.544612+01 | 1486575528.54461 | pgbench_history  |                0
 2017-02-08 18:38:48.544612+01 | 1486575528.54461 | pgbench_branches |             8192

 2017-02-08 18:38:49.616331+01 | 1486575529.61633 | pgbench_accounts |        694026240
 2017-02-08 18:38:49.616331+01 | 1486575529.61633 | pgbench_tellers  |            24576
 2017-02-08 18:38:49.616331+01 | 1486575529.61633 | pgbench_history  |                0
 2017-02-08 18:38:49.616331+01 | 1486575529.61633 | pgbench_branches |             8192

 2017-02-08 18:38:50.679642+01 | 1486575530.67964 | pgbench_accounts |        694026240
 2017-02-08 18:38:50.679642+01 | 1486575530.67964 | pgbench_tellers  |            24576
 2017-02-08 18:38:50.679642+01 | 1486575530.67964 | pgbench_history  |                0
 2017-02-08 18:38:50.679642+01 | 1486575530.67964 | pgbench_branches |             8192

 2017-02-08 18:38:51.747138+01 | 1486575531.74714 | pgbench_accounts |        694026240
 2017-02-08 18:38:51.747138+01 | 1486575531.74714 | pgbench_tellers  |            24576
 2017-02-08 18:38:51.747138+01 | 1486575531.74714 | pgbench_history  |                0
 2017-02-08 18:38:51.747138+01 | 1486575531.74714 | pgbench_branches |             8192

 2017-02-08 18:38:52.812479+01 | 1486575532.81248 | pgbench_accounts |        694026240
 2017-02-08 18:38:52.812479+01 | 1486575532.81248 | pgbench_tellers  |            24576
 2017-02-08 18:38:52.812479+01 | 1486575532.81248 | pgbench_history  |                0
 2017-02-08 18:38:52.812479+01 | 1486575532.81248 | pgbench_branches |             8192

 2017-02-08 18:38:53.877803+01 | 1486575533.8778 | pgbench_accounts |        694026240
 2017-02-08 18:38:53.877803+01 | 1486575533.8778 | pgbench_tellers  |            24576
 2017-02-08 18:38:53.877803+01 | 1486575533.8778 | pgbench_history  |                0
 2017-02-08 18:38:53.877803+01 | 1486575533.8778 | pgbench_branches |             8192

 2017-02-08 18:38:54.936644+01 | 1486575534.93664 | pgbench_accounts |        694026240
 2017-02-08 18:38:54.936644+01 | 1486575534.93664 | pgbench_tellers  |            24576
 2017-02-08 18:38:54.936644+01 | 1486575534.93664 | pgbench_history  |                0
 2017-02-08 18:38:54.936644+01 | 1486575534.93664 | pgbench_branches |             8192

 2017-02-08 18:38:56.00366+01 | 1486575536.00366 | pgbench_accounts |        694026240
 2017-02-08 18:38:56.00366+01 | 1486575536.00366 | pgbench_tellers  |            24576
 2017-02-08 18:38:56.00366+01 | 1486575536.00366 | pgbench_history  |                0
 2017-02-08 18:38:56.00366+01 | 1486575536.00366 | pgbench_branches |             8192

 2017-02-08 18:38:57.07057+01 | 1486575537.07057 | pgbench_accounts |        694026240
 2017-02-08 18:38:57.07057+01 | 1486575537.07057 | pgbench_tellers  |            24576
 2017-02-08 18:38:57.07057+01 | 1486575537.07057 | pgbench_history  |                0
 2017-02-08 18:38:57.07057+01 | 1486575537.07057 | pgbench_branches |             8192

 2017-02-08 18:38:58.150235+01 | 1486575538.15023 | pgbench_accounts |        694026240
 2017-02-08 18:38:58.150235+01 | 1486575538.15023 | pgbench_tellers  |            24576
 2017-02-08 18:38:58.150235+01 | 1486575538.15023 | pgbench_history  |                0
 2017-02-08 18:38:58.150235+01 | 1486575538.15023 | pgbench_branches |             8192

 2017-02-08 18:38:59.227139+01 | 1486575539.22714 | pgbench_accounts |        694026240
 2017-02-08 18:38:59.227139+01 | 1486575539.22714 | pgbench_tellers  |            24576
 2017-02-08 18:38:59.227139+01 | 1486575539.22714 | pgbench_history  |                0
 2017-02-08 18:38:59.227139+01 | 1486575539.22714 | pgbench_branches |             8192

 2017-02-08 18:39:00.28964+01 | 1486575540.28964 | pgbench_accounts |        694026240
 2017-02-08 18:39:00.28964+01 | 1486575540.28964 | pgbench_tellers  |            24576
 2017-02-08 18:39:00.28964+01 | 1486575540.28964 | pgbench_history  |                0
 2017-02-08 18:39:00.28964+01 | 1486575540.28964 | pgbench_branches |             8192

 2017-02-08 18:39:01.346487+01 | 1486575541.34649 | pgbench_accounts |        694026240
 2017-02-08 18:39:01.346487+01 | 1486575541.34649 | pgbench_tellers  |            24576
 2017-02-08 18:39:01.346487+01 | 1486575541.34649 | pgbench_history  |                0
 2017-02-08 18:39:01.346487+01 | 1486575541.34649 | pgbench_branches |             8192

 2017-02-08 18:39:02.407305+01 | 1486575542.40731 | pgbench_accounts |        694026240
 2017-02-08 18:39:02.407305+01 | 1486575542.40731 | pgbench_tellers  |            24576
 2017-02-08 18:39:02.407305+01 | 1486575542.40731 | pgbench_history  |                0
 2017-02-08 18:39:02.407305+01 | 1486575542.40731 | pgbench_branches |             8192

 2017-02-08 18:39:03.479939+01 | 1486575543.47994 | pgbench_accounts |        694026240
 2017-02-08 18:39:03.479939+01 | 1486575543.47994 | pgbench_tellers  |            24576
 2017-02-08 18:39:03.479939+01 | 1486575543.47994 | pgbench_history  |                0
 2017-02-08 18:39:03.479939+01 | 1486575543.47994 | pgbench_branches |             8192

 2017-02-08 18:39:04.543604+01 | 1486575544.5436 | pgbench_accounts |        694026240
 2017-02-08 18:39:04.543604+01 | 1486575544.5436 | pgbench_tellers  |            24576
 2017-02-08 18:39:04.543604+01 | 1486575544.5436 | pgbench_history  |                0
 2017-02-08 18:39:04.543604+01 | 1486575544.5436 | pgbench_branches |             8192

 2017-02-08 18:39:05.622552+01 | 1486575545.62255 | pgbench_accounts |        694026240
 2017-02-08 18:39:05.622552+01 | 1486575545.62255 | pgbench_tellers  |            24576
 2017-02-08 18:39:05.622552+01 | 1486575545.62255 | pgbench_history  |                0
 2017-02-08 18:39:05.622552+01 | 1486575545.62255 | pgbench_branches |             8192

 2017-02-08 18:39:06.693622+01 | 1486575546.69362 | pgbench_accounts |        694026240
 2017-02-08 18:39:06.693622+01 | 1486575546.69362 | pgbench_tellers  |            24576
 2017-02-08 18:39:06.693622+01 | 1486575546.69362 | pgbench_history  |                0
 2017-02-08 18:39:06.693622+01 | 1486575546.69362 | pgbench_branches |             8192

 2017-02-08 18:39:07.754029+01 | 1486575547.75403 | pgbench_accounts |        694026240
 2017-02-08 18:39:07.754029+01 | 1486575547.75403 | pgbench_tellers  |            24576
 2017-02-08 18:39:07.754029+01 | 1486575547.75403 | pgbench_history  |                0
 2017-02-08 18:39:07.754029+01 | 1486575547.75403 | pgbench_branches |             8192

 2017-02-08 18:39:08.810222+01 | 1486575548.81022 | pgbench_accounts |        694026240
 2017-02-08 18:39:08.810222+01 | 1486575548.81022 | pgbench_tellers  |            24576
 2017-02-08 18:39:08.810222+01 | 1486575548.81022 | pgbench_history  |                0
 2017-02-08 18:39:08.810222+01 | 1486575548.81022 | pgbench_branches |             8192

 2017-02-08 18:39:09.895165+01 | 1486575549.89516 | pgbench_accounts |        694026240
 2017-02-08 18:39:09.895165+01 | 1486575549.89516 | pgbench_tellers  |            24576
 2017-02-08 18:39:09.895165+01 | 1486575549.89516 | pgbench_history  |                0
 2017-02-08 18:39:09.895165+01 | 1486575549.89516 | pgbench_branches |             8192

 2017-02-08 18:39:10.961463+01 | 1486575550.96146 | pgbench_accounts |        694026240
 2017-02-08 18:39:10.961463+01 | 1486575550.96146 | pgbench_tellers  |            24576
 2017-02-08 18:39:10.961463+01 | 1486575550.96146 | pgbench_history  |                0
 2017-02-08 18:39:10.961463+01 | 1486575550.96146 | pgbench_branches |             8192

 2017-02-08 18:39:12.038209+01 | 1486575552.03821 | pgbench_accounts |        694026240
 2017-02-08 18:39:12.038209+01 | 1486575552.03821 | pgbench_tellers  |            24576
 2017-02-08 18:39:12.038209+01 | 1486575552.03821 | pgbench_history  |                0
 2017-02-08 18:39:12.038209+01 | 1486575552.03821 | pgbench_branches |             8192

 2017-02-08 18:39:13.110541+01 | 1486575553.11054 | pgbench_accounts |        694026240
 2017-02-08 18:39:13.110541+01 | 1486575553.11054 | pgbench_tellers  |            24576
 2017-02-08 18:39:13.110541+01 | 1486575553.11054 | pgbench_history  |                0
 2017-02-08 18:39:13.110541+01 | 1486575553.11054 | pgbench_branches |             8192

 2017-02-08 18:39:14.182429+01 | 1486575554.18243 | pgbench_accounts |        694026240
 2017-02-08 18:39:14.182429+01 | 1486575554.18243 | pgbench_tellers  |            24576
 2017-02-08 18:39:14.182429+01 | 1486575554.18243 | pgbench_history  |                0
 2017-02-08 18:39:14.182429+01 | 1486575554.18243 | pgbench_branches |             8192

 2017-02-08 18:39:15.263605+01 | 1486575555.26361 | pgbench_accounts |        694091776
 2017-02-08 18:39:15.263605+01 | 1486575555.26361 | pgbench_tellers  |            24576
 2017-02-08 18:39:15.263605+01 | 1486575555.26361 | pgbench_history  |                0
 2017-02-08 18:39:15.263605+01 | 1486575555.26361 | pgbench_branches |             8192

 2017-02-08 18:39:16.335617+01 | 1486575556.33562 | pgbench_accounts |        694091776
 2017-02-08 18:39:16.335617+01 | 1486575556.33562 | pgbench_tellers  |            24576
 2017-02-08 18:39:16.335617+01 | 1486575556.33562 | pgbench_history  |                0
 2017-02-08 18:39:16.335617+01 | 1486575556.33562 | pgbench_branches |             8192

 2017-02-08 18:39:17.39982+01 | 1486575557.39982 | pgbench_accounts |        694157312
 2017-02-08 18:39:17.39982+01 | 1486575557.39982 | pgbench_tellers  |            24576
 2017-02-08 18:39:17.39982+01 | 1486575557.39982 | pgbench_history  |                0
 2017-02-08 18:39:17.39982+01 | 1486575557.39982 | pgbench_branches |             8192

 2017-02-08 18:39:18.480047+01 | 1486575558.48005 | pgbench_accounts |        694206464
 2017-02-08 18:39:18.480047+01 | 1486575558.48005 | pgbench_tellers  |            24576
 2017-02-08 18:39:18.480047+01 | 1486575558.48005 | pgbench_history  |                0
 2017-02-08 18:39:18.480047+01 | 1486575558.48005 | pgbench_branches |             8192

 2017-02-08 18:39:19.550591+01 | 1486575559.55059 | pgbench_accounts |        694222848
 2017-02-08 18:39:19.550591+01 | 1486575559.55059 | pgbench_tellers  |            24576
 2017-02-08 18:39:19.550591+01 | 1486575559.55059 | pgbench_history  |                0
 2017-02-08 18:39:19.550591+01 | 1486575559.55059 | pgbench_branches |             8192

 2017-02-08 18:39:20.613409+01 | 1486575560.61341 | pgbench_accounts |        694222848
 2017-02-08 18:39:20.613409+01 | 1486575560.61341 | pgbench_tellers  |            24576
 2017-02-08 18:39:20.613409+01 | 1486575560.61341 | pgbench_history  |                0
 2017-02-08 18:39:20.613409+01 | 1486575560.61341 | pgbench_branches |             8192

 2017-02-08 18:39:21.686994+01 | 1486575561.68699 | pgbench_accounts |        694222848
 2017-02-08 18:39:21.686994+01 | 1486575561.68699 | pgbench_tellers  |            24576
 2017-02-08 18:39:21.686994+01 | 1486575561.68699 | pgbench_history  |                0
 2017-02-08 18:39:21.686994+01 | 1486575561.68699 | pgbench_branches |             8192

 2017-02-08 18:39:22.751271+01 | 1486575562.75127 | pgbench_accounts |        694222848
 2017-02-08 18:39:22.751271+01 | 1486575562.75127 | pgbench_tellers  |            24576
 2017-02-08 18:39:22.751271+01 | 1486575562.75127 | pgbench_history  |                0
 2017-02-08 18:39:22.751271+01 | 1486575562.75127 | pgbench_branches |             8192

 2017-02-08 18:39:23.821191+01 | 1486575563.82119 | pgbench_accounts |        694222848
 2017-02-08 18:39:23.821191+01 | 1486575563.82119 | pgbench_tellers  |            24576
 2017-02-08 18:39:23.821191+01 | 1486575563.82119 | pgbench_history  |                0
 2017-02-08 18:39:23.821191+01 | 1486575563.82119 | pgbench_branches |             8192

 2017-02-08 18:39:24.889802+01 | 1486575564.8898 | pgbench_accounts |        694222848
 2017-02-08 18:39:24.889802+01 | 1486575564.8898 | pgbench_tellers  |            24576
 2017-02-08 18:39:24.889802+01 | 1486575564.8898 | pgbench_history  |                0
 2017-02-08 18:39:24.889802+01 | 1486575564.8898 | pgbench_branches |             8192

 2017-02-08 18:39:25.96241+01 | 1486575565.96241 | pgbench_accounts |        694222848
 2017-02-08 18:39:25.96241+01 | 1486575565.96241 | pgbench_tellers  |            24576
 2017-02-08 18:39:25.96241+01 | 1486575565.96241 | pgbench_history  |                0
 2017-02-08 18:39:25.96241+01 | 1486575565.96241 | pgbench_branches |             8192

 2017-02-08 18:39:27.022576+01 | 1486575567.02258 | pgbench_accounts |        694222848
 2017-02-08 18:39:27.022576+01 | 1486575567.02258 | pgbench_tellers  |            24576
 2017-02-08 18:39:27.022576+01 | 1486575567.02258 | pgbench_history  |                0
 2017-02-08 18:39:27.022576+01 | 1486575567.02258 | pgbench_branches |             8192

 2017-02-08 18:39:28.090705+01 | 1486575568.0907 | pgbench_accounts |        694222848
 2017-02-08 18:39:28.090705+01 | 1486575568.0907 | pgbench_tellers  |            24576
 2017-02-08 18:39:28.090705+01 | 1486575568.0907 | pgbench_history  |                0
 2017-02-08 18:39:28.090705+01 | 1486575568.0907 | pgbench_branches |             8192

 2017-02-08 18:39:29.152086+01 | 1486575569.15209 | pgbench_accounts |        694222848
 2017-02-08 18:39:29.152086+01 | 1486575569.15209 | pgbench_tellers  |            24576
 2017-02-08 18:39:29.152086+01 | 1486575569.15209 | pgbench_history  |                0
 2017-02-08 18:39:29.152086+01 | 1486575569.15209 | pgbench_branches |             8192

 2017-02-08 18:39:30.224949+01 | 1486575570.22495 | pgbench_accounts |        694222848
 2017-02-08 18:39:30.224949+01 | 1486575570.22495 | pgbench_tellers  |            24576
 2017-02-08 18:39:30.224949+01 | 1486575570.22495 | pgbench_history  |                0
 2017-02-08 18:39:30.224949+01 | 1486575570.22495 | pgbench_branches |             8192

 2017-02-08 18:39:31.296115+01 | 1486575571.29611 | pgbench_accounts |        694222848
 2017-02-08 18:39:31.296115+01 | 1486575571.29611 | pgbench_tellers  |            24576
 2017-02-08 18:39:31.296115+01 | 1486575571.29611 | pgbench_history  |                0
 2017-02-08 18:39:31.296115+01 | 1486575571.29611 | pgbench_branches |             8192

 2017-02-08 18:39:32.36053+01 | 1486575572.36053 | pgbench_accounts |        694222848
 2017-02-08 18:39:32.36053+01 | 1486575572.36053 | pgbench_tellers  |            24576
 2017-02-08 18:39:32.36053+01 | 1486575572.36053 | pgbench_history  |                0
 2017-02-08 18:39:32.36053+01 | 1486575572.36053 | pgbench_branches |             8192

 2017-02-08 18:39:33.420433+01 | 1486575573.42043 | pgbench_accounts |        694222848
 2017-02-08 18:39:33.420433+01 | 1486575573.42043 | pgbench_tellers  |            24576
 2017-02-08 18:39:33.420433+01 | 1486575573.42043 | pgbench_history  |                0
 2017-02-08 18:39:33.420433+01 | 1486575573.42043 | pgbench_branches |             8192

 2017-02-08 18:39:34.486197+01 | 1486575574.4862 | pgbench_accounts |        694222848
 2017-02-08 18:39:34.486197+01 | 1486575574.4862 | pgbench_tellers  |            24576
 2017-02-08 18:39:34.486197+01 | 1486575574.4862 | pgbench_history  |                0
 2017-02-08 18:39:34.486197+01 | 1486575574.4862 | pgbench_branches |             8192

 2017-02-08 18:39:35.548069+01 | 1486575575.54807 | pgbench_accounts |        694222848
 2017-02-08 18:39:35.548069+01 | 1486575575.54807 | pgbench_tellers  |            24576
 2017-02-08 18:39:35.548069+01 | 1486575575.54807 | pgbench_history  |                0
 2017-02-08 18:39:35.548069+01 | 1486575575.54807 | pgbench_branches |             8192

 2017-02-08 18:39:36.619452+01 | 1486575576.61945 | pgbench_accounts |        694222848
 2017-02-08 18:39:36.619452+01 | 1486575576.61945 | pgbench_tellers  |            24576
 2017-02-08 18:39:36.619452+01 | 1486575576.61945 | pgbench_history  |                0
 2017-02-08 18:39:36.619452+01 | 1486575576.61945 | pgbench_branches |             8192

 2017-02-08 18:39:37.705165+01 | 1486575577.70516 | pgbench_accounts |        694222848
 2017-02-08 18:39:37.705165+01 | 1486575577.70516 | pgbench_tellers  |            24576
 2017-02-08 18:39:37.705165+01 | 1486575577.70516 | pgbench_history  |                0
 2017-02-08 18:39:37.705165+01 | 1486575577.70516 | pgbench_branches |             8192

 2017-02-08 18:39:38.758796+01 | 1486575578.7588 | pgbench_accounts |        694222848
 2017-02-08 18:39:38.758796+01 | 1486575578.7588 | pgbench_tellers  |            24576
 2017-02-08 18:39:38.758796+01 | 1486575578.7588 | pgbench_history  |                0
 2017-02-08 18:39:38.758796+01 | 1486575578.7588 | pgbench_branches |             8192

 2017-02-08 18:39:39.82219+01 | 1486575579.82219 | pgbench_accounts |        694222848
 2017-02-08 18:39:39.82219+01 | 1486575579.82219 | pgbench_tellers  |            24576
 2017-02-08 18:39:39.82219+01 | 1486575579.82219 | pgbench_history  |                0
 2017-02-08 18:39:39.82219+01 | 1486575579.82219 | pgbench_branches |             8192

 2017-02-08 18:39:40.88847+01 | 1486575580.88847 | pgbench_accounts |        694222848
 2017-02-08 18:39:40.88847+01 | 1486575580.88847 | pgbench_tellers  |            24576
 2017-02-08 18:39:40.88847+01 | 1486575580.88847 | pgbench_history  |                0
 2017-02-08 18:39:40.88847+01 | 1486575580.88847 | pgbench_branches |             8192

 2017-02-08 18:39:41.965642+01 | 1486575581.96564 | pgbench_accounts |        694222848
 2017-02-08 18:39:41.965642+01 | 1486575581.96564 | pgbench_tellers  |            24576
 2017-02-08 18:39:41.965642+01 | 1486575581.96564 | pgbench_history  |                0
 2017-02-08 18:39:41.965642+01 | 1486575581.96564 | pgbench_branches |             8192

 2017-02-08 18:39:43.031209+01 | 1486575583.03121 | pgbench_accounts |        694222848
 2017-02-08 18:39:43.031209+01 | 1486575583.03121 | pgbench_tellers  |            24576
 2017-02-08 18:39:43.031209+01 | 1486575583.03121 | pgbench_history  |                0
 2017-02-08 18:39:43.031209+01 | 1486575583.03121 | pgbench_branches |             8192

 2017-02-08 18:39:44.086718+01 | 1486575584.08672 | pgbench_accounts |        694222848
 2017-02-08 18:39:44.086718+01 | 1486575584.08672 | pgbench_tellers  |            24576
 2017-02-08 18:39:44.086718+01 | 1486575584.08672 | pgbench_history  |                0
 2017-02-08 18:39:44.086718+01 | 1486575584.08672 | pgbench_branches |             8192

 2017-02-08 18:39:45.155947+01 | 1486575585.15595 | pgbench_accounts |        694222848
 2017-02-08 18:39:45.155947+01 | 1486575585.15595 | pgbench_tellers  |            24576
 2017-02-08 18:39:45.155947+01 | 1486575585.15595 | pgbench_history  |                0
 2017-02-08 18:39:45.155947+01 | 1486575585.15595 | pgbench_branches |             8192

 2017-02-08 18:39:46.22699+01 | 1486575586.22699 | pgbench_accounts |        694222848
 2017-02-08 18:39:46.22699+01 | 1486575586.22699 | pgbench_tellers  |            24576
 2017-02-08 18:39:46.22699+01 | 1486575586.22699 | pgbench_history  |                0
 2017-02-08 18:39:46.22699+01 | 1486575586.22699 | pgbench_branches |             8192

 2017-02-08 18:39:47.283272+01 | 1486575587.28327 | pgbench_accounts |        694222848
 2017-02-08 18:39:47.283272+01 | 1486575587.28327 | pgbench_tellers  |            24576
 2017-02-08 18:39:47.283272+01 | 1486575587.28327 | pgbench_history  |                0
 2017-02-08 18:39:47.283272+01 | 1486575587.28327 | pgbench_branches |             8192

 2017-02-08 18:39:48.342699+01 | 1486575588.3427 | pgbench_accounts |        694222848
 2017-02-08 18:39:48.342699+01 | 1486575588.3427 | pgbench_tellers  |            24576
 2017-02-08 18:39:48.342699+01 | 1486575588.3427 | pgbench_history  |                0
 2017-02-08 18:39:48.342699+01 | 1486575588.3427 | pgbench_branches |             8192

 2017-02-08 18:39:49.406298+01 | 1486575589.4063 | pgbench_accounts |        694222848
 2017-02-08 18:39:49.406298+01 | 1486575589.4063 | pgbench_tellers  |            24576
 2017-02-08 18:39:49.406298+01 | 1486575589.4063 | pgbench_history  |                0
 2017-02-08 18:39:49.406298+01 | 1486575589.4063 | pgbench_branches |             8192

 2017-02-08 18:39:50.475703+01 | 1486575590.4757 | pgbench_accounts |        694222848
 2017-02-08 18:39:50.475703+01 | 1486575590.4757 | pgbench_tellers  |            24576
 2017-02-08 18:39:50.475703+01 | 1486575590.4757 | pgbench_history  |                0
 2017-02-08 18:39:50.475703+01 | 1486575590.4757 | pgbench_branches |             8192

 2017-02-08 18:39:51.535102+01 | 1486575591.5351 | pgbench_accounts |        694222848
 2017-02-08 18:39:51.535102+01 | 1486575591.5351 | pgbench_tellers  |            24576
 2017-02-08 18:39:51.535102+01 | 1486575591.5351 | pgbench_history  |                0
 2017-02-08 18:39:51.535102+01 | 1486575591.5351 | pgbench_branches |             8192

 2017-02-08 18:39:52.599398+01 | 1486575592.5994 | pgbench_accounts |        694222848
 2017-02-08 18:39:52.599398+01 | 1486575592.5994 | pgbench_tellers  |            24576
 2017-02-08 18:39:52.599398+01 | 1486575592.5994 | pgbench_history  |                0
 2017-02-08 18:39:52.599398+01 | 1486575592.5994 | pgbench_branches |             8192

 2017-02-08 18:39:53.668933+01 | 1486575593.66893 | pgbench_accounts |        694222848
 2017-02-08 18:39:53.668933+01 | 1486575593.66893 | pgbench_tellers  |            24576
 2017-02-08 18:39:53.668933+01 | 1486575593.66893 | pgbench_history  |                0
 2017-02-08 18:39:53.668933+01 | 1486575593.66893 | pgbench_branches |             8192

 2017-02-08 18:39:54.741179+01 | 1486575594.74118 | pgbench_accounts |        694222848
 2017-02-08 18:39:54.741179+01 | 1486575594.74118 | pgbench_tellers  |            24576
 2017-02-08 18:39:54.741179+01 | 1486575594.74118 | pgbench_history  |                0
 2017-02-08 18:39:54.741179+01 | 1486575594.74118 | pgbench_branches |             8192

 2017-02-08 18:39:55.805627+01 | 1486575595.80563 | pgbench_accounts |        694222848
 2017-02-08 18:39:55.805627+01 | 1486575595.80563 | pgbench_tellers  |            24576
 2017-02-08 18:39:55.805627+01 | 1486575595.80563 | pgbench_history  |                0
 2017-02-08 18:39:55.805627+01 | 1486575595.80563 | pgbench_branches |             8192

 2017-02-08 18:39:56.875336+01 | 1486575596.87534 | pgbench_accounts |        694222848
 2017-02-08 18:39:56.875336+01 | 1486575596.87534 | pgbench_tellers  |            24576
 2017-02-08 18:39:56.875336+01 | 1486575596.87534 | pgbench_history  |                0
 2017-02-08 18:39:56.875336+01 | 1486575596.87534 | pgbench_branches |             8192

 2017-02-08 18:39:57.947505+01 | 1486575597.9475 | pgbench_accounts |        694222848
 2017-02-08 18:39:57.947505+01 | 1486575597.9475 | pgbench_tellers  |            24576
 2017-02-08 18:39:57.947505+01 | 1486575597.9475 | pgbench_history  |                0
 2017-02-08 18:39:57.947505+01 | 1486575597.9475 | pgbench_branches |             8192

 2017-02-08 18:39:59.014739+01 | 1486575599.01474 | pgbench_accounts |        694222848
 2017-02-08 18:39:59.014739+01 | 1486575599.01474 | pgbench_tellers  |            24576
 2017-02-08 18:39:59.014739+01 | 1486575599.01474 | pgbench_history  |                0
 2017-02-08 18:39:59.014739+01 | 1486575599.01474 | pgbench_branches |             8192

 2017-02-08 18:40:00.092972+01 | 1486575600.09297 | pgbench_accounts |        694222848
 2017-02-08 18:40:00.092972+01 | 1486575600.09297 | pgbench_tellers  |            24576
 2017-02-08 18:40:00.092972+01 | 1486575600.09297 | pgbench_history  |                0
 2017-02-08 18:40:00.092972+01 | 1486575600.09297 | pgbench_branches |             8192

 2017-02-08 18:40:01.158814+01 | 1486575601.15881 | pgbench_accounts |        694222848
 2017-02-08 18:40:01.158814+01 | 1486575601.15881 | pgbench_tellers  |            24576
 2017-02-08 18:40:01.158814+01 | 1486575601.15881 | pgbench_history  |                0
 2017-02-08 18:40:01.158814+01 | 1486575601.15881 | pgbench_branches |             8192

 2017-02-08 18:40:02.232764+01 | 1486575602.23276 | pgbench_accounts |        694222848
 2017-02-08 18:40:02.232764+01 | 1486575602.23276 | pgbench_tellers  |            24576
 2017-02-08 18:40:02.232764+01 | 1486575602.23276 | pgbench_history  |                0
 2017-02-08 18:40:02.232764+01 | 1486575602.23276 | pgbench_branches |             8192

 2017-02-08 18:40:03.299697+01 | 1486575603.2997 | pgbench_accounts |        694222848
 2017-02-08 18:40:03.299697+01 | 1486575603.2997 | pgbench_tellers  |            24576
 2017-02-08 18:40:03.299697+01 | 1486575603.2997 | pgbench_history  |                0
 2017-02-08 18:40:03.299697+01 | 1486575603.2997 | pgbench_branches |             8192

 2017-02-08 18:40:04.3666+01 | 1486575604.3666 | pgbench_accounts |        694222848
 2017-02-08 18:40:04.3666+01 | 1486575604.3666 | pgbench_tellers  |            24576
 2017-02-08 18:40:04.3666+01 | 1486575604.3666 | pgbench_history  |                0
 2017-02-08 18:40:04.3666+01 | 1486575604.3666 | pgbench_branches |             8192

 2017-02-08 18:40:05.433989+01 | 1486575605.43399 | pgbench_accounts |        694222848
 2017-02-08 18:40:05.433989+01 | 1486575605.43399 | pgbench_tellers  |            24576
 2017-02-08 18:40:05.433989+01 | 1486575605.43399 | pgbench_history  |                0
 2017-02-08 18:40:05.433989+01 | 1486575605.43399 | pgbench_branches |             8192

 2017-02-08 18:40:06.505313+01 | 1486575606.50531 | pgbench_accounts |        694222848
 2017-02-08 18:40:06.505313+01 | 1486575606.50531 | pgbench_tellers  |            24576
 2017-02-08 18:40:06.505313+01 | 1486575606.50531 | pgbench_history  |                0
 2017-02-08 18:40:06.505313+01 | 1486575606.50531 | pgbench_branches |             8192

 2017-02-08 18:40:07.566399+01 | 1486575607.5664 | pgbench_accounts |        694222848
 2017-02-08 18:40:07.566399+01 | 1486575607.5664 | pgbench_tellers  |            24576
 2017-02-08 18:40:07.566399+01 | 1486575607.5664 | pgbench_history  |                0
 2017-02-08 18:40:07.566399+01 | 1486575607.5664 | pgbench_branches |             8192

 2017-02-08 18:40:08.62335+01 | 1486575608.62335 | pgbench_accounts |        694222848
 2017-02-08 18:40:08.62335+01 | 1486575608.62335 | pgbench_tellers  |            24576
 2017-02-08 18:40:08.62335+01 | 1486575608.62335 | pgbench_history  |                0
 2017-02-08 18:40:08.62335+01 | 1486575608.62335 | pgbench_branches |             8192

 2017-02-08 18:40:09.685814+01 | 1486575609.68581 | pgbench_accounts |        694222848
 2017-02-08 18:40:09.685814+01 | 1486575609.68581 | pgbench_tellers  |            24576
 2017-02-08 18:40:09.685814+01 | 1486575609.68581 | pgbench_history  |                0
 2017-02-08 18:40:09.685814+01 | 1486575609.68581 | pgbench_branches |             8192

 2017-02-08 18:40:10.741348+01 | 1486575610.74135 | pgbench_accounts |        694222848
 2017-02-08 18:40:10.741348+01 | 1486575610.74135 | pgbench_tellers  |            24576
 2017-02-08 18:40:10.741348+01 | 1486575610.74135 | pgbench_history  |                0
 2017-02-08 18:40:10.741348+01 | 1486575610.74135 | pgbench_branches |             8192

 2017-02-08 18:40:11.807592+01 | 1486575611.80759 | pgbench_accounts |        694222848
 2017-02-08 18:40:11.807592+01 | 1486575611.80759 | pgbench_tellers  |            24576
 2017-02-08 18:40:11.807592+01 | 1486575611.80759 | pgbench_history  |                0
 2017-02-08 18:40:11.807592+01 | 1486575611.80759 | pgbench_branches |             8192

 2017-02-08 18:40:12.881439+01 | 1486575612.88144 | pgbench_accounts |        694222848
 2017-02-08 18:40:12.881439+01 | 1486575612.88144 | pgbench_tellers  |            24576
 2017-02-08 18:40:12.881439+01 | 1486575612.88144 | pgbench_history  |                0
 2017-02-08 18:40:12.881439+01 | 1486575612.88144 | pgbench_branches |             8192

 2017-02-08 18:40:13.95266+01 | 1486575613.95266 | pgbench_accounts |        694222848
 2017-02-08 18:40:13.95266+01 | 1486575613.95266 | pgbench_tellers  |            24576
 2017-02-08 18:40:13.95266+01 | 1486575613.95266 | pgbench_history  |                0
 2017-02-08 18:40:13.95266+01 | 1486575613.95266 | pgbench_branches |             8192

 2017-02-08 18:40:15.01715+01 | 1486575615.01715 | pgbench_accounts |        694222848
 2017-02-08 18:40:15.01715+01 | 1486575615.01715 | pgbench_tellers  |            24576
 2017-02-08 18:40:15.01715+01 | 1486575615.01715 | pgbench_history  |                0
 2017-02-08 18:40:15.01715+01 | 1486575615.01715 | pgbench_branches |             8192

 2017-02-08 18:40:16.08278+01 | 1486575616.08278 | pgbench_accounts |        694222848
 2017-02-08 18:40:16.08278+01 | 1486575616.08278 | pgbench_tellers  |            24576
 2017-02-08 18:40:16.08278+01 | 1486575616.08278 | pgbench_history  |                0
 2017-02-08 18:40:16.08278+01 | 1486575616.08278 | pgbench_branches |             8192

 2017-02-08 18:40:17.15087+01 | 1486575617.15087 | pgbench_accounts |        694222848
 2017-02-08 18:40:17.15087+01 | 1486575617.15087 | pgbench_tellers  |            24576
 2017-02-08 18:40:17.15087+01 | 1486575617.15087 | pgbench_history  |                0
 2017-02-08 18:40:17.15087+01 | 1486575617.15087 | pgbench_branches |             8192

 2017-02-08 18:40:18.212194+01 | 1486575618.21219 | pgbench_accounts |        694222848
 2017-02-08 18:40:18.212194+01 | 1486575618.21219 | pgbench_tellers  |            24576
 2017-02-08 18:40:18.212194+01 | 1486575618.21219 | pgbench_history  |                0
 2017-02-08 18:40:18.212194+01 | 1486575618.21219 | pgbench_branches |             8192

 2017-02-08 18:40:19.29028+01 | 1486575619.29028 | pgbench_accounts |        694222848
 2017-02-08 18:40:19.29028+01 | 1486575619.29028 | pgbench_tellers  |            24576
 2017-02-08 18:40:19.29028+01 | 1486575619.29028 | pgbench_history  |                0
 2017-02-08 18:40:19.29028+01 | 1486575619.29028 | pgbench_branches |             8192

 2017-02-08 18:40:20.362762+01 | 1486575620.36276 | pgbench_accounts |        694222848
 2017-02-08 18:40:20.362762+01 | 1486575620.36276 | pgbench_tellers  |            24576
 2017-02-08 18:40:20.362762+01 | 1486575620.36276 | pgbench_history  |                0
 2017-02-08 18:40:20.362762+01 | 1486575620.36276 | pgbench_branches |             8192

 2017-02-08 18:40:21.433584+01 | 1486575621.43358 | pgbench_accounts |        694222848
 2017-02-08 18:40:21.433584+01 | 1486575621.43358 | pgbench_tellers  |            24576
 2017-02-08 18:40:21.433584+01 | 1486575621.43358 | pgbench_history  |                0
 2017-02-08 18:40:21.433584+01 | 1486575621.43358 | pgbench_branches |             8192

 2017-02-08 18:40:22.503719+01 | 1486575622.50372 | pgbench_accounts |        694222848
 2017-02-08 18:40:22.503719+01 | 1486575622.50372 | pgbench_tellers  |            24576
 2017-02-08 18:40:22.503719+01 | 1486575622.50372 | pgbench_history  |                0
 2017-02-08 18:40:22.503719+01 | 1486575622.50372 | pgbench_branches |             8192

 2017-02-08 18:40:23.576693+01 | 1486575623.57669 | pgbench_accounts |        694222848
 2017-02-08 18:40:23.576693+01 | 1486575623.57669 | pgbench_tellers  |            24576
 2017-02-08 18:40:23.576693+01 | 1486575623.57669 | pgbench_history  |                0
 2017-02-08 18:40:23.576693+01 | 1486575623.57669 | pgbench_branches |             8192

 2017-02-08 18:40:24.64649+01 | 1486575624.64649 | pgbench_accounts |        694222848
 2017-02-08 18:40:24.64649+01 | 1486575624.64649 | pgbench_tellers  |            24576
 2017-02-08 18:40:24.64649+01 | 1486575624.64649 | pgbench_history  |                0
 2017-02-08 18:40:24.64649+01 | 1486575624.64649 | pgbench_branches |             8192

 2017-02-08 18:40:25.701267+01 | 1486575625.70127 | pgbench_accounts |        694222848
 2017-02-08 18:40:25.701267+01 | 1486575625.70127 | pgbench_tellers  |            24576
 2017-02-08 18:40:25.701267+01 | 1486575625.70127 | pgbench_history  |                0
 2017-02-08 18:40:25.701267+01 | 1486575625.70127 | pgbench_branches |             8192

 2017-02-08 18:40:26.771448+01 | 1486575626.77145 | pgbench_accounts |        694222848
 2017-02-08 18:40:26.771448+01 | 1486575626.77145 | pgbench_tellers  |            24576
 2017-02-08 18:40:26.771448+01 | 1486575626.77145 | pgbench_history  |                0
 2017-02-08 18:40:26.771448+01 | 1486575626.77145 | pgbench_branches |             8192

 2017-02-08 18:40:27.838891+01 | 1486575627.83889 | pgbench_accounts |        694222848
 2017-02-08 18:40:27.838891+01 | 1486575627.83889 | pgbench_tellers  |            24576
 2017-02-08 18:40:27.838891+01 | 1486575627.83889 | pgbench_history  |                0
 2017-02-08 18:40:27.838891+01 | 1486575627.83889 | pgbench_branches |             8192

 2017-02-08 18:40:28.90233+01 | 1486575628.90233 | pgbench_accounts |        694222848
 2017-02-08 18:40:28.90233+01 | 1486575628.90233 | pgbench_tellers  |            24576
 2017-02-08 18:40:28.90233+01 | 1486575628.90233 | pgbench_history  |                0
 2017-02-08 18:40:28.90233+01 | 1486575628.90233 | pgbench_branches |             8192

 2017-02-08 18:40:29.976734+01 | 1486575629.97673 | pgbench_accounts |        694222848
 2017-02-08 18:40:29.976734+01 | 1486575629.97673 | pgbench_tellers  |            24576
 2017-02-08 18:40:29.976734+01 | 1486575629.97673 | pgbench_history  |                0
 2017-02-08 18:40:29.976734+01 | 1486575629.97673 | pgbench_branches |             8192

 2017-02-08 18:40:31.054077+01 | 1486575631.05408 | pgbench_accounts |        694222848
 2017-02-08 18:40:31.054077+01 | 1486575631.05408 | pgbench_tellers  |            24576
 2017-02-08 18:40:31.054077+01 | 1486575631.05408 | pgbench_history  |                0
 2017-02-08 18:40:31.054077+01 | 1486575631.05408 | pgbench_branches |             8192

 2017-02-08 18:40:32.112339+01 | 1486575632.11234 | pgbench_accounts |        694222848
 2017-02-08 18:40:32.112339+01 | 1486575632.11234 | pgbench_tellers  |            24576
 2017-02-08 18:40:32.112339+01 | 1486575632.11234 | pgbench_history  |                0
 2017-02-08 18:40:32.112339+01 | 1486575632.11234 | pgbench_branches |             8192

 2017-02-08 18:40:33.181903+01 | 1486575633.1819 | pgbench_accounts |        694222848
 2017-02-08 18:40:33.181903+01 | 1486575633.1819 | pgbench_tellers  |            24576
 2017-02-08 18:40:33.181903+01 | 1486575633.1819 | pgbench_history  |                0
 2017-02-08 18:40:33.181903+01 | 1486575633.1819 | pgbench_branches |             8192

 2017-02-08 18:40:34.263467+01 | 1486575634.26347 | pgbench_accounts |        694222848
 2017-02-08 18:40:34.263467+01 | 1486575634.26347 | pgbench_tellers  |            24576
 2017-02-08 18:40:34.263467+01 | 1486575634.26347 | pgbench_history  |                0
 2017-02-08 18:40:34.263467+01 | 1486575634.26347 | pgbench_branches |             8192

 2017-02-08 18:40:35.339851+01 | 1486575635.33985 | pgbench_accounts |        694222848
 2017-02-08 18:40:35.339851+01 | 1486575635.33985 | pgbench_tellers  |            24576
 2017-02-08 18:40:35.339851+01 | 1486575635.33985 | pgbench_history  |                0
 2017-02-08 18:40:35.339851+01 | 1486575635.33985 | pgbench_branches |             8192

 2017-02-08 18:40:36.39847+01 | 1486575636.39847 | pgbench_accounts |        694222848
 2017-02-08 18:40:36.39847+01 | 1486575636.39847 | pgbench_tellers  |            24576
 2017-02-08 18:40:36.39847+01 | 1486575636.39847 | pgbench_history  |                0
 2017-02-08 18:40:36.39847+01 | 1486575636.39847 | pgbench_branches |             8192

 2017-02-08 18:40:37.472563+01 | 1486575637.47256 | pgbench_accounts |        694222848
 2017-02-08 18:40:37.472563+01 | 1486575637.47256 | pgbench_tellers  |            24576
 2017-02-08 18:40:37.472563+01 | 1486575637.47256 | pgbench_history  |                0
 2017-02-08 18:40:37.472563+01 | 1486575637.47256 | pgbench_branches |             8192

 2017-02-08 18:40:38.536465+01 | 1486575638.53646 | pgbench_accounts |        694222848
 2017-02-08 18:40:38.536465+01 | 1486575638.53646 | pgbench_tellers  |            24576
 2017-02-08 18:40:38.536465+01 | 1486575638.53646 | pgbench_history  |                0
 2017-02-08 18:40:38.536465+01 | 1486575638.53646 | pgbench_branches |             8192

 2017-02-08 18:40:39.595727+01 | 1486575639.59573 | pgbench_accounts |        694222848
 2017-02-08 18:40:39.595727+01 | 1486575639.59573 | pgbench_tellers  |            24576
 2017-02-08 18:40:39.595727+01 | 1486575639.59573 | pgbench_history  |                0
 2017-02-08 18:40:39.595727+01 | 1486575639.59573 | pgbench_branches |             8192

 2017-02-08 18:40:40.65344+01 | 1486575640.65344 | pgbench_accounts |        694222848
 2017-02-08 18:40:40.65344+01 | 1486575640.65344 | pgbench_tellers  |            24576
 2017-02-08 18:40:40.65344+01 | 1486575640.65344 | pgbench_history  |                0
 2017-02-08 18:40:40.65344+01 | 1486575640.65344 | pgbench_branches |             8192

 2017-02-08 18:40:41.722923+01 | 1486575641.72292 | pgbench_accounts |        694222848
 2017-02-08 18:40:41.722923+01 | 1486575641.72292 | pgbench_tellers  |            24576
 2017-02-08 18:40:41.722923+01 | 1486575641.72292 | pgbench_history  |                0
 2017-02-08 18:40:41.722923+01 | 1486575641.72292 | pgbench_branches |             8192

 2017-02-08 18:40:42.799157+01 | 1486575642.79916 | pgbench_accounts |        694222848
 2017-02-08 18:40:42.799157+01 | 1486575642.79916 | pgbench_tellers  |            24576
 2017-02-08 18:40:42.799157+01 | 1486575642.79916 | pgbench_history  |                0
 2017-02-08 18:40:42.799157+01 | 1486575642.79916 | pgbench_branches |             8192

 2017-02-08 18:40:43.874702+01 | 1486575643.8747 | pgbench_accounts |        694222848
 2017-02-08 18:40:43.874702+01 | 1486575643.8747 | pgbench_tellers  |            24576
 2017-02-08 18:40:43.874702+01 | 1486575643.8747 | pgbench_history  |                0
 2017-02-08 18:40:43.874702+01 | 1486575643.8747 | pgbench_branches |             8192

 2017-02-08 18:40:44.947315+01 | 1486575644.94731 | pgbench_accounts |        694222848
 2017-02-08 18:40:44.947315+01 | 1486575644.94731 | pgbench_tellers  |            24576
 2017-02-08 18:40:44.947315+01 | 1486575644.94731 | pgbench_history  |                0
 2017-02-08 18:40:44.947315+01 | 1486575644.94731 | pgbench_branches |             8192

 2017-02-08 18:40:46.01144+01 | 1486575646.01144 | pgbench_accounts |        694222848
 2017-02-08 18:40:46.01144+01 | 1486575646.01144 | pgbench_tellers  |            24576
 2017-02-08 18:40:46.01144+01 | 1486575646.01144 | pgbench_history  |                0
 2017-02-08 18:40:46.01144+01 | 1486575646.01144 | pgbench_branches |             8192

 2017-02-08 18:40:47.083806+01 | 1486575647.08381 | pgbench_accounts |        694222848
 2017-02-08 18:40:47.083806+01 | 1486575647.08381 | pgbench_tellers  |            24576
 2017-02-08 18:40:47.083806+01 | 1486575647.08381 | pgbench_history  |                0
 2017-02-08 18:40:47.083806+01 | 1486575647.08381 | pgbench_branches |             8192

 2017-02-08 18:40:48.152482+01 | 1486575648.15248 | pgbench_accounts |        694222848
 2017-02-08 18:40:48.152482+01 | 1486575648.15248 | pgbench_tellers  |            24576
 2017-02-08 18:40:48.152482+01 | 1486575648.15248 | pgbench_history  |                0
 2017-02-08 18:40:48.152482+01 | 1486575648.15248 | pgbench_branches |             8192

 2017-02-08 18:40:49.216691+01 | 1486575649.21669 | pgbench_accounts |        694222848
 2017-02-08 18:40:49.216691+01 | 1486575649.21669 | pgbench_tellers  |            24576
 2017-02-08 18:40:49.216691+01 | 1486575649.21669 | pgbench_history  |                0
 2017-02-08 18:40:49.216691+01 | 1486575649.21669 | pgbench_branches |             8192

 2017-02-08 18:40:50.281352+01 | 1486575650.28135 | pgbench_accounts |        694222848
 2017-02-08 18:40:50.281352+01 | 1486575650.28135 | pgbench_tellers  |            24576
 2017-02-08 18:40:50.281352+01 | 1486575650.28135 | pgbench_history  |                0
 2017-02-08 18:40:50.281352+01 | 1486575650.28135 | pgbench_branches |             8192

 2017-02-08 18:40:51.354177+01 | 1486575651.35418 | pgbench_accounts |        694222848
 2017-02-08 18:40:51.354177+01 | 1486575651.35418 | pgbench_tellers  |            24576
 2017-02-08 18:40:51.354177+01 | 1486575651.35418 | pgbench_history  |                0
 2017-02-08 18:40:51.354177+01 | 1486575651.35418 | pgbench_branches |             8192

 2017-02-08 18:40:52.419157+01 | 1486575652.41916 | pgbench_accounts |        694222848
 2017-02-08 18:40:52.419157+01 | 1486575652.41916 | pgbench_tellers  |            24576
 2017-02-08 18:40:52.419157+01 | 1486575652.41916 | pgbench_history  |                0
 2017-02-08 18:40:52.419157+01 | 1486575652.41916 | pgbench_branches |             8192

 2017-02-08 18:40:53.487086+01 | 1486575653.48709 | pgbench_accounts |        694222848
 2017-02-08 18:40:53.487086+01 | 1486575653.48709 | pgbench_tellers  |            24576
 2017-02-08 18:40:53.487086+01 | 1486575653.48709 | pgbench_history  |                0
 2017-02-08 18:40:53.487086+01 | 1486575653.48709 | pgbench_branches |             8192

 2017-02-08 18:40:54.543891+01 | 1486575654.54389 | pgbench_accounts |        694222848
 2017-02-08 18:40:54.543891+01 | 1486575654.54389 | pgbench_tellers  |            24576
 2017-02-08 18:40:54.543891+01 | 1486575654.54389 | pgbench_history  |                0
 2017-02-08 18:40:54.543891+01 | 1486575654.54389 | pgbench_branches |             8192

 2017-02-08 18:40:55.617722+01 | 1486575655.61772 | pgbench_accounts |        694222848
 2017-02-08 18:40:55.617722+01 | 1486575655.61772 | pgbench_tellers  |            24576
 2017-02-08 18:40:55.617722+01 | 1486575655.61772 | pgbench_history  |                0
 2017-02-08 18:40:55.617722+01 | 1486575655.61772 | pgbench_branches |             8192

 2017-02-08 18:40:56.693491+01 | 1486575656.69349 | pgbench_accounts |        694222848
 2017-02-08 18:40:56.693491+01 | 1486575656.69349 | pgbench_tellers  |            24576
 2017-02-08 18:40:56.693491+01 | 1486575656.69349 | pgbench_history  |                0
 2017-02-08 18:40:56.693491+01 | 1486575656.69349 | pgbench_branches |             8192

 2017-02-08 18:40:57.761561+01 | 1486575657.76156 | pgbench_accounts |        694222848
 2017-02-08 18:40:57.761561+01 | 1486575657.76156 | pgbench_tellers  |            24576
 2017-02-08 18:40:57.761561+01 | 1486575657.76156 | pgbench_history  |                0
 2017-02-08 18:40:57.761561+01 | 1486575657.76156 | pgbench_branches |             8192

 2017-02-08 18:40:58.827123+01 | 1486575658.82712 | pgbench_accounts |        694222848
 2017-02-08 18:40:58.827123+01 | 1486575658.82712 | pgbench_tellers  |            24576
 2017-02-08 18:40:58.827123+01 | 1486575658.82712 | pgbench_history  |                0
 2017-02-08 18:40:58.827123+01 | 1486575658.82712 | pgbench_branches |             8192

 2017-02-08 18:40:59.902732+01 | 1486575659.90273 | pgbench_accounts |        694222848
 2017-02-08 18:40:59.902732+01 | 1486575659.90273 | pgbench_tellers  |            24576
 2017-02-08 18:40:59.902732+01 | 1486575659.90273 | pgbench_history  |                0
 2017-02-08 18:40:59.902732+01 | 1486575659.90273 | pgbench_branches |             8192

 2017-02-08 18:41:00.967394+01 | 1486575660.96739 | pgbench_accounts |        694222848
 2017-02-08 18:41:00.967394+01 | 1486575660.96739 | pgbench_tellers  |            24576
 2017-02-08 18:41:00.967394+01 | 1486575660.96739 | pgbench_history  |                0
 2017-02-08 18:41:00.967394+01 | 1486575660.96739 | pgbench_branches |             8192

 2017-02-08 18:41:02.049527+01 | 1486575662.04953 | pgbench_accounts |        694222848
 2017-02-08 18:41:02.049527+01 | 1486575662.04953 | pgbench_tellers  |            24576
 2017-02-08 18:41:02.049527+01 | 1486575662.04953 | pgbench_history  |                0
 2017-02-08 18:41:02.049527+01 | 1486575662.04953 | pgbench_branches |             8192

 2017-02-08 18:41:03.117178+01 | 1486575663.11718 | pgbench_accounts |        694222848
 2017-02-08 18:41:03.117178+01 | 1486575663.11718 | pgbench_tellers  |            24576
 2017-02-08 18:41:03.117178+01 | 1486575663.11718 | pgbench_history  |                0
 2017-02-08 18:41:03.117178+01 | 1486575663.11718 | pgbench_branches |             8192

 2017-02-08 18:41:04.188045+01 | 1486575664.18805 | pgbench_accounts |        694222848
 2017-02-08 18:41:04.188045+01 | 1486575664.18805 | pgbench_tellers  |            24576
 2017-02-08 18:41:04.188045+01 | 1486575664.18805 | pgbench_history  |                0
 2017-02-08 18:41:04.188045+01 | 1486575664.18805 | pgbench_branches |             8192

 2017-02-08 18:41:05.254005+01 | 1486575665.254 | pgbench_accounts |        694222848
 2017-02-08 18:41:05.254005+01 | 1486575665.254 | pgbench_tellers  |            24576
 2017-02-08 18:41:05.254005+01 | 1486575665.254 | pgbench_history  |                0
 2017-02-08 18:41:05.254005+01 | 1486575665.254 | pgbench_branches |             8192

 2017-02-08 18:41:06.328628+01 | 1486575666.32863 | pgbench_accounts |        694222848
 2017-02-08 18:41:06.328628+01 | 1486575666.32863 | pgbench_tellers  |            24576
 2017-02-08 18:41:06.328628+01 | 1486575666.32863 | pgbench_history  |                0
 2017-02-08 18:41:06.328628+01 | 1486575666.32863 | pgbench_branches |             8192

 2017-02-08 18:41:07.394735+01 | 1486575667.39474 | pgbench_accounts |        694222848
 2017-02-08 18:41:07.394735+01 | 1486575667.39474 | pgbench_tellers  |            24576
 2017-02-08 18:41:07.394735+01 | 1486575667.39474 | pgbench_history  |                0
 2017-02-08 18:41:07.394735+01 | 1486575667.39474 | pgbench_branches |             8192

 2017-02-08 18:41:08.46559+01 | 1486575668.46559 | pgbench_accounts |        694222848
 2017-02-08 18:41:08.46559+01 | 1486575668.46559 | pgbench_tellers  |            24576
 2017-02-08 18:41:08.46559+01 | 1486575668.46559 | pgbench_history  |                0
 2017-02-08 18:41:08.46559+01 | 1486575668.46559 | pgbench_branches |             8192

 2017-02-08 18:41:09.522996+01 | 1486575669.523 | pgbench_accounts |        694222848
 2017-02-08 18:41:09.522996+01 | 1486575669.523 | pgbench_tellers  |            24576
 2017-02-08 18:41:09.522996+01 | 1486575669.523 | pgbench_history  |                0
 2017-02-08 18:41:09.522996+01 | 1486575669.523 | pgbench_branches |             8192

 2017-02-08 18:41:10.591501+01 | 1486575670.5915 | pgbench_accounts |        694222848
 2017-02-08 18:41:10.591501+01 | 1486575670.5915 | pgbench_tellers  |            24576
 2017-02-08 18:41:10.591501+01 | 1486575670.5915 | pgbench_history  |                0
 2017-02-08 18:41:10.591501+01 | 1486575670.5915 | pgbench_branches |             8192

 2017-02-08 18:41:11.660867+01 | 1486575671.66087 | pgbench_accounts |        694222848
 2017-02-08 18:41:11.660867+01 | 1486575671.66087 | pgbench_tellers  |            24576
 2017-02-08 18:41:11.660867+01 | 1486575671.66087 | pgbench_history  |                0
 2017-02-08 18:41:11.660867+01 | 1486575671.66087 | pgbench_branches |             8192

 2017-02-08 18:41:12.732588+01 | 1486575672.73259 | pgbench_accounts |        694222848
 2017-02-08 18:41:12.732588+01 | 1486575672.73259 | pgbench_tellers  |            24576
 2017-02-08 18:41:12.732588+01 | 1486575672.73259 | pgbench_history  |                0
 2017-02-08 18:41:12.732588+01 | 1486575672.73259 | pgbench_branches |             8192

 2017-02-08 18:41:13.809099+01 | 1486575673.8091 | pgbench_accounts |        694222848
 2017-02-08 18:41:13.809099+01 | 1486575673.8091 | pgbench_tellers  |            24576
 2017-02-08 18:41:13.809099+01 | 1486575673.8091 | pgbench_history  |                0
 2017-02-08 18:41:13.809099+01 | 1486575673.8091 | pgbench_branches |             8192

 2017-02-08 18:41:14.881084+01 | 1486575674.88108 | pgbench_accounts |        694222848
 2017-02-08 18:41:14.881084+01 | 1486575674.88108 | pgbench_tellers  |            24576
 2017-02-08 18:41:14.881084+01 | 1486575674.88108 | pgbench_history  |                0
 2017-02-08 18:41:14.881084+01 | 1486575674.88108 | pgbench_branches |             8192

 2017-02-08 18:41:15.96186+01 | 1486575675.96186 | pgbench_accounts |        694222848
 2017-02-08 18:41:15.96186+01 | 1486575675.96186 | pgbench_tellers  |            24576
 2017-02-08 18:41:15.96186+01 | 1486575675.96186 | pgbench_history  |                0
 2017-02-08 18:41:15.96186+01 | 1486575675.96186 | pgbench_branches |             8192

 2017-02-08 18:41:17.034647+01 | 1486575677.03465 | pgbench_accounts |        694222848
 2017-02-08 18:41:17.034647+01 | 1486575677.03465 | pgbench_tellers  |            24576
 2017-02-08 18:41:17.034647+01 | 1486575677.03465 | pgbench_history  |                0
 2017-02-08 18:41:17.034647+01 | 1486575677.03465 | pgbench_branches |             8192

 2017-02-08 18:41:18.110962+01 | 1486575678.11096 | pgbench_accounts |        694222848
 2017-02-08 18:41:18.110962+01 | 1486575678.11096 | pgbench_tellers  |            24576
 2017-02-08 18:41:18.110962+01 | 1486575678.11096 | pgbench_history  |                0
 2017-02-08 18:41:18.110962+01 | 1486575678.11096 | pgbench_branches |             8192

 2017-02-08 18:41:19.179255+01 | 1486575679.17926 | pgbench_accounts |        694222848
 2017-02-08 18:41:19.179255+01 | 1486575679.17926 | pgbench_tellers  |            24576
 2017-02-08 18:41:19.179255+01 | 1486575679.17926 | pgbench_history  |                0
 2017-02-08 18:41:19.179255+01 | 1486575679.17926 | pgbench_branches |             8192

 2017-02-08 18:41:20.258033+01 | 1486575680.25803 | pgbench_accounts |        694222848
 2017-02-08 18:41:20.258033+01 | 1486575680.25803 | pgbench_tellers  |            24576
 2017-02-08 18:41:20.258033+01 | 1486575680.25803 | pgbench_history  |                0
 2017-02-08 18:41:20.258033+01 | 1486575680.25803 | pgbench_branches |             8192

 2017-02-08 18:41:21.330492+01 | 1486575681.33049 | pgbench_accounts |        694222848
 2017-02-08 18:41:21.330492+01 | 1486575681.33049 | pgbench_tellers  |            24576
 2017-02-08 18:41:21.330492+01 | 1486575681.33049 | pgbench_history  |                0
 2017-02-08 18:41:21.330492+01 | 1486575681.33049 | pgbench_branches |             8192

 2017-02-08 18:41:22.397881+01 | 1486575682.39788 | pgbench_accounts |        694222848
 2017-02-08 18:41:22.397881+01 | 1486575682.39788 | pgbench_tellers  |            24576
 2017-02-08 18:41:22.397881+01 | 1486575682.39788 | pgbench_history  |                0
 2017-02-08 18:41:22.397881+01 | 1486575682.39788 | pgbench_branches |             8192

 2017-02-08 18:41:23.464266+01 | 1486575683.46427 | pgbench_accounts |        694222848
 2017-02-08 18:41:23.464266+01 | 1486575683.46427 | pgbench_tellers  |            24576
 2017-02-08 18:41:23.464266+01 | 1486575683.46427 | pgbench_history  |                0
 2017-02-08 18:41:23.464266+01 | 1486575683.46427 | pgbench_branches |             8192

 2017-02-08 18:41:24.534642+01 | 1486575684.53464 | pgbench_accounts |        694222848
 2017-02-08 18:41:24.534642+01 | 1486575684.53464 | pgbench_tellers  |            24576
 2017-02-08 18:41:24.534642+01 | 1486575684.53464 | pgbench_history  |                0
 2017-02-08 18:41:24.534642+01 | 1486575684.53464 | pgbench_branches |             8192

 2017-02-08 18:41:25.611597+01 | 1486575685.6116 | pgbench_accounts |        694222848
 2017-02-08 18:41:25.611597+01 | 1486575685.6116 | pgbench_tellers  |            24576
 2017-02-08 18:41:25.611597+01 | 1486575685.6116 | pgbench_history  |                0
 2017-02-08 18:41:25.611597+01 | 1486575685.6116 | pgbench_branches |             8192

 2017-02-08 18:41:26.681968+01 | 1486575686.68197 | pgbench_accounts |        694222848
 2017-02-08 18:41:26.681968+01 | 1486575686.68197 | pgbench_tellers  |            24576
 2017-02-08 18:41:26.681968+01 | 1486575686.68197 | pgbench_history  |                0
 2017-02-08 18:41:26.681968+01 | 1486575686.68197 | pgbench_branches |             8192

 2017-02-08 18:41:27.750008+01 | 1486575687.75001 | pgbench_accounts |        694222848
 2017-02-08 18:41:27.750008+01 | 1486575687.75001 | pgbench_tellers  |            24576
 2017-02-08 18:41:27.750008+01 | 1486575687.75001 | pgbench_history  |                0
 2017-02-08 18:41:27.750008+01 | 1486575687.75001 | pgbench_branches |             8192

 2017-02-08 18:41:28.814451+01 | 1486575688.81445 | pgbench_accounts |        694222848
 2017-02-08 18:41:28.814451+01 | 1486575688.81445 | pgbench_tellers  |            24576
 2017-02-08 18:41:28.814451+01 | 1486575688.81445 | pgbench_history  |                0
 2017-02-08 18:41:28.814451+01 | 1486575688.81445 | pgbench_branches |             8192

 2017-02-08 18:41:29.888416+01 | 1486575689.88842 | pgbench_accounts |        694222848
 2017-02-08 18:41:29.888416+01 | 1486575689.88842 | pgbench_tellers  |            24576
 2017-02-08 18:41:29.888416+01 | 1486575689.88842 | pgbench_history  |                0
 2017-02-08 18:41:29.888416+01 | 1486575689.88842 | pgbench_branches |             8192

 2017-02-08 18:41:30.949941+01 | 1486575690.94994 | pgbench_accounts |        694222848
 2017-02-08 18:41:30.949941+01 | 1486575690.94994 | pgbench_tellers  |            24576
 2017-02-08 18:41:30.949941+01 | 1486575690.94994 | pgbench_history  |                0
 2017-02-08 18:41:30.949941+01 | 1486575690.94994 | pgbench_branches |             8192

 2017-02-08 18:41:32.020118+01 | 1486575692.02012 | pgbench_accounts |        694222848
 2017-02-08 18:41:32.020118+01 | 1486575692.02012 | pgbench_tellers  |            24576
 2017-02-08 18:41:32.020118+01 | 1486575692.02012 | pgbench_history  |                0
 2017-02-08 18:41:32.020118+01 | 1486575692.02012 | pgbench_branches |             8192

 2017-02-08 18:41:33.07828+01 | 1486575693.07828 | pgbench_accounts |        694222848
 2017-02-08 18:41:33.07828+01 | 1486575693.07828 | pgbench_tellers  |            24576
 2017-02-08 18:41:33.07828+01 | 1486575693.07828 | pgbench_history  |                0
 2017-02-08 18:41:33.07828+01 | 1486575693.07828 | pgbench_branches |             8192

 2017-02-08 18:41:34.15671+01 | 1486575694.15671 | pgbench_accounts |        694222848
 2017-02-08 18:41:34.15671+01 | 1486575694.15671 | pgbench_tellers  |            24576
 2017-02-08 18:41:34.15671+01 | 1486575694.15671 | pgbench_history  |                0
 2017-02-08 18:41:34.15671+01 | 1486575694.15671 | pgbench_branches |             8192

 2017-02-08 18:41:35.212208+01 | 1486575695.21221 | pgbench_accounts |        694222848
 2017-02-08 18:41:35.212208+01 | 1486575695.21221 | pgbench_tellers  |            24576
 2017-02-08 18:41:35.212208+01 | 1486575695.21221 | pgbench_history  |                0
 2017-02-08 18:41:35.212208+01 | 1486575695.21221 | pgbench_branches |             8192

 2017-02-08 18:41:36.283941+01 | 1486575696.28394 | pgbench_accounts |        694222848
 2017-02-08 18:41:36.283941+01 | 1486575696.28394 | pgbench_tellers  |            24576
 2017-02-08 18:41:36.283941+01 | 1486575696.28394 | pgbench_history  |                0
 2017-02-08 18:41:36.283941+01 | 1486575696.28394 | pgbench_branches |             8192

 2017-02-08 18:41:37.347157+01 | 1486575697.34716 | pgbench_accounts |        694222848
 2017-02-08 18:41:37.347157+01 | 1486575697.34716 | pgbench_tellers  |            24576
 2017-02-08 18:41:37.347157+01 | 1486575697.34716 | pgbench_history  |                0
 2017-02-08 18:41:37.347157+01 | 1486575697.34716 | pgbench_branches |             8192

 2017-02-08 18:41:38.403799+01 | 1486575698.4038 | pgbench_accounts |        694222848
 2017-02-08 18:41:38.403799+01 | 1486575698.4038 | pgbench_tellers  |            24576
 2017-02-08 18:41:38.403799+01 | 1486575698.4038 | pgbench_history  |                0
 2017-02-08 18:41:38.403799+01 | 1486575698.4038 | pgbench_branches |             8192

 2017-02-08 18:41:39.480955+01 | 1486575699.48095 | pgbench_accounts |        694222848
 2017-02-08 18:41:39.480955+01 | 1486575699.48095 | pgbench_tellers  |            24576
 2017-02-08 18:41:39.480955+01 | 1486575699.48095 | pgbench_history  |                0
 2017-02-08 18:41:39.480955+01 | 1486575699.48095 | pgbench_branches |             8192

 2017-02-08 18:41:40.561525+01 | 1486575700.56153 | pgbench_accounts |        694222848
 2017-02-08 18:41:40.561525+01 | 1486575700.56153 | pgbench_tellers  |            24576
 2017-02-08 18:41:40.561525+01 | 1486575700.56153 | pgbench_history  |                0
 2017-02-08 18:41:40.561525+01 | 1486575700.56153 | pgbench_branches |             8192

 2017-02-08 18:41:41.632748+01 | 1486575701.63275 | pgbench_accounts |        694222848
 2017-02-08 18:41:41.632748+01 | 1486575701.63275 | pgbench_tellers  |            24576
 2017-02-08 18:41:41.632748+01 | 1486575701.63275 | pgbench_history  |                0
 2017-02-08 18:41:41.632748+01 | 1486575701.63275 | pgbench_branches |             8192

 2017-02-08 18:41:42.716447+01 | 1486575702.71645 | pgbench_accounts |        694222848
 2017-02-08 18:41:42.716447+01 | 1486575702.71645 | pgbench_tellers  |            24576
 2017-02-08 18:41:42.716447+01 | 1486575702.71645 | pgbench_history  |                0
 2017-02-08 18:41:42.716447+01 | 1486575702.71645 | pgbench_branches |             8192

 2017-02-08 18:41:43.774562+01 | 1486575703.77456 | pgbench_accounts |        694222848
 2017-02-08 18:41:43.774562+01 | 1486575703.77456 | pgbench_tellers  |            24576
 2017-02-08 18:41:43.774562+01 | 1486575703.77456 | pgbench_history  |                0
 2017-02-08 18:41:43.774562+01 | 1486575703.77456 | pgbench_branches |             8192

 2017-02-08 18:41:44.840386+01 | 1486575704.84039 | pgbench_accounts |        694222848
 2017-02-08 18:41:44.840386+01 | 1486575704.84039 | pgbench_tellers  |            24576
 2017-02-08 18:41:44.840386+01 | 1486575704.84039 | pgbench_history  |                0
 2017-02-08 18:41:44.840386+01 | 1486575704.84039 | pgbench_branches |             8192

 2017-02-08 18:41:45.919182+01 | 1486575705.91918 | pgbench_accounts |        694222848
 2017-02-08 18:41:45.919182+01 | 1486575705.91918 | pgbench_tellers  |            24576
 2017-02-08 18:41:45.919182+01 | 1486575705.91918 | pgbench_history  |                0
 2017-02-08 18:41:45.919182+01 | 1486575705.91918 | pgbench_branches |             8192

 2017-02-08 18:41:46.992324+01 | 1486575706.99232 | pgbench_accounts |        694222848
 2017-02-08 18:41:46.992324+01 | 1486575706.99232 | pgbench_tellers  |            24576
 2017-02-08 18:41:46.992324+01 | 1486575706.99232 | pgbench_history  |                0
 2017-02-08 18:41:46.992324+01 | 1486575706.99232 | pgbench_branches |             8192

 2017-02-08 18:41:48.051507+01 | 1486575708.05151 | pgbench_accounts |        694222848
 2017-02-08 18:41:48.051507+01 | 1486575708.05151 | pgbench_tellers  |            24576
 2017-02-08 18:41:48.051507+01 | 1486575708.05151 | pgbench_history  |                0
 2017-02-08 18:41:48.051507+01 | 1486575708.05151 | pgbench_branches |             8192

 2017-02-08 18:41:49.11327+01 | 1486575709.11327 | pgbench_accounts |        694222848
 2017-02-08 18:41:49.11327+01 | 1486575709.11327 | pgbench_tellers  |            24576
 2017-02-08 18:41:49.11327+01 | 1486575709.11327 | pgbench_history  |                0
 2017-02-08 18:41:49.11327+01 | 1486575709.11327 | pgbench_branches |             8192

 2017-02-08 18:41:50.180357+01 | 1486575710.18036 | pgbench_accounts |        694222848
 2017-02-08 18:41:50.180357+01 | 1486575710.18036 | pgbench_tellers  |            24576
 2017-02-08 18:41:50.180357+01 | 1486575710.18036 | pgbench_history  |                0
 2017-02-08 18:41:50.180357+01 | 1486575710.18036 | pgbench_branches |             8192

 2017-02-08 18:41:51.249678+01 | 1486575711.24968 | pgbench_accounts |        694222848
 2017-02-08 18:41:51.249678+01 | 1486575711.24968 | pgbench_tellers  |            24576
 2017-02-08 18:41:51.249678+01 | 1486575711.24968 | pgbench_history  |                0
 2017-02-08 18:41:51.249678+01 | 1486575711.24968 | pgbench_branches |             8192

 2017-02-08 18:41:52.319856+01 | 1486575712.31986 | pgbench_accounts |        694222848
 2017-02-08 18:41:52.319856+01 | 1486575712.31986 | pgbench_tellers  |            24576
 2017-02-08 18:41:52.319856+01 | 1486575712.31986 | pgbench_history  |                0
 2017-02-08 18:41:52.319856+01 | 1486575712.31986 | pgbench_branches |             8192

 2017-02-08 18:41:53.394798+01 | 1486575713.3948 | pgbench_accounts |        694222848
 2017-02-08 18:41:53.394798+01 | 1486575713.3948 | pgbench_tellers  |            24576
 2017-02-08 18:41:53.394798+01 | 1486575713.3948 | pgbench_history  |                0
 2017-02-08 18:41:53.394798+01 | 1486575713.3948 | pgbench_branches |             8192

 2017-02-08 18:41:54.463854+01 | 1486575714.46385 | pgbench_accounts |        694222848
 2017-02-08 18:41:54.463854+01 | 1486575714.46385 | pgbench_tellers  |            24576
 2017-02-08 18:41:54.463854+01 | 1486575714.46385 | pgbench_history  |                0
 2017-02-08 18:41:54.463854+01 | 1486575714.46385 | pgbench_branches |             8192

 2017-02-08 18:41:55.545858+01 | 1486575715.54586 | pgbench_accounts |        694222848
 2017-02-08 18:41:55.545858+01 | 1486575715.54586 | pgbench_tellers  |            24576
 2017-02-08 18:41:55.545858+01 | 1486575715.54586 | pgbench_history  |                0
 2017-02-08 18:41:55.545858+01 | 1486575715.54586 | pgbench_branches |             8192

 2017-02-08 18:41:56.616523+01 | 1486575716.61652 | pgbench_accounts |        694222848
 2017-02-08 18:41:56.616523+01 | 1486575716.61652 | pgbench_tellers  |            24576
 2017-02-08 18:41:56.616523+01 | 1486575716.61652 | pgbench_history  |                0
 2017-02-08 18:41:56.616523+01 | 1486575716.61652 | pgbench_branches |             8192

 2017-02-08 18:41:57.695206+01 | 1486575717.69521 | pgbench_accounts |        694222848
 2017-02-08 18:41:57.695206+01 | 1486575717.69521 | pgbench_tellers  |            24576
 2017-02-08 18:41:57.695206+01 | 1486575717.69521 | pgbench_history  |                0
 2017-02-08 18:41:57.695206+01 | 1486575717.69521 | pgbench_branches |             8192

 2017-02-08 18:41:58.759624+01 | 1486575718.75962 | pgbench_accounts |        694222848
 2017-02-08 18:41:58.759624+01 | 1486575718.75962 | pgbench_tellers  |            24576
 2017-02-08 18:41:58.759624+01 | 1486575718.75962 | pgbench_history  |                0
 2017-02-08 18:41:58.759624+01 | 1486575718.75962 | pgbench_branches |             8192

 2017-02-08 18:41:59.835662+01 | 1486575719.83566 | pgbench_accounts |        694222848
 2017-02-08 18:41:59.835662+01 | 1486575719.83566 | pgbench_tellers  |            24576
 2017-02-08 18:41:59.835662+01 | 1486575719.83566 | pgbench_history  |                0
 2017-02-08 18:41:59.835662+01 | 1486575719.83566 | pgbench_branches |             8192

 2017-02-08 18:42:00.921369+01 | 1486575720.92137 | pgbench_accounts |        694222848
 2017-02-08 18:42:00.921369+01 | 1486575720.92137 | pgbench_tellers  |            24576
 2017-02-08 18:42:00.921369+01 | 1486575720.92137 | pgbench_history  |                0
 2017-02-08 18:42:00.921369+01 | 1486575720.92137 | pgbench_branches |             8192

 2017-02-08 18:42:01.98184+01 | 1486575721.98184 | pgbench_accounts |        694222848
 2017-02-08 18:42:01.98184+01 | 1486575721.98184 | pgbench_tellers  |            24576
 2017-02-08 18:42:01.98184+01 | 1486575721.98184 | pgbench_history  |                0
 2017-02-08 18:42:01.98184+01 | 1486575721.98184 | pgbench_branches |             8192

 2017-02-08 18:42:03.043921+01 | 1486575723.04392 | pgbench_accounts |        694222848
 2017-02-08 18:42:03.043921+01 | 1486575723.04392 | pgbench_tellers  |            24576
 2017-02-08 18:42:03.043921+01 | 1486575723.04392 | pgbench_history  |                0
 2017-02-08 18:42:03.043921+01 | 1486575723.04392 | pgbench_branches |             8192

 2017-02-08 18:42:04.119768+01 | 1486575724.11977 | pgbench_accounts |        694222848
 2017-02-08 18:42:04.119768+01 | 1486575724.11977 | pgbench_tellers  |            24576
 2017-02-08 18:42:04.119768+01 | 1486575724.11977 | pgbench_history  |                0
 2017-02-08 18:42:04.119768+01 | 1486575724.11977 | pgbench_branches |             8192

 2017-02-08 18:42:05.186088+01 | 1486575725.18609 | pgbench_accounts |        694222848
 2017-02-08 18:42:05.186088+01 | 1486575725.18609 | pgbench_tellers  |            24576
 2017-02-08 18:42:05.186088+01 | 1486575725.18609 | pgbench_history  |                0
 2017-02-08 18:42:05.186088+01 | 1486575725.18609 | pgbench_branches |             8192

 2017-02-08 18:42:06.255816+01 | 1486575726.25582 | pgbench_accounts |        694222848
 2017-02-08 18:42:06.255816+01 | 1486575726.25582 | pgbench_tellers  |            24576
 2017-02-08 18:42:06.255816+01 | 1486575726.25582 | pgbench_history  |                0
 2017-02-08 18:42:06.255816+01 | 1486575726.25582 | pgbench_branches |             8192

 2017-02-08 18:42:07.334252+01 | 1486575727.33425 | pgbench_accounts |        694222848
 2017-02-08 18:42:07.334252+01 | 1486575727.33425 | pgbench_tellers  |            24576
 2017-02-08 18:42:07.334252+01 | 1486575727.33425 | pgbench_history  |                0
 2017-02-08 18:42:07.334252+01 | 1486575727.33425 | pgbench_branches |             8192

 2017-02-08 18:42:08.413128+01 | 1486575728.41313 | pgbench_accounts |        694222848
 2017-02-08 18:42:08.413128+01 | 1486575728.41313 | pgbench_tellers  |            24576
 2017-02-08 18:42:08.413128+01 | 1486575728.41313 | pgbench_history  |                0
 2017-02-08 18:42:08.413128+01 | 1486575728.41313 | pgbench_branches |             8192

 2017-02-08 18:42:09.480335+01 | 1486575729.48033 | pgbench_accounts |        694222848
 2017-02-08 18:42:09.480335+01 | 1486575729.48033 | pgbench_tellers  |            24576
 2017-02-08 18:42:09.480335+01 | 1486575729.48033 | pgbench_history  |                0
 2017-02-08 18:42:09.480335+01 | 1486575729.48033 | pgbench_branches |             8192

 2017-02-08 18:42:10.558928+01 | 1486575730.55893 | pgbench_accounts |        694222848
 2017-02-08 18:42:10.558928+01 | 1486575730.55893 | pgbench_tellers  |            24576
 2017-02-08 18:42:10.558928+01 | 1486575730.55893 | pgbench_history  |                0
 2017-02-08 18:42:10.558928+01 | 1486575730.55893 | pgbench_branches |             8192

 2017-02-08 18:42:11.629008+01 | 1486575731.62901 | pgbench_accounts |        694222848
 2017-02-08 18:42:11.629008+01 | 1486575731.62901 | pgbench_tellers  |            24576
 2017-02-08 18:42:11.629008+01 | 1486575731.62901 | pgbench_history  |                0
 2017-02-08 18:42:11.629008+01 | 1486575731.62901 | pgbench_branches |             8192

 2017-02-08 18:42:12.685164+01 | 1486575732.68516 | pgbench_accounts |        694222848
 2017-02-08 18:42:12.685164+01 | 1486575732.68516 | pgbench_tellers  |            24576
 2017-02-08 18:42:12.685164+01 | 1486575732.68516 | pgbench_history  |                0
 2017-02-08 18:42:12.685164+01 | 1486575732.68516 | pgbench_branches |             8192

 2017-02-08 18:42:13.76492+01 | 1486575733.76492 | pgbench_accounts |        694222848
 2017-02-08 18:42:13.76492+01 | 1486575733.76492 | pgbench_tellers  |            24576
 2017-02-08 18:42:13.76492+01 | 1486575733.76492 | pgbench_history  |                0
 2017-02-08 18:42:13.76492+01 | 1486575733.76492 | pgbench_branches |             8192

 2017-02-08 18:42:14.831409+01 | 1486575734.83141 | pgbench_accounts |        694222848
 2017-02-08 18:42:14.831409+01 | 1486575734.83141 | pgbench_tellers  |            24576
 2017-02-08 18:42:14.831409+01 | 1486575734.83141 | pgbench_history  |                0
 2017-02-08 18:42:14.831409+01 | 1486575734.83141 | pgbench_branches |             8192

 2017-02-08 18:42:15.909084+01 | 1486575735.90908 | pgbench_accounts |        694222848
 2017-02-08 18:42:15.909084+01 | 1486575735.90908 | pgbench_tellers  |            24576
 2017-02-08 18:42:15.909084+01 | 1486575735.90908 | pgbench_history  |                0
 2017-02-08 18:42:15.909084+01 | 1486575735.90908 | pgbench_branches |             8192

 2017-02-08 18:42:16.974258+01 | 1486575736.97426 | pgbench_accounts |        694222848
 2017-02-08 18:42:16.974258+01 | 1486575736.97426 | pgbench_tellers  |            24576
 2017-02-08 18:42:16.974258+01 | 1486575736.97426 | pgbench_history  |                0
 2017-02-08 18:42:16.974258+01 | 1486575736.97426 | pgbench_branches |             8192

 2017-02-08 18:42:18.035127+01 | 1486575738.03513 | pgbench_accounts |        694222848
 2017-02-08 18:42:18.035127+01 | 1486575738.03513 | pgbench_tellers  |            24576
 2017-02-08 18:42:18.035127+01 | 1486575738.03513 | pgbench_history  |                0
 2017-02-08 18:42:18.035127+01 | 1486575738.03513 | pgbench_branches |             8192

 2017-02-08 18:42:19.09342+01 | 1486575739.09342 | pgbench_accounts |        694222848
 2017-02-08 18:42:19.09342+01 | 1486575739.09342 | pgbench_tellers  |            24576
 2017-02-08 18:42:19.09342+01 | 1486575739.09342 | pgbench_history  |                0
 2017-02-08 18:42:19.09342+01 | 1486575739.09342 | pgbench_branches |             8192

 2017-02-08 18:42:20.17873+01 | 1486575740.17873 | pgbench_accounts |        694222848
 2017-02-08 18:42:20.17873+01 | 1486575740.17873 | pgbench_tellers  |            24576
 2017-02-08 18:42:20.17873+01 | 1486575740.17873 | pgbench_history  |                0
 2017-02-08 18:42:20.17873+01 | 1486575740.17873 | pgbench_branches |             8192

 2017-02-08 18:42:21.250949+01 | 1486575741.25095 | pgbench_accounts |        694222848
 2017-02-08 18:42:21.250949+01 | 1486575741.25095 | pgbench_tellers  |            24576
 2017-02-08 18:42:21.250949+01 | 1486575741.25095 | pgbench_history  |                0
 2017-02-08 18:42:21.250949+01 | 1486575741.25095 | pgbench_branches |             8192

 2017-02-08 18:42:22.323886+01 | 1486575742.32389 | pgbench_accounts |        694222848
 2017-02-08 18:42:22.323886+01 | 1486575742.32389 | pgbench_tellers  |            24576
 2017-02-08 18:42:22.323886+01 | 1486575742.32389 | pgbench_history  |                0
 2017-02-08 18:42:22.323886+01 | 1486575742.32389 | pgbench_branches |             8192

 2017-02-08 18:42:23.397756+01 | 1486575743.39776 | pgbench_accounts |        694222848
 2017-02-08 18:42:23.397756+01 | 1486575743.39776 | pgbench_tellers  |            24576
 2017-02-08 18:42:23.397756+01 | 1486575743.39776 | pgbench_history  |                0
 2017-02-08 18:42:23.397756+01 | 1486575743.39776 | pgbench_branches |             8192

 2017-02-08 18:42:24.473363+01 | 1486575744.47336 | pgbench_accounts |        694222848
 2017-02-08 18:42:24.473363+01 | 1486575744.47336 | pgbench_tellers  |            24576
 2017-02-08 18:42:24.473363+01 | 1486575744.47336 | pgbench_history  |                0
 2017-02-08 18:42:24.473363+01 | 1486575744.47336 | pgbench_branches |             8192

 2017-02-08 18:42:25.541467+01 | 1486575745.54147 | pgbench_accounts |        694222848
 2017-02-08 18:42:25.541467+01 | 1486575745.54147 | pgbench_tellers  |            24576
 2017-02-08 18:42:25.541467+01 | 1486575745.54147 | pgbench_history  |                0
 2017-02-08 18:42:25.541467+01 | 1486575745.54147 | pgbench_branches |             8192

 2017-02-08 18:42:26.61069+01 | 1486575746.61069 | pgbench_accounts |        694222848
 2017-02-08 18:42:26.61069+01 | 1486575746.61069 | pgbench_tellers  |            24576
 2017-02-08 18:42:26.61069+01 | 1486575746.61069 | pgbench_history  |                0
 2017-02-08 18:42:26.61069+01 | 1486575746.61069 | pgbench_branches |             8192

 2017-02-08 18:42:27.675776+01 | 1486575747.67578 | pgbench_accounts |        694222848
 2017-02-08 18:42:27.675776+01 | 1486575747.67578 | pgbench_tellers  |            24576
 2017-02-08 18:42:27.675776+01 | 1486575747.67578 | pgbench_history  |                0
 2017-02-08 18:42:27.675776+01 | 1486575747.67578 | pgbench_branches |             8192

 2017-02-08 18:42:28.738067+01 | 1486575748.73807 | pgbench_accounts |        694222848
 2017-02-08 18:42:28.738067+01 | 1486575748.73807 | pgbench_tellers  |            24576
 2017-02-08 18:42:28.738067+01 | 1486575748.73807 | pgbench_history  |                0
 2017-02-08 18:42:28.738067+01 | 1486575748.73807 | pgbench_branches |             8192

 2017-02-08 18:42:29.811939+01 | 1486575749.81194 | pgbench_accounts |        694222848
 2017-02-08 18:42:29.811939+01 | 1486575749.81194 | pgbench_tellers  |            24576
 2017-02-08 18:42:29.811939+01 | 1486575749.81194 | pgbench_history  |                0
 2017-02-08 18:42:29.811939+01 | 1486575749.81194 | pgbench_branches |             8192

 2017-02-08 18:42:30.866666+01 | 1486575750.86667 | pgbench_accounts |        694222848
 2017-02-08 18:42:30.866666+01 | 1486575750.86667 | pgbench_tellers  |            24576
 2017-02-08 18:42:30.866666+01 | 1486575750.86667 | pgbench_history  |                0
 2017-02-08 18:42:30.866666+01 | 1486575750.86667 | pgbench_branches |             8192

 2017-02-08 18:42:31.931725+01 | 1486575751.93173 | pgbench_accounts |        694222848
 2017-02-08 18:42:31.931725+01 | 1486575751.93173 | pgbench_tellers  |            24576
 2017-02-08 18:42:31.931725+01 | 1486575751.93173 | pgbench_history  |                0
 2017-02-08 18:42:31.931725+01 | 1486575751.93173 | pgbench_branches |             8192

 2017-02-08 18:42:33.014296+01 | 1486575753.0143 | pgbench_accounts |        694222848
 2017-02-08 18:42:33.014296+01 | 1486575753.0143 | pgbench_tellers  |            24576
 2017-02-08 18:42:33.014296+01 | 1486575753.0143 | pgbench_history  |                0
 2017-02-08 18:42:33.014296+01 | 1486575753.0143 | pgbench_branches |             8192

 2017-02-08 18:42:34.088799+01 | 1486575754.0888 | pgbench_accounts |        694222848
 2017-02-08 18:42:34.088799+01 | 1486575754.0888 | pgbench_tellers  |            24576
 2017-02-08 18:42:34.088799+01 | 1486575754.0888 | pgbench_history  |                0
 2017-02-08 18:42:34.088799+01 | 1486575754.0888 | pgbench_branches |             8192

 2017-02-08 18:42:35.149052+01 | 1486575755.14905 | pgbench_accounts |        694222848
 2017-02-08 18:42:35.149052+01 | 1486575755.14905 | pgbench_tellers  |            24576
 2017-02-08 18:42:35.149052+01 | 1486575755.14905 | pgbench_history  |                0
 2017-02-08 18:42:35.149052+01 | 1486575755.14905 | pgbench_branches |             8192

 2017-02-08 18:42:36.221685+01 | 1486575756.22168 | pgbench_accounts |        694222848
 2017-02-08 18:42:36.221685+01 | 1486575756.22168 | pgbench_tellers  |            24576
 2017-02-08 18:42:36.221685+01 | 1486575756.22168 | pgbench_history  |                0
 2017-02-08 18:42:36.221685+01 | 1486575756.22168 | pgbench_branches |             8192

 2017-02-08 18:42:37.301441+01 | 1486575757.30144 | pgbench_accounts |        694222848
 2017-02-08 18:42:37.301441+01 | 1486575757.30144 | pgbench_tellers  |            24576
 2017-02-08 18:42:37.301441+01 | 1486575757.30144 | pgbench_history  |                0
 2017-02-08 18:42:37.301441+01 | 1486575757.30144 | pgbench_branches |             8192

 2017-02-08 18:42:38.361144+01 | 1486575758.36114 | pgbench_accounts |        694222848
 2017-02-08 18:42:38.361144+01 | 1486575758.36114 | pgbench_tellers  |            24576
 2017-02-08 18:42:38.361144+01 | 1486575758.36114 | pgbench_history  |                0
 2017-02-08 18:42:38.361144+01 | 1486575758.36114 | pgbench_branches |             8192

 2017-02-08 18:42:39.433574+01 | 1486575759.43357 | pgbench_accounts |        694222848
 2017-02-08 18:42:39.433574+01 | 1486575759.43357 | pgbench_tellers  |            24576
 2017-02-08 18:42:39.433574+01 | 1486575759.43357 | pgbench_history  |                0
 2017-02-08 18:42:39.433574+01 | 1486575759.43357 | pgbench_branches |             8192

 2017-02-08 18:42:40.503656+01 | 1486575760.50366 | pgbench_accounts |        694222848
 2017-02-08 18:42:40.503656+01 | 1486575760.50366 | pgbench_tellers  |            24576
 2017-02-08 18:42:40.503656+01 | 1486575760.50366 | pgbench_history  |                0
 2017-02-08 18:42:40.503656+01 | 1486575760.50366 | pgbench_branches |             8192

 2017-02-08 18:42:41.570328+01 | 1486575761.57033 | pgbench_accounts |        694222848
 2017-02-08 18:42:41.570328+01 | 1486575761.57033 | pgbench_tellers  |            24576
 2017-02-08 18:42:41.570328+01 | 1486575761.57033 | pgbench_history  |                0
 2017-02-08 18:42:41.570328+01 | 1486575761.57033 | pgbench_branches |             8192

 2017-02-08 18:42:42.641849+01 | 1486575762.64185 | pgbench_accounts |        694222848
 2017-02-08 18:42:42.641849+01 | 1486575762.64185 | pgbench_tellers  |            24576
 2017-02-08 18:42:42.641849+01 | 1486575762.64185 | pgbench_history  |                0
 2017-02-08 18:42:42.641849+01 | 1486575762.64185 | pgbench_branches |             8192

 2017-02-08 18:42:43.70301+01 | 1486575763.70301 | pgbench_accounts |        694222848
 2017-02-08 18:42:43.70301+01 | 1486575763.70301 | pgbench_tellers  |            24576
 2017-02-08 18:42:43.70301+01 | 1486575763.70301 | pgbench_history  |                0
 2017-02-08 18:42:43.70301+01 | 1486575763.70301 | pgbench_branches |             8192

 2017-02-08 18:42:44.774572+01 | 1486575764.77457 | pgbench_accounts |        694222848
 2017-02-08 18:42:44.774572+01 | 1486575764.77457 | pgbench_tellers  |            24576
 2017-02-08 18:42:44.774572+01 | 1486575764.77457 | pgbench_history  |                0
 2017-02-08 18:42:44.774572+01 | 1486575764.77457 | pgbench_branches |             8192

 2017-02-08 18:42:45.84761+01 | 1486575765.84761 | pgbench_accounts |        694222848
 2017-02-08 18:42:45.84761+01 | 1486575765.84761 | pgbench_tellers  |            24576
 2017-02-08 18:42:45.84761+01 | 1486575765.84761 | pgbench_history  |                0
 2017-02-08 18:42:45.84761+01 | 1486575765.84761 | pgbench_branches |             8192

 2017-02-08 18:42:46.917125+01 | 1486575766.91712 | pgbench_accounts |        694222848
 2017-02-08 18:42:46.917125+01 | 1486575766.91712 | pgbench_tellers  |            24576
 2017-02-08 18:42:46.917125+01 | 1486575766.91712 | pgbench_history  |                0
 2017-02-08 18:42:46.917125+01 | 1486575766.91712 | pgbench_branches |             8192

 2017-02-08 18:42:47.990395+01 | 1486575767.9904 | pgbench_accounts |        694222848
 2017-02-08 18:42:47.990395+01 | 1486575767.9904 | pgbench_tellers  |            24576
 2017-02-08 18:42:47.990395+01 | 1486575767.9904 | pgbench_history  |                0
 2017-02-08 18:42:47.990395+01 | 1486575767.9904 | pgbench_branches |             8192

 2017-02-08 18:42:49.067792+01 | 1486575769.06779 | pgbench_accounts |        694222848
 2017-02-08 18:42:49.067792+01 | 1486575769.06779 | pgbench_tellers  |            24576
 2017-02-08 18:42:49.067792+01 | 1486575769.06779 | pgbench_history  |                0
 2017-02-08 18:42:49.067792+01 | 1486575769.06779 | pgbench_branches |             8192

 2017-02-08 18:42:50.136788+01 | 1486575770.13679 | pgbench_accounts |        694222848
 2017-02-08 18:42:50.136788+01 | 1486575770.13679 | pgbench_tellers  |            24576
 2017-02-08 18:42:50.136788+01 | 1486575770.13679 | pgbench_history  |                0
 2017-02-08 18:42:50.136788+01 | 1486575770.13679 | pgbench_branches |             8192

 2017-02-08 18:42:51.192481+01 | 1486575771.19248 | pgbench_accounts |        694222848
 2017-02-08 18:42:51.192481+01 | 1486575771.19248 | pgbench_tellers  |            24576
 2017-02-08 18:42:51.192481+01 | 1486575771.19248 | pgbench_history  |                0
 2017-02-08 18:42:51.192481+01 | 1486575771.19248 | pgbench_branches |             8192

 2017-02-08 18:42:52.256456+01 | 1486575772.25646 | pgbench_accounts |        694222848
 2017-02-08 18:42:52.256456+01 | 1486575772.25646 | pgbench_tellers  |            24576
 2017-02-08 18:42:52.256456+01 | 1486575772.25646 | pgbench_history  |                0
 2017-02-08 18:42:52.256456+01 | 1486575772.25646 | pgbench_branches |             8192

 2017-02-08 18:42:53.31321+01 | 1486575773.31321 | pgbench_accounts |        694222848
 2017-02-08 18:42:53.31321+01 | 1486575773.31321 | pgbench_tellers  |            24576
 2017-02-08 18:42:53.31321+01 | 1486575773.31321 | pgbench_history  |                0
 2017-02-08 18:42:53.31321+01 | 1486575773.31321 | pgbench_branches |             8192

 2017-02-08 18:42:54.384896+01 | 1486575774.3849 | pgbench_accounts |        694222848
 2017-02-08 18:42:54.384896+01 | 1486575774.3849 | pgbench_tellers  |            24576
 2017-02-08 18:42:54.384896+01 | 1486575774.3849 | pgbench_history  |                0
 2017-02-08 18:42:54.384896+01 | 1486575774.3849 | pgbench_branches |             8192

