 2017-02-08 20:39:27.093921+01 | 1486582767.09392 |                 0 |              14 |                  1741 |                  508 |             219421 |       1930561 |            19291 |        44171905 |                     0 |     270919888 | 2017-02-08 19:33:31.339908+01

 2017-02-08 20:39:28.279404+01 | 1486582768.2794 |                 0 |              14 |                  1741 |                  508 |             219421 |       1930896 |            19294 |        44171905 |                     0 |     270995835 | 2017-02-08 19:33:31.339908+01

 2017-02-08 20:39:29.425229+01 | 1486582769.42523 |                 0 |              14 |                  1741 |                  508 |             219421 |       1931496 |            19300 |        44171905 |                     0 |     271082918 | 2017-02-08 19:33:31.339908+01

 2017-02-08 20:39:30.573158+01 | 1486582770.57316 |                 0 |              14 |                  1741 |                  508 |             219421 |       1932096 |            19306 |        44171905 |                     0 |     271167601 | 2017-02-08 19:33:31.339908+01

 2017-02-08 20:39:31.678881+01 | 1486582771.67888 |                 0 |              14 |                  1741 |                  508 |             219421 |       1932696 |            19312 |        44171905 |                     0 |     271254463 | 2017-02-08 19:33:31.339908+01

 2017-02-08 20:39:32.852909+01 | 1486582772.85291 |                 0 |              14 |                  1741 |                  508 |             219421 |       1933196 |            19317 |        44171905 |                     0 |     271328573 | 2017-02-08 19:33:31.339908+01

 2017-02-08 20:39:34.031692+01 | 1486582774.03169 |                 0 |              14 |                  1741 |                  508 |             219421 |       1933796 |            19323 |        44234525 |                     0 |     271418645 | 2017-02-08 19:33:31.339908+01

 2017-02-08 20:39:35.193089+01 | 1486582775.19309 |                 0 |              14 |                  1741 |                  508 |             219421 |       1934396 |            19329 |        44234525 |                     0 |     271509036 | 2017-02-08 19:33:31.339908+01

 2017-02-08 20:39:36.396204+01 | 1486582776.3962 |                 0 |              14 |                  1741 |                  508 |             219421 |       1934996 |            19335 |        44234525 |                     0 |     271598164 | 2017-02-08 19:33:31.339908+01

 2017-02-08 20:39:37.562207+01 | 1486582777.56221 |                 0 |              14 |                  1741 |                  508 |             219421 |       1935596 |            19341 |        44234525 |                     0 |     271691241 | 2017-02-08 19:33:31.339908+01

 2017-02-08 20:39:38.634451+01 | 1486582778.63445 |                 0 |              14 |                  1741 |                  508 |             219421 |       1936096 |            19346 |        44297761 |                     0 |     271769916 | 2017-02-08 19:33:31.339908+01

 2017-02-08 20:39:39.767382+01 | 1486582779.76738 |                 0 |              14 |                  1741 |                  508 |             219421 |       1936696 |            19352 |        44297761 |                     0 |     271865389 | 2017-02-08 19:33:31.339908+01

 2017-02-08 20:39:40.929559+01 | 1486582780.92956 |                 0 |              14 |                  1741 |                  508 |             219421 |       1937196 |            19357 |        44297761 |                     0 |     271942633 | 2017-02-08 19:33:31.339908+01

 2017-02-08 20:39:42.152976+01 | 1486582782.15298 |                 0 |              14 |                  1741 |                  508 |             219421 |       1937796 |            19363 |        44297761 |                     0 |     272035742 | 2017-02-08 19:33:31.339908+01

 2017-02-08 20:39:43.34351+01 | 1486582783.34351 |                 0 |              14 |                  1741 |                  508 |             219421 |       1938396 |            19369 |        44360897 |                     0 |     272129073 | 2017-02-08 19:33:31.339908+01

 2017-02-08 20:39:44.525344+01 | 1486582784.52534 |                 0 |              14 |                  1741 |                  508 |             219421 |       1938996 |            19375 |        44360897 |                     0 |     272222858 | 2017-02-08 19:33:31.339908+01

 2017-02-08 20:39:45.662466+01 | 1486582785.66247 |                 0 |              14 |                  1741 |                  508 |             219421 |       1939596 |            19381 |        44360897 |                     0 |     272318357 | 2017-02-08 19:33:31.339908+01

 2017-02-08 20:39:46.773864+01 | 1486582786.77386 |                 0 |              14 |                  1741 |                  508 |             219421 |       1940096 |            19386 |        44360897 |                     0 |     272399498 | 2017-02-08 19:33:31.339908+01

 2017-02-08 20:39:47.894966+01 | 1486582787.89497 |                 0 |              14 |                  1741 |                  508 |             219421 |       1940696 |            19392 |        44424134 |                     0 |     272495238 | 2017-02-08 19:33:31.339908+01

 2017-02-08 20:39:49.105439+01 | 1486582789.10544 |                 0 |              14 |                  1741 |                  508 |             219421 |       1941296 |            19398 |        44424134 |                     0 |     272590560 | 2017-02-08 19:33:31.339908+01

 2017-02-08 20:39:50.226615+01 | 1486582790.22661 |                 0 |              14 |                  1741 |                  508 |             219421 |       1941896 |            19404 |        44424134 |                     0 |     272685286 | 2017-02-08 19:33:31.339908+01

 2017-02-08 20:39:51.398258+01 | 1486582791.39826 |                 0 |              14 |                  1741 |                  508 |             219421 |       1942396 |            19409 |        44424134 |                     0 |     272763534 | 2017-02-08 19:33:31.339908+01

 2017-02-08 20:39:52.545837+01 | 1486582792.54584 |                 0 |              14 |                  1741 |                  508 |             219421 |       1942996 |            19415 |        44487370 |                     0 |     272858760 | 2017-02-08 19:33:31.339908+01

 2017-02-08 20:39:53.736168+01 | 1486582793.73617 |                 0 |              14 |                  1741 |                  508 |             219421 |       1943596 |            19421 |        44487370 |                     0 |     272953691 | 2017-02-08 19:33:31.339908+01

 2017-02-08 20:39:54.817274+01 | 1486582794.81727 |                 0 |              14 |                  1741 |                  508 |             219421 |       1944096 |            19426 |        44487370 |                     0 |     273035214 | 2017-02-08 19:33:31.339908+01

 2017-02-08 20:39:55.990178+01 | 1486582795.99018 |                 0 |              14 |                  1741 |                  508 |             219421 |       1944696 |            19432 |        44487370 |                     0 |     273131421 | 2017-02-08 19:33:31.339908+01

 2017-02-08 20:39:57.162074+01 | 1486582797.16207 |                 0 |              14 |                  1741 |                  508 |             219421 |       1945296 |            19438 |        44550606 |                     0 |     273229160 | 2017-02-08 19:33:31.339908+01

 2017-02-08 20:39:58.346728+01 | 1486582798.34673 |                 0 |              14 |                  1741 |                  508 |             219421 |       1945896 |            19444 |        44550606 |                     0 |     273325320 | 2017-02-08 19:33:31.339908+01

 2017-02-08 20:39:59.504829+01 | 1486582799.50483 |                 0 |              14 |                  1741 |                  508 |             219421 |       1946396 |            19449 |        44550606 |                     0 |     273404375 | 2017-02-08 19:33:31.339908+01

 2017-02-08 20:40:00.6829+01 | 1486582800.6829 |                 0 |              14 |                  1741 |                  508 |             219421 |       1946996 |            19455 |        44550606 |                     0 |     273500233 | 2017-02-08 19:33:31.339908+01

 2017-02-08 20:40:01.780095+01 | 1486582801.7801 |                 0 |              14 |                  1741 |                  508 |             219421 |       1947596 |            19461 |        44613842 |                     0 |     273597641 | 2017-02-08 19:33:31.339908+01

 2017-02-08 20:40:02.861568+01 | 1486582802.86157 |                 0 |              14 |                  1741 |                  508 |             219421 |       1948096 |            19466 |        44613842 |                     0 |     273679344 | 2017-02-08 19:33:31.339908+01

 2017-02-08 20:40:04.032695+01 | 1486582804.0327 |                 0 |              14 |                  1741 |                  508 |             219421 |       1948696 |            19472 |        44613842 |                     0 |     273776538 | 2017-02-08 19:33:31.339908+01

 2017-02-08 20:40:05.207302+01 | 1486582805.2073 |                 0 |              14 |                  1741 |                  508 |             219421 |       1949296 |            19478 |        44613842 |                     0 |     273872657 | 2017-02-08 19:33:31.339908+01

 2017-02-08 20:40:06.411942+01 | 1486582806.41194 |                 0 |              14 |                  1741 |                  508 |             219421 |       1949796 |            19483 |        44677078 |                     0 |     273953018 | 2017-02-08 19:33:31.339908+01

 2017-02-08 20:40:07.549587+01 | 1486582807.54959 |                 0 |              14 |                  1741 |                  508 |             219421 |       1950396 |            19489 |        44677078 |                     0 |     274048992 | 2017-02-08 19:33:31.339908+01

 2017-02-08 20:40:08.737979+01 | 1486582808.73798 |                 0 |              14 |                  1741 |                  508 |             219421 |       1950996 |            19495 |        44677078 |                     0 |     274145761 | 2017-02-08 19:33:31.339908+01

 2017-02-08 20:40:09.856027+01 | 1486582809.85603 |                 0 |              14 |                  1741 |                  508 |             219421 |       1951596 |            19501 |        44677078 |                     0 |     274242140 | 2017-02-08 19:33:31.339908+01

 2017-02-08 20:40:10.948261+01 | 1486582810.94826 |                 0 |              14 |                  1741 |                  508 |             219421 |       1952096 |            19506 |        44740324 |                     0 |     274325875 | 2017-02-08 19:33:31.339908+01

 2017-02-08 20:40:12.126108+01 | 1486582812.12611 |                 0 |              14 |                  1741 |                  508 |             219421 |       1952696 |            19512 |        44740324 |                     0 |     274423979 | 2017-02-08 19:33:31.339908+01

 2017-02-08 20:40:13.305757+01 | 1486582813.30576 |                 0 |              14 |                  1741 |                  508 |             219421 |       1953296 |            19518 |        44740324 |                     0 |     274521827 | 2017-02-08 19:33:31.339908+01

 2017-02-08 20:40:14.509424+01 | 1486582814.50942 |                 0 |              14 |                  1741 |                  508 |             219421 |       1953896 |            19524 |        44740324 |                     0 |     274619862 | 2017-02-08 19:33:31.339908+01

 2017-02-08 20:40:15.680227+01 | 1486582815.68023 |                 0 |              14 |                  1741 |                  508 |             219421 |       1954496 |            19530 |        44803660 |                     0 |     274717286 | 2017-02-08 19:33:31.339908+01

 2017-02-08 20:40:16.869364+01 | 1486582816.86936 |                 0 |              14 |                  1741 |                  508 |             219421 |       1954996 |            19535 |        44803660 |                     0 |     274797168 | 2017-02-08 19:33:31.339908+01

 2017-02-08 20:40:17.992064+01 | 1486582817.99206 |                 0 |              14 |                  1741 |                  508 |             219421 |       1955596 |            19541 |        44803660 |                     0 |     274895319 | 2017-02-08 19:33:31.339908+01

 2017-02-08 20:40:19.138399+01 | 1486582819.1384 |                 0 |              14 |                  1741 |                  508 |             219421 |       1956196 |            19547 |        44803660 |                     0 |     274991986 | 2017-02-08 19:33:31.339908+01

 2017-02-08 20:40:20.227495+01 | 1486582820.22749 |                 0 |              14 |                  1741 |                  508 |             219421 |       1956696 |            19552 |        44866897 |                     0 |     275075159 | 2017-02-08 19:33:31.339908+01

 2017-02-08 20:40:21.439313+01 | 1486582821.43931 |                 0 |              14 |                  1741 |                  508 |             219421 |       1957296 |            19558 |        44866897 |                     0 |     275173644 | 2017-02-08 19:33:31.339908+01

 2017-02-08 20:40:22.626319+01 | 1486582822.62632 |                 0 |              14 |                  1741 |                  508 |             219421 |       1957896 |            19564 |        44866897 |                     0 |     275272374 | 2017-02-08 19:33:31.339908+01

 2017-02-08 20:40:23.773073+01 | 1486582823.77307 |                 0 |              14 |                  1741 |                  508 |             219421 |       1958496 |            19570 |        44866897 |                     0 |     275369686 | 2017-02-08 19:33:31.339908+01

 2017-02-08 20:40:24.880756+01 | 1486582824.88076 |                 0 |              14 |                  1741 |                  508 |             219421 |       1959096 |            19576 |        44930154 |                     0 |     275466852 | 2017-02-08 19:33:31.339908+01

 2017-02-08 20:40:26.046187+01 | 1486582826.04619 |                 0 |              14 |                  1741 |                  508 |             219421 |       1959596 |            19581 |        44930154 |                     0 |     275548057 | 2017-02-08 19:33:31.339908+01

 2017-02-08 20:40:27.216893+01 | 1486582827.21689 |                 0 |              14 |                  1741 |                  508 |             219421 |       1960196 |            19587 |        44930154 |                     0 |     275648313 | 2017-02-08 19:33:31.339908+01

 2017-02-08 20:40:28.403013+01 | 1486582828.40301 |                 0 |              14 |                  1741 |                  508 |             219421 |       1960796 |            19593 |        44930154 |                     0 |     275746285 | 2017-02-08 19:33:31.339908+01

 2017-02-08 20:40:29.581386+01 | 1486582829.58139 |                 0 |              14 |                  1741 |                  508 |             219421 |       1961396 |            19599 |        44993490 |                     0 |     275845356 | 2017-02-08 19:33:31.339908+01

 2017-02-08 20:40:30.699164+01 | 1486582830.69916 |                 0 |              14 |                  1741 |                  508 |             219421 |       1961896 |            19604 |        44993490 |                     0 |     275925580 | 2017-02-08 19:33:31.339908+01

 2017-02-08 20:40:31.868096+01 | 1486582831.8681 |                 0 |              14 |                  1741 |                  508 |             219421 |       1962496 |            19610 |        44993490 |                     0 |     276023640 | 2017-02-08 19:33:31.339908+01

 2017-02-08 20:40:32.97764+01 | 1486582832.97764 |                 0 |              14 |                  1741 |                  508 |             219421 |       1963096 |            19616 |        44993490 |                     0 |     276122036 | 2017-02-08 19:33:31.339908+01

 2017-02-08 20:40:34.145172+01 | 1486582834.14517 |                 0 |              14 |                  1741 |                  508 |             219421 |       1963596 |            19621 |        45056726 |                     0 |     276203466 | 2017-02-08 19:33:31.339908+01

 2017-02-08 20:40:35.374229+01 | 1486582835.37423 |                 0 |              14 |                  1741 |                  508 |             219421 |       1964196 |            19627 |        45056726 |                     0 |     276301671 | 2017-02-08 19:33:31.339908+01

 2017-02-08 20:40:36.564952+01 | 1486582836.56495 |                 0 |              14 |                  1741 |                  508 |             219421 |       1964796 |            19633 |        45056726 |                     0 |     276400872 | 2017-02-08 19:33:31.339908+01

 2017-02-08 20:40:37.689242+01 | 1486582837.68924 |                 0 |              14 |                  1741 |                  508 |             219421 |       1965396 |            19639 |        45056726 |                     0 |     276500600 | 2017-02-08 19:33:31.339908+01

 2017-02-08 20:40:38.761739+01 | 1486582838.76174 |                 0 |              14 |                  1741 |                  508 |             219421 |       1965996 |            19645 |        45120062 |                     0 |     276600252 | 2017-02-08 19:33:31.339908+01

 2017-02-08 20:40:39.940479+01 | 1486582839.94048 |                 0 |              14 |                  1741 |                  508 |             219421 |       1966496 |            19650 |        45120062 |                     0 |     276680459 | 2017-02-08 19:33:31.339908+01

 2017-02-08 20:40:41.199303+01 | 1486582841.1993 |                 0 |              14 |                  1741 |                  508 |             219421 |       1967096 |            19656 |        45120062 |                     0 |     276779304 | 2017-02-08 19:33:31.339908+01

 2017-02-08 20:40:42.381954+01 | 1486582842.38195 |                 0 |              14 |                  1741 |                  508 |             219421 |       1967696 |            19662 |        45120062 |                     0 |     276878480 | 2017-02-08 19:33:31.339908+01

 2017-02-08 20:40:43.533625+01 | 1486582843.53362 |                 0 |              14 |                  1741 |                  508 |             219421 |       1968296 |            19668 |        45183298 |                     0 |     276975950 | 2017-02-08 19:33:31.339908+01

 2017-02-08 20:40:44.706761+01 | 1486582844.70676 |                 0 |              14 |                  1741 |                  508 |             219421 |       1968896 |            19674 |        45183298 |                     0 |     277074588 | 2017-02-08 19:33:31.339908+01

 2017-02-08 20:40:45.822467+01 | 1486582845.82247 |                 0 |              14 |                  1741 |                  508 |             219421 |       1969396 |            19679 |        45183298 |                     0 |     277156298 | 2017-02-08 19:33:31.339908+01

 2017-02-08 20:40:46.922314+01 | 1486582846.92231 |                 0 |              14 |                  1741 |                  508 |             219421 |       1969996 |            19685 |        45183298 |                     0 |     277256696 | 2017-02-08 19:33:31.339908+01

 2017-02-08 20:40:48.037729+01 | 1486582848.03773 |                 0 |              14 |                  1741 |                  508 |             219421 |       1970496 |            19690 |        45246634 |                     0 |     277339811 | 2017-02-08 19:33:31.339908+01

 2017-02-08 20:40:49.20818+01 | 1486582849.20818 |                 0 |              14 |                  1741 |                  508 |             219421 |       1971096 |            19696 |        45246634 |                     0 |     277438709 | 2017-02-08 19:33:31.339908+01

 2017-02-08 20:40:50.454862+01 | 1486582850.45486 |                 0 |              14 |                  1741 |                  508 |             219421 |       1971696 |            19702 |        45246634 |                     0 |     277538653 | 2017-02-08 19:33:31.339908+01

 2017-02-08 20:40:51.594098+01 | 1486582851.5941 |                 0 |              14 |                  1741 |                  508 |             219421 |       1972296 |            19708 |        45246634 |                     0 |     277638815 | 2017-02-08 19:33:31.339908+01

 2017-02-08 20:40:52.741416+01 | 1486582852.74142 |                 0 |              14 |                  1741 |                  508 |             219421 |       1972896 |            19714 |        45309870 |                     0 |     277739329 | 2017-02-08 19:33:31.339908+01

 2017-02-08 20:40:53.829769+01 | 1486582853.82977 |                 0 |              14 |                  1741 |                  508 |             219421 |       1973396 |            19719 |        45309870 |                     0 |     277823746 | 2017-02-08 19:33:31.339908+01

 2017-02-08 20:40:54.945128+01 | 1486582854.94513 |                 0 |              14 |                  1741 |                  508 |             219421 |       1973996 |            19725 |        45309870 |                     0 |     277925349 | 2017-02-08 19:33:31.339908+01

 2017-02-08 20:40:56.081063+01 | 1486582856.08106 |                 0 |              14 |                  1741 |                  508 |             219421 |       1974496 |            19730 |        45309870 |                     0 |     278008759 | 2017-02-08 19:33:31.339908+01

 2017-02-08 20:40:57.234903+01 | 1486582857.2349 |                 0 |              14 |                  1741 |                  508 |             219421 |       1975096 |            19736 |        45372906 |                     0 |     278110428 | 2017-02-08 19:33:31.339908+01

 2017-02-08 20:40:58.401273+01 | 1486582858.40127 |                 0 |              14 |                  1741 |                  508 |             219421 |       1975696 |            19742 |        45372906 |                     0 |     278211605 | 2017-02-08 19:33:31.339908+01

 2017-02-08 20:40:59.600881+01 | 1486582859.60088 |                 0 |              14 |                  1741 |                  508 |             219421 |       1976296 |            19748 |        45372906 |                     0 |     278314223 | 2017-02-08 19:33:31.339908+01

 2017-02-08 20:41:00.720092+01 | 1486582860.72009 |                 0 |              14 |                  1741 |                  508 |             219421 |       1976796 |            19753 |        45372906 |                     0 |     278397422 | 2017-02-08 19:33:31.339908+01

 2017-02-08 20:41:01.853709+01 | 1486582861.85371 |                 0 |              14 |                  1741 |                  508 |             219421 |       1977396 |            19759 |        45436042 |                     0 |     278501446 | 2017-02-08 19:33:31.339908+01

 2017-02-08 20:41:02.938008+01 | 1486582862.93801 |                 0 |              14 |                  1741 |                  508 |             219421 |       1977896 |            19764 |        45436042 |                     0 |     278584173 | 2017-02-08 19:33:31.339908+01

 2017-02-08 20:41:04.161553+01 | 1486582864.16155 |                 0 |              14 |                  1741 |                  508 |             219421 |       1978496 |            19770 |        45436042 |                     0 |     278683362 | 2017-02-08 19:33:31.339908+01

 2017-02-08 20:41:05.337056+01 | 1486582865.33706 |                 0 |              14 |                  1741 |                  508 |             219421 |       1979096 |            19776 |        45436042 |                     0 |     278784307 | 2017-02-08 19:33:31.339908+01

 2017-02-08 20:41:06.559874+01 | 1486582866.55987 |                 0 |              14 |                  1741 |                  508 |             219421 |       1979696 |            19782 |        45499178 |                     0 |     278883769 | 2017-02-08 19:33:31.339908+01

 2017-02-08 20:41:07.674375+01 | 1486582867.67438 |                 0 |              14 |                  1741 |                  508 |             219421 |       1980296 |            19788 |        45499178 |                     0 |     278988103 | 2017-02-08 19:33:31.339908+01

 2017-02-08 20:41:08.87706+01 | 1486582868.87706 |                 0 |              14 |                  1741 |                  508 |             219421 |       1980796 |            19793 |        45499178 |                     0 |     279070386 | 2017-02-08 19:33:31.339908+01

 2017-02-08 20:41:10.071376+01 | 1486582870.07138 |                 0 |              14 |                  1741 |                  508 |             219421 |       1981496 |            19800 |        45499178 |                     0 |     279192409 | 2017-02-08 19:33:31.339908+01

 2017-02-08 20:41:11.201362+01 | 1486582871.20136 |                 0 |              14 |                  1741 |                  508 |             219421 |       1981996 |            19805 |        45499178 |                     0 |     279277373 | 2017-02-08 19:33:31.339908+01

 2017-02-08 20:41:12.390308+01 | 1486582872.39031 |                 0 |              14 |                  1741 |                  508 |             219421 |       1982596 |            19811 |        45562214 |                     0 |     279379257 | 2017-02-08 19:33:31.339908+01

 2017-02-08 20:41:13.556558+01 | 1486582873.55656 |                 0 |              14 |                  1741 |                  508 |             219421 |       1983196 |            19817 |        45562214 |                     0 |     279481217 | 2017-02-08 19:33:31.339908+01

 2017-02-08 20:41:14.721109+01 | 1486582874.72111 |                 0 |              14 |                  1741 |                  508 |             219421 |       1983796 |            19823 |        45562214 |                     0 |     279581183 | 2017-02-08 19:33:31.339908+01

 2017-02-08 20:41:15.876012+01 | 1486582875.87601 |                 0 |              14 |                  1741 |                  508 |             219421 |       1984296 |            19828 |        45625550 |                     0 |     279664922 | 2017-02-08 19:33:31.339908+01

 2017-02-08 20:41:17.030782+01 | 1486582877.03078 |                 0 |              14 |                  1741 |                  508 |             219421 |       1984896 |            19834 |        45625550 |                     0 |     279764472 | 2017-02-08 19:33:31.339908+01

 2017-02-08 20:41:18.257187+01 | 1486582878.25719 |                 0 |              14 |                  1741 |                  508 |             219421 |       1985496 |            19840 |        45625550 |                     0 |     279866077 | 2017-02-08 19:33:31.339908+01

 2017-02-08 20:41:19.475294+01 | 1486582879.47529 |                 0 |              14 |                  1741 |                  508 |             219421 |       1986096 |            19846 |        45625550 |                     0 |     279967129 | 2017-02-08 19:33:31.339908+01

 2017-02-08 20:41:20.625743+01 | 1486582880.62574 |                 0 |              14 |                  1741 |                  508 |             219421 |       1986696 |            19852 |        45688786 |                     0 |     280067616 | 2017-02-08 19:33:31.339908+01

 2017-02-08 20:41:21.719723+01 | 1486582881.71972 |                 0 |              14 |                  1741 |                  508 |             219421 |       1987296 |            19858 |        45688786 |                     0 |     280169996 | 2017-02-08 19:33:31.339908+01

 2017-02-08 20:41:22.846557+01 | 1486582882.84656 |                 0 |              14 |                  1741 |                  508 |             219421 |       1987796 |            19863 |        45688786 |                     0 |     280253041 | 2017-02-08 19:33:31.339908+01

 2017-02-08 20:41:23.991571+01 | 1486582883.99157 |                 0 |              14 |                  1741 |                  508 |             219421 |       1988396 |            19869 |        45688786 |                     0 |     280353102 | 2017-02-08 19:33:31.339908+01

 2017-02-08 20:41:25.179272+01 | 1486582885.17927 |                 0 |              14 |                  1741 |                  508 |             219421 |       1988896 |            19874 |        45752022 |                     0 |     280436190 | 2017-02-08 19:33:31.339908+01

 2017-02-08 20:41:26.364804+01 | 1486582886.3648 |                 0 |              14 |                  1741 |                  508 |             219421 |       1989496 |            19880 |        45752022 |                     0 |     280537763 | 2017-02-08 19:33:31.339908+01

 2017-02-08 20:41:27.496561+01 | 1486582887.49656 |                 0 |              14 |                  1741 |                  508 |             219421 |       1990096 |            19886 |        45752022 |                     0 |     280641783 | 2017-02-08 19:33:31.339908+01

 2017-02-08 20:41:28.641429+01 | 1486582888.64143 |                 0 |              14 |                  1741 |                  508 |             219421 |       1990696 |            19892 |        45752022 |                     0 |     280741986 | 2017-02-08 19:33:31.339908+01

 2017-02-08 20:41:29.820346+01 | 1486582889.82035 |                 0 |              14 |                  1741 |                  508 |             219421 |       1991296 |            19898 |        45752022 |                     0 |     280842139 | 2017-02-08 19:33:31.339908+01

 2017-02-08 20:41:30.995192+01 | 1486582890.99519 |                 0 |              14 |                  1741 |                  508 |             219421 |       1991796 |            19903 |        45815158 |                     0 |     280925006 | 2017-02-08 19:33:31.339908+01

 2017-02-08 20:41:32.228285+01 | 1486582892.22829 |                 0 |              14 |                  1741 |                  508 |             219421 |       1992396 |            19909 |        45815158 |                     0 |     281026417 | 2017-02-08 19:33:31.339908+01

 2017-02-08 20:41:33.470056+01 | 1486582893.47006 |                 0 |              14 |                  1741 |                  508 |             219421 |       1992996 |            19915 |        45815158 |                     0 |     281126378 | 2017-02-08 19:33:31.339908+01

 2017-02-08 20:41:34.674157+01 | 1486582894.67416 |                 0 |              14 |                  1741 |                  508 |             219421 |       1993696 |            19922 |        45878359 |                     0 |     281243448 | 2017-02-08 19:33:31.339908+01

 2017-02-08 20:41:35.807479+01 | 1486582895.80748 |                 0 |              14 |                  1741 |                  508 |             219421 |       1994196 |            19927 |        45878359 |                     0 |     281322252 | 2017-02-08 19:33:31.339908+01

 2017-02-08 20:41:36.974243+01 | 1486582896.97424 |                 0 |              14 |                  1741 |                  508 |             219421 |       1994796 |            19933 |        45878359 |                     0 |     281419925 | 2017-02-08 19:33:31.339908+01

 2017-02-08 20:41:38.202336+01 | 1486582898.20234 |                 0 |              14 |                  1741 |                  508 |             219421 |       1995396 |            19939 |        45878359 |                     0 |     281521268 | 2017-02-08 19:33:31.339908+01

 2017-02-08 20:41:39.409275+01 | 1486582899.40928 |                 0 |              14 |                  1741 |                  508 |             219421 |       1995996 |            19945 |        45878359 |                     0 |     281624412 | 2017-02-08 19:33:31.339908+01

 2017-02-08 20:41:40.636078+01 | 1486582900.63608 |                 0 |              14 |                  1741 |                  508 |             219421 |       1996596 |            19951 |        45941433 |                     0 |     281725909 | 2017-02-08 19:33:31.339908+01

 2017-02-08 20:41:41.768726+01 | 1486582901.76873 |                 0 |              14 |                  1741 |                  508 |             219421 |       1997196 |            19957 |        45941433 |                     0 |     281829893 | 2017-02-08 19:33:31.339908+01

 2017-02-08 20:41:42.858888+01 | 1486582902.85889 |                 0 |              14 |                  1741 |                  508 |             219421 |       1997796 |            19963 |        45941433 |                     0 |     281933049 | 2017-02-08 19:33:31.339908+01

 2017-02-08 20:41:44.016647+01 | 1486582904.01665 |                 0 |              14 |                  1741 |                  508 |             219421 |       1998296 |            19968 |        45941433 |                     0 |     282015164 | 2017-02-08 19:33:31.339908+01

 2017-02-08 20:41:45.200962+01 | 1486582905.20096 |                 0 |              14 |                  1741 |                  508 |             219421 |       1998896 |            19974 |        46004669 |                     0 |     282116990 | 2017-02-08 19:33:31.339908+01

 2017-02-08 20:41:46.396638+01 | 1486582906.39664 |                 0 |              14 |                  1741 |                  508 |             219421 |       1999496 |            19980 |        46004669 |                     0 |     282218031 | 2017-02-08 19:33:31.339908+01

 2017-02-08 20:41:47.61696+01 | 1486582907.61696 |                 0 |              14 |                  1741 |                  508 |             219421 |       2000096 |            19986 |        46004669 |                     0 |     282318291 | 2017-02-08 19:33:31.339908+01

 2017-02-08 20:41:48.719821+01 | 1486582908.71982 |                 0 |              14 |                  1741 |                  508 |             219421 |       2000696 |            19992 |        46004669 |                     0 |     282421517 | 2017-02-08 19:33:31.339908+01

 2017-02-08 20:41:49.877455+01 | 1486582909.87745 |                 0 |              14 |                  1741 |                  508 |             219421 |       2001196 |            19997 |        46067805 |                     0 |     282506664 | 2017-02-08 19:33:31.339908+01

 2017-02-08 20:41:51.095022+01 | 1486582911.09502 |                 0 |              14 |                  1741 |                  508 |             219421 |       2001796 |            20003 |        46067805 |                     0 |     282609501 | 2017-02-08 19:33:31.339908+01

 2017-02-08 20:41:52.273+01 | 1486582912.273 |                 0 |              14 |                  1741 |                  508 |             219421 |       2002396 |            20009 |        46067805 |                     0 |     282710626 | 2017-02-08 19:33:31.339908+01

 2017-02-08 20:41:53.428285+01 | 1486582913.42828 |                 0 |              14 |                  1741 |                  508 |             219421 |       2002996 |            20015 |        46067805 |                     0 |     282810829 | 2017-02-08 19:33:31.339908+01

 2017-02-08 20:41:54.614871+01 | 1486582914.61487 |                 0 |              14 |                  1741 |                  508 |             219421 |       2003496 |            20020 |        46131041 |                     0 |     282897264 | 2017-02-08 19:33:31.339908+01

 2017-02-08 20:41:55.704721+01 | 1486582915.70472 |                 0 |              14 |                  1741 |                  508 |             219421 |       2004096 |            20026 |        46131041 |                     0 |     282997556 | 2017-02-08 19:33:31.339908+01

 2017-02-08 20:41:56.868313+01 | 1486582916.86831 |                 0 |              14 |                  1741 |                  508 |             219421 |       2004696 |            20032 |        46131041 |                     0 |     283099788 | 2017-02-08 19:33:31.339908+01

 2017-02-08 20:41:58.027257+01 | 1486582918.02726 |                 0 |              14 |                  1741 |                  508 |             219421 |       2005296 |            20038 |        46131041 |                     0 |     283203118 | 2017-02-08 19:33:31.339908+01

 2017-02-08 20:41:59.224234+01 | 1486582919.22423 |                 0 |              14 |                  1741 |                  508 |             219421 |       2005796 |            20043 |        46194178 |                     0 |     283285843 | 2017-02-08 19:33:31.339908+01

 2017-02-08 20:42:00.438263+01 | 1486582920.43826 |                 0 |              14 |                  1741 |                  508 |             219421 |       2006396 |            20049 |        46194178 |                     0 |     283387188 | 2017-02-08 19:33:31.339908+01

 2017-02-08 20:42:01.642097+01 | 1486582921.6421 |                 0 |              14 |                  1741 |                  508 |             219421 |       2006996 |            20055 |        46194178 |                     0 |     283490800 | 2017-02-08 19:33:31.339908+01

 2017-02-08 20:42:02.747844+01 | 1486582922.74784 |                 0 |              14 |                  1741 |                  508 |             219421 |       2007596 |            20061 |        46194178 |                     0 |     283592696 | 2017-02-08 19:33:31.339908+01

 2017-02-08 20:42:03.853453+01 | 1486582923.85345 |                 0 |              14 |                  1741 |                  508 |             219421 |       2007996 |            20065 |        46257414 |                     0 |     283657669 | 2017-02-08 19:33:31.339908+01

 2017-02-08 20:42:04.940926+01 | 1486582924.94093 |                 0 |              14 |                  1741 |                  508 |             219421 |       2008696 |            20072 |        46257414 |                     0 |     283775056 | 2017-02-08 19:33:31.339908+01

 2017-02-08 20:42:06.043734+01 | 1486582926.04373 |                 0 |              14 |                  1741 |                  508 |             219421 |       2009296 |            20078 |        46257414 |                     0 |     283876368 | 2017-02-08 19:33:31.339908+01

 2017-02-08 20:42:07.241457+01 | 1486582927.24146 |                 0 |              14 |                  1741 |                  508 |             219421 |       2009796 |            20083 |        46257414 |                     0 |     283959242 | 2017-02-08 19:33:31.339908+01

 2017-02-08 20:42:08.469958+01 | 1486582928.46996 |                 0 |              14 |                  1741 |                  508 |             219421 |       2010396 |            20089 |        46320750 |                     0 |     284059414 | 2017-02-08 19:33:31.339908+01

 2017-02-08 20:42:09.648394+01 | 1486582929.64839 |                 0 |              14 |                  1741 |                  508 |             219421 |       2010996 |            20095 |        46320750 |                     0 |     284160168 | 2017-02-08 19:33:31.339908+01

 2017-02-08 20:42:10.757972+01 | 1486582930.75797 |                 0 |              14 |                  1741 |                  508 |             219421 |       2011596 |            20101 |        46320750 |                     0 |     284258464 | 2017-02-08 19:33:31.339908+01

 2017-02-08 20:42:11.936685+01 | 1486582931.93669 |                 0 |              14 |                  1741 |                  508 |             219421 |       2012196 |            20107 |        46320750 |                     0 |     284359180 | 2017-02-08 19:33:31.339908+01

 2017-02-08 20:42:13.140941+01 | 1486582933.14094 |                 0 |              14 |                  1741 |                  508 |             219421 |       2012696 |            20112 |        46384103 |                     0 |     284439933 | 2017-02-08 19:33:31.339908+01

 2017-02-08 20:42:14.346877+01 | 1486582934.34688 |                 0 |              14 |                  1741 |                  508 |             219421 |       2013296 |            20118 |        46384103 |                     0 |     284541709 | 2017-02-08 19:33:31.339908+01

 2017-02-08 20:42:15.467674+01 | 1486582935.46767 |                 0 |              14 |                  1741 |                  508 |             219421 |       2013896 |            20124 |        46384103 |                     0 |     284642319 | 2017-02-08 19:33:31.339908+01

 2017-02-08 20:42:16.672752+01 | 1486582936.67275 |                 0 |              14 |                  1741 |                  508 |             219421 |       2014496 |            20130 |        46447439 |                     0 |     284743295 | 2017-02-08 19:33:31.339908+01

 2017-02-08 20:42:17.848665+01 | 1486582937.84866 |                 0 |              14 |                  1741 |                  508 |             219421 |       2015096 |            20136 |        46447439 |                     0 |     284841832 | 2017-02-08 19:33:31.339908+01

 2017-02-08 20:42:19.015065+01 | 1486582939.01506 |                 0 |              14 |                  1741 |                  508 |             219421 |       2015696 |            20142 |        46447439 |                     0 |     284942706 | 2017-02-08 19:33:31.339908+01

 2017-02-08 20:42:20.192435+01 | 1486582940.19244 |                 0 |              14 |                  1741 |                  508 |             219421 |       2016296 |            20148 |        46447439 |                     0 |     285043405 | 2017-02-08 19:33:31.339908+01

 2017-02-08 20:42:21.421071+01 | 1486582941.42107 |                 0 |              14 |                  1741 |                  508 |             219421 |       2016896 |            20154 |        46510862 |                     0 |     285143282 | 2017-02-08 19:33:31.339908+01

 2017-02-08 20:42:22.636108+01 | 1486582942.63611 |                 0 |              14 |                  1741 |                  508 |             219421 |       2017496 |            20160 |        46510862 |                     0 |     285241835 | 2017-02-08 19:33:31.339908+01

 2017-02-08 20:42:23.806394+01 | 1486582943.80639 |                 0 |              14 |                  1741 |                  508 |             219421 |       2018096 |            20166 |        46510862 |                     0 |     285342325 | 2017-02-08 19:33:31.339908+01

 2017-02-08 20:42:24.902143+01 | 1486582944.90214 |                 0 |              14 |                  1741 |                  508 |             219421 |       2018596 |            20171 |        46510862 |                     0 |     285424966 | 2017-02-08 19:33:31.339908+01

 2017-02-08 20:42:26.112015+01 | 1486582946.11202 |                 0 |              14 |                  1741 |                  508 |             219421 |       2019196 |            20177 |        46574215 |                     0 |     285525466 | 2017-02-08 19:33:31.339908+01

 2017-02-08 20:42:27.283001+01 | 1486582947.283 |                 0 |              14 |                  1741 |                  508 |             219421 |       2019796 |            20183 |        46574215 |                     0 |     285624469 | 2017-02-08 19:33:31.339908+01

 2017-02-08 20:42:28.451628+01 | 1486582948.45163 |                 0 |              14 |                  1741 |                  508 |             219421 |       2020396 |            20189 |        46574215 |                     0 |     285726215 | 2017-02-08 19:33:31.339908+01

 2017-02-08 20:42:29.639851+01 | 1486582949.63985 |                 0 |              14 |                  1741 |                  508 |             219421 |       2020896 |            20194 |        46637552 |                     0 |     285810170 | 2017-02-08 19:33:31.339908+01

 2017-02-08 20:42:30.846754+01 | 1486582950.84675 |                 0 |              14 |                  1741 |                  508 |             219421 |       2021496 |            20200 |        46637552 |                     0 |     285910330 | 2017-02-08 19:33:31.339908+01

 2017-02-08 20:42:31.98992+01 | 1486582951.98992 |                 0 |              14 |                  1741 |                  508 |             219421 |       2022096 |            20206 |        46637552 |                     0 |     286009095 | 2017-02-08 19:33:31.339908+01

 2017-02-08 20:42:33.160979+01 | 1486582953.16098 |                 0 |              14 |                  1741 |                  508 |             219421 |       2022696 |            20212 |        46637552 |                     0 |     286110474 | 2017-02-08 19:33:31.339908+01

 2017-02-08 20:42:34.344006+01 | 1486582954.34401 |                 0 |              14 |                  1741 |                  508 |             219421 |       2023296 |            20218 |        46700992 |                     0 |     286209781 | 2017-02-08 19:33:31.339908+01

 2017-02-08 20:42:35.538003+01 | 1486582955.538 |                 0 |              14 |                  1741 |                  508 |             219421 |       2023896 |            20224 |        46700992 |                     0 |     286310084 | 2017-02-08 19:33:31.339908+01

 2017-02-08 20:42:36.711235+01 | 1486582956.71124 |                 0 |              14 |                  1741 |                  508 |             219421 |       2024496 |            20230 |        46700992 |                     0 |     286411354 | 2017-02-08 19:33:31.339908+01

 2017-02-08 20:42:37.870316+01 | 1486582957.87032 |                 0 |              14 |                  1741 |                  508 |             219421 |       2024996 |            20235 |        46700992 |                     0 |     286494393 | 2017-02-08 19:33:31.339908+01

 2017-02-08 20:42:38.966151+01 | 1486582958.96615 |                 0 |              14 |                  1741 |                  508 |             219421 |       2025596 |            20241 |        46764328 |                     0 |     286594765 | 2017-02-08 19:33:31.339908+01

 2017-02-08 20:42:40.124783+01 | 1486582960.12478 |                 0 |              14 |                  1741 |                  508 |             219421 |       2026096 |            20246 |        46764328 |                     0 |     286677684 | 2017-02-08 19:33:31.339908+01

 2017-02-08 20:42:41.331143+01 | 1486582961.33114 |                 0 |              14 |                  1741 |                  508 |             219421 |       2026696 |            20252 |        46764328 |                     0 |     286779012 | 2017-02-08 19:33:31.339908+01

 2017-02-08 20:42:42.482473+01 | 1486582962.48247 |                 0 |              14 |                  1741 |                  508 |             219421 |       2027296 |            20258 |        46827764 |                     0 |     286881073 | 2017-02-08 19:33:31.339908+01

 2017-02-08 20:42:43.627677+01 | 1486582963.62768 |                 0 |              14 |                  1741 |                  508 |             219421 |       2027896 |            20264 |        46827764 |                     0 |     286981372 | 2017-02-08 19:33:31.339908+01

 2017-02-08 20:42:44.788366+01 | 1486582964.78837 |                 0 |              14 |                  1741 |                  508 |             219421 |       2028496 |            20270 |        46827764 |                     0 |     287080887 | 2017-02-08 19:33:31.339908+01

 2017-02-08 20:42:45.9162+01 | 1486582965.9162 |                 0 |              14 |                  1741 |                  508 |             219421 |       2028996 |            20275 |        46827764 |                     0 |     287164730 | 2017-02-08 19:33:31.339908+01

 2017-02-08 20:42:47.033123+01 | 1486582967.03312 |                 0 |              14 |                  1741 |                  508 |             219421 |       2029596 |            20281 |        46891200 |                     0 |     287265822 | 2017-02-08 19:33:31.339908+01

 2017-02-08 20:42:48.156034+01 | 1486582968.15603 |                 0 |              14 |                  1741 |                  508 |             219421 |       2030096 |            20286 |        46891200 |                     0 |     287349045 | 2017-02-08 19:33:31.339908+01

 2017-02-08 20:42:49.288731+01 | 1486582969.28873 |                 0 |              14 |                  1741 |                  508 |             219421 |       2030696 |            20292 |        46891200 |                     0 |     287450063 | 2017-02-08 19:33:31.339908+01

 2017-02-08 20:42:50.450088+01 | 1486582970.45009 |                 0 |              14 |                  1741 |                  508 |             219421 |       2031296 |            20298 |        46891200 |                     0 |     287550878 | 2017-02-08 19:33:31.339908+01

 2017-02-08 20:42:51.644186+01 | 1486582971.64419 |                 0 |              14 |                  1741 |                  508 |             219421 |       2031796 |            20303 |        46954637 |                     0 |     287634731 | 2017-02-08 19:33:31.339908+01

 2017-02-08 20:42:52.866553+01 | 1486582972.86655 |                 0 |              14 |                  1741 |                  508 |             219421 |       2032496 |            20310 |        46954637 |                     0 |     287754235 | 2017-02-08 19:33:31.339908+01

 2017-02-08 20:42:54.054036+01 | 1486582974.05404 |                 0 |              14 |                  1741 |                  508 |             219421 |       2032996 |            20315 |        46954637 |                     0 |     287837235 | 2017-02-08 19:33:31.339908+01

 2017-02-08 20:42:55.290808+01 | 1486582975.29081 |                 0 |              14 |                  1741 |                  508 |             219421 |       2033596 |            20321 |        46954637 |                     0 |     287936144 | 2017-02-08 19:33:31.339908+01

 2017-02-08 20:42:56.436902+01 | 1486582976.4369 |                 0 |              14 |                  1741 |                  508 |             219421 |       2034296 |            20328 |        47017973 |                     0 |     288056679 | 2017-02-08 19:33:31.339908+01

 2017-02-08 20:42:57.700879+01 | 1486582977.70088 |                 0 |              14 |                  1741 |                  508 |             219421 |       2034796 |            20333 |        47017973 |                     0 |     288137738 | 2017-02-08 19:33:31.339908+01

 2017-02-08 20:42:58.834715+01 | 1486582978.83471 |                 0 |              14 |                  1741 |                  508 |             219421 |       2035496 |            20340 |        47017973 |                     0 |     288257359 | 2017-02-08 19:33:31.339908+01

 2017-02-08 20:43:00.009697+01 | 1486582980.0097 |                 0 |              14 |                  1741 |                  508 |             219421 |       2035996 |            20345 |        47081309 |                     0 |     288337702 | 2017-02-08 19:33:31.339908+01

 2017-02-08 20:43:01.144629+01 | 1486582981.14463 |                 0 |              14 |                  1741 |                  508 |             219421 |       2036596 |            20351 |        47081309 |                     0 |     288439465 | 2017-02-08 19:33:31.339908+01

 2017-02-08 20:43:02.310853+01 | 1486582982.31085 |                 0 |              14 |                  1741 |                  508 |             219421 |       2037196 |            20357 |        47081309 |                     0 |     288537533 | 2017-02-08 19:33:31.339908+01

 2017-02-08 20:43:03.482982+01 | 1486582983.48298 |                 0 |              14 |                  1741 |                  508 |             219421 |       2037796 |            20363 |        47081309 |                     0 |     288637658 | 2017-02-08 19:33:31.339908+01

 2017-02-08 20:43:04.725286+01 | 1486582984.72529 |                 0 |              14 |                  1741 |                  508 |             219421 |       2038296 |            20368 |        47144685 |                     0 |     288719342 | 2017-02-08 19:33:31.339908+01

 2017-02-08 20:43:05.81762+01 | 1486582985.81762 |                 0 |              14 |                  1741 |                  508 |             219421 |       2038896 |            20374 |        47144685 |                     0 |     288821453 | 2017-02-08 19:33:31.339908+01

 2017-02-08 20:43:06.987743+01 | 1486582986.98774 |                 0 |              14 |                  1741 |                  508 |             219421 |       2039496 |            20380 |        47144685 |                     0 |     288921041 | 2017-02-08 19:33:31.339908+01

 2017-02-08 20:43:08.163755+01 | 1486582988.16375 |                 0 |              14 |                  1741 |                  508 |             219421 |       2040096 |            20386 |        47144685 |                     0 |     289021011 | 2017-02-08 19:33:31.339908+01

 2017-02-08 20:43:09.338918+01 | 1486582989.33892 |                 0 |              14 |                  1741 |                  508 |             219421 |       2040596 |            20391 |        47208102 |                     0 |     289104258 | 2017-02-08 19:33:31.339908+01

 2017-02-08 20:43:10.562202+01 | 1486582990.5622 |                 0 |              14 |                  1741 |                  508 |             219421 |       2041196 |            20397 |        47208102 |                     0 |     289205457 | 2017-02-08 19:33:31.339908+01

 2017-02-08 20:43:11.741602+01 | 1486582991.7416 |                 0 |              14 |                  1741 |                  508 |             219421 |       2041796 |            20403 |        47208102 |                     0 |     289305661 | 2017-02-08 19:33:31.339908+01

 2017-02-08 20:43:12.88855+01 | 1486582992.88855 |                 0 |              14 |                  1741 |                  508 |             219421 |       2042396 |            20409 |        47271438 |                     0 |     289406217 | 2017-02-08 19:33:31.339908+01

 2017-02-08 20:43:14.029021+01 | 1486582994.02902 |                 0 |              14 |                  1741 |                  508 |             219421 |       2042996 |            20415 |        47271438 |                     0 |     289506382 | 2017-02-08 19:33:31.339908+01

 2017-02-08 20:43:15.240693+01 | 1486582995.24069 |                 0 |              14 |                  1741 |                  508 |             219421 |       2043596 |            20421 |        47271438 |                     0 |     289608282 | 2017-02-08 19:33:31.339908+01

 2017-02-08 20:43:16.450875+01 | 1486582996.45088 |                 0 |              14 |                  1741 |                  508 |             219421 |       2044096 |            20426 |        47271438 |                     0 |     289689014 | 2017-02-08 19:33:31.339908+01

 2017-02-08 20:43:17.666751+01 | 1486582997.66675 |                 0 |              14 |                  1741 |                  508 |             219421 |       2044796 |            20433 |        47334874 |                     0 |     289808325 | 2017-02-08 19:33:31.339908+01

 2017-02-08 20:43:18.802155+01 | 1486582998.80216 |                 0 |              14 |                  1741 |                  508 |             219421 |       2045396 |            20439 |        47334874 |                     0 |     289909230 | 2017-02-08 19:33:31.339908+01

 2017-02-08 20:43:19.91459+01 | 1486582999.91459 |                 0 |              14 |                  1741 |                  508 |             219421 |       2045896 |            20444 |        47334874 |                     0 |     289992180 | 2017-02-08 19:33:31.339908+01

 2017-02-08 20:43:21.127635+01 | 1486583001.12764 |                 0 |              14 |                  1741 |                  508 |             219421 |       2046496 |            20450 |        47334874 |                     0 |     290091794 | 2017-02-08 19:33:31.339908+01

 2017-02-08 20:43:22.321005+01 | 1486583002.32101 |                 0 |              14 |                  1741 |                  508 |             219421 |       2047096 |            20456 |        47398210 |                     0 |     290192022 | 2017-02-08 19:33:31.339908+01

 2017-02-08 20:43:23.460873+01 | 1486583003.46087 |                 0 |              14 |                  1741 |                  508 |             219421 |       2047696 |            20462 |        47398210 |                     0 |     290293588 | 2017-02-08 19:33:31.339908+01

 2017-02-08 20:43:24.65142+01 | 1486583004.65142 |                 0 |              14 |                  1741 |                  508 |             219421 |       2048196 |            20467 |        47398210 |                     0 |     290375678 | 2017-02-08 19:33:31.339908+01

 2017-02-08 20:43:25.810318+01 | 1486583005.81032 |                 0 |              14 |                  1741 |                  508 |             219421 |       2048796 |            20473 |        47398210 |                     0 |     290475622 | 2017-02-08 19:33:31.339908+01

 2017-02-08 20:43:27.01166+01 | 1486583007.01166 |                 0 |              14 |                  1741 |                  508 |             219421 |       2049396 |            20479 |        47461546 |                     0 |     290575695 | 2017-02-08 19:33:31.339908+01

 2017-02-08 20:43:28.213864+01 | 1486583008.21386 |                 0 |              14 |                  1741 |                  508 |             219421 |       2049996 |            20485 |        47461546 |                     0 |     290676114 | 2017-02-08 19:33:31.339908+01

 2017-02-08 20:43:29.418538+01 | 1486583009.41854 |                 0 |              14 |                  1741 |                  508 |             219421 |       2050596 |            20491 |        47461546 |                     0 |     290777465 | 2017-02-08 19:33:31.339908+01

 2017-02-08 20:43:30.628381+01 | 1486583010.62838 |                 0 |              14 |                  1741 |                  508 |             219421 |       2051196 |            20497 |        47524882 |                     0 |     290876473 | 2017-02-08 19:33:31.339908+01

 2017-02-08 20:43:31.784521+01 | 1486583011.78452 |                 0 |              14 |                  1741 |                  508 |             219421 |       2051796 |            20503 |        47524882 |                     0 |     290977534 | 2017-02-08 19:33:31.339908+01

 2017-02-08 20:43:32.924715+01 | 1486583012.92472 |                 0 |              14 |                  1741 |                  508 |             219421 |       2052396 |            20509 |        47524882 |                     0 |     291078793 | 2017-02-08 19:33:31.339908+01

 2017-02-08 20:43:34.079573+01 | 1486583014.07957 |                 0 |              14 |                  1741 |                  508 |             219421 |       2052896 |            20514 |        47524882 |                     0 |     291162212 | 2017-02-08 19:33:31.339908+01

 2017-02-08 20:43:35.291081+01 | 1486583015.29108 |                 0 |              14 |                  1741 |                  508 |             219421 |       2053496 |            20520 |        47588318 |                     0 |     291261719 | 2017-02-08 19:33:31.339908+01

 2017-02-08 20:43:36.49149+01 | 1486583016.49149 |                 0 |              14 |                  1741 |                  508 |             219421 |       2054096 |            20526 |        47588318 |                     0 |     291364421 | 2017-02-08 19:33:31.339908+01

 2017-02-08 20:43:37.682946+01 | 1486583017.68295 |                 0 |              14 |                  1741 |                  508 |             219421 |       2054696 |            20532 |        47588318 |                     0 |     291466000 | 2017-02-08 19:33:31.339908+01

 2017-02-08 20:43:38.833368+01 | 1486583018.83337 |                 0 |              14 |                  1741 |                  508 |             219421 |       2055296 |            20538 |        47588318 |                     0 |     291569612 | 2017-02-08 19:33:31.339908+01

 2017-02-08 20:43:39.945384+01 | 1486583019.94538 |                 0 |              14 |                  1741 |                  508 |             219421 |       2055896 |            20544 |        47651655 |                     0 |     291670872 | 2017-02-08 19:33:31.339908+01

 2017-02-08 20:43:41.10408+01 | 1486583021.10408 |                 0 |              14 |                  1741 |                  508 |             219421 |       2056396 |            20549 |        47651655 |                     0 |     291755108 | 2017-02-08 19:33:31.339908+01

 2017-02-08 20:43:42.288484+01 | 1486583022.28848 |                 0 |              14 |                  1741 |                  508 |             219421 |       2056996 |            20555 |        47651655 |                     0 |     291856580 | 2017-02-08 19:33:31.339908+01

 2017-02-08 20:43:43.444031+01 | 1486583023.44403 |                 0 |              14 |                  1741 |                  508 |             219421 |       2057596 |            20561 |        47715091 |                     0 |     291958031 | 2017-02-08 19:33:31.339908+01

 2017-02-08 20:43:44.650303+01 | 1486583024.6503 |                 0 |              14 |                  1741 |                  508 |             219421 |       2058096 |            20566 |        47715091 |                     0 |     292041562 | 2017-02-08 19:33:31.339908+01

 2017-02-08 20:43:45.858559+01 | 1486583025.85856 |                 0 |              14 |                  1741 |                  508 |             219421 |       2058796 |            20573 |        47715091 |                     0 |     292160778 | 2017-02-08 19:33:31.339908+01

 2017-02-08 20:43:47.017473+01 | 1486583027.01747 |                 0 |              14 |                  1741 |                  508 |             219421 |       2059396 |            20579 |        47715091 |                     0 |     292261401 | 2017-02-08 19:33:31.339908+01

 2017-02-08 20:43:48.162155+01 | 1486583028.16215 |                 0 |              14 |                  1741 |                  508 |             219421 |       2059896 |            20584 |        47778427 |                     0 |     292344193 | 2017-02-08 19:33:31.339908+01

 2017-02-08 20:43:49.301636+01 | 1486583029.30164 |                 0 |              14 |                  1741 |                  508 |             219421 |       2060496 |            20590 |        47778427 |                     0 |     292445425 | 2017-02-08 19:33:31.339908+01

 2017-02-08 20:43:50.492069+01 | 1486583030.49207 |                 0 |              14 |                  1741 |                  508 |             219421 |       2061096 |            20596 |        47778427 |                     0 |     292546240 | 2017-02-08 19:33:31.339908+01

 2017-02-08 20:43:51.678373+01 | 1486583031.67837 |                 0 |              14 |                  1741 |                  508 |             219421 |       2061596 |            20601 |        47778427 |                     0 |     292629000 | 2017-02-08 19:33:31.339908+01

 2017-02-08 20:43:52.865365+01 | 1486583032.86537 |                 0 |              14 |                  1741 |                  508 |             219421 |       2062296 |            20608 |        47841863 |                     0 |     292749443 | 2017-02-08 19:33:31.339908+01

 2017-02-08 20:43:54.030412+01 | 1486583034.03041 |                 0 |              14 |                  1741 |                  508 |             219421 |       2062796 |            20613 |        47841863 |                     0 |     292830744 | 2017-02-08 19:33:31.339908+01

 2017-02-08 20:43:55.158178+01 | 1486583035.15818 |                 0 |              14 |                  1741 |                  508 |             219421 |       2063396 |            20619 |        47841863 |                     0 |     292932165 | 2017-02-08 19:33:31.339908+01

 2017-02-08 20:43:56.324737+01 | 1486583036.32474 |                 0 |              14 |                  1741 |                  508 |             219421 |       2063996 |            20625 |        47841863 |                     0 |     293032021 | 2017-02-08 19:33:31.339908+01

 2017-02-08 20:43:57.567466+01 | 1486583037.56747 |                 0 |              14 |                  1741 |                  508 |             219421 |       2064596 |            20631 |        47905199 |                     0 |     293132879 | 2017-02-08 19:33:31.339908+01

 2017-02-08 20:43:58.717964+01 | 1486583038.71796 |                 0 |              14 |                  1741 |                  508 |             219421 |       2065196 |            20637 |        47905199 |                     0 |     293231529 | 2017-02-08 19:33:31.339908+01

 2017-02-08 20:43:59.873062+01 | 1486583039.87306 |                 0 |              14 |                  1741 |                  508 |             219421 |       2065696 |            20642 |        47905199 |                     0 |     293314795 | 2017-02-08 19:33:31.339908+01

 2017-02-08 20:44:00.978028+01 | 1486583040.97803 |                 0 |              14 |                  1741 |                  508 |             219421 |       2066296 |            20648 |        47968536 |                     0 |     293414734 | 2017-02-08 19:33:31.339908+01

 2017-02-08 20:44:02.100925+01 | 1486583042.10092 |                 0 |              14 |                  1741 |                  508 |             219421 |       2066796 |            20653 |        47968536 |                     0 |     293498631 | 2017-02-08 19:33:31.339908+01

 2017-02-08 20:44:03.31768+01 | 1486583043.31768 |                 0 |              14 |                  1741 |                  508 |             219421 |       2067396 |            20659 |        47968536 |                     0 |     293598687 | 2017-02-08 19:33:31.339908+01

 2017-02-08 20:44:04.531897+01 | 1486583044.5319 |                 0 |              14 |                  1741 |                  508 |             219421 |       2067996 |            20665 |        47968536 |                     0 |     293699604 | 2017-02-08 19:33:31.339908+01

 2017-02-08 20:44:05.689858+01 | 1486583045.68986 |                 0 |              14 |                  1741 |                  508 |             219421 |       2068596 |            20671 |        48031872 |                     0 |     293799527 | 2017-02-08 19:33:31.339908+01

 2017-02-08 20:44:06.853761+01 | 1486583046.85376 |                 0 |              14 |                  1741 |                  508 |             219421 |       2069196 |            20677 |        48031872 |                     0 |     293899780 | 2017-02-08 19:33:31.339908+01

 2017-02-08 20:44:08.056004+01 | 1486583048.056 |                 0 |              14 |                  1741 |                  508 |             219421 |       2069796 |            20683 |        48031872 |                     0 |     293999377 | 2017-02-08 19:33:31.339908+01

 2017-02-08 20:44:09.282678+01 | 1486583049.28268 |                 0 |              14 |                  1741 |                  508 |             219421 |       2070396 |            20689 |        48031872 |                     0 |     294099946 | 2017-02-08 19:33:31.339908+01

 2017-02-08 20:44:10.451944+01 | 1486583050.45194 |                 0 |              14 |                  1741 |                  508 |             219421 |       2070996 |            20695 |        48095208 |                     0 |     294202907 | 2017-02-08 19:33:31.339908+01

 2017-02-08 20:44:11.706949+01 | 1486583051.70695 |                 0 |              14 |                  1741 |                  508 |             219421 |       2071596 |            20701 |        48095208 |                     0 |     294304141 | 2017-02-08 19:33:31.339908+01

 2017-02-08 20:44:12.878453+01 | 1486583052.87845 |                 0 |              14 |                  1741 |                  508 |             219421 |       2072196 |            20707 |        48095208 |                     0 |     294405706 | 2017-02-08 19:33:31.339908+01

 2017-02-08 20:44:14.025426+01 | 1486583054.02543 |                 0 |              14 |                  1741 |                  508 |             219421 |       2072696 |            20712 |        48158644 |                     0 |     294488403 | 2017-02-08 19:33:31.339908+01

 2017-02-08 20:44:15.162054+01 | 1486583055.16205 |                 0 |              14 |                  1741 |                  508 |             219421 |       2073296 |            20718 |        48158644 |                     0 |     294588880 | 2017-02-08 19:33:31.339908+01

 2017-02-08 20:44:16.307369+01 | 1486583056.30737 |                 0 |              14 |                  1741 |                  508 |             219421 |       2073896 |            20724 |        48158644 |                     0 |     294686160 | 2017-02-08 19:33:31.339908+01

 2017-02-08 20:44:17.545362+01 | 1486583057.54536 |                 0 |              14 |                  1741 |                  508 |             219421 |       2074496 |            20730 |        48158644 |                     0 |     294787899 | 2017-02-08 19:33:31.339908+01

 2017-02-08 20:44:18.734304+01 | 1486583058.7343 |                 0 |              14 |                  1741 |                  508 |             219421 |       2075096 |            20736 |        48221980 |                     0 |     294887755 | 2017-02-08 19:33:31.339908+01

 2017-02-08 20:44:19.890436+01 | 1486583059.89044 |                 0 |              14 |                  1741 |                  508 |             219421 |       2075696 |            20742 |        48221980 |                     0 |     294986870 | 2017-02-08 19:33:31.339908+01

 2017-02-08 20:44:21.105597+01 | 1486583061.1056 |                 0 |              14 |                  1741 |                  508 |             219421 |       2076196 |            20747 |        48221980 |                     0 |     295071316 | 2017-02-08 19:33:31.339908+01

 2017-02-08 20:44:22.324874+01 | 1486583062.32487 |                 0 |              14 |                  1741 |                  508 |             219421 |       2076896 |            20754 |        48221980 |                     0 |     295187863 | 2017-02-08 19:33:31.339908+01

 2017-02-08 20:44:23.563058+01 | 1486583063.56306 |                 0 |              14 |                  1741 |                  508 |             219421 |       2077496 |            20760 |        48285416 |                     0 |     295287138 | 2017-02-08 19:33:31.339908+01

 2017-02-08 20:44:24.736606+01 | 1486583064.73661 |                 0 |              14 |                  1741 |                  508 |             219421 |       2078096 |            20766 |        48285416 |                     0 |     295390096 | 2017-02-08 19:33:31.339908+01

 2017-02-08 20:44:25.849133+01 | 1486583065.84913 |                 0 |              14 |                  1741 |                  508 |             219421 |       2078596 |            20771 |        48285416 |                     0 |     295472349 | 2017-02-08 19:33:31.339908+01

