 2017-02-08 20:39:26.950459+01 | 1486582766.95046 | C/E72F8000               |           55418257408

 2017-02-08 20:39:28.110233+01 | 1486582768.11023 | C/EEE3C208               |           55547511304

 2017-02-08 20:39:29.304113+01 | 1486582769.30411 | C/F6001850               |           55666808912

 2017-02-08 20:39:30.468783+01 | 1486582770.46878 | C/FC52C000               |           55772889088

 2017-02-08 20:39:31.602612+01 | 1486582771.60261 | D/2492160                |           55872921952

 2017-02-08 20:39:32.69612+01 | 1486582772.69612 | D/7EB39F0                |           55967431152

 2017-02-08 20:39:33.872801+01 | 1486582773.8728 | D/DA04000                |           56063180800

 2017-02-08 20:39:35.073045+01 | 1486582775.07305 | D/130DAAB0               |           56154237616

 2017-02-08 20:39:36.213929+01 | 1486582776.21393 | D/18074000               |           56237703168

 2017-02-08 20:39:37.439025+01 | 1486582777.43902 | D/1D388000               |           56324816896

 2017-02-08 20:39:38.574978+01 | 1486582778.57498 | D/21FFF080               |           56404996224

 2017-02-08 20:39:39.654428+01 | 1486582779.65443 | D/2631BE38               |           56475369016

 2017-02-08 20:39:40.785862+01 | 1486582780.78586 | D/2A69A000               |           56546140160

 2017-02-08 20:39:41.985375+01 | 1486582781.98537 | D/2EC1D478               |           56619029624

 2017-02-08 20:39:43.176122+01 | 1486582783.17612 | D/32F15C60               |           56689253472

 2017-02-08 20:39:44.360187+01 | 1486582784.36019 | D/36F6F2F0               |           56756728560

 2017-02-08 20:39:45.571328+01 | 1486582785.57133 | D/3AFC4B80               |           56824187776

 2017-02-08 20:39:46.689394+01 | 1486582786.68939 | D/3EA0B248               |           56885293640

 2017-02-08 20:39:47.799151+01 | 1486582787.79915 | D/422F3418               |           56944964632

 2017-02-08 20:39:48.912325+01 | 1486582788.91232 | D/45890000               |           57001181184

 2017-02-08 20:39:50.138576+01 | 1486582790.13858 | D/49203A30               |           57061423664

 2017-02-08 20:39:51.249883+01 | 1486582791.24988 | D/4C5C2058               |           57115680856

 2017-02-08 20:39:52.422125+01 | 1486582792.42213 | D/4F9C6488               |           57170224264

 2017-02-08 20:39:53.580065+01 | 1486582793.58007 | D/52D17628               |           57224033832

 2017-02-08 20:39:54.762683+01 | 1486582794.76268 | D/55FCD208               |           57277207048

 2017-02-08 20:39:55.844109+01 | 1486582795.84411 | D/58D86000               |           57325150208

 2017-02-08 20:39:57.022987+01 | 1486582797.02299 | D/5BEB95C8               |           57376740808

 2017-02-08 20:39:58.218373+01 | 1486582798.21837 | D/5EFDD388               |           57428267912

 2017-02-08 20:39:59.378052+01 | 1486582799.37805 | D/61DC8AD8               |           57476418264

 2017-02-08 20:40:00.532814+01 | 1486582800.53281 | D/64BE0000               |           57524748288

 2017-02-08 20:40:01.728749+01 | 1486582801.72875 | D/67B7C250               |           57574670928

 2017-02-08 20:40:02.791136+01 | 1486582802.79114 | D/6A407698               |           57617184408

 2017-02-08 20:40:03.882498+01 | 1486582803.8825 | D/6CCF0000               |           57660080128

 2017-02-08 20:40:05.064216+01 | 1486582805.06422 | D/6F7F4000               |           57705185280

 2017-02-08 20:40:06.24828+01 | 1486582806.24828 | D/723285C0               |           57750488512

 2017-02-08 20:40:07.436218+01 | 1486582807.43622 | D/74B65928               |           57792682280

 2017-02-08 20:40:08.57522+01 | 1486582808.57522 | D/772F4000               |           57834160128

 2017-02-08 20:40:09.756134+01 | 1486582809.75613 | D/79B62000               |           57876553728

 2017-02-08 20:40:10.876056+01 | 1486582810.87606 | D/7BFCEEB8               |           57914748600

 2017-02-08 20:40:11.974711+01 | 1486582811.97471 | D/7E4F27C0               |           57953691584

 2017-02-08 20:40:13.167753+01 | 1486582813.16775 | D/80B7D4A8               |           57994106024

 2017-02-08 20:40:14.328275+01 | 1486582814.32827 | D/83029A00               |           58032560640

 2017-02-08 20:40:15.55609+01 | 1486582815.55609 | D/855DA000               |           58072080384

 2017-02-08 20:40:16.702061+01 | 1486582816.70206 | D/879274E8               |           58109097192

 2017-02-08 20:40:17.889077+01 | 1486582817.88908 | D/89D0BDF8               |           58146733560

 2017-02-08 20:40:19.016103+01 | 1486582819.0161 | D/8BDCCDA0               |           58181078432

 2017-02-08 20:40:20.154693+01 | 1486582820.15469 | D/8DF03D20               |           58215906592

 2017-02-08 20:40:21.254703+01 | 1486582821.2547 | D/8FE96000               |           58249011200

 2017-02-08 20:40:22.484797+01 | 1486582822.4848 | D/9216C698               |           58285541016

 2017-02-08 20:40:23.664463+01 | 1486582823.66446 | D/9412A0D8               |           58318823640

 2017-02-08 20:40:24.804907+01 | 1486582824.80491 | D/96057B88               |           58351516552

 2017-02-08 20:40:25.905657+01 | 1486582825.90566 | D/97E482F8               |           58382910200

 2017-02-08 20:40:27.072722+01 | 1486582827.07272 | D/99D99130               |           58415747376

 2017-02-08 20:40:28.261508+01 | 1486582828.26151 | D/9BC898D8               |           58448189656

 2017-02-08 20:40:29.463924+01 | 1486582829.46392 | D/9DB831B0               |           58480669104

 2017-02-08 20:40:30.596585+01 | 1486582830.59659 | D/9F818000               |           58510639104

 2017-02-08 20:40:31.724481+01 | 1486582831.72448 | D/A1418000               |           58539999232

 2017-02-08 20:40:32.893788+01 | 1486582832.89379 | D/A3068DD0               |           58569690576

 2017-02-08 20:40:34.004472+01 | 1486582834.00447 | D/A4A4AE08               |           58596830728

 2017-02-08 20:40:35.173576+01 | 1486582835.17358 | D/A64E64A8               |           58624747376

 2017-02-08 20:40:36.419408+01 | 1486582836.41941 | D/A800E480               |           58653205632

 2017-02-08 20:40:37.580338+01 | 1486582837.58034 | D/A99C5728               |           58680170280

 2017-02-08 20:40:38.708923+01 | 1486582838.70892 | D/AB39AB80               |           58707258240

 2017-02-08 20:40:39.773999+01 | 1486582839.774 | D/ACAE1738               |           58731665208

 2017-02-08 20:40:40.970908+01 | 1486582840.97091 | D/AE40EF48               |           58758065992

 2017-02-08 20:40:42.248373+01 | 1486582842.24837 | D/AFE46000               |           58785554432

 2017-02-08 20:40:43.399469+01 | 1486582843.39947 | D/B15E58D0               |           58810325200

 2017-02-08 20:40:44.576017+01 | 1486582844.57602 | D/B2D6C200               |           58834993664

 2017-02-08 20:40:45.742341+01 | 1486582845.74234 | D/B444E388               |           58858988424

 2017-02-08 20:40:46.839597+01 | 1486582846.8396 | D/B5A0AC38               |           58881780792

 2017-02-08 20:40:47.969451+01 | 1486582847.96945 | D/B706B568               |           58905245032

 2017-02-08 20:40:49.063677+01 | 1486582849.06368 | D/B85BEE98               |           58927607448

 2017-02-08 20:40:50.245369+01 | 1486582850.24537 | D/B9B5C000               |           58950270976

 2017-02-08 20:40:51.474342+01 | 1486582851.47434 | D/BAED6000               |           58970693632

 2017-02-08 20:40:52.606748+01 | 1486582852.60675 | D/BC0493B8               |           58988991416

 2017-02-08 20:40:53.767838+01 | 1486582853.76784 | D/BD16C7E8               |           59006961640

 2017-02-08 20:40:54.841457+01 | 1486582854.84146 | D/BE16F608               |           59023750664

 2017-02-08 20:40:55.979233+01 | 1486582855.97923 | D/BF21E9A8               |           59041245608

 2017-02-08 20:40:57.098018+01 | 1486582857.09802 | D/C027D828               |           59058411560

 2017-02-08 20:40:58.250599+01 | 1486582858.2506 | D/C12F0370               |           59075658608

 2017-02-08 20:40:59.458022+01 | 1486582859.45802 | D/C250A500               |           59094639872

 2017-02-08 20:41:00.642223+01 | 1486582860.64222 | D/C35CB6D0               |           59112208080

 2017-02-08 20:41:01.755539+01 | 1486582861.75554 | D/C445CF48               |           59127484232

 2017-02-08 20:41:02.872082+01 | 1486582862.87208 | D/C531B1A8               |           59142943144

 2017-02-08 20:41:03.967908+01 | 1486582863.96791 | D/C61E89E0               |           59158464992

 2017-02-08 20:41:05.194876+01 | 1486582865.19488 | D/C727C9C8               |           59175848392

 2017-02-08 20:41:06.373836+01 | 1486582866.37384 | D/C833BC70               |           59193408624

 2017-02-08 20:41:07.600563+01 | 1486582867.60056 | D/C95BA9B0               |           59212802480

 2017-02-08 20:41:08.691075+01 | 1486582868.69108 | D/CA648A18               |           59230161432

 2017-02-08 20:41:09.922625+01 | 1486582869.92263 | D/CB977F40               |           59250278208

 2017-02-08 20:41:11.106975+01 | 1486582871.10698 | D/CC8EE000               |           59266490368

 2017-02-08 20:41:12.218731+01 | 1486582872.21873 | D/CD794000               |           59281850368

 2017-02-08 20:41:13.427484+01 | 1486582873.42748 | D/CE6D0850               |           59297826896

 2017-02-08 20:41:14.590229+01 | 1486582874.59023 | D/CF4ABFC8               |           59312357320

 2017-02-08 20:41:15.749066+01 | 1486582875.74907 | D/D0293350               |           59326935888

 2017-02-08 20:41:16.902696+01 | 1486582876.9027 | D/D0FFA598               |           59340989848

 2017-02-08 20:41:18.043231+01 | 1486582878.04323 | D/D1D45408               |           59354928136

 2017-02-08 20:41:19.330729+01 | 1486582879.33073 | D/D2BF5680               |           59370329728

 2017-02-08 20:41:20.510601+01 | 1486582880.5106 | D/D3924808               |           59384154120

 2017-02-08 20:41:21.643526+01 | 1486582881.64353 | D/D4625A28               |           59397790248

 2017-02-08 20:41:22.736072+01 | 1486582882.73607 | D/D5265838               |           59410634808

 2017-02-08 20:41:23.865922+01 | 1486582883.86592 | D/D5E14000               |           59422883840

 2017-02-08 20:41:25.028133+01 | 1486582885.02813 | D/D6ACBCD8               |           59436219608

 2017-02-08 20:41:26.207244+01 | 1486582886.20724 | D/D77C7528               |           59449832744

 2017-02-08 20:41:27.378108+01 | 1486582887.37811 | D/D83F0BF0               |           59462585328

 2017-02-08 20:41:28.526251+01 | 1486582888.52625 | D/D9019DB8               |           59475336632

 2017-02-08 20:41:29.659246+01 | 1486582889.65925 | D/D9B74BA8               |           59487243176

 2017-02-08 20:41:30.860215+01 | 1486582890.86021 | D/DA77C070               |           59499855984

 2017-02-08 20:41:32.03183+01 | 1486582892.03183 | D/DB344C00               |           59512212480

 2017-02-08 20:41:33.275159+01 | 1486582893.27516 | D/DBEB5A50               |           59524209232

 2017-02-08 20:41:34.510833+01 | 1486582894.51083 | D/DCAF3920               |           59537045792

 2017-02-08 20:41:35.712204+01 | 1486582895.7122 | D/DD56E368               |           59548033896

 2017-02-08 20:41:36.829195+01 | 1486582896.8292 | D/DDFBE910               |           59558848784

 2017-02-08 20:41:38.023921+01 | 1486582898.02392 | D/DEAF1010               |           59570589712

 2017-02-08 20:41:39.251956+01 | 1486582899.25196 | D/DF6187C0               |           59582285760

 2017-02-08 20:41:40.442433+01 | 1486582900.44243 | D/E01036E0               |           59593733856

 2017-02-08 20:41:41.66884+01 | 1486582901.66884 | D/E0BEC468               |           59605173352

 2017-02-08 20:41:42.782368+01 | 1486582902.78237 | D/E161BF98               |           59615854488

 2017-02-08 20:41:43.898124+01 | 1486582903.89812 | D/E1FED1D0               |           59626148304

 2017-02-08 20:41:45.038533+01 | 1486582905.03853 | D/E2A15548               |           59636798792

 2017-02-08 20:41:46.221311+01 | 1486582906.22131 | D/E34AD138               |           59647906104

 2017-02-08 20:41:47.430739+01 | 1486582907.43074 | D/E3EEE330               |           59658658608

 2017-02-08 20:41:48.632974+01 | 1486582908.63297 | D/E48AD868               |           59668879464

 2017-02-08 20:41:49.752123+01 | 1486582909.75212 | D/E5236000               |           59678875648

 2017-02-08 20:41:50.910652+01 | 1486582910.91065 | D/E5BDAD08               |           59688987912

 2017-02-08 20:41:52.129792+01 | 1486582912.12979 | D/E6586568               |           59699127656

 2017-02-08 20:41:53.302434+01 | 1486582913.30243 | D/E6E78560               |           59708507488

 2017-02-08 20:41:54.445912+01 | 1486582914.44591 | D/E77BA000               |           59718213632

 2017-02-08 20:41:55.637902+01 | 1486582915.6379 | D/E80B2630               |           59727619632

 2017-02-08 20:41:56.747069+01 | 1486582916.74707 | D/E8968278               |           59736752760

 2017-02-08 20:41:57.905878+01 | 1486582917.90588 | D/E9279F58               |           59746262872

 2017-02-08 20:41:59.079559+01 | 1486582919.07956 | D/E9B30300               |           59755397888

 2017-02-08 20:42:00.287792+01 | 1486582920.28779 | D/EA41E410               |           59764761616

 2017-02-08 20:42:01.466556+01 | 1486582921.46656 | D/EAC67A20               |           59773450784

 2017-02-08 20:42:02.680011+01 | 1486582922.68001 | D/EB553B48               |           59782806344

 2017-02-08 20:42:03.781919+01 | 1486582923.78192 | D/EBE1E368               |           59792024424

 2017-02-08 20:42:04.871927+01 | 1486582924.87193 | D/EC583D68               |           59799780712

 2017-02-08 20:42:05.963254+01 | 1486582925.96325 | D/ECD01CB8               |           59807636664

 2017-02-08 20:42:07.065274+01 | 1486582927.06527 | D/ED4B7478               |           59815720056

 2017-02-08 20:42:08.261319+01 | 1486582928.26132 | D/EDCE0000               |           59824275456

 2017-02-08 20:42:09.522501+01 | 1486582929.5225 | D/EE58A030               |           59833360432

 2017-02-08 20:42:10.679717+01 | 1486582930.67972 | D/EED430A8               |           59841458344

 2017-02-08 20:42:11.788729+01 | 1486582931.78873 | D/EF51F190               |           59849699728

 2017-02-08 20:42:12.983879+01 | 1486582932.98388 | D/EFCBF980               |           59857697152

 2017-02-08 20:42:14.180241+01 | 1486582934.18024 | D/F04B17B8               |           59866027960

 2017-02-08 20:42:15.36763+01 | 1486582935.36763 | D/F0C6D6B8               |           59874137784

 2017-02-08 20:42:16.527826+01 | 1486582936.52783 | D/F1395278               |           59881640568

 2017-02-08 20:42:17.727445+01 | 1486582937.72744 | D/F1A845B0               |           59888911792

 2017-02-08 20:42:18.891947+01 | 1486582938.89195 | D/F21C8000               |           59896528896

 2017-02-08 20:42:20.059261+01 | 1486582940.05926 | D/F28BA108               |           59903811848

 2017-02-08 20:42:21.260467+01 | 1486582941.26047 | D/F2FE4538               |           59911324984

 2017-02-08 20:42:22.462463+01 | 1486582942.46246 | D/F36C2000               |           59918524416

 2017-02-08 20:42:23.669223+01 | 1486582943.66922 | D/F3DC0F60               |           59925860192

 2017-02-08 20:42:24.832108+01 | 1486582944.83211 | D/F449C540               |           59933050176

 2017-02-08 20:42:25.919511+01 | 1486582945.91951 | D/F4AC8DE8               |           59939524072

 2017-02-08 20:42:27.14146+01 | 1486582947.14146 | D/F51D3698               |           59946907288

 2017-02-08 20:42:28.319109+01 | 1486582948.31911 | D/F58A0000               |           59954036736

 2017-02-08 20:42:29.479109+01 | 1486582949.47911 | D/F5F3A138               |           59960959288

 2017-02-08 20:42:30.674963+01 | 1486582950.67496 | D/F65D8948               |           59967899976

 2017-02-08 20:42:31.882729+01 | 1486582951.88273 | D/F6C9E378               |           59975000952

 2017-02-08 20:42:33.008297+01 | 1486582953.0083 | D/F72E8BA0               |           59981597600

 2017-02-08 20:42:34.195602+01 | 1486582954.1956 | D/F797B250               |           59988488784

 2017-02-08 20:42:35.372528+01 | 1486582955.37253 | D/F8006F20               |           59995352864

 2017-02-08 20:42:36.582682+01 | 1486582956.58268 | D/F86BB8E0               |           60002384096

 2017-02-08 20:42:37.734774+01 | 1486582957.73477 | D/F8CD9348               |           60008797000

 2017-02-08 20:42:38.889325+01 | 1486582958.88932 | D/F9315730               |           60015335216

 2017-02-08 20:42:39.980171+01 | 1486582959.98017 | D/F988DEB0               |           60021071536

 2017-02-08 20:42:41.152495+01 | 1486582961.15249 | D/F9DFC000               |           60026765312

 2017-02-08 20:42:42.365471+01 | 1486582962.36547 | D/FA492AA0               |           60033673888

 2017-02-08 20:42:43.511386+01 | 1486582963.51139 | D/FAA3B0B8               |           60039606456

 2017-02-08 20:42:44.643453+01 | 1486582964.64345 | D/FAF88DE0               |           60045168096

 2017-02-08 20:42:45.831308+01 | 1486582965.83131 | D/FB53ED48               |           60051156296

 2017-02-08 20:42:46.944971+01 | 1486582966.94497 | D/FBA82C88               |           60056677512

 2017-02-08 20:42:48.048013+01 | 1486582968.04801 | D/FC01F408               |           60062561288

 2017-02-08 20:42:49.183473+01 | 1486582969.18347 | D/FC54C438               |           60067988536

 2017-02-08 20:42:50.309832+01 | 1486582970.30983 | D/FCA3FDB0               |           60073180592

 2017-02-08 20:42:51.477843+01 | 1486582971.47784 | D/FCFA85D0               |           60078851536

 2017-02-08 20:42:52.69788+01 | 1486582972.69788 | D/FD57AEF8               |           60084956920

 2017-02-08 20:42:53.888392+01 | 1486582973.88839 | D/FDB1FA68               |           60090874472

 2017-02-08 20:42:55.094511+01 | 1486582975.09451 | D/FE0E5DB0               |           60096929200

 2017-02-08 20:42:56.323915+01 | 1486582976.32392 | D/FE683B40               |           60102818624

 2017-02-08 20:42:57.484828+01 | 1486582977.48483 | D/FEBC3680               |           60108322432

 2017-02-08 20:42:58.748844+01 | 1486582978.74884 | D/FF18F738               |           60114401080

 2017-02-08 20:42:59.866386+01 | 1486582979.86639 | D/FF676FE8               |           60119543784

 2017-02-08 20:43:01.031951+01 | 1486582981.03195 | D/FFBA33A0               |           60124967840

 2017-02-08 20:43:02.168357+01 | 1486582982.16836 | E/AE128                  |           60130255144

 2017-02-08 20:43:03.333016+01 | 1486582983.33302 | E/5D92D8                 |           60135674584

 2017-02-08 20:43:04.517144+01 | 1486582984.51714 | E/B31690                 |           60141278864

 2017-02-08 20:43:05.757314+01 | 1486582985.75731 | E/109F608                |           60146972168

 2017-02-08 20:43:06.839373+01 | 1486582986.83937 | E/1515F58                |           60151652184

 2017-02-08 20:43:08.011051+01 | 1486582988.01105 | E/19C7FF0                |           60156575728

 2017-02-08 20:43:09.183443+01 | 1486582989.18344 | E/1EBEBD8                |           60161780696

 2017-02-08 20:43:10.367436+01 | 1486582990.36744 | E/2399380                |           60166869888

 2017-02-08 20:43:11.606865+01 | 1486582991.60686 | E/28CDC20                |           60172327968

 2017-02-08 20:43:12.77819+01 | 1486582992.77819 | E/2D7A140                |           60177228096

 2017-02-08 20:43:13.913386+01 | 1486582993.91339 | E/321F310                |           60182098704

 2017-02-08 20:43:15.062467+01 | 1486582995.06247 | E/36D6068                |           60187041896

 2017-02-08 20:43:16.272799+01 | 1486582996.2728 | E/3BDCEA0                |           60192312992

 2017-02-08 20:43:17.48751+01 | 1486582997.48751 | E/40E2CB8                |           60197579960

 2017-02-08 20:43:18.698289+01 | 1486582998.69829 | E/456EC80                |           60202347648

 2017-02-08 20:43:19.817742+01 | 1486582999.81774 | E/49C1CB8                |           60206881976

 2017-02-08 20:43:20.961793+01 | 1486583000.96179 | E/4E00D18                |           60211334424

 2017-02-08 20:43:22.157856+01 | 1486583002.15786 | E/52CC730                |           60216362800

 2017-02-08 20:43:23.38819+01 | 1486583003.38819 | E/578A4A8                |           60221334696

 2017-02-08 20:43:24.485654+01 | 1486583004.48565 | E/5B9E5E0                |           60225611232

 2017-02-08 20:43:25.693897+01 | 1486583005.6939 | E/6034898                |           60230420632

 2017-02-08 20:43:26.843029+01 | 1486583006.84303 | E/6482748                |           60234934088

 2017-02-08 20:43:28.054873+01 | 1486583008.05487 | E/68F2C20                |           60239588384

 2017-02-08 20:43:29.251496+01 | 1486583009.2515 | E/6DA5690                |           60244514448

 2017-02-08 20:43:30.438238+01 | 1486583010.43824 | E/71DC088                |           60248932488

 2017-02-08 20:43:31.660059+01 | 1486583011.66006 | E/76763C8                |           60253758408

 2017-02-08 20:43:32.80841+01 | 1486583012.80841 | E/7ABED18                |           60258250008

 2017-02-08 20:43:33.940846+01 | 1486583013.94085 | E/7EFA100                |           60262686976

 2017-02-08 20:43:35.134628+01 | 1486583015.13463 | E/8310000                |           60266971136

 2017-02-08 20:43:36.339794+01 | 1486583016.33979 | E/87A67E0                |           60271781856

 2017-02-08 20:43:37.530602+01 | 1486583017.5306 | E/8C1AED0                |           60276453072

 2017-02-08 20:43:38.72137+01 | 1486583018.72137 | E/90C6AA0                |           60281350816

 2017-02-08 20:43:39.86793+01 | 1486583019.86793 | E/94D0800                |           60285585408

 2017-02-08 20:43:40.963798+01 | 1486583020.9638 | E/9860290                |           60289319568

 2017-02-08 20:43:42.121673+01 | 1486583022.12167 | E/9C2DB10                |           60293307152

 2017-02-08 20:43:43.321933+01 | 1486583023.32193 | E/A032B90                |           60297522064

 2017-02-08 20:43:44.465625+01 | 1486583024.46563 | E/A3F7978                |           60301474168

 2017-02-08 20:43:45.712476+01 | 1486583025.71248 | E/A859968                |           60306069864

 2017-02-08 20:43:46.892103+01 | 1486583026.8921 | E/AC66CF8                |           60310318328

 2017-02-08 20:43:48.039429+01 | 1486583028.03943 | E/B03A4B8                |           60314330296

 2017-02-08 20:43:49.191581+01 | 1486583029.19158 | E/B401958                |           60318292312

 2017-02-08 20:43:50.329133+01 | 1486583030.32913 | E/B7927C0                |           60322031552

 2017-02-08 20:43:51.523144+01 | 1486583031.52314 | E/BB8B270                |           60326195944

 2017-02-08 20:43:52.732584+01 | 1486583032.73258 | E/BF34F20                |           60330037024

 2017-02-08 20:43:53.885908+01 | 1486583033.88591 | E/C2878F0                |           60333521136

 2017-02-08 20:43:55.073925+01 | 1486583035.07393 | E/C62A6A8                |           60337333928

 2017-02-08 20:43:56.195432+01 | 1486583036.19543 | E/C9A6AE0                |           60340988640

 2017-02-08 20:43:57.383945+01 | 1486583037.38394 | E/CD445D8                |           60344780248

 2017-02-08 20:43:58.584252+01 | 1486583038.58425 | E/D0B09B8                |           60348369336

 2017-02-08 20:43:59.756962+01 | 1486583039.75696 | E/D4199D0                |           60351945168

 2017-02-08 20:44:00.894432+01 | 1486583040.89443 | E/D761548                |           60355384648

 2017-02-08 20:44:01.995571+01 | 1486583041.99557 | E/DADD048                |           60359037000

 2017-02-08 20:44:03.135925+01 | 1486583043.13593 | E/DE31CC8                |           60362529992

 2017-02-08 20:44:04.366735+01 | 1486583044.36673 | E/E189370                |           60366033776

 2017-02-08 20:44:05.562857+01 | 1486583045.56286 | E/E532508                |           60369872136

 2017-02-08 20:44:06.71392+01 | 1486583046.71392 | E/E8B8B48                |           60373568328

 2017-02-08 20:44:07.9335+01 | 1486583047.9335 | E/EC65268                |           60377420392

 2017-02-08 20:44:09.109559+01 | 1486583049.10956 | E/EFA9B60                |           60380846944

 2017-02-08 20:44:10.328829+01 | 1486583050.32883 | E/F366E40                |           60384767552

 2017-02-08 20:44:11.492782+01 | 1486583051.49278 | E/F6F7E00                |           60388507136

 2017-02-08 20:44:12.760978+01 | 1486583052.76098 | E/FABCE28                |           60392459816

 2017-02-08 20:44:13.904444+01 | 1486583053.90444 | E/FDDD370                |           60395737968

 2017-02-08 20:44:15.053345+01 | 1486583055.05334 | E/1010AF08               |           60399070984

 2017-02-08 20:44:16.184819+01 | 1486583056.18482 | E/104280E0               |           60402335968

 2017-02-08 20:44:17.344294+01 | 1486583057.34429 | E/10759B88               |           60405685128

 2017-02-08 20:44:18.608255+01 | 1486583058.60825 | E/10AD9C60               |           60409355360

 2017-02-08 20:44:19.776946+01 | 1486583059.77695 | E/10E25498               |           60412810392

 2017-02-08 20:44:20.917799+01 | 1486583060.9178 | E/111310B0               |           60416004272

 2017-02-08 20:44:22.161393+01 | 1486583062.16139 | E/114B74B0               |           60419699888

 2017-02-08 20:44:23.411705+01 | 1486583063.41171 | E/1181CE00               |           60423261696

 2017-02-08 20:44:24.597952+01 | 1486583064.59795 | E/11B5B148               |           60426662216

 2017-02-08 20:44:25.775651+01 | 1486583065.77565 | E/11E7E8A0               |           60429953184

 2017-02-08 20:44:26.893501+01 | 1486583066.8935 | E/1217F5B8               |           60433102264

