 2017-02-08 01:34:10.696766+01 | 1486514050.69677 | pgbench_branches_pkey |            16384
 2017-02-08 01:34:10.696766+01 | 1486514050.69677 | pgbench_tellers_pkey  |            32768
 2017-02-08 01:34:10.696766+01 | 1486514050.69677 | pgbench_accounts_pkey |        112336896

 2017-02-08 01:34:11.880975+01 | 1486514051.88098 | pgbench_branches_pkey |            16384
 2017-02-08 01:34:11.880975+01 | 1486514051.88098 | pgbench_tellers_pkey  |            32768
 2017-02-08 01:34:11.880975+01 | 1486514051.88098 | pgbench_accounts_pkey |        112336896

 2017-02-08 01:34:13.073374+01 | 1486514053.07337 | pgbench_branches_pkey |            16384
 2017-02-08 01:34:13.073374+01 | 1486514053.07337 | pgbench_tellers_pkey  |            32768
 2017-02-08 01:34:13.073374+01 | 1486514053.07337 | pgbench_accounts_pkey |        112336896

 2017-02-08 01:34:14.271603+01 | 1486514054.2716 | pgbench_branches_pkey |            16384
 2017-02-08 01:34:14.271603+01 | 1486514054.2716 | pgbench_tellers_pkey  |            32768
 2017-02-08 01:34:14.271603+01 | 1486514054.2716 | pgbench_accounts_pkey |        112336896

 2017-02-08 01:34:15.455169+01 | 1486514055.45517 | pgbench_branches_pkey |            16384
 2017-02-08 01:34:15.455169+01 | 1486514055.45517 | pgbench_tellers_pkey  |            32768
 2017-02-08 01:34:15.455169+01 | 1486514055.45517 | pgbench_accounts_pkey |        112336896

 2017-02-08 01:34:16.628307+01 | 1486514056.62831 | pgbench_branches_pkey |            16384
 2017-02-08 01:34:16.628307+01 | 1486514056.62831 | pgbench_tellers_pkey  |            32768
 2017-02-08 01:34:16.628307+01 | 1486514056.62831 | pgbench_accounts_pkey |        112336896

 2017-02-08 01:34:17.822306+01 | 1486514057.82231 | pgbench_branches_pkey |            16384
 2017-02-08 01:34:17.822306+01 | 1486514057.82231 | pgbench_tellers_pkey  |            32768
 2017-02-08 01:34:17.822306+01 | 1486514057.82231 | pgbench_accounts_pkey |        112336896

 2017-02-08 01:34:19.012718+01 | 1486514059.01272 | pgbench_branches_pkey |            16384
 2017-02-08 01:34:19.012718+01 | 1486514059.01272 | pgbench_tellers_pkey  |            32768
 2017-02-08 01:34:19.012718+01 | 1486514059.01272 | pgbench_accounts_pkey |        112336896

 2017-02-08 01:34:20.207598+01 | 1486514060.2076 | pgbench_branches_pkey |            16384
 2017-02-08 01:34:20.207598+01 | 1486514060.2076 | pgbench_tellers_pkey  |            32768
 2017-02-08 01:34:20.207598+01 | 1486514060.2076 | pgbench_accounts_pkey |        112336896

 2017-02-08 01:34:21.381314+01 | 1486514061.38131 | pgbench_branches_pkey |            16384
 2017-02-08 01:34:21.381314+01 | 1486514061.38131 | pgbench_tellers_pkey  |            32768
 2017-02-08 01:34:21.381314+01 | 1486514061.38131 | pgbench_accounts_pkey |        112336896

 2017-02-08 01:34:22.573964+01 | 1486514062.57396 | pgbench_branches_pkey |            16384
 2017-02-08 01:34:22.573964+01 | 1486514062.57396 | pgbench_tellers_pkey  |            32768
 2017-02-08 01:34:22.573964+01 | 1486514062.57396 | pgbench_accounts_pkey |        112336896

 2017-02-08 01:34:23.76604+01 | 1486514063.76604 | pgbench_branches_pkey |            16384
 2017-02-08 01:34:23.76604+01 | 1486514063.76604 | pgbench_tellers_pkey  |            32768
 2017-02-08 01:34:23.76604+01 | 1486514063.76604 | pgbench_accounts_pkey |        112336896

 2017-02-08 01:34:24.924056+01 | 1486514064.92406 | pgbench_branches_pkey |            16384
 2017-02-08 01:34:24.924056+01 | 1486514064.92406 | pgbench_tellers_pkey  |            32768
 2017-02-08 01:34:24.924056+01 | 1486514064.92406 | pgbench_accounts_pkey |        112336896

 2017-02-08 01:34:26.118178+01 | 1486514066.11818 | pgbench_branches_pkey |            16384
 2017-02-08 01:34:26.118178+01 | 1486514066.11818 | pgbench_tellers_pkey  |            32768
 2017-02-08 01:34:26.118178+01 | 1486514066.11818 | pgbench_accounts_pkey |        112336896

 2017-02-08 01:34:27.31082+01 | 1486514067.31082 | pgbench_branches_pkey |            16384
 2017-02-08 01:34:27.31082+01 | 1486514067.31082 | pgbench_tellers_pkey  |            32768
 2017-02-08 01:34:27.31082+01 | 1486514067.31082 | pgbench_accounts_pkey |        112336896

 2017-02-08 01:34:28.50457+01 | 1486514068.50457 | pgbench_branches_pkey |            16384
 2017-02-08 01:34:28.50457+01 | 1486514068.50457 | pgbench_tellers_pkey  |            32768
 2017-02-08 01:34:28.50457+01 | 1486514068.50457 | pgbench_accounts_pkey |        112336896

 2017-02-08 01:34:29.70131+01 | 1486514069.70131 | pgbench_branches_pkey |            16384
 2017-02-08 01:34:29.70131+01 | 1486514069.70131 | pgbench_tellers_pkey  |            32768
 2017-02-08 01:34:29.70131+01 | 1486514069.70131 | pgbench_accounts_pkey |        112336896

 2017-02-08 01:34:30.894944+01 | 1486514070.89494 | pgbench_branches_pkey |            16384
 2017-02-08 01:34:30.894944+01 | 1486514070.89494 | pgbench_tellers_pkey  |            32768
 2017-02-08 01:34:30.894944+01 | 1486514070.89494 | pgbench_accounts_pkey |        112336896

 2017-02-08 01:34:32.09005+01 | 1486514072.09005 | pgbench_branches_pkey |            16384
 2017-02-08 01:34:32.09005+01 | 1486514072.09005 | pgbench_tellers_pkey  |            32768
 2017-02-08 01:34:32.09005+01 | 1486514072.09005 | pgbench_accounts_pkey |        112336896

 2017-02-08 01:34:33.284722+01 | 1486514073.28472 | pgbench_branches_pkey |            16384
 2017-02-08 01:34:33.284722+01 | 1486514073.28472 | pgbench_tellers_pkey  |            32768
 2017-02-08 01:34:33.284722+01 | 1486514073.28472 | pgbench_accounts_pkey |        112336896

 2017-02-08 01:34:34.47897+01 | 1486514074.47897 | pgbench_branches_pkey |            16384
 2017-02-08 01:34:34.47897+01 | 1486514074.47897 | pgbench_tellers_pkey  |            32768
 2017-02-08 01:34:34.47897+01 | 1486514074.47897 | pgbench_accounts_pkey |        112336896

 2017-02-08 01:34:35.671656+01 | 1486514075.67166 | pgbench_branches_pkey |            16384
 2017-02-08 01:34:35.671656+01 | 1486514075.67166 | pgbench_tellers_pkey  |            32768
 2017-02-08 01:34:35.671656+01 | 1486514075.67166 | pgbench_accounts_pkey |        112336896

 2017-02-08 01:34:36.86552+01 | 1486514076.86552 | pgbench_branches_pkey |            16384
 2017-02-08 01:34:36.86552+01 | 1486514076.86552 | pgbench_tellers_pkey  |            32768
 2017-02-08 01:34:36.86552+01 | 1486514076.86552 | pgbench_accounts_pkey |        112336896

 2017-02-08 01:34:38.062357+01 | 1486514078.06236 | pgbench_branches_pkey |            16384
 2017-02-08 01:34:38.062357+01 | 1486514078.06236 | pgbench_tellers_pkey  |            32768
 2017-02-08 01:34:38.062357+01 | 1486514078.06236 | pgbench_accounts_pkey |        112336896

 2017-02-08 01:34:39.257376+01 | 1486514079.25738 | pgbench_branches_pkey |            16384
 2017-02-08 01:34:39.257376+01 | 1486514079.25738 | pgbench_tellers_pkey  |            32768
 2017-02-08 01:34:39.257376+01 | 1486514079.25738 | pgbench_accounts_pkey |        112336896

 2017-02-08 01:34:40.451284+01 | 1486514080.45128 | pgbench_branches_pkey |            16384
 2017-02-08 01:34:40.451284+01 | 1486514080.45128 | pgbench_tellers_pkey  |            32768
 2017-02-08 01:34:40.451284+01 | 1486514080.45128 | pgbench_accounts_pkey |        112336896

 2017-02-08 01:34:41.615458+01 | 1486514081.61546 | pgbench_branches_pkey |            16384
 2017-02-08 01:34:41.615458+01 | 1486514081.61546 | pgbench_tellers_pkey  |            32768
 2017-02-08 01:34:41.615458+01 | 1486514081.61546 | pgbench_accounts_pkey |        112336896

 2017-02-08 01:34:42.806397+01 | 1486514082.8064 | pgbench_branches_pkey |            16384
 2017-02-08 01:34:42.806397+01 | 1486514082.8064 | pgbench_tellers_pkey  |            32768
 2017-02-08 01:34:42.806397+01 | 1486514082.8064 | pgbench_accounts_pkey |        112336896

 2017-02-08 01:34:43.989923+01 | 1486514083.98992 | pgbench_branches_pkey |            16384
 2017-02-08 01:34:43.989923+01 | 1486514083.98992 | pgbench_tellers_pkey  |            32768
 2017-02-08 01:34:43.989923+01 | 1486514083.98992 | pgbench_accounts_pkey |        112336896

 2017-02-08 01:34:45.183022+01 | 1486514085.18302 | pgbench_branches_pkey |            16384
 2017-02-08 01:34:45.183022+01 | 1486514085.18302 | pgbench_tellers_pkey  |            32768
 2017-02-08 01:34:45.183022+01 | 1486514085.18302 | pgbench_accounts_pkey |        112336896

 2017-02-08 01:34:46.371678+01 | 1486514086.37168 | pgbench_branches_pkey |            16384
 2017-02-08 01:34:46.371678+01 | 1486514086.37168 | pgbench_tellers_pkey  |            32768
 2017-02-08 01:34:46.371678+01 | 1486514086.37168 | pgbench_accounts_pkey |        112336896

 2017-02-08 01:34:47.538829+01 | 1486514087.53883 | pgbench_branches_pkey |            16384
 2017-02-08 01:34:47.538829+01 | 1486514087.53883 | pgbench_tellers_pkey  |            32768
 2017-02-08 01:34:47.538829+01 | 1486514087.53883 | pgbench_accounts_pkey |        112336896

 2017-02-08 01:34:48.697611+01 | 1486514088.69761 | pgbench_branches_pkey |            16384
 2017-02-08 01:34:48.697611+01 | 1486514088.69761 | pgbench_tellers_pkey  |            32768
 2017-02-08 01:34:48.697611+01 | 1486514088.69761 | pgbench_accounts_pkey |        112336896

 2017-02-08 01:34:49.890117+01 | 1486514089.89012 | pgbench_branches_pkey |            16384
 2017-02-08 01:34:49.890117+01 | 1486514089.89012 | pgbench_tellers_pkey  |            32768
 2017-02-08 01:34:49.890117+01 | 1486514089.89012 | pgbench_accounts_pkey |        112336896

 2017-02-08 01:34:51.08415+01 | 1486514091.08415 | pgbench_branches_pkey |            16384
 2017-02-08 01:34:51.08415+01 | 1486514091.08415 | pgbench_tellers_pkey  |            32768
 2017-02-08 01:34:51.08415+01 | 1486514091.08415 | pgbench_accounts_pkey |        112336896

 2017-02-08 01:34:52.275985+01 | 1486514092.27599 | pgbench_branches_pkey |            16384
 2017-02-08 01:34:52.275985+01 | 1486514092.27599 | pgbench_tellers_pkey  |            32768
 2017-02-08 01:34:52.275985+01 | 1486514092.27599 | pgbench_accounts_pkey |        112336896

 2017-02-08 01:34:53.472259+01 | 1486514093.47226 | pgbench_branches_pkey |            16384
 2017-02-08 01:34:53.472259+01 | 1486514093.47226 | pgbench_tellers_pkey  |            32768
 2017-02-08 01:34:53.472259+01 | 1486514093.47226 | pgbench_accounts_pkey |        112336896

 2017-02-08 01:34:54.636122+01 | 1486514094.63612 | pgbench_branches_pkey |            16384
 2017-02-08 01:34:54.636122+01 | 1486514094.63612 | pgbench_tellers_pkey  |            32768
 2017-02-08 01:34:54.636122+01 | 1486514094.63612 | pgbench_accounts_pkey |        112336896

 2017-02-08 01:34:55.828217+01 | 1486514095.82822 | pgbench_branches_pkey |            16384
 2017-02-08 01:34:55.828217+01 | 1486514095.82822 | pgbench_tellers_pkey  |            32768
 2017-02-08 01:34:55.828217+01 | 1486514095.82822 | pgbench_accounts_pkey |        112336896

 2017-02-08 01:34:57.020493+01 | 1486514097.02049 | pgbench_branches_pkey |            16384
 2017-02-08 01:34:57.020493+01 | 1486514097.02049 | pgbench_tellers_pkey  |            32768
 2017-02-08 01:34:57.020493+01 | 1486514097.02049 | pgbench_accounts_pkey |        112336896

 2017-02-08 01:34:58.219504+01 | 1486514098.2195 | pgbench_branches_pkey |            16384
 2017-02-08 01:34:58.219504+01 | 1486514098.2195 | pgbench_tellers_pkey  |            32768
 2017-02-08 01:34:58.219504+01 | 1486514098.2195 | pgbench_accounts_pkey |        112336896

 2017-02-08 01:34:59.409144+01 | 1486514099.40914 | pgbench_branches_pkey |            16384
 2017-02-08 01:34:59.409144+01 | 1486514099.40914 | pgbench_tellers_pkey  |            32768
 2017-02-08 01:34:59.409144+01 | 1486514099.40914 | pgbench_accounts_pkey |        112336896

 2017-02-08 01:35:00.603796+01 | 1486514100.6038 | pgbench_branches_pkey |            16384
 2017-02-08 01:35:00.603796+01 | 1486514100.6038 | pgbench_tellers_pkey  |            32768
 2017-02-08 01:35:00.603796+01 | 1486514100.6038 | pgbench_accounts_pkey |        112336896

 2017-02-08 01:35:01.797356+01 | 1486514101.79736 | pgbench_branches_pkey |            16384
 2017-02-08 01:35:01.797356+01 | 1486514101.79736 | pgbench_tellers_pkey  |            32768
 2017-02-08 01:35:01.797356+01 | 1486514101.79736 | pgbench_accounts_pkey |        112336896

 2017-02-08 01:35:02.988373+01 | 1486514102.98837 | pgbench_branches_pkey |            16384
 2017-02-08 01:35:02.988373+01 | 1486514102.98837 | pgbench_tellers_pkey  |            32768
 2017-02-08 01:35:02.988373+01 | 1486514102.98837 | pgbench_accounts_pkey |        112336896

 2017-02-08 01:35:04.182133+01 | 1486514104.18213 | pgbench_branches_pkey |            16384
 2017-02-08 01:35:04.182133+01 | 1486514104.18213 | pgbench_tellers_pkey  |            32768
 2017-02-08 01:35:04.182133+01 | 1486514104.18213 | pgbench_accounts_pkey |        112336896

 2017-02-08 01:35:05.371521+01 | 1486514105.37152 | pgbench_branches_pkey |            16384
 2017-02-08 01:35:05.371521+01 | 1486514105.37152 | pgbench_tellers_pkey  |            32768
 2017-02-08 01:35:05.371521+01 | 1486514105.37152 | pgbench_accounts_pkey |        112336896

 2017-02-08 01:35:06.561299+01 | 1486514106.5613 | pgbench_branches_pkey |            16384
 2017-02-08 01:35:06.561299+01 | 1486514106.5613 | pgbench_tellers_pkey  |            32768
 2017-02-08 01:35:06.561299+01 | 1486514106.5613 | pgbench_accounts_pkey |        112336896

 2017-02-08 01:35:07.730107+01 | 1486514107.73011 | pgbench_branches_pkey |            16384
 2017-02-08 01:35:07.730107+01 | 1486514107.73011 | pgbench_tellers_pkey  |            32768
 2017-02-08 01:35:07.730107+01 | 1486514107.73011 | pgbench_accounts_pkey |        112336896

 2017-02-08 01:35:08.891829+01 | 1486514108.89183 | pgbench_branches_pkey |            16384
 2017-02-08 01:35:08.891829+01 | 1486514108.89183 | pgbench_tellers_pkey  |            32768
 2017-02-08 01:35:08.891829+01 | 1486514108.89183 | pgbench_accounts_pkey |        112336896

 2017-02-08 01:35:10.084517+01 | 1486514110.08452 | pgbench_branches_pkey |            16384
 2017-02-08 01:35:10.084517+01 | 1486514110.08452 | pgbench_tellers_pkey  |            32768
 2017-02-08 01:35:10.084517+01 | 1486514110.08452 | pgbench_accounts_pkey |        112336896

 2017-02-08 01:35:11.282369+01 | 1486514111.28237 | pgbench_branches_pkey |            16384
 2017-02-08 01:35:11.282369+01 | 1486514111.28237 | pgbench_tellers_pkey  |            32768
 2017-02-08 01:35:11.282369+01 | 1486514111.28237 | pgbench_accounts_pkey |        112336896

 2017-02-08 01:35:12.477954+01 | 1486514112.47795 | pgbench_branches_pkey |            16384
 2017-02-08 01:35:12.477954+01 | 1486514112.47795 | pgbench_tellers_pkey  |            32768
 2017-02-08 01:35:12.477954+01 | 1486514112.47795 | pgbench_accounts_pkey |        112336896

 2017-02-08 01:35:13.66967+01 | 1486514113.66967 | pgbench_branches_pkey |            16384
 2017-02-08 01:35:13.66967+01 | 1486514113.66967 | pgbench_tellers_pkey  |            32768
 2017-02-08 01:35:13.66967+01 | 1486514113.66967 | pgbench_accounts_pkey |        112336896

 2017-02-08 01:35:14.864859+01 | 1486514114.86486 | pgbench_branches_pkey |            16384
 2017-02-08 01:35:14.864859+01 | 1486514114.86486 | pgbench_tellers_pkey  |            32768
 2017-02-08 01:35:14.864859+01 | 1486514114.86486 | pgbench_accounts_pkey |        112336896

 2017-02-08 01:35:16.055244+01 | 1486514116.05524 | pgbench_branches_pkey |            16384
 2017-02-08 01:35:16.055244+01 | 1486514116.05524 | pgbench_tellers_pkey  |            32768
 2017-02-08 01:35:16.055244+01 | 1486514116.05524 | pgbench_accounts_pkey |        112336896

 2017-02-08 01:35:17.25281+01 | 1486514117.25281 | pgbench_branches_pkey |            16384
 2017-02-08 01:35:17.25281+01 | 1486514117.25281 | pgbench_tellers_pkey  |            32768
 2017-02-08 01:35:17.25281+01 | 1486514117.25281 | pgbench_accounts_pkey |        112336896

 2017-02-08 01:35:18.453992+01 | 1486514118.45399 | pgbench_branches_pkey |            16384
 2017-02-08 01:35:18.453992+01 | 1486514118.45399 | pgbench_tellers_pkey  |            32768
 2017-02-08 01:35:18.453992+01 | 1486514118.45399 | pgbench_accounts_pkey |        112336896

 2017-02-08 01:35:19.648597+01 | 1486514119.6486 | pgbench_branches_pkey |            16384
 2017-02-08 01:35:19.648597+01 | 1486514119.6486 | pgbench_tellers_pkey  |            32768
 2017-02-08 01:35:19.648597+01 | 1486514119.6486 | pgbench_accounts_pkey |        112336896

 2017-02-08 01:35:20.845125+01 | 1486514120.84512 | pgbench_branches_pkey |            16384
 2017-02-08 01:35:20.845125+01 | 1486514120.84512 | pgbench_tellers_pkey  |            32768
 2017-02-08 01:35:20.845125+01 | 1486514120.84512 | pgbench_accounts_pkey |        112336896

 2017-02-08 01:35:22.039148+01 | 1486514122.03915 | pgbench_branches_pkey |            16384
 2017-02-08 01:35:22.039148+01 | 1486514122.03915 | pgbench_tellers_pkey  |            32768
 2017-02-08 01:35:22.039148+01 | 1486514122.03915 | pgbench_accounts_pkey |        112336896

 2017-02-08 01:35:23.230662+01 | 1486514123.23066 | pgbench_branches_pkey |            16384
 2017-02-08 01:35:23.230662+01 | 1486514123.23066 | pgbench_tellers_pkey  |            32768
 2017-02-08 01:35:23.230662+01 | 1486514123.23066 | pgbench_accounts_pkey |        112336896

 2017-02-08 01:35:24.424804+01 | 1486514124.4248 | pgbench_branches_pkey |            16384
 2017-02-08 01:35:24.424804+01 | 1486514124.4248 | pgbench_tellers_pkey  |            32768
 2017-02-08 01:35:24.424804+01 | 1486514124.4248 | pgbench_accounts_pkey |        112336896

 2017-02-08 01:35:25.616256+01 | 1486514125.61626 | pgbench_branches_pkey |            16384
 2017-02-08 01:35:25.616256+01 | 1486514125.61626 | pgbench_tellers_pkey  |            32768
 2017-02-08 01:35:25.616256+01 | 1486514125.61626 | pgbench_accounts_pkey |        112336896

 2017-02-08 01:35:26.771041+01 | 1486514126.77104 | pgbench_branches_pkey |            16384
 2017-02-08 01:35:26.771041+01 | 1486514126.77104 | pgbench_tellers_pkey  |            32768
 2017-02-08 01:35:26.771041+01 | 1486514126.77104 | pgbench_accounts_pkey |        112336896

 2017-02-08 01:35:27.968163+01 | 1486514127.96816 | pgbench_branches_pkey |            16384
 2017-02-08 01:35:27.968163+01 | 1486514127.96816 | pgbench_tellers_pkey  |            32768
 2017-02-08 01:35:27.968163+01 | 1486514127.96816 | pgbench_accounts_pkey |        112336896

 2017-02-08 01:35:29.158295+01 | 1486514129.15829 | pgbench_branches_pkey |            16384
 2017-02-08 01:35:29.158295+01 | 1486514129.15829 | pgbench_tellers_pkey  |            32768
 2017-02-08 01:35:29.158295+01 | 1486514129.15829 | pgbench_accounts_pkey |        112336896

 2017-02-08 01:35:30.352371+01 | 1486514130.35237 | pgbench_branches_pkey |            16384
 2017-02-08 01:35:30.352371+01 | 1486514130.35237 | pgbench_tellers_pkey  |            32768
 2017-02-08 01:35:30.352371+01 | 1486514130.35237 | pgbench_accounts_pkey |        112336896

 2017-02-08 01:35:31.538228+01 | 1486514131.53823 | pgbench_branches_pkey |            16384
 2017-02-08 01:35:31.538228+01 | 1486514131.53823 | pgbench_tellers_pkey  |            32768
 2017-02-08 01:35:31.538228+01 | 1486514131.53823 | pgbench_accounts_pkey |        112336896

 2017-02-08 01:35:32.733998+01 | 1486514132.734 | pgbench_branches_pkey |            16384
 2017-02-08 01:35:32.733998+01 | 1486514132.734 | pgbench_tellers_pkey  |            32768
 2017-02-08 01:35:32.733998+01 | 1486514132.734 | pgbench_accounts_pkey |        112336896

 2017-02-08 01:35:33.897318+01 | 1486514133.89732 | pgbench_branches_pkey |            16384
 2017-02-08 01:35:33.897318+01 | 1486514133.89732 | pgbench_tellers_pkey  |            32768
 2017-02-08 01:35:33.897318+01 | 1486514133.89732 | pgbench_accounts_pkey |        112336896

 2017-02-08 01:35:35.076856+01 | 1486514135.07686 | pgbench_branches_pkey |            16384
 2017-02-08 01:35:35.076856+01 | 1486514135.07686 | pgbench_tellers_pkey  |            32768
 2017-02-08 01:35:35.076856+01 | 1486514135.07686 | pgbench_accounts_pkey |        112336896

 2017-02-08 01:35:36.272382+01 | 1486514136.27238 | pgbench_branches_pkey |            16384
 2017-02-08 01:35:36.272382+01 | 1486514136.27238 | pgbench_tellers_pkey  |            32768
 2017-02-08 01:35:36.272382+01 | 1486514136.27238 | pgbench_accounts_pkey |        112336896

 2017-02-08 01:35:37.450965+01 | 1486514137.45096 | pgbench_branches_pkey |            16384
 2017-02-08 01:35:37.450965+01 | 1486514137.45096 | pgbench_tellers_pkey  |            32768
 2017-02-08 01:35:37.450965+01 | 1486514137.45096 | pgbench_accounts_pkey |        112336896

 2017-02-08 01:35:38.642415+01 | 1486514138.64242 | pgbench_branches_pkey |            16384
 2017-02-08 01:35:38.642415+01 | 1486514138.64242 | pgbench_tellers_pkey  |            32768
 2017-02-08 01:35:38.642415+01 | 1486514138.64242 | pgbench_accounts_pkey |        112336896

 2017-02-08 01:35:39.83833+01 | 1486514139.83833 | pgbench_branches_pkey |            16384
 2017-02-08 01:35:39.83833+01 | 1486514139.83833 | pgbench_tellers_pkey  |            32768
 2017-02-08 01:35:39.83833+01 | 1486514139.83833 | pgbench_accounts_pkey |        112336896

 2017-02-08 01:35:41.033157+01 | 1486514141.03316 | pgbench_branches_pkey |            16384
 2017-02-08 01:35:41.033157+01 | 1486514141.03316 | pgbench_tellers_pkey  |            32768
 2017-02-08 01:35:41.033157+01 | 1486514141.03316 | pgbench_accounts_pkey |        112336896

 2017-02-08 01:35:42.228707+01 | 1486514142.22871 | pgbench_branches_pkey |            16384
 2017-02-08 01:35:42.228707+01 | 1486514142.22871 | pgbench_tellers_pkey  |            32768
 2017-02-08 01:35:42.228707+01 | 1486514142.22871 | pgbench_accounts_pkey |        112336896

 2017-02-08 01:35:43.423911+01 | 1486514143.42391 | pgbench_branches_pkey |            16384
 2017-02-08 01:35:43.423911+01 | 1486514143.42391 | pgbench_tellers_pkey  |            32768
 2017-02-08 01:35:43.423911+01 | 1486514143.42391 | pgbench_accounts_pkey |        112336896

 2017-02-08 01:35:44.610279+01 | 1486514144.61028 | pgbench_branches_pkey |            16384
 2017-02-08 01:35:44.610279+01 | 1486514144.61028 | pgbench_tellers_pkey  |            32768
 2017-02-08 01:35:44.610279+01 | 1486514144.61028 | pgbench_accounts_pkey |        112336896

 2017-02-08 01:35:45.774871+01 | 1486514145.77487 | pgbench_branches_pkey |            16384
 2017-02-08 01:35:45.774871+01 | 1486514145.77487 | pgbench_tellers_pkey  |            32768
 2017-02-08 01:35:45.774871+01 | 1486514145.77487 | pgbench_accounts_pkey |        112336896

 2017-02-08 01:35:46.969155+01 | 1486514146.96916 | pgbench_branches_pkey |            16384
 2017-02-08 01:35:46.969155+01 | 1486514146.96916 | pgbench_tellers_pkey  |            32768
 2017-02-08 01:35:46.969155+01 | 1486514146.96916 | pgbench_accounts_pkey |        112336896

 2017-02-08 01:35:48.162599+01 | 1486514148.1626 | pgbench_branches_pkey |            16384
 2017-02-08 01:35:48.162599+01 | 1486514148.1626 | pgbench_tellers_pkey  |            32768
 2017-02-08 01:35:48.162599+01 | 1486514148.1626 | pgbench_accounts_pkey |        112336896

 2017-02-08 01:35:49.313426+01 | 1486514149.31343 | pgbench_branches_pkey |            16384
 2017-02-08 01:35:49.313426+01 | 1486514149.31343 | pgbench_tellers_pkey  |            32768
 2017-02-08 01:35:49.313426+01 | 1486514149.31343 | pgbench_accounts_pkey |        112336896

 2017-02-08 01:35:50.472198+01 | 1486514150.4722 | pgbench_branches_pkey |            16384
 2017-02-08 01:35:50.472198+01 | 1486514150.4722 | pgbench_tellers_pkey  |            32768
 2017-02-08 01:35:50.472198+01 | 1486514150.4722 | pgbench_accounts_pkey |        112336896

 2017-02-08 01:35:51.665446+01 | 1486514151.66545 | pgbench_branches_pkey |            16384
 2017-02-08 01:35:51.665446+01 | 1486514151.66545 | pgbench_tellers_pkey  |            32768
 2017-02-08 01:35:51.665446+01 | 1486514151.66545 | pgbench_accounts_pkey |        112336896

 2017-02-08 01:35:52.831212+01 | 1486514152.83121 | pgbench_branches_pkey |            16384
 2017-02-08 01:35:52.831212+01 | 1486514152.83121 | pgbench_tellers_pkey  |            32768
 2017-02-08 01:35:52.831212+01 | 1486514152.83121 | pgbench_accounts_pkey |        112336896

 2017-02-08 01:35:54.000266+01 | 1486514154.00027 | pgbench_branches_pkey |            16384
 2017-02-08 01:35:54.000266+01 | 1486514154.00027 | pgbench_tellers_pkey  |            32768
 2017-02-08 01:35:54.000266+01 | 1486514154.00027 | pgbench_accounts_pkey |        112336896

 2017-02-08 01:35:55.174154+01 | 1486514155.17415 | pgbench_branches_pkey |            16384
 2017-02-08 01:35:55.174154+01 | 1486514155.17415 | pgbench_tellers_pkey  |            32768
 2017-02-08 01:35:55.174154+01 | 1486514155.17415 | pgbench_accounts_pkey |        112336896

 2017-02-08 01:35:56.313486+01 | 1486514156.31349 | pgbench_branches_pkey |            16384
 2017-02-08 01:35:56.313486+01 | 1486514156.31349 | pgbench_tellers_pkey  |            32768
 2017-02-08 01:35:56.313486+01 | 1486514156.31349 | pgbench_accounts_pkey |        112336896

 2017-02-08 01:35:57.455177+01 | 1486514157.45518 | pgbench_branches_pkey |            16384
 2017-02-08 01:35:57.455177+01 | 1486514157.45518 | pgbench_tellers_pkey  |            32768
 2017-02-08 01:35:57.455177+01 | 1486514157.45518 | pgbench_accounts_pkey |        112336896

 2017-02-08 01:35:58.627241+01 | 1486514158.62724 | pgbench_branches_pkey |            16384
 2017-02-08 01:35:58.627241+01 | 1486514158.62724 | pgbench_tellers_pkey  |            32768
 2017-02-08 01:35:58.627241+01 | 1486514158.62724 | pgbench_accounts_pkey |        112336896

 2017-02-08 01:35:59.82166+01 | 1486514159.82166 | pgbench_branches_pkey |            16384
 2017-02-08 01:35:59.82166+01 | 1486514159.82166 | pgbench_tellers_pkey  |            32768
 2017-02-08 01:35:59.82166+01 | 1486514159.82166 | pgbench_accounts_pkey |        112336896

 2017-02-08 01:36:01.011579+01 | 1486514161.01158 | pgbench_branches_pkey |            16384
 2017-02-08 01:36:01.011579+01 | 1486514161.01158 | pgbench_tellers_pkey  |            32768
 2017-02-08 01:36:01.011579+01 | 1486514161.01158 | pgbench_accounts_pkey |        112336896

 2017-02-08 01:36:02.204531+01 | 1486514162.20453 | pgbench_branches_pkey |            16384
 2017-02-08 01:36:02.204531+01 | 1486514162.20453 | pgbench_tellers_pkey  |            32768
 2017-02-08 01:36:02.204531+01 | 1486514162.20453 | pgbench_accounts_pkey |        112336896

 2017-02-08 01:36:03.390213+01 | 1486514163.39021 | pgbench_branches_pkey |            16384
 2017-02-08 01:36:03.390213+01 | 1486514163.39021 | pgbench_tellers_pkey  |            32768
 2017-02-08 01:36:03.390213+01 | 1486514163.39021 | pgbench_accounts_pkey |        112336896

 2017-02-08 01:36:04.560345+01 | 1486514164.56034 | pgbench_branches_pkey |            16384
 2017-02-08 01:36:04.560345+01 | 1486514164.56034 | pgbench_tellers_pkey  |            32768
 2017-02-08 01:36:04.560345+01 | 1486514164.56034 | pgbench_accounts_pkey |        112336896

 2017-02-08 01:36:05.75237+01 | 1486514165.75237 | pgbench_branches_pkey |            16384
 2017-02-08 01:36:05.75237+01 | 1486514165.75237 | pgbench_tellers_pkey  |            32768
 2017-02-08 01:36:05.75237+01 | 1486514165.75237 | pgbench_accounts_pkey |        112336896

 2017-02-08 01:36:06.947635+01 | 1486514166.94763 | pgbench_branches_pkey |            16384
 2017-02-08 01:36:06.947635+01 | 1486514166.94763 | pgbench_tellers_pkey  |            32768
 2017-02-08 01:36:06.947635+01 | 1486514166.94763 | pgbench_accounts_pkey |        112336896

 2017-02-08 01:36:08.119089+01 | 1486514168.11909 | pgbench_branches_pkey |            16384
 2017-02-08 01:36:08.119089+01 | 1486514168.11909 | pgbench_tellers_pkey  |            32768
 2017-02-08 01:36:08.119089+01 | 1486514168.11909 | pgbench_accounts_pkey |        112336896

 2017-02-08 01:36:09.263855+01 | 1486514169.26385 | pgbench_branches_pkey |            16384
 2017-02-08 01:36:09.263855+01 | 1486514169.26385 | pgbench_tellers_pkey  |            32768
 2017-02-08 01:36:09.263855+01 | 1486514169.26385 | pgbench_accounts_pkey |        112336896

 2017-02-08 01:36:10.417879+01 | 1486514170.41788 | pgbench_branches_pkey |            16384
 2017-02-08 01:36:10.417879+01 | 1486514170.41788 | pgbench_tellers_pkey  |            32768
 2017-02-08 01:36:10.417879+01 | 1486514170.41788 | pgbench_accounts_pkey |        112336896

 2017-02-08 01:36:11.59458+01 | 1486514171.59458 | pgbench_branches_pkey |            16384
 2017-02-08 01:36:11.59458+01 | 1486514171.59458 | pgbench_tellers_pkey  |            32768
 2017-02-08 01:36:11.59458+01 | 1486514171.59458 | pgbench_accounts_pkey |        112336896

 2017-02-08 01:36:12.788556+01 | 1486514172.78856 | pgbench_branches_pkey |            16384
 2017-02-08 01:36:12.788556+01 | 1486514172.78856 | pgbench_tellers_pkey  |            32768
 2017-02-08 01:36:12.788556+01 | 1486514172.78856 | pgbench_accounts_pkey |        112336896

 2017-02-08 01:36:13.975006+01 | 1486514173.97501 | pgbench_branches_pkey |            16384
 2017-02-08 01:36:13.975006+01 | 1486514173.97501 | pgbench_tellers_pkey  |            32768
 2017-02-08 01:36:13.975006+01 | 1486514173.97501 | pgbench_accounts_pkey |        112336896

 2017-02-08 01:36:15.166986+01 | 1486514175.16699 | pgbench_branches_pkey |            16384
 2017-02-08 01:36:15.166986+01 | 1486514175.16699 | pgbench_tellers_pkey  |            32768
 2017-02-08 01:36:15.166986+01 | 1486514175.16699 | pgbench_accounts_pkey |        112336896

 2017-02-08 01:36:16.362988+01 | 1486514176.36299 | pgbench_branches_pkey |            16384
 2017-02-08 01:36:16.362988+01 | 1486514176.36299 | pgbench_tellers_pkey  |            32768
 2017-02-08 01:36:16.362988+01 | 1486514176.36299 | pgbench_accounts_pkey |        112336896

 2017-02-08 01:36:17.55718+01 | 1486514177.55718 | pgbench_branches_pkey |            16384
 2017-02-08 01:36:17.55718+01 | 1486514177.55718 | pgbench_tellers_pkey  |            32768
 2017-02-08 01:36:17.55718+01 | 1486514177.55718 | pgbench_accounts_pkey |        112336896

 2017-02-08 01:36:18.749095+01 | 1486514178.74909 | pgbench_branches_pkey |            16384
 2017-02-08 01:36:18.749095+01 | 1486514178.74909 | pgbench_tellers_pkey  |            32768
 2017-02-08 01:36:18.749095+01 | 1486514178.74909 | pgbench_accounts_pkey |        112336896

 2017-02-08 01:36:19.941811+01 | 1486514179.94181 | pgbench_branches_pkey |            16384
 2017-02-08 01:36:19.941811+01 | 1486514179.94181 | pgbench_tellers_pkey  |            32768
 2017-02-08 01:36:19.941811+01 | 1486514179.94181 | pgbench_accounts_pkey |        112336896

 2017-02-08 01:36:21.135764+01 | 1486514181.13576 | pgbench_branches_pkey |            16384
 2017-02-08 01:36:21.135764+01 | 1486514181.13576 | pgbench_tellers_pkey  |            32768
 2017-02-08 01:36:21.135764+01 | 1486514181.13576 | pgbench_accounts_pkey |        112336896

 2017-02-08 01:36:22.328079+01 | 1486514182.32808 | pgbench_branches_pkey |            16384
 2017-02-08 01:36:22.328079+01 | 1486514182.32808 | pgbench_tellers_pkey  |            32768
 2017-02-08 01:36:22.328079+01 | 1486514182.32808 | pgbench_accounts_pkey |        112336896

 2017-02-08 01:36:23.520302+01 | 1486514183.5203 | pgbench_branches_pkey |            16384
 2017-02-08 01:36:23.520302+01 | 1486514183.5203 | pgbench_tellers_pkey  |            32768
 2017-02-08 01:36:23.520302+01 | 1486514183.5203 | pgbench_accounts_pkey |        112336896

 2017-02-08 01:36:24.717539+01 | 1486514184.71754 | pgbench_branches_pkey |            16384
 2017-02-08 01:36:24.717539+01 | 1486514184.71754 | pgbench_tellers_pkey  |            32768
 2017-02-08 01:36:24.717539+01 | 1486514184.71754 | pgbench_accounts_pkey |        112336896

 2017-02-08 01:36:25.909663+01 | 1486514185.90966 | pgbench_branches_pkey |            16384
 2017-02-08 01:36:25.909663+01 | 1486514185.90966 | pgbench_tellers_pkey  |            32768
 2017-02-08 01:36:25.909663+01 | 1486514185.90966 | pgbench_accounts_pkey |        112336896

 2017-02-08 01:36:27.066469+01 | 1486514187.06647 | pgbench_branches_pkey |            16384
 2017-02-08 01:36:27.066469+01 | 1486514187.06647 | pgbench_tellers_pkey  |            32768
 2017-02-08 01:36:27.066469+01 | 1486514187.06647 | pgbench_accounts_pkey |        112336896

 2017-02-08 01:36:28.234076+01 | 1486514188.23408 | pgbench_branches_pkey |            16384
 2017-02-08 01:36:28.234076+01 | 1486514188.23408 | pgbench_tellers_pkey  |            32768
 2017-02-08 01:36:28.234076+01 | 1486514188.23408 | pgbench_accounts_pkey |        112336896

 2017-02-08 01:36:29.431243+01 | 1486514189.43124 | pgbench_branches_pkey |            16384
 2017-02-08 01:36:29.431243+01 | 1486514189.43124 | pgbench_tellers_pkey  |            32768
 2017-02-08 01:36:29.431243+01 | 1486514189.43124 | pgbench_accounts_pkey |        112336896

 2017-02-08 01:36:30.617473+01 | 1486514190.61747 | pgbench_branches_pkey |            16384
 2017-02-08 01:36:30.617473+01 | 1486514190.61747 | pgbench_tellers_pkey  |            32768
 2017-02-08 01:36:30.617473+01 | 1486514190.61747 | pgbench_accounts_pkey |        112336896

 2017-02-08 01:36:31.79948+01 | 1486514191.79948 | pgbench_branches_pkey |            16384
 2017-02-08 01:36:31.79948+01 | 1486514191.79948 | pgbench_tellers_pkey  |            32768
 2017-02-08 01:36:31.79948+01 | 1486514191.79948 | pgbench_accounts_pkey |        112336896

 2017-02-08 01:36:32.996+01 | 1486514192.996 | pgbench_branches_pkey |            16384
 2017-02-08 01:36:32.996+01 | 1486514192.996 | pgbench_tellers_pkey  |            32768
 2017-02-08 01:36:32.996+01 | 1486514192.996 | pgbench_accounts_pkey |        112336896

 2017-02-08 01:36:34.187604+01 | 1486514194.1876 | pgbench_branches_pkey |            16384
 2017-02-08 01:36:34.187604+01 | 1486514194.1876 | pgbench_tellers_pkey  |            32768
 2017-02-08 01:36:34.187604+01 | 1486514194.1876 | pgbench_accounts_pkey |        112336896

 2017-02-08 01:36:35.380535+01 | 1486514195.38053 | pgbench_branches_pkey |            16384
 2017-02-08 01:36:35.380535+01 | 1486514195.38053 | pgbench_tellers_pkey  |            32768
 2017-02-08 01:36:35.380535+01 | 1486514195.38053 | pgbench_accounts_pkey |        112336896

 2017-02-08 01:36:36.576261+01 | 1486514196.57626 | pgbench_branches_pkey |            16384
 2017-02-08 01:36:36.576261+01 | 1486514196.57626 | pgbench_tellers_pkey  |            32768
 2017-02-08 01:36:36.576261+01 | 1486514196.57626 | pgbench_accounts_pkey |        112336896

 2017-02-08 01:36:37.770008+01 | 1486514197.77001 | pgbench_branches_pkey |            16384
 2017-02-08 01:36:37.770008+01 | 1486514197.77001 | pgbench_tellers_pkey  |            32768
 2017-02-08 01:36:37.770008+01 | 1486514197.77001 | pgbench_accounts_pkey |        112336896

 2017-02-08 01:36:38.965578+01 | 1486514198.96558 | pgbench_branches_pkey |            16384
 2017-02-08 01:36:38.965578+01 | 1486514198.96558 | pgbench_tellers_pkey  |            32768
 2017-02-08 01:36:38.965578+01 | 1486514198.96558 | pgbench_accounts_pkey |        112336896

 2017-02-08 01:36:40.159745+01 | 1486514200.15974 | pgbench_branches_pkey |            16384
 2017-02-08 01:36:40.159745+01 | 1486514200.15974 | pgbench_tellers_pkey  |            32768
 2017-02-08 01:36:40.159745+01 | 1486514200.15974 | pgbench_accounts_pkey |        112336896

 2017-02-08 01:36:41.355339+01 | 1486514201.35534 | pgbench_branches_pkey |            16384
 2017-02-08 01:36:41.355339+01 | 1486514201.35534 | pgbench_tellers_pkey  |            32768
 2017-02-08 01:36:41.355339+01 | 1486514201.35534 | pgbench_accounts_pkey |        112336896

 2017-02-08 01:36:42.506137+01 | 1486514202.50614 | pgbench_branches_pkey |            16384
 2017-02-08 01:36:42.506137+01 | 1486514202.50614 | pgbench_tellers_pkey  |            32768
 2017-02-08 01:36:42.506137+01 | 1486514202.50614 | pgbench_accounts_pkey |        112336896

 2017-02-08 01:36:43.668515+01 | 1486514203.66851 | pgbench_branches_pkey |            16384
 2017-02-08 01:36:43.668515+01 | 1486514203.66851 | pgbench_tellers_pkey  |            32768
 2017-02-08 01:36:43.668515+01 | 1486514203.66851 | pgbench_accounts_pkey |        112336896

 2017-02-08 01:36:44.837094+01 | 1486514204.83709 | pgbench_branches_pkey |            16384
 2017-02-08 01:36:44.837094+01 | 1486514204.83709 | pgbench_tellers_pkey  |            32768
 2017-02-08 01:36:44.837094+01 | 1486514204.83709 | pgbench_accounts_pkey |        112336896

 2017-02-08 01:36:46.031304+01 | 1486514206.0313 | pgbench_branches_pkey |            16384
 2017-02-08 01:36:46.031304+01 | 1486514206.0313 | pgbench_tellers_pkey  |            32768
 2017-02-08 01:36:46.031304+01 | 1486514206.0313 | pgbench_accounts_pkey |        112336896

 2017-02-08 01:36:47.226578+01 | 1486514207.22658 | pgbench_branches_pkey |            16384
 2017-02-08 01:36:47.226578+01 | 1486514207.22658 | pgbench_tellers_pkey  |            32768
 2017-02-08 01:36:47.226578+01 | 1486514207.22658 | pgbench_accounts_pkey |        112336896

 2017-02-08 01:36:48.420544+01 | 1486514208.42054 | pgbench_branches_pkey |            16384
 2017-02-08 01:36:48.420544+01 | 1486514208.42054 | pgbench_tellers_pkey  |            32768
 2017-02-08 01:36:48.420544+01 | 1486514208.42054 | pgbench_accounts_pkey |        112336896

 2017-02-08 01:36:49.618276+01 | 1486514209.61828 | pgbench_branches_pkey |            16384
 2017-02-08 01:36:49.618276+01 | 1486514209.61828 | pgbench_tellers_pkey  |            32768
 2017-02-08 01:36:49.618276+01 | 1486514209.61828 | pgbench_accounts_pkey |        112336896

 2017-02-08 01:36:50.814006+01 | 1486514210.81401 | pgbench_branches_pkey |            16384
 2017-02-08 01:36:50.814006+01 | 1486514210.81401 | pgbench_tellers_pkey  |            32768
 2017-02-08 01:36:50.814006+01 | 1486514210.81401 | pgbench_accounts_pkey |        112336896

 2017-02-08 01:36:52.008149+01 | 1486514212.00815 | pgbench_branches_pkey |            16384
 2017-02-08 01:36:52.008149+01 | 1486514212.00815 | pgbench_tellers_pkey  |            32768
 2017-02-08 01:36:52.008149+01 | 1486514212.00815 | pgbench_accounts_pkey |        112336896

 2017-02-08 01:36:53.20285+01 | 1486514213.20285 | pgbench_branches_pkey |            16384
 2017-02-08 01:36:53.20285+01 | 1486514213.20285 | pgbench_tellers_pkey  |            32768
 2017-02-08 01:36:53.20285+01 | 1486514213.20285 | pgbench_accounts_pkey |        112336896

 2017-02-08 01:36:54.401099+01 | 1486514214.4011 | pgbench_branches_pkey |            16384
 2017-02-08 01:36:54.401099+01 | 1486514214.4011 | pgbench_tellers_pkey  |            32768
 2017-02-08 01:36:54.401099+01 | 1486514214.4011 | pgbench_accounts_pkey |        112336896

 2017-02-08 01:36:55.593329+01 | 1486514215.59333 | pgbench_branches_pkey |            16384
 2017-02-08 01:36:55.593329+01 | 1486514215.59333 | pgbench_tellers_pkey  |            32768
 2017-02-08 01:36:55.593329+01 | 1486514215.59333 | pgbench_accounts_pkey |        112336896

 2017-02-08 01:36:56.785858+01 | 1486514216.78586 | pgbench_branches_pkey |            16384
 2017-02-08 01:36:56.785858+01 | 1486514216.78586 | pgbench_tellers_pkey  |            32768
 2017-02-08 01:36:56.785858+01 | 1486514216.78586 | pgbench_accounts_pkey |        112336896

 2017-02-08 01:36:57.961151+01 | 1486514217.96115 | pgbench_branches_pkey |            16384
 2017-02-08 01:36:57.961151+01 | 1486514217.96115 | pgbench_tellers_pkey  |            32768
 2017-02-08 01:36:57.961151+01 | 1486514217.96115 | pgbench_accounts_pkey |        112336896

 2017-02-08 01:36:59.124877+01 | 1486514219.12488 | pgbench_branches_pkey |            16384
 2017-02-08 01:36:59.124877+01 | 1486514219.12488 | pgbench_tellers_pkey  |            32768
 2017-02-08 01:36:59.124877+01 | 1486514219.12488 | pgbench_accounts_pkey |        112336896

 2017-02-08 01:37:00.317419+01 | 1486514220.31742 | pgbench_branches_pkey |            16384
 2017-02-08 01:37:00.317419+01 | 1486514220.31742 | pgbench_tellers_pkey  |            32768
 2017-02-08 01:37:00.317419+01 | 1486514220.31742 | pgbench_accounts_pkey |        112336896

 2017-02-08 01:37:01.517077+01 | 1486514221.51708 | pgbench_branches_pkey |            16384
 2017-02-08 01:37:01.517077+01 | 1486514221.51708 | pgbench_tellers_pkey  |            32768
 2017-02-08 01:37:01.517077+01 | 1486514221.51708 | pgbench_accounts_pkey |        112336896

 2017-02-08 01:37:02.709034+01 | 1486514222.70903 | pgbench_branches_pkey |            16384
 2017-02-08 01:37:02.709034+01 | 1486514222.70903 | pgbench_tellers_pkey  |            32768
 2017-02-08 01:37:02.709034+01 | 1486514222.70903 | pgbench_accounts_pkey |        112336896

 2017-02-08 01:37:03.902869+01 | 1486514223.90287 | pgbench_branches_pkey |            16384
 2017-02-08 01:37:03.902869+01 | 1486514223.90287 | pgbench_tellers_pkey  |            32768
 2017-02-08 01:37:03.902869+01 | 1486514223.90287 | pgbench_accounts_pkey |        112336896

 2017-02-08 01:37:05.080145+01 | 1486514225.08014 | pgbench_branches_pkey |            16384
 2017-02-08 01:37:05.080145+01 | 1486514225.08014 | pgbench_tellers_pkey  |            32768
 2017-02-08 01:37:05.080145+01 | 1486514225.08014 | pgbench_accounts_pkey |        112336896

 2017-02-08 01:37:06.245674+01 | 1486514226.24567 | pgbench_branches_pkey |            16384
 2017-02-08 01:37:06.245674+01 | 1486514226.24567 | pgbench_tellers_pkey  |            32768
 2017-02-08 01:37:06.245674+01 | 1486514226.24567 | pgbench_accounts_pkey |        112336896

 2017-02-08 01:37:07.440933+01 | 1486514227.44093 | pgbench_branches_pkey |            16384
 2017-02-08 01:37:07.440933+01 | 1486514227.44093 | pgbench_tellers_pkey  |            32768
 2017-02-08 01:37:07.440933+01 | 1486514227.44093 | pgbench_accounts_pkey |        112336896

 2017-02-08 01:37:08.629011+01 | 1486514228.62901 | pgbench_branches_pkey |            16384
 2017-02-08 01:37:08.629011+01 | 1486514228.62901 | pgbench_tellers_pkey  |            32768
 2017-02-08 01:37:08.629011+01 | 1486514228.62901 | pgbench_accounts_pkey |        112336896

 2017-02-08 01:37:09.803135+01 | 1486514229.80313 | pgbench_branches_pkey |            16384
 2017-02-08 01:37:09.803135+01 | 1486514229.80313 | pgbench_tellers_pkey  |            32768
 2017-02-08 01:37:09.803135+01 | 1486514229.80313 | pgbench_accounts_pkey |        112336896

 2017-02-08 01:37:10.976814+01 | 1486514230.97681 | pgbench_branches_pkey |            16384
 2017-02-08 01:37:10.976814+01 | 1486514230.97681 | pgbench_tellers_pkey  |            32768
 2017-02-08 01:37:10.976814+01 | 1486514230.97681 | pgbench_accounts_pkey |        112336896

 2017-02-08 01:37:12.175297+01 | 1486514232.1753 | pgbench_branches_pkey |            16384
 2017-02-08 01:37:12.175297+01 | 1486514232.1753 | pgbench_tellers_pkey  |            32768
 2017-02-08 01:37:12.175297+01 | 1486514232.1753 | pgbench_accounts_pkey |        112336896

 2017-02-08 01:37:13.370632+01 | 1486514233.37063 | pgbench_branches_pkey |            16384
 2017-02-08 01:37:13.370632+01 | 1486514233.37063 | pgbench_tellers_pkey  |            32768
 2017-02-08 01:37:13.370632+01 | 1486514233.37063 | pgbench_accounts_pkey |        112336896

 2017-02-08 01:37:14.564802+01 | 1486514234.5648 | pgbench_branches_pkey |            16384
 2017-02-08 01:37:14.564802+01 | 1486514234.5648 | pgbench_tellers_pkey  |            32768
 2017-02-08 01:37:14.564802+01 | 1486514234.5648 | pgbench_accounts_pkey |        112336896

 2017-02-08 01:37:15.759801+01 | 1486514235.7598 | pgbench_branches_pkey |            16384
 2017-02-08 01:37:15.759801+01 | 1486514235.7598 | pgbench_tellers_pkey  |            32768
 2017-02-08 01:37:15.759801+01 | 1486514235.7598 | pgbench_accounts_pkey |        112336896

 2017-02-08 01:37:16.937563+01 | 1486514236.93756 | pgbench_branches_pkey |            16384
 2017-02-08 01:37:16.937563+01 | 1486514236.93756 | pgbench_tellers_pkey  |            32768
 2017-02-08 01:37:16.937563+01 | 1486514236.93756 | pgbench_accounts_pkey |        112336896

 2017-02-08 01:37:18.106886+01 | 1486514238.10689 | pgbench_branches_pkey |            16384
 2017-02-08 01:37:18.106886+01 | 1486514238.10689 | pgbench_tellers_pkey  |            32768
 2017-02-08 01:37:18.106886+01 | 1486514238.10689 | pgbench_accounts_pkey |        112336896

 2017-02-08 01:37:19.301513+01 | 1486514239.30151 | pgbench_branches_pkey |            16384
 2017-02-08 01:37:19.301513+01 | 1486514239.30151 | pgbench_tellers_pkey  |            32768
 2017-02-08 01:37:19.301513+01 | 1486514239.30151 | pgbench_accounts_pkey |        112336896

 2017-02-08 01:37:20.491773+01 | 1486514240.49177 | pgbench_branches_pkey |            16384
 2017-02-08 01:37:20.491773+01 | 1486514240.49177 | pgbench_tellers_pkey  |            32768
 2017-02-08 01:37:20.491773+01 | 1486514240.49177 | pgbench_accounts_pkey |        112336896

 2017-02-08 01:37:21.630281+01 | 1486514241.63028 | pgbench_branches_pkey |            16384
 2017-02-08 01:37:21.630281+01 | 1486514241.63028 | pgbench_tellers_pkey  |            32768
 2017-02-08 01:37:21.630281+01 | 1486514241.63028 | pgbench_accounts_pkey |        112336896

 2017-02-08 01:37:22.7745+01 | 1486514242.7745 | pgbench_branches_pkey |            16384
 2017-02-08 01:37:22.7745+01 | 1486514242.7745 | pgbench_tellers_pkey  |            32768
 2017-02-08 01:37:22.7745+01 | 1486514242.7745 | pgbench_accounts_pkey |        112336896

 2017-02-08 01:37:23.97158+01 | 1486514243.97158 | pgbench_branches_pkey |            16384
 2017-02-08 01:37:23.97158+01 | 1486514243.97158 | pgbench_tellers_pkey  |            32768
 2017-02-08 01:37:23.97158+01 | 1486514243.97158 | pgbench_accounts_pkey |        112336896

 2017-02-08 01:37:25.167701+01 | 1486514245.1677 | pgbench_branches_pkey |            16384
 2017-02-08 01:37:25.167701+01 | 1486514245.1677 | pgbench_tellers_pkey  |            32768
 2017-02-08 01:37:25.167701+01 | 1486514245.1677 | pgbench_accounts_pkey |        112336896

 2017-02-08 01:37:26.357725+01 | 1486514246.35772 | pgbench_branches_pkey |            16384
 2017-02-08 01:37:26.357725+01 | 1486514246.35772 | pgbench_tellers_pkey  |            32768
 2017-02-08 01:37:26.357725+01 | 1486514246.35772 | pgbench_accounts_pkey |        112336896

 2017-02-08 01:37:27.557645+01 | 1486514247.55765 | pgbench_branches_pkey |            16384
 2017-02-08 01:37:27.557645+01 | 1486514247.55765 | pgbench_tellers_pkey  |            32768
 2017-02-08 01:37:27.557645+01 | 1486514247.55765 | pgbench_accounts_pkey |        112336896

 2017-02-08 01:37:28.754525+01 | 1486514248.75452 | pgbench_branches_pkey |            16384
 2017-02-08 01:37:28.754525+01 | 1486514248.75452 | pgbench_tellers_pkey  |            32768
 2017-02-08 01:37:28.754525+01 | 1486514248.75452 | pgbench_accounts_pkey |        112336896

 2017-02-08 01:37:29.946399+01 | 1486514249.9464 | pgbench_branches_pkey |            16384
 2017-02-08 01:37:29.946399+01 | 1486514249.9464 | pgbench_tellers_pkey  |            32768
 2017-02-08 01:37:29.946399+01 | 1486514249.9464 | pgbench_accounts_pkey |        112336896

 2017-02-08 01:37:31.140687+01 | 1486514251.14069 | pgbench_branches_pkey |            16384
 2017-02-08 01:37:31.140687+01 | 1486514251.14069 | pgbench_tellers_pkey  |            32768
 2017-02-08 01:37:31.140687+01 | 1486514251.14069 | pgbench_accounts_pkey |        112336896

 2017-02-08 01:37:32.284156+01 | 1486514252.28416 | pgbench_branches_pkey |            16384
 2017-02-08 01:37:32.284156+01 | 1486514252.28416 | pgbench_tellers_pkey  |            32768
 2017-02-08 01:37:32.284156+01 | 1486514252.28416 | pgbench_accounts_pkey |        112336896

 2017-02-08 01:37:33.459635+01 | 1486514253.45964 | pgbench_branches_pkey |            16384
 2017-02-08 01:37:33.459635+01 | 1486514253.45964 | pgbench_tellers_pkey  |            32768
 2017-02-08 01:37:33.459635+01 | 1486514253.45964 | pgbench_accounts_pkey |        112336896

 2017-02-08 01:37:34.654627+01 | 1486514254.65463 | pgbench_branches_pkey |            16384
 2017-02-08 01:37:34.654627+01 | 1486514254.65463 | pgbench_tellers_pkey  |            32768
 2017-02-08 01:37:34.654627+01 | 1486514254.65463 | pgbench_accounts_pkey |        112336896

 2017-02-08 01:37:35.84848+01 | 1486514255.84848 | pgbench_branches_pkey |            16384
 2017-02-08 01:37:35.84848+01 | 1486514255.84848 | pgbench_tellers_pkey  |            32768
 2017-02-08 01:37:35.84848+01 | 1486514255.84848 | pgbench_accounts_pkey |        112336896

 2017-02-08 01:37:37.049734+01 | 1486514257.04973 | pgbench_branches_pkey |            16384
 2017-02-08 01:37:37.049734+01 | 1486514257.04973 | pgbench_tellers_pkey  |            32768
 2017-02-08 01:37:37.049734+01 | 1486514257.04973 | pgbench_accounts_pkey |        112336896

 2017-02-08 01:37:38.245305+01 | 1486514258.24531 | pgbench_branches_pkey |            16384
 2017-02-08 01:37:38.245305+01 | 1486514258.24531 | pgbench_tellers_pkey  |            32768
 2017-02-08 01:37:38.245305+01 | 1486514258.24531 | pgbench_accounts_pkey |        112336896

 2017-02-08 01:37:39.441964+01 | 1486514259.44196 | pgbench_branches_pkey |            16384
 2017-02-08 01:37:39.441964+01 | 1486514259.44196 | pgbench_tellers_pkey  |            32768
 2017-02-08 01:37:39.441964+01 | 1486514259.44196 | pgbench_accounts_pkey |        112336896

 2017-02-08 01:37:40.638981+01 | 1486514260.63898 | pgbench_branches_pkey |            16384
 2017-02-08 01:37:40.638981+01 | 1486514260.63898 | pgbench_tellers_pkey  |            32768
 2017-02-08 01:37:40.638981+01 | 1486514260.63898 | pgbench_accounts_pkey |        112336896

 2017-02-08 01:37:41.812514+01 | 1486514261.81251 | pgbench_branches_pkey |            16384
 2017-02-08 01:37:41.812514+01 | 1486514261.81251 | pgbench_tellers_pkey  |            32768
 2017-02-08 01:37:41.812514+01 | 1486514261.81251 | pgbench_accounts_pkey |        112336896

 2017-02-08 01:37:43.010946+01 | 1486514263.01095 | pgbench_branches_pkey |            16384
 2017-02-08 01:37:43.010946+01 | 1486514263.01095 | pgbench_tellers_pkey  |            32768
 2017-02-08 01:37:43.010946+01 | 1486514263.01095 | pgbench_accounts_pkey |        112336896

 2017-02-08 01:37:44.204884+01 | 1486514264.20488 | pgbench_branches_pkey |            16384
 2017-02-08 01:37:44.204884+01 | 1486514264.20488 | pgbench_tellers_pkey  |            32768
 2017-02-08 01:37:44.204884+01 | 1486514264.20488 | pgbench_accounts_pkey |        112336896

 2017-02-08 01:37:45.399629+01 | 1486514265.39963 | pgbench_branches_pkey |            16384
 2017-02-08 01:37:45.399629+01 | 1486514265.39963 | pgbench_tellers_pkey  |            32768
 2017-02-08 01:37:45.399629+01 | 1486514265.39963 | pgbench_accounts_pkey |        112336896

 2017-02-08 01:37:46.594825+01 | 1486514266.59483 | pgbench_branches_pkey |            16384
 2017-02-08 01:37:46.594825+01 | 1486514266.59483 | pgbench_tellers_pkey  |            32768
 2017-02-08 01:37:46.594825+01 | 1486514266.59483 | pgbench_accounts_pkey |        112336896

 2017-02-08 01:37:47.789486+01 | 1486514267.78949 | pgbench_branches_pkey |            16384
 2017-02-08 01:37:47.789486+01 | 1486514267.78949 | pgbench_tellers_pkey  |            32768
 2017-02-08 01:37:47.789486+01 | 1486514267.78949 | pgbench_accounts_pkey |        112336896

 2017-02-08 01:37:48.982463+01 | 1486514268.98246 | pgbench_branches_pkey |            16384
 2017-02-08 01:37:48.982463+01 | 1486514268.98246 | pgbench_tellers_pkey  |            32768
 2017-02-08 01:37:48.982463+01 | 1486514268.98246 | pgbench_accounts_pkey |        112336896

 2017-02-08 01:37:50.106145+01 | 1486514270.10614 | pgbench_branches_pkey |            16384
 2017-02-08 01:37:50.106145+01 | 1486514270.10614 | pgbench_tellers_pkey  |            32768
 2017-02-08 01:37:50.106145+01 | 1486514270.10614 | pgbench_accounts_pkey |        112336896

 2017-02-08 01:37:51.262127+01 | 1486514271.26213 | pgbench_branches_pkey |            16384
 2017-02-08 01:37:51.262127+01 | 1486514271.26213 | pgbench_tellers_pkey  |            32768
 2017-02-08 01:37:51.262127+01 | 1486514271.26213 | pgbench_accounts_pkey |        112336896

 2017-02-08 01:37:52.456683+01 | 1486514272.45668 | pgbench_branches_pkey |            16384
 2017-02-08 01:37:52.456683+01 | 1486514272.45668 | pgbench_tellers_pkey  |            32768
 2017-02-08 01:37:52.456683+01 | 1486514272.45668 | pgbench_accounts_pkey |        112336896

 2017-02-08 01:37:53.652374+01 | 1486514273.65237 | pgbench_branches_pkey |            16384
 2017-02-08 01:37:53.652374+01 | 1486514273.65237 | pgbench_tellers_pkey  |            32768
 2017-02-08 01:37:53.652374+01 | 1486514273.65237 | pgbench_accounts_pkey |        112336896

 2017-02-08 01:37:54.814126+01 | 1486514274.81413 | pgbench_branches_pkey |            16384
 2017-02-08 01:37:54.814126+01 | 1486514274.81413 | pgbench_tellers_pkey  |            32768
 2017-02-08 01:37:54.814126+01 | 1486514274.81413 | pgbench_accounts_pkey |        112336896

 2017-02-08 01:37:56.000473+01 | 1486514276.00047 | pgbench_branches_pkey |            16384
 2017-02-08 01:37:56.000473+01 | 1486514276.00047 | pgbench_tellers_pkey  |            32768
 2017-02-08 01:37:56.000473+01 | 1486514276.00047 | pgbench_accounts_pkey |        112336896

 2017-02-08 01:37:57.197435+01 | 1486514277.19743 | pgbench_branches_pkey |            16384
 2017-02-08 01:37:57.197435+01 | 1486514277.19743 | pgbench_tellers_pkey  |            32768
 2017-02-08 01:37:57.197435+01 | 1486514277.19743 | pgbench_accounts_pkey |        112336896

 2017-02-08 01:37:58.393919+01 | 1486514278.39392 | pgbench_branches_pkey |            16384
 2017-02-08 01:37:58.393919+01 | 1486514278.39392 | pgbench_tellers_pkey  |            32768
 2017-02-08 01:37:58.393919+01 | 1486514278.39392 | pgbench_accounts_pkey |        112336896

 2017-02-08 01:37:59.583942+01 | 1486514279.58394 | pgbench_branches_pkey |            16384
 2017-02-08 01:37:59.583942+01 | 1486514279.58394 | pgbench_tellers_pkey  |            32768
 2017-02-08 01:37:59.583942+01 | 1486514279.58394 | pgbench_accounts_pkey |        112336896

 2017-02-08 01:38:00.763832+01 | 1486514280.76383 | pgbench_branches_pkey |            16384
 2017-02-08 01:38:00.763832+01 | 1486514280.76383 | pgbench_tellers_pkey  |            32768
 2017-02-08 01:38:00.763832+01 | 1486514280.76383 | pgbench_accounts_pkey |        112336896

 2017-02-08 01:38:01.918975+01 | 1486514281.91898 | pgbench_branches_pkey |            16384
 2017-02-08 01:38:01.918975+01 | 1486514281.91898 | pgbench_tellers_pkey  |            32768
 2017-02-08 01:38:01.918975+01 | 1486514281.91898 | pgbench_accounts_pkey |        112336896

 2017-02-08 01:38:03.065091+01 | 1486514283.06509 | pgbench_branches_pkey |            16384
 2017-02-08 01:38:03.065091+01 | 1486514283.06509 | pgbench_tellers_pkey  |            32768
 2017-02-08 01:38:03.065091+01 | 1486514283.06509 | pgbench_accounts_pkey |        112336896

 2017-02-08 01:38:04.229218+01 | 1486514284.22922 | pgbench_branches_pkey |            16384
 2017-02-08 01:38:04.229218+01 | 1486514284.22922 | pgbench_tellers_pkey  |            32768
 2017-02-08 01:38:04.229218+01 | 1486514284.22922 | pgbench_accounts_pkey |        112336896

 2017-02-08 01:38:05.422019+01 | 1486514285.42202 | pgbench_branches_pkey |            16384
 2017-02-08 01:38:05.422019+01 | 1486514285.42202 | pgbench_tellers_pkey  |            32768
 2017-02-08 01:38:05.422019+01 | 1486514285.42202 | pgbench_accounts_pkey |        112336896

 2017-02-08 01:38:06.617149+01 | 1486514286.61715 | pgbench_branches_pkey |            16384
 2017-02-08 01:38:06.617149+01 | 1486514286.61715 | pgbench_tellers_pkey  |            32768
 2017-02-08 01:38:06.617149+01 | 1486514286.61715 | pgbench_accounts_pkey |        112336896

 2017-02-08 01:38:07.811738+01 | 1486514287.81174 | pgbench_branches_pkey |            16384
 2017-02-08 01:38:07.811738+01 | 1486514287.81174 | pgbench_tellers_pkey  |            32768
 2017-02-08 01:38:07.811738+01 | 1486514287.81174 | pgbench_accounts_pkey |        112336896

 2017-02-08 01:38:09.009155+01 | 1486514289.00916 | pgbench_branches_pkey |            16384
 2017-02-08 01:38:09.009155+01 | 1486514289.00916 | pgbench_tellers_pkey  |            32768
 2017-02-08 01:38:09.009155+01 | 1486514289.00916 | pgbench_accounts_pkey |        112336896

 2017-02-08 01:38:10.206409+01 | 1486514290.20641 | pgbench_branches_pkey |            16384
 2017-02-08 01:38:10.206409+01 | 1486514290.20641 | pgbench_tellers_pkey  |            32768
 2017-02-08 01:38:10.206409+01 | 1486514290.20641 | pgbench_accounts_pkey |        112336896

 2017-02-08 01:38:11.406155+01 | 1486514291.40616 | pgbench_branches_pkey |            16384
 2017-02-08 01:38:11.406155+01 | 1486514291.40616 | pgbench_tellers_pkey  |            32768
 2017-02-08 01:38:11.406155+01 | 1486514291.40616 | pgbench_accounts_pkey |        112336896

 2017-02-08 01:38:12.597948+01 | 1486514292.59795 | pgbench_branches_pkey |            16384
 2017-02-08 01:38:12.597948+01 | 1486514292.59795 | pgbench_tellers_pkey  |            32768
 2017-02-08 01:38:12.597948+01 | 1486514292.59795 | pgbench_accounts_pkey |        112336896

 2017-02-08 01:38:13.736927+01 | 1486514293.73693 | pgbench_branches_pkey |            16384
 2017-02-08 01:38:13.736927+01 | 1486514293.73693 | pgbench_tellers_pkey  |            32768
 2017-02-08 01:38:13.736927+01 | 1486514293.73693 | pgbench_accounts_pkey |        112336896

 2017-02-08 01:38:14.887779+01 | 1486514294.88778 | pgbench_branches_pkey |            16384
 2017-02-08 01:38:14.887779+01 | 1486514294.88778 | pgbench_tellers_pkey  |            32768
 2017-02-08 01:38:14.887779+01 | 1486514294.88778 | pgbench_accounts_pkey |        112336896

 2017-02-08 01:38:16.078355+01 | 1486514296.07836 | pgbench_branches_pkey |            16384
 2017-02-08 01:38:16.078355+01 | 1486514296.07836 | pgbench_tellers_pkey  |            32768
 2017-02-08 01:38:16.078355+01 | 1486514296.07836 | pgbench_accounts_pkey |        112336896

 2017-02-08 01:38:17.26792+01 | 1486514297.26792 | pgbench_branches_pkey |            16384
 2017-02-08 01:38:17.26792+01 | 1486514297.26792 | pgbench_tellers_pkey  |            32768
 2017-02-08 01:38:17.26792+01 | 1486514297.26792 | pgbench_accounts_pkey |        112336896

 2017-02-08 01:38:18.465725+01 | 1486514298.46572 | pgbench_branches_pkey |            16384
 2017-02-08 01:38:18.465725+01 | 1486514298.46572 | pgbench_tellers_pkey  |            32768
 2017-02-08 01:38:18.465725+01 | 1486514298.46572 | pgbench_accounts_pkey |        112336896

 2017-02-08 01:38:19.598086+01 | 1486514299.59809 | pgbench_branches_pkey |            16384
 2017-02-08 01:38:19.598086+01 | 1486514299.59809 | pgbench_tellers_pkey  |            32768
 2017-02-08 01:38:19.598086+01 | 1486514299.59809 | pgbench_accounts_pkey |        112336896

 2017-02-08 01:38:20.731213+01 | 1486514300.73121 | pgbench_branches_pkey |            16384
 2017-02-08 01:38:20.731213+01 | 1486514300.73121 | pgbench_tellers_pkey  |            32768
 2017-02-08 01:38:20.731213+01 | 1486514300.73121 | pgbench_accounts_pkey |        112336896

 2017-02-08 01:38:21.857471+01 | 1486514301.85747 | pgbench_branches_pkey |            16384
 2017-02-08 01:38:21.857471+01 | 1486514301.85747 | pgbench_tellers_pkey  |            32768
 2017-02-08 01:38:21.857471+01 | 1486514301.85747 | pgbench_accounts_pkey |        112336896

 2017-02-08 01:38:23.023929+01 | 1486514303.02393 | pgbench_branches_pkey |            16384
 2017-02-08 01:38:23.023929+01 | 1486514303.02393 | pgbench_tellers_pkey  |            32768
 2017-02-08 01:38:23.023929+01 | 1486514303.02393 | pgbench_accounts_pkey |        112336896

 2017-02-08 01:38:24.190146+01 | 1486514304.19015 | pgbench_branches_pkey |            16384
 2017-02-08 01:38:24.190146+01 | 1486514304.19015 | pgbench_tellers_pkey  |            32768
 2017-02-08 01:38:24.190146+01 | 1486514304.19015 | pgbench_accounts_pkey |        112336896

 2017-02-08 01:38:25.361205+01 | 1486514305.36121 | pgbench_branches_pkey |            16384
 2017-02-08 01:38:25.361205+01 | 1486514305.36121 | pgbench_tellers_pkey  |            32768
 2017-02-08 01:38:25.361205+01 | 1486514305.36121 | pgbench_accounts_pkey |        112336896

 2017-02-08 01:38:26.555796+01 | 1486514306.5558 | pgbench_branches_pkey |            16384
 2017-02-08 01:38:26.555796+01 | 1486514306.5558 | pgbench_tellers_pkey  |            32768
 2017-02-08 01:38:26.555796+01 | 1486514306.5558 | pgbench_accounts_pkey |        112336896

 2017-02-08 01:38:27.751444+01 | 1486514307.75144 | pgbench_branches_pkey |            16384
 2017-02-08 01:38:27.751444+01 | 1486514307.75144 | pgbench_tellers_pkey  |            32768
 2017-02-08 01:38:27.751444+01 | 1486514307.75144 | pgbench_accounts_pkey |        112336896

 2017-02-08 01:38:28.946197+01 | 1486514308.9462 | pgbench_branches_pkey |            16384
 2017-02-08 01:38:28.946197+01 | 1486514308.9462 | pgbench_tellers_pkey  |            32768
 2017-02-08 01:38:28.946197+01 | 1486514308.9462 | pgbench_accounts_pkey |        112336896

 2017-02-08 01:38:30.141215+01 | 1486514310.14122 | pgbench_branches_pkey |            16384
 2017-02-08 01:38:30.141215+01 | 1486514310.14122 | pgbench_tellers_pkey  |            32768
 2017-02-08 01:38:30.141215+01 | 1486514310.14122 | pgbench_accounts_pkey |        112336896

 2017-02-08 01:38:31.334725+01 | 1486514311.33472 | pgbench_branches_pkey |            16384
 2017-02-08 01:38:31.334725+01 | 1486514311.33472 | pgbench_tellers_pkey  |            32768
 2017-02-08 01:38:31.334725+01 | 1486514311.33472 | pgbench_accounts_pkey |        112336896

 2017-02-08 01:38:32.529305+01 | 1486514312.5293 | pgbench_branches_pkey |            16384
 2017-02-08 01:38:32.529305+01 | 1486514312.5293 | pgbench_tellers_pkey  |            32768
 2017-02-08 01:38:32.529305+01 | 1486514312.5293 | pgbench_accounts_pkey |        112336896

 2017-02-08 01:38:33.723896+01 | 1486514313.7239 | pgbench_branches_pkey |            16384
 2017-02-08 01:38:33.723896+01 | 1486514313.7239 | pgbench_tellers_pkey  |            32768
 2017-02-08 01:38:33.723896+01 | 1486514313.7239 | pgbench_accounts_pkey |        112336896

 2017-02-08 01:38:34.918743+01 | 1486514314.91874 | pgbench_branches_pkey |            16384
 2017-02-08 01:38:34.918743+01 | 1486514314.91874 | pgbench_tellers_pkey  |            32768
 2017-02-08 01:38:34.918743+01 | 1486514314.91874 | pgbench_accounts_pkey |        112336896

 2017-02-08 01:38:36.113436+01 | 1486514316.11344 | pgbench_branches_pkey |            16384
 2017-02-08 01:38:36.113436+01 | 1486514316.11344 | pgbench_tellers_pkey  |            32768
 2017-02-08 01:38:36.113436+01 | 1486514316.11344 | pgbench_accounts_pkey |        112336896

 2017-02-08 01:38:37.3058+01 | 1486514317.3058 | pgbench_branches_pkey |            16384
 2017-02-08 01:38:37.3058+01 | 1486514317.3058 | pgbench_tellers_pkey  |            32768
 2017-02-08 01:38:37.3058+01 | 1486514317.3058 | pgbench_accounts_pkey |        112336896

 2017-02-08 01:38:38.45258+01 | 1486514318.45258 | pgbench_branches_pkey |            16384
 2017-02-08 01:38:38.45258+01 | 1486514318.45258 | pgbench_tellers_pkey  |            32768
 2017-02-08 01:38:38.45258+01 | 1486514318.45258 | pgbench_accounts_pkey |        112336896

 2017-02-08 01:38:39.624061+01 | 1486514319.62406 | pgbench_branches_pkey |            16384
 2017-02-08 01:38:39.624061+01 | 1486514319.62406 | pgbench_tellers_pkey  |            32768
 2017-02-08 01:38:39.624061+01 | 1486514319.62406 | pgbench_accounts_pkey |        112336896

 2017-02-08 01:38:40.817518+01 | 1486514320.81752 | pgbench_branches_pkey |            16384
 2017-02-08 01:38:40.817518+01 | 1486514320.81752 | pgbench_tellers_pkey  |            32768
 2017-02-08 01:38:40.817518+01 | 1486514320.81752 | pgbench_accounts_pkey |        112336896

 2017-02-08 01:38:42.009857+01 | 1486514322.00986 | pgbench_branches_pkey |            16384
 2017-02-08 01:38:42.009857+01 | 1486514322.00986 | pgbench_tellers_pkey  |            32768
 2017-02-08 01:38:42.009857+01 | 1486514322.00986 | pgbench_accounts_pkey |        112336896

 2017-02-08 01:38:43.203649+01 | 1486514323.20365 | pgbench_branches_pkey |            16384
 2017-02-08 01:38:43.203649+01 | 1486514323.20365 | pgbench_tellers_pkey  |            32768
 2017-02-08 01:38:43.203649+01 | 1486514323.20365 | pgbench_accounts_pkey |        112336896

 2017-02-08 01:38:44.401479+01 | 1486514324.40148 | pgbench_branches_pkey |            16384
 2017-02-08 01:38:44.401479+01 | 1486514324.40148 | pgbench_tellers_pkey  |            32768
 2017-02-08 01:38:44.401479+01 | 1486514324.40148 | pgbench_accounts_pkey |        112336896

 2017-02-08 01:38:45.597359+01 | 1486514325.59736 | pgbench_branches_pkey |            16384
 2017-02-08 01:38:45.597359+01 | 1486514325.59736 | pgbench_tellers_pkey  |            32768
 2017-02-08 01:38:45.597359+01 | 1486514325.59736 | pgbench_accounts_pkey |        112336896

 2017-02-08 01:38:46.770968+01 | 1486514326.77097 | pgbench_branches_pkey |            16384
 2017-02-08 01:38:46.770968+01 | 1486514326.77097 | pgbench_tellers_pkey  |            32768
 2017-02-08 01:38:46.770968+01 | 1486514326.77097 | pgbench_accounts_pkey |        112336896

 2017-02-08 01:38:47.954256+01 | 1486514327.95426 | pgbench_branches_pkey |            16384
 2017-02-08 01:38:47.954256+01 | 1486514327.95426 | pgbench_tellers_pkey  |            32768
 2017-02-08 01:38:47.954256+01 | 1486514327.95426 | pgbench_accounts_pkey |        112336896

 2017-02-08 01:38:49.12701+01 | 1486514329.12701 | pgbench_branches_pkey |            16384
 2017-02-08 01:38:49.12701+01 | 1486514329.12701 | pgbench_tellers_pkey  |            32768
 2017-02-08 01:38:49.12701+01 | 1486514329.12701 | pgbench_accounts_pkey |        112336896

 2017-02-08 01:38:50.320374+01 | 1486514330.32037 | pgbench_branches_pkey |            16384
 2017-02-08 01:38:50.320374+01 | 1486514330.32037 | pgbench_tellers_pkey  |            32768
 2017-02-08 01:38:50.320374+01 | 1486514330.32037 | pgbench_accounts_pkey |        112336896

 2017-02-08 01:38:51.508021+01 | 1486514331.50802 | pgbench_branches_pkey |            16384
 2017-02-08 01:38:51.508021+01 | 1486514331.50802 | pgbench_tellers_pkey  |            32768
 2017-02-08 01:38:51.508021+01 | 1486514331.50802 | pgbench_accounts_pkey |        112336896

 2017-02-08 01:38:52.702155+01 | 1486514332.70216 | pgbench_branches_pkey |            16384
 2017-02-08 01:38:52.702155+01 | 1486514332.70216 | pgbench_tellers_pkey  |            32768
 2017-02-08 01:38:52.702155+01 | 1486514332.70216 | pgbench_accounts_pkey |        112336896

 2017-02-08 01:38:53.894961+01 | 1486514333.89496 | pgbench_branches_pkey |            16384
 2017-02-08 01:38:53.894961+01 | 1486514333.89496 | pgbench_tellers_pkey  |            32768
 2017-02-08 01:38:53.894961+01 | 1486514333.89496 | pgbench_accounts_pkey |        112336896

 2017-02-08 01:38:55.084676+01 | 1486514335.08468 | pgbench_branches_pkey |            16384
 2017-02-08 01:38:55.084676+01 | 1486514335.08468 | pgbench_tellers_pkey  |            32768
 2017-02-08 01:38:55.084676+01 | 1486514335.08468 | pgbench_accounts_pkey |        112336896

 2017-02-08 01:38:56.246978+01 | 1486514336.24698 | pgbench_branches_pkey |            16384
 2017-02-08 01:38:56.246978+01 | 1486514336.24698 | pgbench_tellers_pkey  |            32768
 2017-02-08 01:38:56.246978+01 | 1486514336.24698 | pgbench_accounts_pkey |        112336896

 2017-02-08 01:38:57.389202+01 | 1486514337.3892 | pgbench_branches_pkey |            16384
 2017-02-08 01:38:57.389202+01 | 1486514337.3892 | pgbench_tellers_pkey  |            32768
 2017-02-08 01:38:57.389202+01 | 1486514337.3892 | pgbench_accounts_pkey |        112336896

 2017-02-08 01:38:58.550265+01 | 1486514338.55027 | pgbench_branches_pkey |            16384
 2017-02-08 01:38:58.550265+01 | 1486514338.55027 | pgbench_tellers_pkey  |            32768
 2017-02-08 01:38:58.550265+01 | 1486514338.55027 | pgbench_accounts_pkey |        112336896

 2017-02-08 01:38:59.745626+01 | 1486514339.74563 | pgbench_branches_pkey |            16384
 2017-02-08 01:38:59.745626+01 | 1486514339.74563 | pgbench_tellers_pkey  |            32768
 2017-02-08 01:38:59.745626+01 | 1486514339.74563 | pgbench_accounts_pkey |        112336896

 2017-02-08 01:39:00.938628+01 | 1486514340.93863 | pgbench_branches_pkey |            16384
 2017-02-08 01:39:00.938628+01 | 1486514340.93863 | pgbench_tellers_pkey  |            32768
 2017-02-08 01:39:00.938628+01 | 1486514340.93863 | pgbench_accounts_pkey |        112336896

 2017-02-08 01:39:02.132292+01 | 1486514342.13229 | pgbench_branches_pkey |            16384
 2017-02-08 01:39:02.132292+01 | 1486514342.13229 | pgbench_tellers_pkey  |            32768
 2017-02-08 01:39:02.132292+01 | 1486514342.13229 | pgbench_accounts_pkey |        112336896

 2017-02-08 01:39:03.322687+01 | 1486514343.32269 | pgbench_branches_pkey |            16384
 2017-02-08 01:39:03.322687+01 | 1486514343.32269 | pgbench_tellers_pkey  |            32768
 2017-02-08 01:39:03.322687+01 | 1486514343.32269 | pgbench_accounts_pkey |        112336896

 2017-02-08 01:39:04.520047+01 | 1486514344.52005 | pgbench_branches_pkey |            16384
 2017-02-08 01:39:04.520047+01 | 1486514344.52005 | pgbench_tellers_pkey  |            32768
 2017-02-08 01:39:04.520047+01 | 1486514344.52005 | pgbench_accounts_pkey |        112336896

 2017-02-08 01:39:05.717097+01 | 1486514345.7171 | pgbench_branches_pkey |            16384
 2017-02-08 01:39:05.717097+01 | 1486514345.7171 | pgbench_tellers_pkey  |            32768
 2017-02-08 01:39:05.717097+01 | 1486514345.7171 | pgbench_accounts_pkey |        112336896

 2017-02-08 01:39:06.853404+01 | 1486514346.8534 | pgbench_branches_pkey |            16384
 2017-02-08 01:39:06.853404+01 | 1486514346.8534 | pgbench_tellers_pkey  |            32768
 2017-02-08 01:39:06.853404+01 | 1486514346.8534 | pgbench_accounts_pkey |        112336896

 2017-02-08 01:39:08.007693+01 | 1486514348.00769 | pgbench_branches_pkey |            16384
 2017-02-08 01:39:08.007693+01 | 1486514348.00769 | pgbench_tellers_pkey  |            32768
 2017-02-08 01:39:08.007693+01 | 1486514348.00769 | pgbench_accounts_pkey |        112336896

 2017-02-08 01:39:09.169375+01 | 1486514349.16937 | pgbench_branches_pkey |            16384
 2017-02-08 01:39:09.169375+01 | 1486514349.16937 | pgbench_tellers_pkey  |            32768
 2017-02-08 01:39:09.169375+01 | 1486514349.16937 | pgbench_accounts_pkey |        112336896

 2017-02-08 01:39:10.305219+01 | 1486514350.30522 | pgbench_branches_pkey |            16384
 2017-02-08 01:39:10.305219+01 | 1486514350.30522 | pgbench_tellers_pkey  |            32768
 2017-02-08 01:39:10.305219+01 | 1486514350.30522 | pgbench_accounts_pkey |        112336896

