 2017-02-08 01:34:10.677025+01 | 1486514050.67703 | pgbench_accounts |        671481856
 2017-02-08 01:34:10.677025+01 | 1486514050.67703 | pgbench_tellers  |            24576
 2017-02-08 01:34:10.677025+01 | 1486514050.67703 | pgbench_history  |                0
 2017-02-08 01:34:10.677025+01 | 1486514050.67703 | pgbench_branches |             8192

 2017-02-08 01:34:11.861179+01 | 1486514051.86118 | pgbench_accounts |        671481856
 2017-02-08 01:34:11.861179+01 | 1486514051.86118 | pgbench_tellers  |            24576
 2017-02-08 01:34:11.861179+01 | 1486514051.86118 | pgbench_history  |                0
 2017-02-08 01:34:11.861179+01 | 1486514051.86118 | pgbench_branches |             8192

 2017-02-08 01:34:13.053457+01 | 1486514053.05346 | pgbench_accounts |        671481856
 2017-02-08 01:34:13.053457+01 | 1486514053.05346 | pgbench_tellers  |            24576
 2017-02-08 01:34:13.053457+01 | 1486514053.05346 | pgbench_history  |                0
 2017-02-08 01:34:13.053457+01 | 1486514053.05346 | pgbench_branches |             8192

 2017-02-08 01:34:14.251611+01 | 1486514054.25161 | pgbench_accounts |        671481856
 2017-02-08 01:34:14.251611+01 | 1486514054.25161 | pgbench_tellers  |            24576
 2017-02-08 01:34:14.251611+01 | 1486514054.25161 | pgbench_history  |                0
 2017-02-08 01:34:14.251611+01 | 1486514054.25161 | pgbench_branches |             8192

 2017-02-08 01:34:15.445962+01 | 1486514055.44596 | pgbench_accounts |        671481856
 2017-02-08 01:34:15.445962+01 | 1486514055.44596 | pgbench_tellers  |            24576
 2017-02-08 01:34:15.445962+01 | 1486514055.44596 | pgbench_history  |                0
 2017-02-08 01:34:15.445962+01 | 1486514055.44596 | pgbench_branches |             8192

 2017-02-08 01:34:16.608459+01 | 1486514056.60846 | pgbench_accounts |        671481856
 2017-02-08 01:34:16.608459+01 | 1486514056.60846 | pgbench_tellers  |            24576
 2017-02-08 01:34:16.608459+01 | 1486514056.60846 | pgbench_history  |                0
 2017-02-08 01:34:16.608459+01 | 1486514056.60846 | pgbench_branches |             8192

 2017-02-08 01:34:17.80283+01 | 1486514057.80283 | pgbench_accounts |        671481856
 2017-02-08 01:34:17.80283+01 | 1486514057.80283 | pgbench_tellers  |            24576
 2017-02-08 01:34:17.80283+01 | 1486514057.80283 | pgbench_history  |                0
 2017-02-08 01:34:17.80283+01 | 1486514057.80283 | pgbench_branches |             8192

 2017-02-08 01:34:18.992876+01 | 1486514058.99288 | pgbench_accounts |        671481856
 2017-02-08 01:34:18.992876+01 | 1486514058.99288 | pgbench_tellers  |            24576
 2017-02-08 01:34:18.992876+01 | 1486514058.99288 | pgbench_history  |                0
 2017-02-08 01:34:18.992876+01 | 1486514058.99288 | pgbench_branches |             8192

 2017-02-08 01:34:20.187782+01 | 1486514060.18778 | pgbench_accounts |        671481856
 2017-02-08 01:34:20.187782+01 | 1486514060.18778 | pgbench_tellers  |            24576
 2017-02-08 01:34:20.187782+01 | 1486514060.18778 | pgbench_history  |                0
 2017-02-08 01:34:20.187782+01 | 1486514060.18778 | pgbench_branches |             8192

 2017-02-08 01:34:21.363535+01 | 1486514061.36353 | pgbench_accounts |        671481856
 2017-02-08 01:34:21.363535+01 | 1486514061.36353 | pgbench_tellers  |            24576
 2017-02-08 01:34:21.363535+01 | 1486514061.36353 | pgbench_history  |                0
 2017-02-08 01:34:21.363535+01 | 1486514061.36353 | pgbench_branches |             8192

 2017-02-08 01:34:22.554422+01 | 1486514062.55442 | pgbench_accounts |        671481856
 2017-02-08 01:34:22.554422+01 | 1486514062.55442 | pgbench_tellers  |            24576
 2017-02-08 01:34:22.554422+01 | 1486514062.55442 | pgbench_history  |                0
 2017-02-08 01:34:22.554422+01 | 1486514062.55442 | pgbench_branches |             8192

 2017-02-08 01:34:23.746196+01 | 1486514063.7462 | pgbench_accounts |        671481856
 2017-02-08 01:34:23.746196+01 | 1486514063.7462 | pgbench_tellers  |            24576
 2017-02-08 01:34:23.746196+01 | 1486514063.7462 | pgbench_history  |                0
 2017-02-08 01:34:23.746196+01 | 1486514063.7462 | pgbench_branches |             8192

 2017-02-08 01:34:24.906526+01 | 1486514064.90653 | pgbench_accounts |        671481856
 2017-02-08 01:34:24.906526+01 | 1486514064.90653 | pgbench_tellers  |            24576
 2017-02-08 01:34:24.906526+01 | 1486514064.90653 | pgbench_history  |                0
 2017-02-08 01:34:24.906526+01 | 1486514064.90653 | pgbench_branches |             8192

 2017-02-08 01:34:26.098222+01 | 1486514066.09822 | pgbench_accounts |        671481856
 2017-02-08 01:34:26.098222+01 | 1486514066.09822 | pgbench_tellers  |            24576
 2017-02-08 01:34:26.098222+01 | 1486514066.09822 | pgbench_history  |                0
 2017-02-08 01:34:26.098222+01 | 1486514066.09822 | pgbench_branches |             8192

 2017-02-08 01:34:27.290948+01 | 1486514067.29095 | pgbench_accounts |        671481856
 2017-02-08 01:34:27.290948+01 | 1486514067.29095 | pgbench_tellers  |            24576
 2017-02-08 01:34:27.290948+01 | 1486514067.29095 | pgbench_history  |                0
 2017-02-08 01:34:27.290948+01 | 1486514067.29095 | pgbench_branches |             8192

 2017-02-08 01:34:28.484886+01 | 1486514068.48489 | pgbench_accounts |        671481856
 2017-02-08 01:34:28.484886+01 | 1486514068.48489 | pgbench_tellers  |            24576
 2017-02-08 01:34:28.484886+01 | 1486514068.48489 | pgbench_history  |                0
 2017-02-08 01:34:28.484886+01 | 1486514068.48489 | pgbench_branches |             8192

 2017-02-08 01:34:29.681408+01 | 1486514069.68141 | pgbench_accounts |        671481856
 2017-02-08 01:34:29.681408+01 | 1486514069.68141 | pgbench_tellers  |            24576
 2017-02-08 01:34:29.681408+01 | 1486514069.68141 | pgbench_history  |                0
 2017-02-08 01:34:29.681408+01 | 1486514069.68141 | pgbench_branches |             8192

 2017-02-08 01:34:30.875082+01 | 1486514070.87508 | pgbench_accounts |        671481856
 2017-02-08 01:34:30.875082+01 | 1486514070.87508 | pgbench_tellers  |            24576
 2017-02-08 01:34:30.875082+01 | 1486514070.87508 | pgbench_history  |                0
 2017-02-08 01:34:30.875082+01 | 1486514070.87508 | pgbench_branches |             8192

 2017-02-08 01:34:32.070176+01 | 1486514072.07018 | pgbench_accounts |        671481856
 2017-02-08 01:34:32.070176+01 | 1486514072.07018 | pgbench_tellers  |            24576
 2017-02-08 01:34:32.070176+01 | 1486514072.07018 | pgbench_history  |                0
 2017-02-08 01:34:32.070176+01 | 1486514072.07018 | pgbench_branches |             8192

 2017-02-08 01:34:33.26475+01 | 1486514073.26475 | pgbench_accounts |        671481856
 2017-02-08 01:34:33.26475+01 | 1486514073.26475 | pgbench_tellers  |            24576
 2017-02-08 01:34:33.26475+01 | 1486514073.26475 | pgbench_history  |                0
 2017-02-08 01:34:33.26475+01 | 1486514073.26475 | pgbench_branches |             8192

 2017-02-08 01:34:34.4591+01 | 1486514074.4591 | pgbench_accounts |        671481856
 2017-02-08 01:34:34.4591+01 | 1486514074.4591 | pgbench_tellers  |            24576
 2017-02-08 01:34:34.4591+01 | 1486514074.4591 | pgbench_history  |                0
 2017-02-08 01:34:34.4591+01 | 1486514074.4591 | pgbench_branches |             8192

 2017-02-08 01:34:35.651776+01 | 1486514075.65178 | pgbench_accounts |        671481856
 2017-02-08 01:34:35.651776+01 | 1486514075.65178 | pgbench_tellers  |            24576
 2017-02-08 01:34:35.651776+01 | 1486514075.65178 | pgbench_history  |                0
 2017-02-08 01:34:35.651776+01 | 1486514075.65178 | pgbench_branches |             8192

 2017-02-08 01:34:36.847844+01 | 1486514076.84784 | pgbench_accounts |        671481856
 2017-02-08 01:34:36.847844+01 | 1486514076.84784 | pgbench_tellers  |            24576
 2017-02-08 01:34:36.847844+01 | 1486514076.84784 | pgbench_history  |                0
 2017-02-08 01:34:36.847844+01 | 1486514076.84784 | pgbench_branches |             8192

 2017-02-08 01:34:38.040694+01 | 1486514078.04069 | pgbench_accounts |        671481856
 2017-02-08 01:34:38.040694+01 | 1486514078.04069 | pgbench_tellers  |            24576
 2017-02-08 01:34:38.040694+01 | 1486514078.04069 | pgbench_history  |                0
 2017-02-08 01:34:38.040694+01 | 1486514078.04069 | pgbench_branches |             8192

 2017-02-08 01:34:39.237616+01 | 1486514079.23762 | pgbench_accounts |        671481856
 2017-02-08 01:34:39.237616+01 | 1486514079.23762 | pgbench_tellers  |            24576
 2017-02-08 01:34:39.237616+01 | 1486514079.23762 | pgbench_history  |                0
 2017-02-08 01:34:39.237616+01 | 1486514079.23762 | pgbench_branches |             8192

 2017-02-08 01:34:40.431397+01 | 1486514080.4314 | pgbench_accounts |        671481856
 2017-02-08 01:34:40.431397+01 | 1486514080.4314 | pgbench_tellers  |            24576
 2017-02-08 01:34:40.431397+01 | 1486514080.4314 | pgbench_history  |                0
 2017-02-08 01:34:40.431397+01 | 1486514080.4314 | pgbench_branches |             8192

 2017-02-08 01:34:41.596084+01 | 1486514081.59608 | pgbench_accounts |        671481856
 2017-02-08 01:34:41.596084+01 | 1486514081.59608 | pgbench_tellers  |            24576
 2017-02-08 01:34:41.596084+01 | 1486514081.59608 | pgbench_history  |                0
 2017-02-08 01:34:41.596084+01 | 1486514081.59608 | pgbench_branches |             8192

 2017-02-08 01:34:42.786505+01 | 1486514082.7865 | pgbench_accounts |        671481856
 2017-02-08 01:34:42.786505+01 | 1486514082.7865 | pgbench_tellers  |            24576
 2017-02-08 01:34:42.786505+01 | 1486514082.7865 | pgbench_history  |                0
 2017-02-08 01:34:42.786505+01 | 1486514082.7865 | pgbench_branches |             8192

 2017-02-08 01:34:43.965802+01 | 1486514083.9658 | pgbench_accounts |        671481856
 2017-02-08 01:34:43.965802+01 | 1486514083.9658 | pgbench_tellers  |            24576
 2017-02-08 01:34:43.965802+01 | 1486514083.9658 | pgbench_history  |                0
 2017-02-08 01:34:43.965802+01 | 1486514083.9658 | pgbench_branches |             8192

 2017-02-08 01:34:45.162675+01 | 1486514085.16267 | pgbench_accounts |        671481856
 2017-02-08 01:34:45.162675+01 | 1486514085.16267 | pgbench_tellers  |            24576
 2017-02-08 01:34:45.162675+01 | 1486514085.16267 | pgbench_history  |                0
 2017-02-08 01:34:45.162675+01 | 1486514085.16267 | pgbench_branches |             8192

 2017-02-08 01:34:46.353742+01 | 1486514086.35374 | pgbench_accounts |        671481856
 2017-02-08 01:34:46.353742+01 | 1486514086.35374 | pgbench_tellers  |            24576
 2017-02-08 01:34:46.353742+01 | 1486514086.35374 | pgbench_history  |                0
 2017-02-08 01:34:46.353742+01 | 1486514086.35374 | pgbench_branches |             8192

 2017-02-08 01:34:47.53384+01 | 1486514087.53384 | pgbench_accounts |        671481856
 2017-02-08 01:34:47.53384+01 | 1486514087.53384 | pgbench_tellers  |            24576
 2017-02-08 01:34:47.53384+01 | 1486514087.53384 | pgbench_history  |                0
 2017-02-08 01:34:47.53384+01 | 1486514087.53384 | pgbench_branches |             8192

 2017-02-08 01:34:48.677743+01 | 1486514088.67774 | pgbench_accounts |        671481856
 2017-02-08 01:34:48.677743+01 | 1486514088.67774 | pgbench_tellers  |            24576
 2017-02-08 01:34:48.677743+01 | 1486514088.67774 | pgbench_history  |                0
 2017-02-08 01:34:48.677743+01 | 1486514088.67774 | pgbench_branches |             8192

 2017-02-08 01:34:49.870307+01 | 1486514089.87031 | pgbench_accounts |        671481856
 2017-02-08 01:34:49.870307+01 | 1486514089.87031 | pgbench_tellers  |            24576
 2017-02-08 01:34:49.870307+01 | 1486514089.87031 | pgbench_history  |                0
 2017-02-08 01:34:49.870307+01 | 1486514089.87031 | pgbench_branches |             8192

 2017-02-08 01:34:51.064317+01 | 1486514091.06432 | pgbench_accounts |        671481856
 2017-02-08 01:34:51.064317+01 | 1486514091.06432 | pgbench_tellers  |            24576
 2017-02-08 01:34:51.064317+01 | 1486514091.06432 | pgbench_history  |                0
 2017-02-08 01:34:51.064317+01 | 1486514091.06432 | pgbench_branches |             8192

 2017-02-08 01:34:52.256065+01 | 1486514092.25606 | pgbench_accounts |        671481856
 2017-02-08 01:34:52.256065+01 | 1486514092.25606 | pgbench_tellers  |            24576
 2017-02-08 01:34:52.256065+01 | 1486514092.25606 | pgbench_history  |                0
 2017-02-08 01:34:52.256065+01 | 1486514092.25606 | pgbench_branches |             8192

 2017-02-08 01:34:53.450445+01 | 1486514093.45044 | pgbench_accounts |        671481856
 2017-02-08 01:34:53.450445+01 | 1486514093.45044 | pgbench_tellers  |            24576
 2017-02-08 01:34:53.450445+01 | 1486514093.45044 | pgbench_history  |                0
 2017-02-08 01:34:53.450445+01 | 1486514093.45044 | pgbench_branches |             8192

 2017-02-08 01:34:54.616291+01 | 1486514094.61629 | pgbench_accounts |        671481856
 2017-02-08 01:34:54.616291+01 | 1486514094.61629 | pgbench_tellers  |            24576
 2017-02-08 01:34:54.616291+01 | 1486514094.61629 | pgbench_history  |                0
 2017-02-08 01:34:54.616291+01 | 1486514094.61629 | pgbench_branches |             8192

 2017-02-08 01:34:55.808281+01 | 1486514095.80828 | pgbench_accounts |        671481856
 2017-02-08 01:34:55.808281+01 | 1486514095.80828 | pgbench_tellers  |            24576
 2017-02-08 01:34:55.808281+01 | 1486514095.80828 | pgbench_history  |                0
 2017-02-08 01:34:55.808281+01 | 1486514095.80828 | pgbench_branches |             8192

 2017-02-08 01:34:57.00094+01 | 1486514097.00094 | pgbench_accounts |        671481856
 2017-02-08 01:34:57.00094+01 | 1486514097.00094 | pgbench_tellers  |            24576
 2017-02-08 01:34:57.00094+01 | 1486514097.00094 | pgbench_history  |                0
 2017-02-08 01:34:57.00094+01 | 1486514097.00094 | pgbench_branches |             8192

 2017-02-08 01:34:58.199498+01 | 1486514098.1995 | pgbench_accounts |        671481856
 2017-02-08 01:34:58.199498+01 | 1486514098.1995 | pgbench_tellers  |            24576
 2017-02-08 01:34:58.199498+01 | 1486514098.1995 | pgbench_history  |                0
 2017-02-08 01:34:58.199498+01 | 1486514098.1995 | pgbench_branches |             8192

 2017-02-08 01:34:59.389276+01 | 1486514099.38928 | pgbench_accounts |        671481856
 2017-02-08 01:34:59.389276+01 | 1486514099.38928 | pgbench_tellers  |            24576
 2017-02-08 01:34:59.389276+01 | 1486514099.38928 | pgbench_history  |                0
 2017-02-08 01:34:59.389276+01 | 1486514099.38928 | pgbench_branches |             8192

 2017-02-08 01:35:00.584296+01 | 1486514100.5843 | pgbench_accounts |        671481856
 2017-02-08 01:35:00.584296+01 | 1486514100.5843 | pgbench_tellers  |            24576
 2017-02-08 01:35:00.584296+01 | 1486514100.5843 | pgbench_history  |                0
 2017-02-08 01:35:00.584296+01 | 1486514100.5843 | pgbench_branches |             8192

 2017-02-08 01:35:01.777608+01 | 1486514101.77761 | pgbench_accounts |        671481856
 2017-02-08 01:35:01.777608+01 | 1486514101.77761 | pgbench_tellers  |            24576
 2017-02-08 01:35:01.777608+01 | 1486514101.77761 | pgbench_history  |                0
 2017-02-08 01:35:01.777608+01 | 1486514101.77761 | pgbench_branches |             8192

 2017-02-08 01:35:02.968604+01 | 1486514102.9686 | pgbench_accounts |        671481856
 2017-02-08 01:35:02.968604+01 | 1486514102.9686 | pgbench_tellers  |            24576
 2017-02-08 01:35:02.968604+01 | 1486514102.9686 | pgbench_history  |                0
 2017-02-08 01:35:02.968604+01 | 1486514102.9686 | pgbench_branches |             8192

 2017-02-08 01:35:04.162281+01 | 1486514104.16228 | pgbench_accounts |        671481856
 2017-02-08 01:35:04.162281+01 | 1486514104.16228 | pgbench_tellers  |            24576
 2017-02-08 01:35:04.162281+01 | 1486514104.16228 | pgbench_history  |                0
 2017-02-08 01:35:04.162281+01 | 1486514104.16228 | pgbench_branches |             8192

 2017-02-08 01:35:05.350313+01 | 1486514105.35031 | pgbench_accounts |        671481856
 2017-02-08 01:35:05.350313+01 | 1486514105.35031 | pgbench_tellers  |            24576
 2017-02-08 01:35:05.350313+01 | 1486514105.35031 | pgbench_history  |                0
 2017-02-08 01:35:05.350313+01 | 1486514105.35031 | pgbench_branches |             8192

 2017-02-08 01:35:06.546508+01 | 1486514106.54651 | pgbench_accounts |        671481856
 2017-02-08 01:35:06.546508+01 | 1486514106.54651 | pgbench_tellers  |            24576
 2017-02-08 01:35:06.546508+01 | 1486514106.54651 | pgbench_history  |                0
 2017-02-08 01:35:06.546508+01 | 1486514106.54651 | pgbench_branches |             8192

 2017-02-08 01:35:07.715131+01 | 1486514107.71513 | pgbench_accounts |        671481856
 2017-02-08 01:35:07.715131+01 | 1486514107.71513 | pgbench_tellers  |            24576
 2017-02-08 01:35:07.715131+01 | 1486514107.71513 | pgbench_history  |                0
 2017-02-08 01:35:07.715131+01 | 1486514107.71513 | pgbench_branches |             8192

 2017-02-08 01:35:08.871963+01 | 1486514108.87196 | pgbench_accounts |        671481856
 2017-02-08 01:35:08.871963+01 | 1486514108.87196 | pgbench_tellers  |            24576
 2017-02-08 01:35:08.871963+01 | 1486514108.87196 | pgbench_history  |                0
 2017-02-08 01:35:08.871963+01 | 1486514108.87196 | pgbench_branches |             8192

 2017-02-08 01:35:10.064595+01 | 1486514110.06459 | pgbench_accounts |        671481856
 2017-02-08 01:35:10.064595+01 | 1486514110.06459 | pgbench_tellers  |            24576
 2017-02-08 01:35:10.064595+01 | 1486514110.06459 | pgbench_history  |                0
 2017-02-08 01:35:10.064595+01 | 1486514110.06459 | pgbench_branches |             8192

 2017-02-08 01:35:11.262521+01 | 1486514111.26252 | pgbench_accounts |        671481856
 2017-02-08 01:35:11.262521+01 | 1486514111.26252 | pgbench_tellers  |            24576
 2017-02-08 01:35:11.262521+01 | 1486514111.26252 | pgbench_history  |                0
 2017-02-08 01:35:11.262521+01 | 1486514111.26252 | pgbench_branches |             8192

 2017-02-08 01:35:12.458124+01 | 1486514112.45812 | pgbench_accounts |        671481856
 2017-02-08 01:35:12.458124+01 | 1486514112.45812 | pgbench_tellers  |            24576
 2017-02-08 01:35:12.458124+01 | 1486514112.45812 | pgbench_history  |                0
 2017-02-08 01:35:12.458124+01 | 1486514112.45812 | pgbench_branches |             8192

 2017-02-08 01:35:13.649928+01 | 1486514113.64993 | pgbench_accounts |        671481856
 2017-02-08 01:35:13.649928+01 | 1486514113.64993 | pgbench_tellers  |            24576
 2017-02-08 01:35:13.649928+01 | 1486514113.64993 | pgbench_history  |                0
 2017-02-08 01:35:13.649928+01 | 1486514113.64993 | pgbench_branches |             8192

 2017-02-08 01:35:14.844992+01 | 1486514114.84499 | pgbench_accounts |        671481856
 2017-02-08 01:35:14.844992+01 | 1486514114.84499 | pgbench_tellers  |            24576
 2017-02-08 01:35:14.844992+01 | 1486514114.84499 | pgbench_history  |                0
 2017-02-08 01:35:14.844992+01 | 1486514114.84499 | pgbench_branches |             8192

 2017-02-08 01:35:16.035428+01 | 1486514116.03543 | pgbench_accounts |        671481856
 2017-02-08 01:35:16.035428+01 | 1486514116.03543 | pgbench_tellers  |            24576
 2017-02-08 01:35:16.035428+01 | 1486514116.03543 | pgbench_history  |                0
 2017-02-08 01:35:16.035428+01 | 1486514116.03543 | pgbench_branches |             8192

 2017-02-08 01:35:17.23273+01 | 1486514117.23273 | pgbench_accounts |        671481856
 2017-02-08 01:35:17.23273+01 | 1486514117.23273 | pgbench_tellers  |            24576
 2017-02-08 01:35:17.23273+01 | 1486514117.23273 | pgbench_history  |                0
 2017-02-08 01:35:17.23273+01 | 1486514117.23273 | pgbench_branches |             8192

 2017-02-08 01:35:18.434101+01 | 1486514118.4341 | pgbench_accounts |        671481856
 2017-02-08 01:35:18.434101+01 | 1486514118.4341 | pgbench_tellers  |            24576
 2017-02-08 01:35:18.434101+01 | 1486514118.4341 | pgbench_history  |                0
 2017-02-08 01:35:18.434101+01 | 1486514118.4341 | pgbench_branches |             8192

 2017-02-08 01:35:19.628248+01 | 1486514119.62825 | pgbench_accounts |        671481856
 2017-02-08 01:35:19.628248+01 | 1486514119.62825 | pgbench_tellers  |            24576
 2017-02-08 01:35:19.628248+01 | 1486514119.62825 | pgbench_history  |                0
 2017-02-08 01:35:19.628248+01 | 1486514119.62825 | pgbench_branches |             8192

 2017-02-08 01:35:20.825302+01 | 1486514120.8253 | pgbench_accounts |        671481856
 2017-02-08 01:35:20.825302+01 | 1486514120.8253 | pgbench_tellers  |            24576
 2017-02-08 01:35:20.825302+01 | 1486514120.8253 | pgbench_history  |                0
 2017-02-08 01:35:20.825302+01 | 1486514120.8253 | pgbench_branches |             8192

 2017-02-08 01:35:22.019331+01 | 1486514122.01933 | pgbench_accounts |        671481856
 2017-02-08 01:35:22.019331+01 | 1486514122.01933 | pgbench_tellers  |            24576
 2017-02-08 01:35:22.019331+01 | 1486514122.01933 | pgbench_history  |                0
 2017-02-08 01:35:22.019331+01 | 1486514122.01933 | pgbench_branches |             8192

 2017-02-08 01:35:23.211148+01 | 1486514123.21115 | pgbench_accounts |        671481856
 2017-02-08 01:35:23.211148+01 | 1486514123.21115 | pgbench_tellers  |            24576
 2017-02-08 01:35:23.211148+01 | 1486514123.21115 | pgbench_history  |                0
 2017-02-08 01:35:23.211148+01 | 1486514123.21115 | pgbench_branches |             8192

 2017-02-08 01:35:24.404982+01 | 1486514124.40498 | pgbench_accounts |        671481856
 2017-02-08 01:35:24.404982+01 | 1486514124.40498 | pgbench_tellers  |            24576
 2017-02-08 01:35:24.404982+01 | 1486514124.40498 | pgbench_history  |                0
 2017-02-08 01:35:24.404982+01 | 1486514124.40498 | pgbench_branches |             8192

 2017-02-08 01:35:25.596437+01 | 1486514125.59644 | pgbench_accounts |        671481856
 2017-02-08 01:35:25.596437+01 | 1486514125.59644 | pgbench_tellers  |            24576
 2017-02-08 01:35:25.596437+01 | 1486514125.59644 | pgbench_history  |                0
 2017-02-08 01:35:25.596437+01 | 1486514125.59644 | pgbench_branches |             8192

 2017-02-08 01:35:26.751082+01 | 1486514126.75108 | pgbench_accounts |        671481856
 2017-02-08 01:35:26.751082+01 | 1486514126.75108 | pgbench_tellers  |            24576
 2017-02-08 01:35:26.751082+01 | 1486514126.75108 | pgbench_history  |                0
 2017-02-08 01:35:26.751082+01 | 1486514126.75108 | pgbench_branches |             8192

 2017-02-08 01:35:27.9473+01 | 1486514127.9473 | pgbench_accounts |        671481856
 2017-02-08 01:35:27.9473+01 | 1486514127.9473 | pgbench_tellers  |            24576
 2017-02-08 01:35:27.9473+01 | 1486514127.9473 | pgbench_history  |                0
 2017-02-08 01:35:27.9473+01 | 1486514127.9473 | pgbench_branches |             8192

 2017-02-08 01:35:29.138456+01 | 1486514129.13846 | pgbench_accounts |        671481856
 2017-02-08 01:35:29.138456+01 | 1486514129.13846 | pgbench_tellers  |            24576
 2017-02-08 01:35:29.138456+01 | 1486514129.13846 | pgbench_history  |                0
 2017-02-08 01:35:29.138456+01 | 1486514129.13846 | pgbench_branches |             8192

 2017-02-08 01:35:30.33249+01 | 1486514130.33249 | pgbench_accounts |        671481856
 2017-02-08 01:35:30.33249+01 | 1486514130.33249 | pgbench_tellers  |            24576
 2017-02-08 01:35:30.33249+01 | 1486514130.33249 | pgbench_history  |                0
 2017-02-08 01:35:30.33249+01 | 1486514130.33249 | pgbench_branches |             8192

 2017-02-08 01:35:31.518835+01 | 1486514131.51884 | pgbench_accounts |        671481856
 2017-02-08 01:35:31.518835+01 | 1486514131.51884 | pgbench_tellers  |            24576
 2017-02-08 01:35:31.518835+01 | 1486514131.51884 | pgbench_history  |                0
 2017-02-08 01:35:31.518835+01 | 1486514131.51884 | pgbench_branches |             8192

 2017-02-08 01:35:32.714044+01 | 1486514132.71404 | pgbench_accounts |        671481856
 2017-02-08 01:35:32.714044+01 | 1486514132.71404 | pgbench_tellers  |            24576
 2017-02-08 01:35:32.714044+01 | 1486514132.71404 | pgbench_history  |                0
 2017-02-08 01:35:32.714044+01 | 1486514132.71404 | pgbench_branches |             8192

 2017-02-08 01:35:33.87737+01 | 1486514133.87737 | pgbench_accounts |        671481856
 2017-02-08 01:35:33.87737+01 | 1486514133.87737 | pgbench_tellers  |            24576
 2017-02-08 01:35:33.87737+01 | 1486514133.87737 | pgbench_history  |                0
 2017-02-08 01:35:33.87737+01 | 1486514133.87737 | pgbench_branches |             8192

 2017-02-08 01:35:35.057054+01 | 1486514135.05705 | pgbench_accounts |        671481856
 2017-02-08 01:35:35.057054+01 | 1486514135.05705 | pgbench_tellers  |            24576
 2017-02-08 01:35:35.057054+01 | 1486514135.05705 | pgbench_history  |                0
 2017-02-08 01:35:35.057054+01 | 1486514135.05705 | pgbench_branches |             8192

 2017-02-08 01:35:36.254745+01 | 1486514136.25475 | pgbench_accounts |        671481856
 2017-02-08 01:35:36.254745+01 | 1486514136.25475 | pgbench_tellers  |            24576
 2017-02-08 01:35:36.254745+01 | 1486514136.25475 | pgbench_history  |                0
 2017-02-08 01:35:36.254745+01 | 1486514136.25475 | pgbench_branches |             8192

 2017-02-08 01:35:37.438483+01 | 1486514137.43848 | pgbench_accounts |        671481856
 2017-02-08 01:35:37.438483+01 | 1486514137.43848 | pgbench_tellers  |            24576
 2017-02-08 01:35:37.438483+01 | 1486514137.43848 | pgbench_history  |                0
 2017-02-08 01:35:37.438483+01 | 1486514137.43848 | pgbench_branches |             8192

 2017-02-08 01:35:38.622551+01 | 1486514138.62255 | pgbench_accounts |        671481856
 2017-02-08 01:35:38.622551+01 | 1486514138.62255 | pgbench_tellers  |            24576
 2017-02-08 01:35:38.622551+01 | 1486514138.62255 | pgbench_history  |                0
 2017-02-08 01:35:38.622551+01 | 1486514138.62255 | pgbench_branches |             8192

 2017-02-08 01:35:39.818465+01 | 1486514139.81846 | pgbench_accounts |        671481856
 2017-02-08 01:35:39.818465+01 | 1486514139.81846 | pgbench_tellers  |            24576
 2017-02-08 01:35:39.818465+01 | 1486514139.81846 | pgbench_history  |                0
 2017-02-08 01:35:39.818465+01 | 1486514139.81846 | pgbench_branches |             8192

 2017-02-08 01:35:41.013093+01 | 1486514141.01309 | pgbench_accounts |        671481856
 2017-02-08 01:35:41.013093+01 | 1486514141.01309 | pgbench_tellers  |            24576
 2017-02-08 01:35:41.013093+01 | 1486514141.01309 | pgbench_history  |                0
 2017-02-08 01:35:41.013093+01 | 1486514141.01309 | pgbench_branches |             8192

 2017-02-08 01:35:42.208992+01 | 1486514142.20899 | pgbench_accounts |        671481856
 2017-02-08 01:35:42.208992+01 | 1486514142.20899 | pgbench_tellers  |            24576
 2017-02-08 01:35:42.208992+01 | 1486514142.20899 | pgbench_history  |                0
 2017-02-08 01:35:42.208992+01 | 1486514142.20899 | pgbench_branches |             8192

 2017-02-08 01:35:43.404007+01 | 1486514143.40401 | pgbench_accounts |        671481856
 2017-02-08 01:35:43.404007+01 | 1486514143.40401 | pgbench_tellers  |            24576
 2017-02-08 01:35:43.404007+01 | 1486514143.40401 | pgbench_history  |                0
 2017-02-08 01:35:43.404007+01 | 1486514143.40401 | pgbench_branches |             8192

 2017-02-08 01:35:44.598775+01 | 1486514144.59877 | pgbench_accounts |        671481856
 2017-02-08 01:35:44.598775+01 | 1486514144.59877 | pgbench_tellers  |            24576
 2017-02-08 01:35:44.598775+01 | 1486514144.59877 | pgbench_history  |                0
 2017-02-08 01:35:44.598775+01 | 1486514144.59877 | pgbench_branches |             8192

 2017-02-08 01:35:45.753976+01 | 1486514145.75398 | pgbench_accounts |        671481856
 2017-02-08 01:35:45.753976+01 | 1486514145.75398 | pgbench_tellers  |            24576
 2017-02-08 01:35:45.753976+01 | 1486514145.75398 | pgbench_history  |                0
 2017-02-08 01:35:45.753976+01 | 1486514145.75398 | pgbench_branches |             8192

 2017-02-08 01:35:46.949389+01 | 1486514146.94939 | pgbench_accounts |        671481856
 2017-02-08 01:35:46.949389+01 | 1486514146.94939 | pgbench_tellers  |            24576
 2017-02-08 01:35:46.949389+01 | 1486514146.94939 | pgbench_history  |                0
 2017-02-08 01:35:46.949389+01 | 1486514146.94939 | pgbench_branches |             8192

 2017-02-08 01:35:48.142631+01 | 1486514148.14263 | pgbench_accounts |        671481856
 2017-02-08 01:35:48.142631+01 | 1486514148.14263 | pgbench_tellers  |            24576
 2017-02-08 01:35:48.142631+01 | 1486514148.14263 | pgbench_history  |                0
 2017-02-08 01:35:48.142631+01 | 1486514148.14263 | pgbench_branches |             8192

 2017-02-08 01:35:49.308652+01 | 1486514149.30865 | pgbench_accounts |        671481856
 2017-02-08 01:35:49.308652+01 | 1486514149.30865 | pgbench_tellers  |            24576
 2017-02-08 01:35:49.308652+01 | 1486514149.30865 | pgbench_history  |                0
 2017-02-08 01:35:49.308652+01 | 1486514149.30865 | pgbench_branches |             8192

 2017-02-08 01:35:50.452529+01 | 1486514150.45253 | pgbench_accounts |        671481856
 2017-02-08 01:35:50.452529+01 | 1486514150.45253 | pgbench_tellers  |            24576
 2017-02-08 01:35:50.452529+01 | 1486514150.45253 | pgbench_history  |                0
 2017-02-08 01:35:50.452529+01 | 1486514150.45253 | pgbench_branches |             8192

 2017-02-08 01:35:51.645614+01 | 1486514151.64561 | pgbench_accounts |        671481856
 2017-02-08 01:35:51.645614+01 | 1486514151.64561 | pgbench_tellers  |            24576
 2017-02-08 01:35:51.645614+01 | 1486514151.64561 | pgbench_history  |                0
 2017-02-08 01:35:51.645614+01 | 1486514151.64561 | pgbench_branches |             8192

 2017-02-08 01:35:52.822088+01 | 1486514152.82209 | pgbench_accounts |        671481856
 2017-02-08 01:35:52.822088+01 | 1486514152.82209 | pgbench_tellers  |            24576
 2017-02-08 01:35:52.822088+01 | 1486514152.82209 | pgbench_history  |                0
 2017-02-08 01:35:52.822088+01 | 1486514152.82209 | pgbench_branches |             8192

 2017-02-08 01:35:53.980436+01 | 1486514153.98044 | pgbench_accounts |        671481856
 2017-02-08 01:35:53.980436+01 | 1486514153.98044 | pgbench_tellers  |            24576
 2017-02-08 01:35:53.980436+01 | 1486514153.98044 | pgbench_history  |                0
 2017-02-08 01:35:53.980436+01 | 1486514153.98044 | pgbench_branches |             8192

 2017-02-08 01:35:55.164171+01 | 1486514155.16417 | pgbench_accounts |        671481856
 2017-02-08 01:35:55.164171+01 | 1486514155.16417 | pgbench_tellers  |            24576
 2017-02-08 01:35:55.164171+01 | 1486514155.16417 | pgbench_history  |                0
 2017-02-08 01:35:55.164171+01 | 1486514155.16417 | pgbench_branches |             8192

 2017-02-08 01:35:56.300168+01 | 1486514156.30017 | pgbench_accounts |        671481856
 2017-02-08 01:35:56.300168+01 | 1486514156.30017 | pgbench_tellers  |            24576
 2017-02-08 01:35:56.300168+01 | 1486514156.30017 | pgbench_history  |                0
 2017-02-08 01:35:56.300168+01 | 1486514156.30017 | pgbench_branches |             8192

 2017-02-08 01:35:57.442133+01 | 1486514157.44213 | pgbench_accounts |        671481856
 2017-02-08 01:35:57.442133+01 | 1486514157.44213 | pgbench_tellers  |            24576
 2017-02-08 01:35:57.442133+01 | 1486514157.44213 | pgbench_history  |                0
 2017-02-08 01:35:57.442133+01 | 1486514157.44213 | pgbench_branches |             8192

 2017-02-08 01:35:58.607376+01 | 1486514158.60738 | pgbench_accounts |        671481856
 2017-02-08 01:35:58.607376+01 | 1486514158.60738 | pgbench_tellers  |            24576
 2017-02-08 01:35:58.607376+01 | 1486514158.60738 | pgbench_history  |                0
 2017-02-08 01:35:58.607376+01 | 1486514158.60738 | pgbench_branches |             8192

 2017-02-08 01:35:59.801837+01 | 1486514159.80184 | pgbench_accounts |        671481856
 2017-02-08 01:35:59.801837+01 | 1486514159.80184 | pgbench_tellers  |            24576
 2017-02-08 01:35:59.801837+01 | 1486514159.80184 | pgbench_history  |                0
 2017-02-08 01:35:59.801837+01 | 1486514159.80184 | pgbench_branches |             8192

 2017-02-08 01:36:00.993677+01 | 1486514160.99368 | pgbench_accounts |        671481856
 2017-02-08 01:36:00.993677+01 | 1486514160.99368 | pgbench_tellers  |            24576
 2017-02-08 01:36:00.993677+01 | 1486514160.99368 | pgbench_history  |                0
 2017-02-08 01:36:00.993677+01 | 1486514160.99368 | pgbench_branches |             8192

 2017-02-08 01:36:02.188163+01 | 1486514162.18816 | pgbench_accounts |        671481856
 2017-02-08 01:36:02.188163+01 | 1486514162.18816 | pgbench_tellers  |            24576
 2017-02-08 01:36:02.188163+01 | 1486514162.18816 | pgbench_history  |                0
 2017-02-08 01:36:02.188163+01 | 1486514162.18816 | pgbench_branches |             8192

 2017-02-08 01:36:03.376292+01 | 1486514163.37629 | pgbench_accounts |        671481856
 2017-02-08 01:36:03.376292+01 | 1486514163.37629 | pgbench_tellers  |            24576
 2017-02-08 01:36:03.376292+01 | 1486514163.37629 | pgbench_history  |                0
 2017-02-08 01:36:03.376292+01 | 1486514163.37629 | pgbench_branches |             8192

 2017-02-08 01:36:04.540474+01 | 1486514164.54047 | pgbench_accounts |        671481856
 2017-02-08 01:36:04.540474+01 | 1486514164.54047 | pgbench_tellers  |            24576
 2017-02-08 01:36:04.540474+01 | 1486514164.54047 | pgbench_history  |                0
 2017-02-08 01:36:04.540474+01 | 1486514164.54047 | pgbench_branches |             8192

 2017-02-08 01:36:05.734672+01 | 1486514165.73467 | pgbench_accounts |        671481856
 2017-02-08 01:36:05.734672+01 | 1486514165.73467 | pgbench_tellers  |            24576
 2017-02-08 01:36:05.734672+01 | 1486514165.73467 | pgbench_history  |                0
 2017-02-08 01:36:05.734672+01 | 1486514165.73467 | pgbench_branches |             8192

 2017-02-08 01:36:06.928526+01 | 1486514166.92853 | pgbench_accounts |        671481856
 2017-02-08 01:36:06.928526+01 | 1486514166.92853 | pgbench_tellers  |            24576
 2017-02-08 01:36:06.928526+01 | 1486514166.92853 | pgbench_history  |                0
 2017-02-08 01:36:06.928526+01 | 1486514166.92853 | pgbench_branches |             8192

 2017-02-08 01:36:08.099382+01 | 1486514168.09938 | pgbench_accounts |        671481856
 2017-02-08 01:36:08.099382+01 | 1486514168.09938 | pgbench_tellers  |            24576
 2017-02-08 01:36:08.099382+01 | 1486514168.09938 | pgbench_history  |                0
 2017-02-08 01:36:08.099382+01 | 1486514168.09938 | pgbench_branches |             8192

 2017-02-08 01:36:09.245585+01 | 1486514169.24558 | pgbench_accounts |        671481856
 2017-02-08 01:36:09.245585+01 | 1486514169.24558 | pgbench_tellers  |            24576
 2017-02-08 01:36:09.245585+01 | 1486514169.24558 | pgbench_history  |                0
 2017-02-08 01:36:09.245585+01 | 1486514169.24558 | pgbench_branches |             8192

 2017-02-08 01:36:10.400147+01 | 1486514170.40015 | pgbench_accounts |        671481856
 2017-02-08 01:36:10.400147+01 | 1486514170.40015 | pgbench_tellers  |            24576
 2017-02-08 01:36:10.400147+01 | 1486514170.40015 | pgbench_history  |                0
 2017-02-08 01:36:10.400147+01 | 1486514170.40015 | pgbench_branches |             8192

 2017-02-08 01:36:11.57488+01 | 1486514171.57488 | pgbench_accounts |        671481856
 2017-02-08 01:36:11.57488+01 | 1486514171.57488 | pgbench_tellers  |            24576
 2017-02-08 01:36:11.57488+01 | 1486514171.57488 | pgbench_history  |                0
 2017-02-08 01:36:11.57488+01 | 1486514171.57488 | pgbench_branches |             8192

 2017-02-08 01:36:12.768729+01 | 1486514172.76873 | pgbench_accounts |        671481856
 2017-02-08 01:36:12.768729+01 | 1486514172.76873 | pgbench_tellers  |            24576
 2017-02-08 01:36:12.768729+01 | 1486514172.76873 | pgbench_history  |                0
 2017-02-08 01:36:12.768729+01 | 1486514172.76873 | pgbench_branches |             8192

 2017-02-08 01:36:13.955146+01 | 1486514173.95515 | pgbench_accounts |        671481856
 2017-02-08 01:36:13.955146+01 | 1486514173.95515 | pgbench_tellers  |            24576
 2017-02-08 01:36:13.955146+01 | 1486514173.95515 | pgbench_history  |                0
 2017-02-08 01:36:13.955146+01 | 1486514173.95515 | pgbench_branches |             8192

 2017-02-08 01:36:15.147134+01 | 1486514175.14713 | pgbench_accounts |        671481856
 2017-02-08 01:36:15.147134+01 | 1486514175.14713 | pgbench_tellers  |            24576
 2017-02-08 01:36:15.147134+01 | 1486514175.14713 | pgbench_history  |                0
 2017-02-08 01:36:15.147134+01 | 1486514175.14713 | pgbench_branches |             8192

 2017-02-08 01:36:16.344219+01 | 1486514176.34422 | pgbench_accounts |        671481856
 2017-02-08 01:36:16.344219+01 | 1486514176.34422 | pgbench_tellers  |            24576
 2017-02-08 01:36:16.344219+01 | 1486514176.34422 | pgbench_history  |                0
 2017-02-08 01:36:16.344219+01 | 1486514176.34422 | pgbench_branches |             8192

 2017-02-08 01:36:17.539418+01 | 1486514177.53942 | pgbench_accounts |        671481856
 2017-02-08 01:36:17.539418+01 | 1486514177.53942 | pgbench_tellers  |            24576
 2017-02-08 01:36:17.539418+01 | 1486514177.53942 | pgbench_history  |                0
 2017-02-08 01:36:17.539418+01 | 1486514177.53942 | pgbench_branches |             8192

 2017-02-08 01:36:18.729173+01 | 1486514178.72917 | pgbench_accounts |        671481856
 2017-02-08 01:36:18.729173+01 | 1486514178.72917 | pgbench_tellers  |            24576
 2017-02-08 01:36:18.729173+01 | 1486514178.72917 | pgbench_history  |                0
 2017-02-08 01:36:18.729173+01 | 1486514178.72917 | pgbench_branches |             8192

 2017-02-08 01:36:19.923765+01 | 1486514179.92376 | pgbench_accounts |        671481856
 2017-02-08 01:36:19.923765+01 | 1486514179.92376 | pgbench_tellers  |            24576
 2017-02-08 01:36:19.923765+01 | 1486514179.92376 | pgbench_history  |                0
 2017-02-08 01:36:19.923765+01 | 1486514179.92376 | pgbench_branches |             8192

 2017-02-08 01:36:21.11596+01 | 1486514181.11596 | pgbench_accounts |        671481856
 2017-02-08 01:36:21.11596+01 | 1486514181.11596 | pgbench_tellers  |            24576
 2017-02-08 01:36:21.11596+01 | 1486514181.11596 | pgbench_history  |                0
 2017-02-08 01:36:21.11596+01 | 1486514181.11596 | pgbench_branches |             8192

 2017-02-08 01:36:22.308254+01 | 1486514182.30825 | pgbench_accounts |        671481856
 2017-02-08 01:36:22.308254+01 | 1486514182.30825 | pgbench_tellers  |            24576
 2017-02-08 01:36:22.308254+01 | 1486514182.30825 | pgbench_history  |                0
 2017-02-08 01:36:22.308254+01 | 1486514182.30825 | pgbench_branches |             8192

 2017-02-08 01:36:23.500408+01 | 1486514183.50041 | pgbench_accounts |        671481856
 2017-02-08 01:36:23.500408+01 | 1486514183.50041 | pgbench_tellers  |            24576
 2017-02-08 01:36:23.500408+01 | 1486514183.50041 | pgbench_history  |                0
 2017-02-08 01:36:23.500408+01 | 1486514183.50041 | pgbench_branches |             8192

 2017-02-08 01:36:24.695687+01 | 1486514184.69569 | pgbench_accounts |        671481856
 2017-02-08 01:36:24.695687+01 | 1486514184.69569 | pgbench_tellers  |            24576
 2017-02-08 01:36:24.695687+01 | 1486514184.69569 | pgbench_history  |                0
 2017-02-08 01:36:24.695687+01 | 1486514184.69569 | pgbench_branches |             8192

 2017-02-08 01:36:25.889794+01 | 1486514185.88979 | pgbench_accounts |        671481856
 2017-02-08 01:36:25.889794+01 | 1486514185.88979 | pgbench_tellers  |            24576
 2017-02-08 01:36:25.889794+01 | 1486514185.88979 | pgbench_history  |                0
 2017-02-08 01:36:25.889794+01 | 1486514185.88979 | pgbench_branches |             8192

 2017-02-08 01:36:27.051026+01 | 1486514187.05103 | pgbench_accounts |        671481856
 2017-02-08 01:36:27.051026+01 | 1486514187.05103 | pgbench_tellers  |            24576
 2017-02-08 01:36:27.051026+01 | 1486514187.05103 | pgbench_history  |                0
 2017-02-08 01:36:27.051026+01 | 1486514187.05103 | pgbench_branches |             8192

 2017-02-08 01:36:28.214221+01 | 1486514188.21422 | pgbench_accounts |        671481856
 2017-02-08 01:36:28.214221+01 | 1486514188.21422 | pgbench_tellers  |            24576
 2017-02-08 01:36:28.214221+01 | 1486514188.21422 | pgbench_history  |                0
 2017-02-08 01:36:28.214221+01 | 1486514188.21422 | pgbench_branches |             8192

 2017-02-08 01:36:29.411554+01 | 1486514189.41155 | pgbench_accounts |        671481856
 2017-02-08 01:36:29.411554+01 | 1486514189.41155 | pgbench_tellers  |            24576
 2017-02-08 01:36:29.411554+01 | 1486514189.41155 | pgbench_history  |                0
 2017-02-08 01:36:29.411554+01 | 1486514189.41155 | pgbench_branches |             8192

 2017-02-08 01:36:30.599671+01 | 1486514190.59967 | pgbench_accounts |        671481856
 2017-02-08 01:36:30.599671+01 | 1486514190.59967 | pgbench_tellers  |            24576
 2017-02-08 01:36:30.599671+01 | 1486514190.59967 | pgbench_history  |                0
 2017-02-08 01:36:30.599671+01 | 1486514190.59967 | pgbench_branches |             8192

 2017-02-08 01:36:31.777623+01 | 1486514191.77762 | pgbench_accounts |        671481856
 2017-02-08 01:36:31.777623+01 | 1486514191.77762 | pgbench_tellers  |            24576
 2017-02-08 01:36:31.777623+01 | 1486514191.77762 | pgbench_history  |                0
 2017-02-08 01:36:31.777623+01 | 1486514191.77762 | pgbench_branches |             8192

 2017-02-08 01:36:32.976232+01 | 1486514192.97623 | pgbench_accounts |        671481856
 2017-02-08 01:36:32.976232+01 | 1486514192.97623 | pgbench_tellers  |            24576
 2017-02-08 01:36:32.976232+01 | 1486514192.97623 | pgbench_history  |                0
 2017-02-08 01:36:32.976232+01 | 1486514192.97623 | pgbench_branches |             8192

 2017-02-08 01:36:34.165739+01 | 1486514194.16574 | pgbench_accounts |        671481856
 2017-02-08 01:36:34.165739+01 | 1486514194.16574 | pgbench_tellers  |            24576
 2017-02-08 01:36:34.165739+01 | 1486514194.16574 | pgbench_history  |                0
 2017-02-08 01:36:34.165739+01 | 1486514194.16574 | pgbench_branches |             8192

 2017-02-08 01:36:35.364095+01 | 1486514195.36409 | pgbench_accounts |        671481856
 2017-02-08 01:36:35.364095+01 | 1486514195.36409 | pgbench_tellers  |            24576
 2017-02-08 01:36:35.364095+01 | 1486514195.36409 | pgbench_history  |                0
 2017-02-08 01:36:35.364095+01 | 1486514195.36409 | pgbench_branches |             8192

 2017-02-08 01:36:36.556493+01 | 1486514196.55649 | pgbench_accounts |        671481856
 2017-02-08 01:36:36.556493+01 | 1486514196.55649 | pgbench_tellers  |            24576
 2017-02-08 01:36:36.556493+01 | 1486514196.55649 | pgbench_history  |                0
 2017-02-08 01:36:36.556493+01 | 1486514196.55649 | pgbench_branches |             8192

 2017-02-08 01:36:37.75013+01 | 1486514197.75013 | pgbench_accounts |        671481856
 2017-02-08 01:36:37.75013+01 | 1486514197.75013 | pgbench_tellers  |            24576
 2017-02-08 01:36:37.75013+01 | 1486514197.75013 | pgbench_history  |                0
 2017-02-08 01:36:37.75013+01 | 1486514197.75013 | pgbench_branches |             8192

 2017-02-08 01:36:38.945806+01 | 1486514198.94581 | pgbench_accounts |        671481856
 2017-02-08 01:36:38.945806+01 | 1486514198.94581 | pgbench_tellers  |            24576
 2017-02-08 01:36:38.945806+01 | 1486514198.94581 | pgbench_history  |                0
 2017-02-08 01:36:38.945806+01 | 1486514198.94581 | pgbench_branches |             8192

 2017-02-08 01:36:40.139944+01 | 1486514200.13994 | pgbench_accounts |        671481856
 2017-02-08 01:36:40.139944+01 | 1486514200.13994 | pgbench_tellers  |            24576
 2017-02-08 01:36:40.139944+01 | 1486514200.13994 | pgbench_history  |                0
 2017-02-08 01:36:40.139944+01 | 1486514200.13994 | pgbench_branches |             8192

 2017-02-08 01:36:41.337088+01 | 1486514201.33709 | pgbench_accounts |        671481856
 2017-02-08 01:36:41.337088+01 | 1486514201.33709 | pgbench_tellers  |            24576
 2017-02-08 01:36:41.337088+01 | 1486514201.33709 | pgbench_history  |                0
 2017-02-08 01:36:41.337088+01 | 1486514201.33709 | pgbench_branches |             8192

 2017-02-08 01:36:42.497151+01 | 1486514202.49715 | pgbench_accounts |        671481856
 2017-02-08 01:36:42.497151+01 | 1486514202.49715 | pgbench_tellers  |            24576
 2017-02-08 01:36:42.497151+01 | 1486514202.49715 | pgbench_history  |                0
 2017-02-08 01:36:42.497151+01 | 1486514202.49715 | pgbench_branches |             8192

 2017-02-08 01:36:43.654169+01 | 1486514203.65417 | pgbench_accounts |        671481856
 2017-02-08 01:36:43.654169+01 | 1486514203.65417 | pgbench_tellers  |            24576
 2017-02-08 01:36:43.654169+01 | 1486514203.65417 | pgbench_history  |                0
 2017-02-08 01:36:43.654169+01 | 1486514203.65417 | pgbench_branches |             8192

 2017-02-08 01:36:44.817193+01 | 1486514204.81719 | pgbench_accounts |        671481856
 2017-02-08 01:36:44.817193+01 | 1486514204.81719 | pgbench_tellers  |            24576
 2017-02-08 01:36:44.817193+01 | 1486514204.81719 | pgbench_history  |                0
 2017-02-08 01:36:44.817193+01 | 1486514204.81719 | pgbench_branches |             8192

 2017-02-08 01:36:46.011459+01 | 1486514206.01146 | pgbench_accounts |        671481856
 2017-02-08 01:36:46.011459+01 | 1486514206.01146 | pgbench_tellers  |            24576
 2017-02-08 01:36:46.011459+01 | 1486514206.01146 | pgbench_history  |                0
 2017-02-08 01:36:46.011459+01 | 1486514206.01146 | pgbench_branches |             8192

 2017-02-08 01:36:47.205696+01 | 1486514207.2057 | pgbench_accounts |        671481856
 2017-02-08 01:36:47.205696+01 | 1486514207.2057 | pgbench_tellers  |            24576
 2017-02-08 01:36:47.205696+01 | 1486514207.2057 | pgbench_history  |                0
 2017-02-08 01:36:47.205696+01 | 1486514207.2057 | pgbench_branches |             8192

 2017-02-08 01:36:48.400617+01 | 1486514208.40062 | pgbench_accounts |        671481856
 2017-02-08 01:36:48.400617+01 | 1486514208.40062 | pgbench_tellers  |            24576
 2017-02-08 01:36:48.400617+01 | 1486514208.40062 | pgbench_history  |                0
 2017-02-08 01:36:48.400617+01 | 1486514208.40062 | pgbench_branches |             8192

 2017-02-08 01:36:49.598413+01 | 1486514209.59841 | pgbench_accounts |        671481856
 2017-02-08 01:36:49.598413+01 | 1486514209.59841 | pgbench_tellers  |            24576
 2017-02-08 01:36:49.598413+01 | 1486514209.59841 | pgbench_history  |                0
 2017-02-08 01:36:49.598413+01 | 1486514209.59841 | pgbench_branches |             8192

 2017-02-08 01:36:50.794053+01 | 1486514210.79405 | pgbench_accounts |        671481856
 2017-02-08 01:36:50.794053+01 | 1486514210.79405 | pgbench_tellers  |            24576
 2017-02-08 01:36:50.794053+01 | 1486514210.79405 | pgbench_history  |                0
 2017-02-08 01:36:50.794053+01 | 1486514210.79405 | pgbench_branches |             8192

 2017-02-08 01:36:51.988348+01 | 1486514211.98835 | pgbench_accounts |        671481856
 2017-02-08 01:36:51.988348+01 | 1486514211.98835 | pgbench_tellers  |            24576
 2017-02-08 01:36:51.988348+01 | 1486514211.98835 | pgbench_history  |                0
 2017-02-08 01:36:51.988348+01 | 1486514211.98835 | pgbench_branches |             8192

 2017-02-08 01:36:53.182986+01 | 1486514213.18299 | pgbench_accounts |        671481856
 2017-02-08 01:36:53.182986+01 | 1486514213.18299 | pgbench_tellers  |            24576
 2017-02-08 01:36:53.182986+01 | 1486514213.18299 | pgbench_history  |                0
 2017-02-08 01:36:53.182986+01 | 1486514213.18299 | pgbench_branches |             8192

 2017-02-08 01:36:54.380883+01 | 1486514214.38088 | pgbench_accounts |        671481856
 2017-02-08 01:36:54.380883+01 | 1486514214.38088 | pgbench_tellers  |            24576
 2017-02-08 01:36:54.380883+01 | 1486514214.38088 | pgbench_history  |                0
 2017-02-08 01:36:54.380883+01 | 1486514214.38088 | pgbench_branches |             8192

 2017-02-08 01:36:55.573337+01 | 1486514215.57334 | pgbench_accounts |        671481856
 2017-02-08 01:36:55.573337+01 | 1486514215.57334 | pgbench_tellers  |            24576
 2017-02-08 01:36:55.573337+01 | 1486514215.57334 | pgbench_history  |                0
 2017-02-08 01:36:55.573337+01 | 1486514215.57334 | pgbench_branches |             8192

 2017-02-08 01:36:56.76628+01 | 1486514216.76628 | pgbench_accounts |        671481856
 2017-02-08 01:36:56.76628+01 | 1486514216.76628 | pgbench_tellers  |            24576
 2017-02-08 01:36:56.76628+01 | 1486514216.76628 | pgbench_history  |                0
 2017-02-08 01:36:56.76628+01 | 1486514216.76628 | pgbench_branches |             8192

 2017-02-08 01:36:57.951188+01 | 1486514217.95119 | pgbench_accounts |        671481856
 2017-02-08 01:36:57.951188+01 | 1486514217.95119 | pgbench_tellers  |            24576
 2017-02-08 01:36:57.951188+01 | 1486514217.95119 | pgbench_history  |                0
 2017-02-08 01:36:57.951188+01 | 1486514217.95119 | pgbench_branches |             8192

 2017-02-08 01:36:59.104451+01 | 1486514219.10445 | pgbench_accounts |        671481856
 2017-02-08 01:36:59.104451+01 | 1486514219.10445 | pgbench_tellers  |            24576
 2017-02-08 01:36:59.104451+01 | 1486514219.10445 | pgbench_history  |                0
 2017-02-08 01:36:59.104451+01 | 1486514219.10445 | pgbench_branches |             8192

 2017-02-08 01:37:00.297701+01 | 1486514220.2977 | pgbench_accounts |        671481856
 2017-02-08 01:37:00.297701+01 | 1486514220.2977 | pgbench_tellers  |            24576
 2017-02-08 01:37:00.297701+01 | 1486514220.2977 | pgbench_history  |                0
 2017-02-08 01:37:00.297701+01 | 1486514220.2977 | pgbench_branches |             8192

 2017-02-08 01:37:01.496703+01 | 1486514221.4967 | pgbench_accounts |        671481856
 2017-02-08 01:37:01.496703+01 | 1486514221.4967 | pgbench_tellers  |            24576
 2017-02-08 01:37:01.496703+01 | 1486514221.4967 | pgbench_history  |                0
 2017-02-08 01:37:01.496703+01 | 1486514221.4967 | pgbench_branches |             8192

 2017-02-08 01:37:02.691328+01 | 1486514222.69133 | pgbench_accounts |        671481856
 2017-02-08 01:37:02.691328+01 | 1486514222.69133 | pgbench_tellers  |            24576
 2017-02-08 01:37:02.691328+01 | 1486514222.69133 | pgbench_history  |                0
 2017-02-08 01:37:02.691328+01 | 1486514222.69133 | pgbench_branches |             8192

 2017-02-08 01:37:03.885009+01 | 1486514223.88501 | pgbench_accounts |        671481856
 2017-02-08 01:37:03.885009+01 | 1486514223.88501 | pgbench_tellers  |            24576
 2017-02-08 01:37:03.885009+01 | 1486514223.88501 | pgbench_history  |                0
 2017-02-08 01:37:03.885009+01 | 1486514223.88501 | pgbench_branches |             8192

 2017-02-08 01:37:05.073817+01 | 1486514225.07382 | pgbench_accounts |        671481856
 2017-02-08 01:37:05.073817+01 | 1486514225.07382 | pgbench_tellers  |            24576
 2017-02-08 01:37:05.073817+01 | 1486514225.07382 | pgbench_history  |                0
 2017-02-08 01:37:05.073817+01 | 1486514225.07382 | pgbench_branches |             8192

 2017-02-08 01:37:06.225794+01 | 1486514226.22579 | pgbench_accounts |        671481856
 2017-02-08 01:37:06.225794+01 | 1486514226.22579 | pgbench_tellers  |            24576
 2017-02-08 01:37:06.225794+01 | 1486514226.22579 | pgbench_history  |                0
 2017-02-08 01:37:06.225794+01 | 1486514226.22579 | pgbench_branches |             8192

 2017-02-08 01:37:07.422664+01 | 1486514227.42266 | pgbench_accounts |        671481856
 2017-02-08 01:37:07.422664+01 | 1486514227.42266 | pgbench_tellers  |            24576
 2017-02-08 01:37:07.422664+01 | 1486514227.42266 | pgbench_history  |                0
 2017-02-08 01:37:07.422664+01 | 1486514227.42266 | pgbench_branches |             8192

 2017-02-08 01:37:08.609142+01 | 1486514228.60914 | pgbench_accounts |        671481856
 2017-02-08 01:37:08.609142+01 | 1486514228.60914 | pgbench_tellers  |            24576
 2017-02-08 01:37:08.609142+01 | 1486514228.60914 | pgbench_history  |                0
 2017-02-08 01:37:08.609142+01 | 1486514228.60914 | pgbench_branches |             8192

 2017-02-08 01:37:09.79746+01 | 1486514229.79746 | pgbench_accounts |        671481856
 2017-02-08 01:37:09.79746+01 | 1486514229.79746 | pgbench_tellers  |            24576
 2017-02-08 01:37:09.79746+01 | 1486514229.79746 | pgbench_history  |                0
 2017-02-08 01:37:09.79746+01 | 1486514229.79746 | pgbench_branches |             8192

 2017-02-08 01:37:10.956919+01 | 1486514230.95692 | pgbench_accounts |        671481856
 2017-02-08 01:37:10.956919+01 | 1486514230.95692 | pgbench_tellers  |            24576
 2017-02-08 01:37:10.956919+01 | 1486514230.95692 | pgbench_history  |                0
 2017-02-08 01:37:10.956919+01 | 1486514230.95692 | pgbench_branches |             8192

 2017-02-08 01:37:12.155449+01 | 1486514232.15545 | pgbench_accounts |        671481856
 2017-02-08 01:37:12.155449+01 | 1486514232.15545 | pgbench_tellers  |            24576
 2017-02-08 01:37:12.155449+01 | 1486514232.15545 | pgbench_history  |                0
 2017-02-08 01:37:12.155449+01 | 1486514232.15545 | pgbench_branches |             8192

 2017-02-08 01:37:13.3507+01 | 1486514233.3507 | pgbench_accounts |        671481856
 2017-02-08 01:37:13.3507+01 | 1486514233.3507 | pgbench_tellers  |            24576
 2017-02-08 01:37:13.3507+01 | 1486514233.3507 | pgbench_history  |                0
 2017-02-08 01:37:13.3507+01 | 1486514233.3507 | pgbench_branches |             8192

 2017-02-08 01:37:14.545+01 | 1486514234.545 | pgbench_accounts |        671481856
 2017-02-08 01:37:14.545+01 | 1486514234.545 | pgbench_tellers  |            24576
 2017-02-08 01:37:14.545+01 | 1486514234.545 | pgbench_history  |                0
 2017-02-08 01:37:14.545+01 | 1486514234.545 | pgbench_branches |             8192

 2017-02-08 01:37:15.740086+01 | 1486514235.74009 | pgbench_accounts |        671481856
 2017-02-08 01:37:15.740086+01 | 1486514235.74009 | pgbench_tellers  |            24576
 2017-02-08 01:37:15.740086+01 | 1486514235.74009 | pgbench_history  |                0
 2017-02-08 01:37:15.740086+01 | 1486514235.74009 | pgbench_branches |             8192

 2017-02-08 01:37:16.925578+01 | 1486514236.92558 | pgbench_accounts |        671481856
 2017-02-08 01:37:16.925578+01 | 1486514236.92558 | pgbench_tellers  |            24576
 2017-02-08 01:37:16.925578+01 | 1486514236.92558 | pgbench_history  |                0
 2017-02-08 01:37:16.925578+01 | 1486514236.92558 | pgbench_branches |             8192

 2017-02-08 01:37:18.087178+01 | 1486514238.08718 | pgbench_accounts |        671481856
 2017-02-08 01:37:18.087178+01 | 1486514238.08718 | pgbench_tellers  |            24576
 2017-02-08 01:37:18.087178+01 | 1486514238.08718 | pgbench_history  |                0
 2017-02-08 01:37:18.087178+01 | 1486514238.08718 | pgbench_branches |             8192

 2017-02-08 01:37:19.28183+01 | 1486514239.28183 | pgbench_accounts |        671481856
 2017-02-08 01:37:19.28183+01 | 1486514239.28183 | pgbench_tellers  |            24576
 2017-02-08 01:37:19.28183+01 | 1486514239.28183 | pgbench_history  |                0
 2017-02-08 01:37:19.28183+01 | 1486514239.28183 | pgbench_branches |             8192

 2017-02-08 01:37:20.471952+01 | 1486514240.47195 | pgbench_accounts |        671481856
 2017-02-08 01:37:20.471952+01 | 1486514240.47195 | pgbench_tellers  |            24576
 2017-02-08 01:37:20.471952+01 | 1486514240.47195 | pgbench_history  |                0
 2017-02-08 01:37:20.471952+01 | 1486514240.47195 | pgbench_branches |             8192

 2017-02-08 01:37:21.625578+01 | 1486514241.62558 | pgbench_accounts |        671481856
 2017-02-08 01:37:21.625578+01 | 1486514241.62558 | pgbench_tellers  |            24576
 2017-02-08 01:37:21.625578+01 | 1486514241.62558 | pgbench_history  |                0
 2017-02-08 01:37:21.625578+01 | 1486514241.62558 | pgbench_branches |             8192

 2017-02-08 01:37:22.754587+01 | 1486514242.75459 | pgbench_accounts |        671481856
 2017-02-08 01:37:22.754587+01 | 1486514242.75459 | pgbench_tellers  |            24576
 2017-02-08 01:37:22.754587+01 | 1486514242.75459 | pgbench_history  |                0
 2017-02-08 01:37:22.754587+01 | 1486514242.75459 | pgbench_branches |             8192

 2017-02-08 01:37:23.953688+01 | 1486514243.95369 | pgbench_accounts |        671481856
 2017-02-08 01:37:23.953688+01 | 1486514243.95369 | pgbench_tellers  |            24576
 2017-02-08 01:37:23.953688+01 | 1486514243.95369 | pgbench_history  |                0
 2017-02-08 01:37:23.953688+01 | 1486514243.95369 | pgbench_branches |             8192

 2017-02-08 01:37:25.147813+01 | 1486514245.14781 | pgbench_accounts |        671481856
 2017-02-08 01:37:25.147813+01 | 1486514245.14781 | pgbench_tellers  |            24576
 2017-02-08 01:37:25.147813+01 | 1486514245.14781 | pgbench_history  |                0
 2017-02-08 01:37:25.147813+01 | 1486514245.14781 | pgbench_branches |             8192

 2017-02-08 01:37:26.340688+01 | 1486514246.34069 | pgbench_accounts |        671481856
 2017-02-08 01:37:26.340688+01 | 1486514246.34069 | pgbench_tellers  |            24576
 2017-02-08 01:37:26.340688+01 | 1486514246.34069 | pgbench_history  |                0
 2017-02-08 01:37:26.340688+01 | 1486514246.34069 | pgbench_branches |             8192

 2017-02-08 01:37:27.535256+01 | 1486514247.53526 | pgbench_accounts |        671481856
 2017-02-08 01:37:27.535256+01 | 1486514247.53526 | pgbench_tellers  |            24576
 2017-02-08 01:37:27.535256+01 | 1486514247.53526 | pgbench_history  |                0
 2017-02-08 01:37:27.535256+01 | 1486514247.53526 | pgbench_branches |             8192

 2017-02-08 01:37:28.734518+01 | 1486514248.73452 | pgbench_accounts |        671481856
 2017-02-08 01:37:28.734518+01 | 1486514248.73452 | pgbench_tellers  |            24576
 2017-02-08 01:37:28.734518+01 | 1486514248.73452 | pgbench_history  |                0
 2017-02-08 01:37:28.734518+01 | 1486514248.73452 | pgbench_branches |             8192

 2017-02-08 01:37:29.927071+01 | 1486514249.92707 | pgbench_accounts |        671481856
 2017-02-08 01:37:29.927071+01 | 1486514249.92707 | pgbench_tellers  |            24576
 2017-02-08 01:37:29.927071+01 | 1486514249.92707 | pgbench_history  |                0
 2017-02-08 01:37:29.927071+01 | 1486514249.92707 | pgbench_branches |             8192

 2017-02-08 01:37:31.120744+01 | 1486514251.12074 | pgbench_accounts |        671481856
 2017-02-08 01:37:31.120744+01 | 1486514251.12074 | pgbench_tellers  |            24576
 2017-02-08 01:37:31.120744+01 | 1486514251.12074 | pgbench_history  |                0
 2017-02-08 01:37:31.120744+01 | 1486514251.12074 | pgbench_branches |             8192

 2017-02-08 01:37:32.271146+01 | 1486514252.27115 | pgbench_accounts |        671481856
 2017-02-08 01:37:32.271146+01 | 1486514252.27115 | pgbench_tellers  |            24576
 2017-02-08 01:37:32.271146+01 | 1486514252.27115 | pgbench_history  |                0
 2017-02-08 01:37:32.271146+01 | 1486514252.27115 | pgbench_branches |             8192

 2017-02-08 01:37:33.439702+01 | 1486514253.4397 | pgbench_accounts |        671481856
 2017-02-08 01:37:33.439702+01 | 1486514253.4397 | pgbench_tellers  |            24576
 2017-02-08 01:37:33.439702+01 | 1486514253.4397 | pgbench_history  |                0
 2017-02-08 01:37:33.439702+01 | 1486514253.4397 | pgbench_branches |             8192

 2017-02-08 01:37:34.634091+01 | 1486514254.63409 | pgbench_accounts |        671481856
 2017-02-08 01:37:34.634091+01 | 1486514254.63409 | pgbench_tellers  |            24576
 2017-02-08 01:37:34.634091+01 | 1486514254.63409 | pgbench_history  |                0
 2017-02-08 01:37:34.634091+01 | 1486514254.63409 | pgbench_branches |             8192

 2017-02-08 01:37:35.828561+01 | 1486514255.82856 | pgbench_accounts |        671481856
 2017-02-08 01:37:35.828561+01 | 1486514255.82856 | pgbench_tellers  |            24576
 2017-02-08 01:37:35.828561+01 | 1486514255.82856 | pgbench_history  |                0
 2017-02-08 01:37:35.828561+01 | 1486514255.82856 | pgbench_branches |             8192

 2017-02-08 01:37:37.029848+01 | 1486514257.02985 | pgbench_accounts |        671481856
 2017-02-08 01:37:37.029848+01 | 1486514257.02985 | pgbench_tellers  |            24576
 2017-02-08 01:37:37.029848+01 | 1486514257.02985 | pgbench_history  |                0
 2017-02-08 01:37:37.029848+01 | 1486514257.02985 | pgbench_branches |             8192

 2017-02-08 01:37:38.225413+01 | 1486514258.22541 | pgbench_accounts |        671481856
 2017-02-08 01:37:38.225413+01 | 1486514258.22541 | pgbench_tellers  |            24576
 2017-02-08 01:37:38.225413+01 | 1486514258.22541 | pgbench_history  |                0
 2017-02-08 01:37:38.225413+01 | 1486514258.22541 | pgbench_branches |             8192

 2017-02-08 01:37:39.4219+01 | 1486514259.4219 | pgbench_accounts |        671481856
 2017-02-08 01:37:39.4219+01 | 1486514259.4219 | pgbench_tellers  |            24576
 2017-02-08 01:37:39.4219+01 | 1486514259.4219 | pgbench_history  |                0
 2017-02-08 01:37:39.4219+01 | 1486514259.4219 | pgbench_branches |             8192

 2017-02-08 01:37:40.619913+01 | 1486514260.61991 | pgbench_accounts |        671481856
 2017-02-08 01:37:40.619913+01 | 1486514260.61991 | pgbench_tellers  |            24576
 2017-02-08 01:37:40.619913+01 | 1486514260.61991 | pgbench_history  |                0
 2017-02-08 01:37:40.619913+01 | 1486514260.61991 | pgbench_branches |             8192

 2017-02-08 01:37:41.792625+01 | 1486514261.79262 | pgbench_accounts |        671481856
 2017-02-08 01:37:41.792625+01 | 1486514261.79262 | pgbench_tellers  |            24576
 2017-02-08 01:37:41.792625+01 | 1486514261.79262 | pgbench_history  |                0
 2017-02-08 01:37:41.792625+01 | 1486514261.79262 | pgbench_branches |             8192

 2017-02-08 01:37:42.991085+01 | 1486514262.99109 | pgbench_accounts |        671481856
 2017-02-08 01:37:42.991085+01 | 1486514262.99109 | pgbench_tellers  |            24576
 2017-02-08 01:37:42.991085+01 | 1486514262.99109 | pgbench_history  |                0
 2017-02-08 01:37:42.991085+01 | 1486514262.99109 | pgbench_branches |             8192

 2017-02-08 01:37:44.184986+01 | 1486514264.18499 | pgbench_accounts |        671481856
 2017-02-08 01:37:44.184986+01 | 1486514264.18499 | pgbench_tellers  |            24576
 2017-02-08 01:37:44.184986+01 | 1486514264.18499 | pgbench_history  |                0
 2017-02-08 01:37:44.184986+01 | 1486514264.18499 | pgbench_branches |             8192

 2017-02-08 01:37:45.379793+01 | 1486514265.37979 | pgbench_accounts |        671481856
 2017-02-08 01:37:45.379793+01 | 1486514265.37979 | pgbench_tellers  |            24576
 2017-02-08 01:37:45.379793+01 | 1486514265.37979 | pgbench_history  |                0
 2017-02-08 01:37:45.379793+01 | 1486514265.37979 | pgbench_branches |             8192

 2017-02-08 01:37:46.574936+01 | 1486514266.57494 | pgbench_accounts |        671481856
 2017-02-08 01:37:46.574936+01 | 1486514266.57494 | pgbench_tellers  |            24576
 2017-02-08 01:37:46.574936+01 | 1486514266.57494 | pgbench_history  |                0
 2017-02-08 01:37:46.574936+01 | 1486514266.57494 | pgbench_branches |             8192

 2017-02-08 01:37:47.769506+01 | 1486514267.76951 | pgbench_accounts |        671481856
 2017-02-08 01:37:47.769506+01 | 1486514267.76951 | pgbench_tellers  |            24576
 2017-02-08 01:37:47.769506+01 | 1486514267.76951 | pgbench_history  |                0
 2017-02-08 01:37:47.769506+01 | 1486514267.76951 | pgbench_branches |             8192

 2017-02-08 01:37:48.962569+01 | 1486514268.96257 | pgbench_accounts |        671481856
 2017-02-08 01:37:48.962569+01 | 1486514268.96257 | pgbench_tellers  |            24576
 2017-02-08 01:37:48.962569+01 | 1486514268.96257 | pgbench_history  |                0
 2017-02-08 01:37:48.962569+01 | 1486514268.96257 | pgbench_branches |             8192

 2017-02-08 01:37:50.101457+01 | 1486514270.10146 | pgbench_accounts |        671481856
 2017-02-08 01:37:50.101457+01 | 1486514270.10146 | pgbench_tellers  |            24576
 2017-02-08 01:37:50.101457+01 | 1486514270.10146 | pgbench_history  |                0
 2017-02-08 01:37:50.101457+01 | 1486514270.10146 | pgbench_branches |             8192

 2017-02-08 01:37:51.24225+01 | 1486514271.24225 | pgbench_accounts |        671481856
 2017-02-08 01:37:51.24225+01 | 1486514271.24225 | pgbench_tellers  |            24576
 2017-02-08 01:37:51.24225+01 | 1486514271.24225 | pgbench_history  |                0
 2017-02-08 01:37:51.24225+01 | 1486514271.24225 | pgbench_branches |             8192

 2017-02-08 01:37:52.436804+01 | 1486514272.4368 | pgbench_accounts |        671481856
 2017-02-08 01:37:52.436804+01 | 1486514272.4368 | pgbench_tellers  |            24576
 2017-02-08 01:37:52.436804+01 | 1486514272.4368 | pgbench_history  |                0
 2017-02-08 01:37:52.436804+01 | 1486514272.4368 | pgbench_branches |             8192

 2017-02-08 01:37:53.632453+01 | 1486514273.63245 | pgbench_accounts |        671481856
 2017-02-08 01:37:53.632453+01 | 1486514273.63245 | pgbench_tellers  |            24576
 2017-02-08 01:37:53.632453+01 | 1486514273.63245 | pgbench_history  |                0
 2017-02-08 01:37:53.632453+01 | 1486514273.63245 | pgbench_branches |             8192

 2017-02-08 01:37:54.798144+01 | 1486514274.79814 | pgbench_accounts |        671481856
 2017-02-08 01:37:54.798144+01 | 1486514274.79814 | pgbench_tellers  |            24576
 2017-02-08 01:37:54.798144+01 | 1486514274.79814 | pgbench_history  |                0
 2017-02-08 01:37:54.798144+01 | 1486514274.79814 | pgbench_branches |             8192

 2017-02-08 01:37:55.980621+01 | 1486514275.98062 | pgbench_accounts |        671481856
 2017-02-08 01:37:55.980621+01 | 1486514275.98062 | pgbench_tellers  |            24576
 2017-02-08 01:37:55.980621+01 | 1486514275.98062 | pgbench_history  |                0
 2017-02-08 01:37:55.980621+01 | 1486514275.98062 | pgbench_branches |             8192

 2017-02-08 01:37:57.175873+01 | 1486514277.17587 | pgbench_accounts |        671481856
 2017-02-08 01:37:57.175873+01 | 1486514277.17587 | pgbench_tellers  |            24576
 2017-02-08 01:37:57.175873+01 | 1486514277.17587 | pgbench_history  |                0
 2017-02-08 01:37:57.175873+01 | 1486514277.17587 | pgbench_branches |             8192

 2017-02-08 01:37:58.374026+01 | 1486514278.37403 | pgbench_accounts |        671481856
 2017-02-08 01:37:58.374026+01 | 1486514278.37403 | pgbench_tellers  |            24576
 2017-02-08 01:37:58.374026+01 | 1486514278.37403 | pgbench_history  |                0
 2017-02-08 01:37:58.374026+01 | 1486514278.37403 | pgbench_branches |             8192

 2017-02-08 01:37:59.567449+01 | 1486514279.56745 | pgbench_accounts |        671481856
 2017-02-08 01:37:59.567449+01 | 1486514279.56745 | pgbench_tellers  |            24576
 2017-02-08 01:37:59.567449+01 | 1486514279.56745 | pgbench_history  |                0
 2017-02-08 01:37:59.567449+01 | 1486514279.56745 | pgbench_branches |             8192

 2017-02-08 01:38:00.741798+01 | 1486514280.7418 | pgbench_accounts |        671481856
 2017-02-08 01:38:00.741798+01 | 1486514280.7418 | pgbench_tellers  |            24576
 2017-02-08 01:38:00.741798+01 | 1486514280.7418 | pgbench_history  |                0
 2017-02-08 01:38:00.741798+01 | 1486514280.7418 | pgbench_branches |             8192

 2017-02-08 01:38:01.914215+01 | 1486514281.91422 | pgbench_accounts |        671481856
 2017-02-08 01:38:01.914215+01 | 1486514281.91422 | pgbench_tellers  |            24576
 2017-02-08 01:38:01.914215+01 | 1486514281.91422 | pgbench_history  |                0
 2017-02-08 01:38:01.914215+01 | 1486514281.91422 | pgbench_branches |             8192

 2017-02-08 01:38:03.054186+01 | 1486514283.05419 | pgbench_accounts |        671481856
 2017-02-08 01:38:03.054186+01 | 1486514283.05419 | pgbench_tellers  |            24576
 2017-02-08 01:38:03.054186+01 | 1486514283.05419 | pgbench_history  |                0
 2017-02-08 01:38:03.054186+01 | 1486514283.05419 | pgbench_branches |             8192

 2017-02-08 01:38:04.20933+01 | 1486514284.20933 | pgbench_accounts |        671481856
 2017-02-08 01:38:04.20933+01 | 1486514284.20933 | pgbench_tellers  |            24576
 2017-02-08 01:38:04.20933+01 | 1486514284.20933 | pgbench_history  |                0
 2017-02-08 01:38:04.20933+01 | 1486514284.20933 | pgbench_branches |             8192

 2017-02-08 01:38:05.402166+01 | 1486514285.40217 | pgbench_accounts |        671481856
 2017-02-08 01:38:05.402166+01 | 1486514285.40217 | pgbench_tellers  |            24576
 2017-02-08 01:38:05.402166+01 | 1486514285.40217 | pgbench_history  |                0
 2017-02-08 01:38:05.402166+01 | 1486514285.40217 | pgbench_branches |             8192

 2017-02-08 01:38:06.597715+01 | 1486514286.59771 | pgbench_accounts |        671481856
 2017-02-08 01:38:06.597715+01 | 1486514286.59771 | pgbench_tellers  |            24576
 2017-02-08 01:38:06.597715+01 | 1486514286.59771 | pgbench_history  |                0
 2017-02-08 01:38:06.597715+01 | 1486514286.59771 | pgbench_branches |             8192

 2017-02-08 01:38:07.791889+01 | 1486514287.79189 | pgbench_accounts |        671481856
 2017-02-08 01:38:07.791889+01 | 1486514287.79189 | pgbench_tellers  |            24576
 2017-02-08 01:38:07.791889+01 | 1486514287.79189 | pgbench_history  |                0
 2017-02-08 01:38:07.791889+01 | 1486514287.79189 | pgbench_branches |             8192

 2017-02-08 01:38:08.989272+01 | 1486514288.98927 | pgbench_accounts |        671481856
 2017-02-08 01:38:08.989272+01 | 1486514288.98927 | pgbench_tellers  |            24576
 2017-02-08 01:38:08.989272+01 | 1486514288.98927 | pgbench_history  |                0
 2017-02-08 01:38:08.989272+01 | 1486514288.98927 | pgbench_branches |             8192

 2017-02-08 01:38:10.186502+01 | 1486514290.1865 | pgbench_accounts |        671481856
 2017-02-08 01:38:10.186502+01 | 1486514290.1865 | pgbench_tellers  |            24576
 2017-02-08 01:38:10.186502+01 | 1486514290.1865 | pgbench_history  |                0
 2017-02-08 01:38:10.186502+01 | 1486514290.1865 | pgbench_branches |             8192

 2017-02-08 01:38:11.386302+01 | 1486514291.3863 | pgbench_accounts |        671481856
 2017-02-08 01:38:11.386302+01 | 1486514291.3863 | pgbench_tellers  |            24576
 2017-02-08 01:38:11.386302+01 | 1486514291.3863 | pgbench_history  |                0
 2017-02-08 01:38:11.386302+01 | 1486514291.3863 | pgbench_branches |             8192

 2017-02-08 01:38:12.578095+01 | 1486514292.57809 | pgbench_accounts |        671481856
 2017-02-08 01:38:12.578095+01 | 1486514292.57809 | pgbench_tellers  |            24576
 2017-02-08 01:38:12.578095+01 | 1486514292.57809 | pgbench_history  |                0
 2017-02-08 01:38:12.578095+01 | 1486514292.57809 | pgbench_branches |             8192

 2017-02-08 01:38:13.728168+01 | 1486514293.72817 | pgbench_accounts |        671481856
 2017-02-08 01:38:13.728168+01 | 1486514293.72817 | pgbench_tellers  |            24576
 2017-02-08 01:38:13.728168+01 | 1486514293.72817 | pgbench_history  |                0
 2017-02-08 01:38:13.728168+01 | 1486514293.72817 | pgbench_branches |             8192

 2017-02-08 01:38:14.867918+01 | 1486514294.86792 | pgbench_accounts |        671481856
 2017-02-08 01:38:14.867918+01 | 1486514294.86792 | pgbench_tellers  |            24576
 2017-02-08 01:38:14.867918+01 | 1486514294.86792 | pgbench_history  |                0
 2017-02-08 01:38:14.867918+01 | 1486514294.86792 | pgbench_branches |             8192

 2017-02-08 01:38:16.058418+01 | 1486514296.05842 | pgbench_accounts |        671481856
 2017-02-08 01:38:16.058418+01 | 1486514296.05842 | pgbench_tellers  |            24576
 2017-02-08 01:38:16.058418+01 | 1486514296.05842 | pgbench_history  |                0
 2017-02-08 01:38:16.058418+01 | 1486514296.05842 | pgbench_branches |             8192

 2017-02-08 01:38:17.248026+01 | 1486514297.24803 | pgbench_accounts |        671481856
 2017-02-08 01:38:17.248026+01 | 1486514297.24803 | pgbench_tellers  |            24576
 2017-02-08 01:38:17.248026+01 | 1486514297.24803 | pgbench_history  |                0
 2017-02-08 01:38:17.248026+01 | 1486514297.24803 | pgbench_branches |             8192

 2017-02-08 01:38:18.445736+01 | 1486514298.44574 | pgbench_accounts |        671481856
 2017-02-08 01:38:18.445736+01 | 1486514298.44574 | pgbench_tellers  |            24576
 2017-02-08 01:38:18.445736+01 | 1486514298.44574 | pgbench_history  |                0
 2017-02-08 01:38:18.445736+01 | 1486514298.44574 | pgbench_branches |             8192

 2017-02-08 01:38:19.593368+01 | 1486514299.59337 | pgbench_accounts |        671481856
 2017-02-08 01:38:19.593368+01 | 1486514299.59337 | pgbench_tellers  |            24576
 2017-02-08 01:38:19.593368+01 | 1486514299.59337 | pgbench_history  |                0
 2017-02-08 01:38:19.593368+01 | 1486514299.59337 | pgbench_branches |             8192

 2017-02-08 01:38:20.721213+01 | 1486514300.72121 | pgbench_accounts |        671481856
 2017-02-08 01:38:20.721213+01 | 1486514300.72121 | pgbench_tellers  |            24576
 2017-02-08 01:38:20.721213+01 | 1486514300.72121 | pgbench_history  |                0
 2017-02-08 01:38:20.721213+01 | 1486514300.72121 | pgbench_branches |             8192

 2017-02-08 01:38:21.842541+01 | 1486514301.84254 | pgbench_accounts |        671481856
 2017-02-08 01:38:21.842541+01 | 1486514301.84254 | pgbench_tellers  |            24576
 2017-02-08 01:38:21.842541+01 | 1486514301.84254 | pgbench_history  |                0
 2017-02-08 01:38:21.842541+01 | 1486514301.84254 | pgbench_branches |             8192

 2017-02-08 01:38:23.004041+01 | 1486514303.00404 | pgbench_accounts |        671481856
 2017-02-08 01:38:23.004041+01 | 1486514303.00404 | pgbench_tellers  |            24576
 2017-02-08 01:38:23.004041+01 | 1486514303.00404 | pgbench_history  |                0
 2017-02-08 01:38:23.004041+01 | 1486514303.00404 | pgbench_branches |             8192

 2017-02-08 01:38:24.184152+01 | 1486514304.18415 | pgbench_accounts |        671481856
 2017-02-08 01:38:24.184152+01 | 1486514304.18415 | pgbench_tellers  |            24576
 2017-02-08 01:38:24.184152+01 | 1486514304.18415 | pgbench_history  |                0
 2017-02-08 01:38:24.184152+01 | 1486514304.18415 | pgbench_branches |             8192

 2017-02-08 01:38:25.341342+01 | 1486514305.34134 | pgbench_accounts |        671481856
 2017-02-08 01:38:25.341342+01 | 1486514305.34134 | pgbench_tellers  |            24576
 2017-02-08 01:38:25.341342+01 | 1486514305.34134 | pgbench_history  |                0
 2017-02-08 01:38:25.341342+01 | 1486514305.34134 | pgbench_branches |             8192

 2017-02-08 01:38:26.535933+01 | 1486514306.53593 | pgbench_accounts |        671481856
 2017-02-08 01:38:26.535933+01 | 1486514306.53593 | pgbench_tellers  |            24576
 2017-02-08 01:38:26.535933+01 | 1486514306.53593 | pgbench_history  |                0
 2017-02-08 01:38:26.535933+01 | 1486514306.53593 | pgbench_branches |             8192

 2017-02-08 01:38:27.731664+01 | 1486514307.73166 | pgbench_accounts |        671481856
 2017-02-08 01:38:27.731664+01 | 1486514307.73166 | pgbench_tellers  |            24576
 2017-02-08 01:38:27.731664+01 | 1486514307.73166 | pgbench_history  |                0
 2017-02-08 01:38:27.731664+01 | 1486514307.73166 | pgbench_branches |             8192

 2017-02-08 01:38:28.926381+01 | 1486514308.92638 | pgbench_accounts |        671481856
 2017-02-08 01:38:28.926381+01 | 1486514308.92638 | pgbench_tellers  |            24576
 2017-02-08 01:38:28.926381+01 | 1486514308.92638 | pgbench_history  |                0
 2017-02-08 01:38:28.926381+01 | 1486514308.92638 | pgbench_branches |             8192

 2017-02-08 01:38:30.121315+01 | 1486514310.12132 | pgbench_accounts |        671481856
 2017-02-08 01:38:30.121315+01 | 1486514310.12132 | pgbench_tellers  |            24576
 2017-02-08 01:38:30.121315+01 | 1486514310.12132 | pgbench_history  |                0
 2017-02-08 01:38:30.121315+01 | 1486514310.12132 | pgbench_branches |             8192

 2017-02-08 01:38:31.315541+01 | 1486514311.31554 | pgbench_accounts |        671481856
 2017-02-08 01:38:31.315541+01 | 1486514311.31554 | pgbench_tellers  |            24576
 2017-02-08 01:38:31.315541+01 | 1486514311.31554 | pgbench_history  |                0
 2017-02-08 01:38:31.315541+01 | 1486514311.31554 | pgbench_branches |             8192

 2017-02-08 01:38:32.509428+01 | 1486514312.50943 | pgbench_accounts |        671481856
 2017-02-08 01:38:32.509428+01 | 1486514312.50943 | pgbench_tellers  |            24576
 2017-02-08 01:38:32.509428+01 | 1486514312.50943 | pgbench_history  |                0
 2017-02-08 01:38:32.509428+01 | 1486514312.50943 | pgbench_branches |             8192

 2017-02-08 01:38:33.703845+01 | 1486514313.70385 | pgbench_accounts |        671481856
 2017-02-08 01:38:33.703845+01 | 1486514313.70385 | pgbench_tellers  |            24576
 2017-02-08 01:38:33.703845+01 | 1486514313.70385 | pgbench_history  |                0
 2017-02-08 01:38:33.703845+01 | 1486514313.70385 | pgbench_branches |             8192

 2017-02-08 01:38:34.898887+01 | 1486514314.89889 | pgbench_accounts |        671481856
 2017-02-08 01:38:34.898887+01 | 1486514314.89889 | pgbench_tellers  |            24576
 2017-02-08 01:38:34.898887+01 | 1486514314.89889 | pgbench_history  |                0
 2017-02-08 01:38:34.898887+01 | 1486514314.89889 | pgbench_branches |             8192

 2017-02-08 01:38:36.093638+01 | 1486514316.09364 | pgbench_accounts |        671481856
 2017-02-08 01:38:36.093638+01 | 1486514316.09364 | pgbench_tellers  |            24576
 2017-02-08 01:38:36.093638+01 | 1486514316.09364 | pgbench_history  |                0
 2017-02-08 01:38:36.093638+01 | 1486514316.09364 | pgbench_branches |             8192

 2017-02-08 01:38:37.286417+01 | 1486514317.28642 | pgbench_accounts |        671481856
 2017-02-08 01:38:37.286417+01 | 1486514317.28642 | pgbench_tellers  |            24576
 2017-02-08 01:38:37.286417+01 | 1486514317.28642 | pgbench_history  |                0
 2017-02-08 01:38:37.286417+01 | 1486514317.28642 | pgbench_branches |             8192

 2017-02-08 01:38:38.441554+01 | 1486514318.44155 | pgbench_accounts |        671481856
 2017-02-08 01:38:38.441554+01 | 1486514318.44155 | pgbench_tellers  |            24576
 2017-02-08 01:38:38.441554+01 | 1486514318.44155 | pgbench_history  |                0
 2017-02-08 01:38:38.441554+01 | 1486514318.44155 | pgbench_branches |             8192

 2017-02-08 01:38:39.604147+01 | 1486514319.60415 | pgbench_accounts |        671481856
 2017-02-08 01:38:39.604147+01 | 1486514319.60415 | pgbench_tellers  |            24576
 2017-02-08 01:38:39.604147+01 | 1486514319.60415 | pgbench_history  |                0
 2017-02-08 01:38:39.604147+01 | 1486514319.60415 | pgbench_branches |             8192

 2017-02-08 01:38:40.797717+01 | 1486514320.79772 | pgbench_accounts |        671481856
 2017-02-08 01:38:40.797717+01 | 1486514320.79772 | pgbench_tellers  |            24576
 2017-02-08 01:38:40.797717+01 | 1486514320.79772 | pgbench_history  |                0
 2017-02-08 01:38:40.797717+01 | 1486514320.79772 | pgbench_branches |             8192

 2017-02-08 01:38:41.989923+01 | 1486514321.98992 | pgbench_accounts |        671481856
 2017-02-08 01:38:41.989923+01 | 1486514321.98992 | pgbench_tellers  |            24576
 2017-02-08 01:38:41.989923+01 | 1486514321.98992 | pgbench_history  |                0
 2017-02-08 01:38:41.989923+01 | 1486514321.98992 | pgbench_branches |             8192

 2017-02-08 01:38:43.183756+01 | 1486514323.18376 | pgbench_accounts |        671481856
 2017-02-08 01:38:43.183756+01 | 1486514323.18376 | pgbench_tellers  |            24576
 2017-02-08 01:38:43.183756+01 | 1486514323.18376 | pgbench_history  |                0
 2017-02-08 01:38:43.183756+01 | 1486514323.18376 | pgbench_branches |             8192

 2017-02-08 01:38:44.380495+01 | 1486514324.3805 | pgbench_accounts |        671481856
 2017-02-08 01:38:44.380495+01 | 1486514324.3805 | pgbench_tellers  |            24576
 2017-02-08 01:38:44.380495+01 | 1486514324.3805 | pgbench_history  |                0
 2017-02-08 01:38:44.380495+01 | 1486514324.3805 | pgbench_branches |             8192

 2017-02-08 01:38:45.577365+01 | 1486514325.57736 | pgbench_accounts |        671481856
 2017-02-08 01:38:45.577365+01 | 1486514325.57736 | pgbench_tellers  |            24576
 2017-02-08 01:38:45.577365+01 | 1486514325.57736 | pgbench_history  |                0
 2017-02-08 01:38:45.577365+01 | 1486514325.57736 | pgbench_branches |             8192

 2017-02-08 01:38:46.75779+01 | 1486514326.75779 | pgbench_accounts |        671481856
 2017-02-08 01:38:46.75779+01 | 1486514326.75779 | pgbench_tellers  |            24576
 2017-02-08 01:38:46.75779+01 | 1486514326.75779 | pgbench_history  |                0
 2017-02-08 01:38:46.75779+01 | 1486514326.75779 | pgbench_branches |             8192

 2017-02-08 01:38:47.934406+01 | 1486514327.93441 | pgbench_accounts |        671481856
 2017-02-08 01:38:47.934406+01 | 1486514327.93441 | pgbench_tellers  |            24576
 2017-02-08 01:38:47.934406+01 | 1486514327.93441 | pgbench_history  |                0
 2017-02-08 01:38:47.934406+01 | 1486514327.93441 | pgbench_branches |             8192

 2017-02-08 01:38:49.107195+01 | 1486514329.10719 | pgbench_accounts |        671481856
 2017-02-08 01:38:49.107195+01 | 1486514329.10719 | pgbench_tellers  |            24576
 2017-02-08 01:38:49.107195+01 | 1486514329.10719 | pgbench_history  |                0
 2017-02-08 01:38:49.107195+01 | 1486514329.10719 | pgbench_branches |             8192

 2017-02-08 01:38:50.300529+01 | 1486514330.30053 | pgbench_accounts |        671481856
 2017-02-08 01:38:50.300529+01 | 1486514330.30053 | pgbench_tellers  |            24576
 2017-02-08 01:38:50.300529+01 | 1486514330.30053 | pgbench_history  |                0
 2017-02-08 01:38:50.300529+01 | 1486514330.30053 | pgbench_branches |             8192

 2017-02-08 01:38:51.490207+01 | 1486514331.49021 | pgbench_accounts |        671481856
 2017-02-08 01:38:51.490207+01 | 1486514331.49021 | pgbench_tellers  |            24576
 2017-02-08 01:38:51.490207+01 | 1486514331.49021 | pgbench_history  |                0
 2017-02-08 01:38:51.490207+01 | 1486514331.49021 | pgbench_branches |             8192

 2017-02-08 01:38:52.682224+01 | 1486514332.68222 | pgbench_accounts |        671481856
 2017-02-08 01:38:52.682224+01 | 1486514332.68222 | pgbench_tellers  |            24576
 2017-02-08 01:38:52.682224+01 | 1486514332.68222 | pgbench_history  |                0
 2017-02-08 01:38:52.682224+01 | 1486514332.68222 | pgbench_branches |             8192

 2017-02-08 01:38:53.87499+01 | 1486514333.87499 | pgbench_accounts |        671481856
 2017-02-08 01:38:53.87499+01 | 1486514333.87499 | pgbench_tellers  |            24576
 2017-02-08 01:38:53.87499+01 | 1486514333.87499 | pgbench_history  |                0
 2017-02-08 01:38:53.87499+01 | 1486514333.87499 | pgbench_branches |             8192

 2017-02-08 01:38:55.064784+01 | 1486514335.06478 | pgbench_accounts |        671481856
 2017-02-08 01:38:55.064784+01 | 1486514335.06478 | pgbench_tellers  |            24576
 2017-02-08 01:38:55.064784+01 | 1486514335.06478 | pgbench_history  |                0
 2017-02-08 01:38:55.064784+01 | 1486514335.06478 | pgbench_branches |             8192

 2017-02-08 01:38:56.234699+01 | 1486514336.2347 | pgbench_accounts |        671481856
 2017-02-08 01:38:56.234699+01 | 1486514336.2347 | pgbench_tellers  |            24576
 2017-02-08 01:38:56.234699+01 | 1486514336.2347 | pgbench_history  |                0
 2017-02-08 01:38:56.234699+01 | 1486514336.2347 | pgbench_branches |             8192

 2017-02-08 01:38:57.379196+01 | 1486514337.3792 | pgbench_accounts |        671481856
 2017-02-08 01:38:57.379196+01 | 1486514337.3792 | pgbench_tellers  |            24576
 2017-02-08 01:38:57.379196+01 | 1486514337.3792 | pgbench_history  |                0
 2017-02-08 01:38:57.379196+01 | 1486514337.3792 | pgbench_branches |             8192

 2017-02-08 01:38:58.530662+01 | 1486514338.53066 | pgbench_accounts |        671481856
 2017-02-08 01:38:58.530662+01 | 1486514338.53066 | pgbench_tellers  |            24576
 2017-02-08 01:38:58.530662+01 | 1486514338.53066 | pgbench_history  |                0
 2017-02-08 01:38:58.530662+01 | 1486514338.53066 | pgbench_branches |             8192

 2017-02-08 01:38:59.725798+01 | 1486514339.7258 | pgbench_accounts |        671481856
 2017-02-08 01:38:59.725798+01 | 1486514339.7258 | pgbench_tellers  |            24576
 2017-02-08 01:38:59.725798+01 | 1486514339.7258 | pgbench_history  |                0
 2017-02-08 01:38:59.725798+01 | 1486514339.7258 | pgbench_branches |             8192

 2017-02-08 01:39:00.918719+01 | 1486514340.91872 | pgbench_accounts |        671481856
 2017-02-08 01:39:00.918719+01 | 1486514340.91872 | pgbench_tellers  |            24576
 2017-02-08 01:39:00.918719+01 | 1486514340.91872 | pgbench_history  |                0
 2017-02-08 01:39:00.918719+01 | 1486514340.91872 | pgbench_branches |             8192

 2017-02-08 01:39:02.112937+01 | 1486514342.11294 | pgbench_accounts |        671481856
 2017-02-08 01:39:02.112937+01 | 1486514342.11294 | pgbench_tellers  |            24576
 2017-02-08 01:39:02.112937+01 | 1486514342.11294 | pgbench_history  |                0
 2017-02-08 01:39:02.112937+01 | 1486514342.11294 | pgbench_branches |             8192

 2017-02-08 01:39:03.30285+01 | 1486514343.30285 | pgbench_accounts |        671481856
 2017-02-08 01:39:03.30285+01 | 1486514343.30285 | pgbench_tellers  |            24576
 2017-02-08 01:39:03.30285+01 | 1486514343.30285 | pgbench_history  |                0
 2017-02-08 01:39:03.30285+01 | 1486514343.30285 | pgbench_branches |             8192

 2017-02-08 01:39:04.500208+01 | 1486514344.50021 | pgbench_accounts |        671481856
 2017-02-08 01:39:04.500208+01 | 1486514344.50021 | pgbench_tellers  |            24576
 2017-02-08 01:39:04.500208+01 | 1486514344.50021 | pgbench_history  |                0
 2017-02-08 01:39:04.500208+01 | 1486514344.50021 | pgbench_branches |             8192

 2017-02-08 01:39:05.697161+01 | 1486514345.69716 | pgbench_accounts |        671481856
 2017-02-08 01:39:05.697161+01 | 1486514345.69716 | pgbench_tellers  |            24576
 2017-02-08 01:39:05.697161+01 | 1486514345.69716 | pgbench_history  |                0
 2017-02-08 01:39:05.697161+01 | 1486514345.69716 | pgbench_branches |             8192

 2017-02-08 01:39:06.848682+01 | 1486514346.84868 | pgbench_accounts |        671481856
 2017-02-08 01:39:06.848682+01 | 1486514346.84868 | pgbench_tellers  |            24576
 2017-02-08 01:39:06.848682+01 | 1486514346.84868 | pgbench_history  |                0
 2017-02-08 01:39:06.848682+01 | 1486514346.84868 | pgbench_branches |             8192

 2017-02-08 01:39:07.98791+01 | 1486514347.98791 | pgbench_accounts |        671481856
 2017-02-08 01:39:07.98791+01 | 1486514347.98791 | pgbench_tellers  |            24576
 2017-02-08 01:39:07.98791+01 | 1486514347.98791 | pgbench_history  |                0
 2017-02-08 01:39:07.98791+01 | 1486514347.98791 | pgbench_branches |             8192

 2017-02-08 01:39:09.152116+01 | 1486514349.15212 | pgbench_accounts |        671481856
 2017-02-08 01:39:09.152116+01 | 1486514349.15212 | pgbench_tellers  |            24576
 2017-02-08 01:39:09.152116+01 | 1486514349.15212 | pgbench_history  |                0
 2017-02-08 01:39:09.152116+01 | 1486514349.15212 | pgbench_branches |             8192

 2017-02-08 01:39:10.29523+01 | 1486514350.29523 | pgbench_accounts |        671481856
 2017-02-08 01:39:10.29523+01 | 1486514350.29523 | pgbench_tellers  |            24576
 2017-02-08 01:39:10.29523+01 | 1486514350.29523 | pgbench_history  |                0
 2017-02-08 01:39:10.29523+01 | 1486514350.29523 | pgbench_branches |             8192

