1486514050.46911|||2
1486514050.589|||5
1486514050.72373|||5
1486514050.84016|||5
1486514050.98042|||5
1486514051.11814|||5
1486514051.25587|||5
1486514051.39361|||5
1486514051.53125|||5
1486514051.66906|||5
1486514051.80644|Client|ClientRead|1
1486514051.80644|||5
1486514051.94277|||5
1486514052.07635|||5
1486514052.21409|||5
1486514052.3531|||5
1486514052.49079|||5
1486514052.62869|||5
1486514052.76443|||5
1486514052.90216|||5
1486514053.03731|Client|ClientRead|1
1486514053.03731|||5
1486514053.17479|||5
1486514053.31048|||5
1486514053.44825|||5
1486514053.58605|||5
1486514053.72376|||5
1486514053.86168|||5
1486514053.99932|||5
1486514054.13615|||5
1486514054.27151|||6
1486514054.40929|||5
1486514054.54496|||5
1486514054.68269|||5
1486514054.81945|||5
1486514054.95714|||5
1486514055.09489|||5
1486514055.23152|||5
1486514055.3693|||5
1486514055.49215|||4
1486514055.49215|Client|ClientRead|1
1486514055.61607|||5
1486514055.74964|||5
1486514055.88773|||5
1486514056.02562|||5
1486514056.16134|||5
1486514056.29912|||5
1486514056.43489|||5
1486514056.57317|||5
1486514056.71148|||5
1486514056.84916|||5
1486514056.98479|||5
1486514057.12275|||5
1486514057.25829|||5
1486514057.39592|||5
1486514057.53355|||5
1486514057.66813|||5
1486514057.80293|||6
1486514057.94103|||5
1486514058.07865|||5
1486514058.21427|||5
1486514058.35208|||5
1486514058.48981|||5
1486514058.62744|||5
1486514058.76546|||5
1486514058.90117|||5
1486514059.03681|||5
1486514059.17424|||5
1486514059.30993|||5
1486514059.44766|||5
1486514059.58321|||5
1486514059.72101|||5
1486514059.85901|||5
1486514059.99693|||5
1486514060.13452|||5
1486514060.2697|||5
1486514060.40522|||5
1486514060.5432|||5
1486514060.68095|||5
1486514060.81889|||5
1486514060.95657|||5
1486514061.09434|||5
1486514061.23217|Client|ClientRead|1
1486514061.23217|||4
1486514061.357|||5
1486514061.49015|||5
1486514061.62773|||5
1486514061.76533|||5
1486514061.90086|||5
1486514062.03789|||5
1486514062.17469|||5
1486514062.31243|||5
1486514062.44962|||5
1486514062.58545|||5
1486514062.72298|||5
1486514062.86072|||5
1486514062.99849|||5
1486514063.13632|||5
1486514063.27412|||5
1486514063.41085|||5
1486514063.54866|||5
1486514063.68659|||6
1486514063.82488|||5
1486514063.96244|||5
1486514064.10022|||5
1486514064.23592|||5
1486514064.37379|||5
1486514064.50846|||5
1486514064.64626|||5
1486514064.78415|||5
1486514064.92147|||5
1486514065.05725|||5
1486514065.19387|||5
1486514065.33176|||5
1486514065.47076|||5
1486514065.60846|||5
1486514065.74298|||5
1486514065.87986|||5
1486514066.01754|||6
1486514066.15388|||6
1486514066.29151|||5
1486514066.4293|||5
1486514066.56714|||5
1486514066.70605|||5
1486514066.8437|||5
1486514066.97929|||5
1486514067.11709|||5
1486514067.25299|Client|ClientRead|1
1486514067.25299|||5
1486514067.39015|||5
1486514067.5279|||5
1486514067.66575|||5
1486514067.80247|||5
1486514067.94021|||5
1486514068.07796|||5
1486514068.21565|||5
1486514068.35348|||5
1486514068.48899|||5
1486514068.62544|||5
1486514068.76317|||5
1486514068.89876|||5
1486514069.0335|||5
1486514069.17111|||5
1486514069.30887|||5
1486514069.44663|||5
1486514069.5843|||5
1486514069.72|||6
1486514069.85768|||5
1486514069.9954|||5
1486514070.13105|||5
1486514070.26796|||5
1486514070.40558|||5
1486514070.54333|||5
1486514070.67821|||5
1486514070.79826|||5
1486514070.93509|Client|ClientRead|1
1486514070.93509|||5
1486514071.07274|||5
1486514071.20852|||5
1486514071.34767|||5
1486514071.48337|||5
1486514071.62114|||5
1486514071.75897|||5
1486514071.8967|||5
1486514072.03414|||5
1486514072.16875|||5
1486514072.30657|||5
1486514072.44433|||5
1486514072.58219|||5
1486514072.72004|||5
1486514072.85675|||5
1486514072.99445|||5
1486514073.13212|||5
1486514073.26741|||5
1486514073.26741|Client|ClientRead|1
1486514073.4056|||5
1486514073.54339|||5
1486514073.68097|||5
1486514073.81885|||5
1486514073.9535|||5
1486514074.09125|||5
1486514074.22679|||5
1486514074.36634|Client|ClientRead|1
1486514074.36634|||5
1486514074.5036|||5
1486514074.64105|||5
1486514074.77893|||5
1486514074.91654|||5
1486514075.05353|||5
1486514075.19128|||5
1486514075.32913|||5
1486514075.46704|||5
1486514075.6058|||5
1486514075.74344|||5
1486514075.87897|||4
1486514075.87897|Client|ClientRead|1
1486514076.00022|||3
1486514076.00022|Client|ClientRead|2
1486514076.12905|||5
1486514076.26449|||5
1486514076.40245|||5
1486514076.54012|||5
1486514076.67784|||5
1486514076.81524|||5
1486514076.95281|||5
1486514077.09062|||5
1486514077.22854|||5
1486514077.36415|||5
1486514077.49989|||5
1486514077.63778|||5
1486514077.77558|||5
1486514077.91317|||5
1486514078.04999|||5
1486514078.18651|||5
1486514078.32121|||5
1486514078.46029|||5
1486514078.59813|||5
1486514078.73594|||5
1486514078.8717|||5
1486514079.00947|||5
1486514079.14686|||6
1486514079.2821|||5
1486514079.41832|||5
1486514079.55621|||5
1486514079.68996|||5
1486514079.82554|||5
1486514079.96146|||5
1486514080.09935|||5
1486514080.23706|||5
1486514080.37333|||6
1486514080.50858|||5
1486514080.64627|||5
1486514080.78414|||5
1486514080.92182|||5
1486514081.05983|||5
1486514081.19797|||5
1486514081.33714|||5
1486514081.47575|||5
1486514081.61317|||5
1486514081.74783|||5
1486514081.88551|||5
1486514082.0232|||5
1486514082.16108|||5
1486514082.29865|||5
1486514082.43629|||5
1486514082.57419|||5
1486514082.71156|||5
1486514082.84656|||6
1486514082.984|||5
1486514083.12167|||5
1486514083.25852|||5
1486514083.39648|||5
1486514083.53425|||5
1486514083.67212|||4
1486514083.67212|Client|ClientRead|1
1486514083.7929|Client|ClientRead|1
1486514083.7929|||4
1486514083.92535|||4
1486514083.92535|Client|ClientRead|1
1486514084.05384|||5
1486514084.19154|||5
1486514084.32937|||5
1486514084.46495|||5
1486514084.60276|||5
1486514084.74024|||5
1486514084.87591|||5
1486514085.0136|||5
1486514085.14992|||5
1486514085.28741|||5
1486514085.42524|||5
1486514085.56308|||5
1486514085.69983|||5
1486514085.83963|||5
1486514085.97725|||5
1486514086.11287|||5
1486514086.25007|||4
1486514086.25007|Client|ClientRead|1
1486514086.37609|||5
1486514086.51244|||5
1486514086.64822|||5
1486514086.78701|||5
1486514086.92453|||5
1486514087.06018|||5
1486514087.1959|||5
1486514087.33366|||5
1486514087.47189|||5
1486514087.60914|||5
1486514087.74687|||5
1486514087.88471|||5
1486514088.02148|||5
1486514088.15807|||5
1486514088.2959|||5
1486514088.43365|||5
1486514088.56725|||5
1486514088.70295|||5
1486514088.8392|||5
1486514088.96198|Client|ClientRead|1
1486514088.96198|||4
1486514089.07849|||4
1486514089.07849|Client|ClientRead|1
1486514089.20458|||5
1486514089.34364|||5
1486514089.48196|||5
1486514089.61966|||5
1486514089.75772|||5
1486514089.893|Client|ClientRead|1
1486514089.893|||5
1486514090.02907|||5
1486514090.1667|||5
1486514090.30435|||5
1486514090.44306|||5
1486514090.581|||5
1486514090.71859|||5
1486514090.85634|||5
1486514090.99434|||5
1486514091.13182|||5
1486514091.26971|||5
1486514091.4063|||5
1486514091.53007|||5
1486514091.66782|||5
1486514091.80542|||5
1486514091.94297|||5
1486514092.07882|||5
1486514092.21657|||6
1486514092.35141|||5
1486514092.48807|||5
1486514092.62363|||5
1486514092.76161|||5
1486514092.89726|||5
1486514093.03507|||5
1486514093.17271|||5
1486514093.31042|||5
1486514093.44825|||6
1486514093.58602|||5
1486514093.72074|||5
1486514093.85848|||5
1486514093.99635|||5
1486514094.13401|||5
1486514094.27166|||5
1486514094.40739|||5
1486514094.5449|||5
1486514094.67924|||5
1486514094.81598|||5
1486514094.95358|||5
1486514095.09164|||5
1486514095.2295|||5
1486514095.36729|||5
1486514095.50506|||5
1486514095.6428|||5
1486514095.78019|||5
1486514095.91789|||5
1486514096.05467|||5
1486514096.19227|||5
1486514096.32991|||5
1486514096.46775|||5
1486514096.60213|||5
1486514096.73991|||5
1486514096.87779|||5
1486514097.01548|||5
1486514097.15411|||5
1486514097.29203|||5
1486514097.42978|||5
1486514097.56453|||5
1486514097.70228|||5
1486514097.84016|||5
1486514097.97807|||5
1486514098.11203|||6
1486514098.24667|||5
1486514098.38018|||5
1486514098.51784|||5
1486514098.65557|||5
1486514098.79326|||5
1486514098.93108|||5
1486514099.06898|||5
1486514099.20677|||5
1486514099.3455|||5
1486514099.48331|||5
1486514099.62091|||5
1486514099.75646|||5
1486514099.8921|||5
1486514100.02975|||5
1486514100.1678|||5
1486514100.30555|||5
1486514100.44342|||5
1486514100.57891|||5
1486514100.71674|||5
1486514100.85457|||5
1486514100.99226|||5
1486514101.12705|||5
1486514101.26481|||5
1486514101.40062|||5
1486514101.5383|||5
1486514101.67565|||5
1486514101.81328|Client|ClientRead|1
1486514101.81328|||5
1486514101.94919|||5
1486514102.06518|||4
1486514102.06518|Client|ClientRead|1
1486514102.18366|Client|ClientRead|1
1486514102.18366|||4
1486514102.30926|Client|ClientRead|1
1486514102.30926|||4
1486514102.43343|Client|ClientRead|1
1486514102.43343|||4
1486514102.55766|||4
1486514102.55766|Client|ClientRead|1
1486514102.67747|||5
1486514102.81321|||5
1486514102.94962|||6
1486514103.08737|||5
1486514103.224|||5
1486514103.36165|||5
1486514103.49924|||5
1486514103.63691|||5
1486514103.7748|||5
1486514103.9126|||5
1486514104.0505|||5
1486514104.18596|||6
1486514104.32224|||5
1486514104.459|||5
1486514104.59668|||5
1486514104.73329|Client|ClientRead|1
1486514104.73329|||4
1486514104.8592|||5
1486514104.9969|||5
1486514105.13476|||5
1486514105.27242|||5
1486514105.39126|||5
1486514105.39126|Client|ClientRead|1
1486514105.52874|||5
1486514105.66653|||5
1486514105.80439|||5
1486514105.94218|||5
1486514106.07898|||5
1486514106.21679|||5
1486514106.35467|||5
1486514106.492|||5
1486514106.62925|||5
1486514106.76693|||5
1486514106.90469|||5
1486514107.03911|||5
1486514107.17695|||5
1486514107.31672|||5
1486514107.44936|||5
1486514107.5872|||5
1486514107.71015|||5
1486514107.84059|Client|ClientRead|1
1486514107.84059|||4
1486514107.97242|||4
1486514107.97242|Client|ClientRead|1
1486514108.10398|||4
1486514108.10398|Client|ClientRead|1
1486514108.22798|||4
1486514108.22798|Client|ClientRead|1
1486514108.34866|||4
1486514108.34866|Client|ClientRead|1
1486514108.48155|||5
1486514108.61904|||5
1486514108.75698|||5
1486514108.89359|Client|ClientRead|1
1486514108.89359|||5
1486514109.02747|||5
1486514109.16507|||5
1486514109.30311|||5
1486514109.44083|||5
1486514109.57757|||5
1486514109.71534|||5
1486514109.85224|||5
1486514109.99033|||5
1486514110.12774|||5
1486514110.26543|||5
1486514110.40314|||5
1486514110.53982|||5
1486514110.67751|||5
1486514110.81522|||5
1486514110.95291|||5
1486514111.09065|||5
1486514111.22705|||5
1486514111.36374|||5
1486514111.49942|||5
1486514111.62307|||5
1486514111.75656|||5
1486514111.89228|||5
1486514112.02779|||5
1486514112.16547|||5
1486514112.30323|||5
1486514112.43894|||6
1486514112.57666|||5
1486514112.71108|||5
1486514112.84908|||5
1486514112.98671|||5
1486514113.12451|||5
1486514113.26239|||5
1486514113.39809|||5
1486514113.53615|||5
1486514113.67273|||5
1486514113.67273|Client|ClientRead|1
1486514113.80988|||5
1486514113.94453|||5
1486514114.08037|||5
1486514114.21813|||5
1486514114.35569|||5
1486514114.4933|||5
1486514114.63104|||5
1486514114.76878|||5
1486514114.90319|||6
1486514115.04073|||5
1486514115.17847|||5
1486514115.3162|||5
1486514115.45397|||5
1486514115.58864|||5
1486514115.72319|||5
1486514115.86086|||5
1486514115.99615|||6
1486514116.133|||5
1486514116.27083|||5
1486514116.40736|||5
1486514116.54297|||5
1486514116.67765|||5
1486514116.81323|||5
1486514116.95302|||5
1486514117.09066|||5
1486514117.22736|||5
1486514117.36344|||5
1486514117.50114|||5
1486514117.6367|||5
1486514117.77135|||5
1486514117.89084|||5
1486514118.02757|||5
1486514118.14263|Client|ClientRead|1
1486514118.14263|||4
1486514118.2774|||5
1486514118.41451|||6
1486514118.5541|||5
1486514118.68798|||5
1486514118.82573|||5
1486514118.9637|||5
1486514119.10158|||5
1486514119.23939|||5
1486514119.37731|||5
1486514119.51303|||5
1486514119.64847|||6
1486514119.78432|||5
1486514119.92198|||5
1486514120.06185|||5
1486514120.19954|||5
1486514120.33523|||5
1486514120.47195|||5
1486514120.60759|||5
1486514120.74223|||6
1486514120.87875|||5
1486514121.0135|||5
1486514121.15112|||5
1486514121.28683|||5
1486514121.42466|||5
1486514121.56238|||5
1486514121.70027|||5
1486514121.83801|||5
1486514121.97496|||5
1486514122.11173|||5
1486514122.24939|||5
1486514122.38719|||5
1486514122.52483|||5
1486514122.66259|||5
1486514122.7984|||5
1486514122.93612|||5
1486514123.07165|||5
1486514123.20854|||5
1486514123.34439|||5
1486514123.4821|||5
1486514123.6199|||5
1486514123.76002|||5
1486514123.89794|||5
1486514124.03562|||5
1486514124.17325|||5
1486514124.31117|||6
1486514124.4482|||5
1486514124.58693|||5
1486514124.72463|||5
1486514124.85723|||5
1486514124.99489|||5
1486514125.1326|||5
1486514125.2693|||5
1486514125.40507|||5
1486514125.54278|||5
1486514125.67303|||4
1486514125.67303|Client|ClientRead|1
1486514125.80729|||5
1486514125.94496|||5
1486514126.08268|||5
1486514126.2203|||5
1486514126.35593|||5
1486514126.48616|||4
1486514126.48616|Client|ClientRead|1
1486514126.60275|||4
1486514126.60275|Client|ClientRead|1
1486514126.7359|||5
1486514126.8733|||5
1486514127.01109|||5
1486514127.14879|||5
1486514127.28664|||5
1486514127.42334|||5
1486514127.56118|||5
1486514127.69887|||5
1486514127.83674|||5
1486514127.83674|Client|ClientRead|1
1486514127.97513|||5
1486514128.11263|||5
1486514128.25023|||5
1486514128.38818|||5
1486514128.52396|||5
1486514128.66182|||5
1486514128.79964|||5
1486514128.93736|||5
1486514129.07509|||5
1486514129.20963|||5
1486514129.34576|||5
1486514129.48406|||5
1486514129.62179|||5
1486514129.75843|||5
1486514129.89629|||5
1486514130.033|||5
1486514130.17069|||5
1486514130.3084|||5
1486514130.44409|||5
1486514130.58186|||5
1486514130.71967|||5
1486514130.85542|||5
1486514130.99296|||5
1486514131.13068|||5
1486514131.26636|||5
1486514131.40195|||5
1486514131.53803|||6
1486514131.67573|||5
1486514131.81141|||5
1486514131.94915|||5
1486514132.08689|||5
1486514132.22462|||5
1486514132.36236|||5
1486514132.50005|||5
1486514132.63747|||5
1486514132.77412|||6
1486514132.91203|||5
1486514133.0478|||5
1486514133.18558|||5
1486514133.3233|||5
1486514133.46111|||5
1486514133.59785|||5
1486514133.73468|||4
1486514133.73468|Client|ClientRead|1
1486514133.85495|||4
1486514133.85495|Client|ClientRead|2
1486514133.98204|||5
1486514134.11981|||5
1486514134.25769|||5
1486514134.39332|||5
1486514134.53096|||5
1486514134.66874|||5
1486514134.80638|||5
1486514134.94437|||5
1486514135.08383|||5
1486514135.21817|||5
1486514135.35594|||5
1486514135.49366|||5
1486514135.6295|||5
1486514135.76723|||5
1486514135.90506|||5
1486514136.0429|||5
1486514136.18026|||5
1486514136.3175|||5
1486514136.45421|||5
1486514136.59207|||5
1486514136.72969|||5
1486514136.86523|||5
1486514137.00294|||5
1486514137.14067|||5
1486514137.2784|||5
1486514137.41179|||5
1486514137.5473|||5
1486514137.68207|||5
1486514137.82006|||5
1486514137.95785|||5
1486514138.09574|||5
1486514138.2334|||5
1486514138.3713|||5
1486514138.50932|||5
1486514138.64677|||5
1486514138.78417|||5
1486514138.92192|||5
1486514139.05979|||5
1486514139.19772|||5
1486514139.33546|||5
1486514139.47328|||5
1486514139.61105|||5
1486514139.74559|||5
1486514139.88095|||5
1486514140.01851|||5
1486514140.15549|||5
1486514140.29325|||5
1486514140.4311|||5
1486514140.56688|||5
1486514140.70462|||5
1486514140.84143|||5
1486514140.9779|||5
1486514141.1131|||5
1486514141.25075|||5
1486514141.38849|||5
1486514141.51423|Client|ClientRead|1
1486514141.51423|||4
1486514141.64842|||5
1486514141.78624|||5
1486514141.92198|||5
1486514142.0597|||5
1486514142.19325|||5
1486514142.32779|||5
1486514142.46569|||5
1486514142.60326|||5
1486514142.74017|||5
1486514142.87801|||5
1486514143.01552|||5
1486514143.1534|||5
1486514143.29117|||5
1486514143.42549|Client|ClientRead|1
1486514143.42549|||5
1486514143.56256|||5
1486514143.70033|||5
1486514143.83721|||5
1486514143.97502|||5
1486514144.11275|||5
1486514144.24848|||5
1486514144.38639|||5
1486514144.52396|||5
1486514144.64776|Client|ClientRead|2
1486514144.64776|||3
1486514144.76447|Client|ClientRead|1
1486514144.76447|||4
1486514144.88931|||4
1486514144.88931|Client|ClientRead|1
1486514145.01564|Client|ClientRead|1
1486514145.01564|||4
1486514145.12556|Client|ClientRead|1
1486514145.12556|||4
1486514145.24877|Client|ClientRead|1
1486514145.24877|||4
1486514145.36925|Client|ClientRead|1
1486514145.36925|||4
1486514145.49629|||3
1486514145.49629|Client|ClientRead|2
1486514145.62544|Client|ClientRead|1
1486514145.62544|||4
1486514145.75411|||6
1486514145.88953|||5
1486514146.02712|||5
1486514146.16394|||5
1486514146.30177|||5
1486514146.43211|Client|ClientRead|1
1486514146.43211|||4
1486514146.57081|||5
1486514146.70863|||5
1486514146.84488|||5
1486514146.98376|||5
1486514147.12149|||5
1486514147.25939|||5
1486514147.39503|||5
1486514147.53045|||5
1486514147.66827|||5
1486514147.80608|||5
1486514147.94303|||5
1486514148.07897|||5
1486514148.21674|||5
1486514148.3546|||5
1486514148.49169|||5
1486514148.62739|||5
1486514148.76527|||5
1486514148.90308|||5
1486514149.0409|||5
1486514149.17682|||5
1486514149.2994|||5
1486514149.4234|||5
1486514149.56097|||5
1486514149.6989|||5
1486514149.83657|||5
1486514149.97435|||5
1486514150.11203|||5
1486514150.24975|||5
1486514150.38756|||5
1486514150.52446|||5
1486514150.66224|||5
1486514150.79574|||5
1486514150.93342|||5
1486514151.07124|||5
1486514151.20908|||5
1486514151.34477|||5
1486514151.48256|||5
1486514151.62111|||5
1486514151.75888|||5
1486514151.89718|||5
1486514152.03506|||5
1486514152.16099|Client|ClientRead|1
1486514152.16099|||4
1486514152.29144|Client|ClientRead|1
1486514152.29144|||4
1486514152.41902|Client|ClientRead|1
1486514152.41902|||4
1486514152.53944|Client|ClientRead|1
1486514152.53944|||4
1486514152.65658|Client|ClientRead|1
1486514152.65658|||4
1486514152.79182|||5
1486514152.91613|||4
1486514152.91613|Client|ClientRead|1
1486514153.03411|Client|ClientRead|2
1486514153.03411|||3
1486514153.14793|||3
1486514153.14793|Client|ClientRead|2
1486514153.26962|||4
1486514153.26962|Client|ClientRead|1
1486514153.3914|||4
1486514153.3914|Client|ClientRead|1
1486514153.5096|Client|ClientRead|1
1486514153.5096|||4
1486514153.63546|||5
1486514153.76887|||5
1486514153.90628|||5
1486514154.04323|||5
1486514154.18069|||5
1486514154.3151|||5
1486514154.45188|||5
1486514154.58846|||5
1486514154.72608|||5
1486514154.86395|||5
1486514155.0017|||5
1486514155.13908|||6
1486514155.27146|||4
1486514155.27146|Client|ClientRead|1
1486514155.40217|Client|ClientRead|1
1486514155.40217|||4
1486514155.52045|||4
1486514155.52045|Client|ClientRead|1
1486514155.64644|||4
1486514155.64644|Client|ClientRead|1
1486514155.7808|||5
1486514155.91635|||5
1486514156.05423|||5
1486514156.19208|||5
1486514156.32318|Client|ClientRead|1
1486514156.32318|||4
1486514156.45877|||4
1486514156.45877|Client|ClientRead|1
1486514156.59003|||5
1486514156.72674|||5
1486514156.86454|||5
1486514157.0022|||5
1486514157.13994|||5
1486514157.27775|||5
1486514157.41757|||4
1486514157.41757|Client|ClientRead|1
1486514157.54112|||5
1486514157.6789|||5
1486514157.81455|||5
1486514157.94802|||5
1486514158.08585|||5
1486514158.22353|||5
1486514158.3614|||5
1486514158.49878|||5
1486514158.63608|||5
1486514158.77173|||5
1486514158.90967|||5
1486514159.04731|||5
1486514159.18409|||5
1486514159.31986|||5
1486514159.45762|||5
1486514159.59564|||5
1486514159.73339|||5
1486514159.86864|||5
1486514160.00836|||5
1486514160.14611|||5
1486514160.28382|||5
1486514160.42159|||5
1486514160.55627|||5
1486514160.69419|||5
1486514160.83188|||5
1486514160.96994|||5
1486514161.10323|||5
1486514161.24005|||5
1486514161.37685|||5
1486514161.51191|||5
1486514161.64974|||5
1486514161.78648|||5
1486514161.92218|||5
1486514162.05985|||5
1486514162.19791|||5
1486514162.33572|||5
1486514162.47353|||5
1486514162.61139|||5
1486514162.74901|||5
1486514162.88682|||5
1486514163.02256|||5
1486514163.16014|||5
1486514163.2977|||6
1486514163.42215|||4
1486514163.42215|Client|ClientRead|1
1486514163.55114|||5
1486514163.68898|||5
1486514163.80863|||5
1486514163.94643|||5
1486514164.0843|||5
1486514164.22212|||5
1486514164.35995|||5
1486514164.49659|||5
1486514164.62592|||5
1486514164.76378|||5
1486514164.90161|||5
1486514165.03926|||5
1486514165.17708|||5
1486514165.31491|||5
1486514165.45265|||5
1486514165.59025|||5
1486514165.72793|||5
1486514165.86362|||5
1486514165.99843|||5
1486514166.13405|||5
1486514166.2708|||5
1486514166.40851|||5
1486514166.54637|||5
1486514166.68424|||5
1486514166.82161|||5
1486514166.9573|Client|ClientRead|1
1486514166.9573|||4
1486514167.08413|||3
1486514167.08413|Client|ClientRead|2
1486514167.20648|Client|ClientRead|1
1486514167.20648|||4
1486514167.32352|Client|ClientRead|1
1486514167.32352|||4
1486514167.44661|Client|ClientRead|1
1486514167.44661|||4
1486514167.58287|||5
1486514167.7206|||5
1486514167.85825|||5
1486514167.9955|||5
1486514168.1336|||5
1486514168.26211|||4
1486514168.26211|Client|ClientRead|1
1486514168.38416|||5
1486514168.49619|Client|ClientRead|1
1486514168.49619|||4
1486514168.61496|||5
1486514168.73456|||4
1486514168.73456|Client|ClientRead|1
1486514168.85316|||3
1486514168.85316|Client|ClientRead|2
1486514168.97581|Client|ClientRead|1
1486514168.97581|||4
1486514169.10349|||5
1486514169.2204|||4
1486514169.2204|Client|ClientRead|2
1486514169.34479|Client|ClientRead|1
1486514169.34479|||4
1486514169.46556|||4
1486514169.46556|Client|ClientRead|1
1486514169.59484|||5
1486514169.72493|||4
1486514169.72493|Client|ClientRead|1
1486514169.84915|||4
1486514169.84915|Client|ClientRead|1
1486514169.98489|||5
1486514170.12273|||5
1486514170.26051|||5
1486514170.3922|||5
1486514170.51898|Client|ClientRead|1
1486514170.51898|||4
1486514170.64642|||5
1486514170.7842|||5
1486514170.92212|||5
1486514171.05889|||5
1486514171.19652|||5
1486514171.33331|||5
1486514171.47062|||5
1486514171.61032|||5
1486514171.7462|||5
1486514171.88388|||5
1486514172.0165|||5
1486514172.13767|||4
1486514172.13767|Client|ClientRead|1
1486514172.26457|||5
1486514172.3962|||5
1486514172.52007|||5
1486514172.65781|||5
1486514172.79561|||5
1486514172.93222|||5
1486514173.0701|||5
1486514173.20577|||5
1486514173.34354|||5
1486514173.4796|||5
1486514173.61424|||5
1486514173.7518|||5
1486514173.89022|||5
1486514174.02128|||5
1486514174.15897|||5
1486514174.29656|||5
1486514174.43242|||5
1486514174.57019|||5
1486514174.70803|||5
1486514174.84566|||5
1486514174.98346|||5
1486514175.12104|||5
1486514175.25864|||5
1486514175.3963|||5
1486514175.53404|||5
1486514175.67182|||5
1486514175.80955|||5
1486514175.94735|||5
1486514176.08205|||5
1486514176.21887|||5
1486514176.35618|||5
1486514176.492|||5
1486514176.62969|||5
1486514176.76541|||5
1486514176.90319|||5
1486514177.04211|||5
1486514177.17989|||5
1486514177.31778|||5
1486514177.45543|||6
1486514177.59099|||5
1486514177.72873|||5
1486514177.86641|||5
1486514177.99997|||5
1486514178.13782|||5
1486514178.27564|||5
1486514178.41326|||5
1486514178.55085|||5
1486514178.68659|||5
1486514178.82407|||5
1486514178.96173|||5
1486514179.09754|||5
1486514179.23522|||5
1486514179.37308|||5
1486514179.50965|||5
1486514179.64656|||5
1486514179.78223|||5
1486514179.91816|||5
1486514180.05076|||5
1486514180.1863|||5
1486514180.32393|||5
1486514180.46176|||5
1486514180.5975|||5
1486514180.7353|||5
1486514180.8731|||5
1486514181.01035|||5
1486514181.14667|||5
1486514181.28271|||5
1486514181.41944|||5
1486514181.55713|||5
1486514181.69299|||5
1486514181.83067|||5
1486514181.96839|||5
1486514182.10598|||5
1486514182.24371|||5
1486514182.37925|||5
1486514182.51712|||5
1486514182.65491|||5
1486514182.79151|||5
1486514182.92843|||5
1486514183.06629|||5
1486514183.20416|||5
1486514183.34216|||5
1486514183.47982|||5
1486514183.61751|||5
1486514183.75527|||5
1486514183.89311|||5
1486514184.03084|||5
1486514184.16874|||5
1486514184.28825|||5
1486514184.42596|||5
1486514184.56374|||5
1486514184.69922|Client|ClientRead|1
1486514184.69922|||5
1486514184.83646|||5
1486514184.97427|||5
1486514185.11107|||5
1486514185.24881|||5
1486514185.38663|||5
1486514185.52452|||5
1486514185.66251|||5
1486514185.80043|||6
1486514185.939|||5
1486514186.07646|||5
1486514186.21433|||5
1486514186.3522|||5
1486514186.48978|||5
1486514186.62958|||5
1486514186.76805|||5
1486514186.90362|||5
1486514187.03533|||5
1486514187.03533|Client|ClientRead|1
1486514187.16678|||4
1486514187.16678|Client|ClientRead|1
1486514187.28549|||5
1486514187.40911|Client|ClientRead|1
1486514187.40911|||4
1486514187.54456|||4
1486514187.54456|Client|ClientRead|1
1486514187.67016|||4
1486514187.67016|Client|ClientRead|1
1486514187.79519|||5
1486514187.93193|||5
1486514188.06969|||5
1486514188.20717|||5
1486514188.34482|||5
1486514188.48243|||5
1486514188.6202|||5
1486514188.75804|||5
1486514188.89579|||5
1486514189.03351|||5
1486514189.16943|||5
1486514189.30692|||5
1486514189.44205|||5
1486514189.57972|||5
1486514189.71763|||5
1486514189.85357|||5
1486514189.99132|||5
1486514190.12908|||5
1486514190.26666|||5
1486514190.40453|||5
1486514190.53805|||6
1486514190.67368|||5
1486514190.80934|||5
1486514190.94697|||5
1486514191.0847|||5
1486514191.21939|||5
1486514191.35724|||5
1486514191.4948|||5
1486514191.63261|||5
1486514191.77028|||5
1486514191.90365|||5
1486514192.04047|||5
1486514192.17524|||5
1486514192.31305|||5
1486514192.44993|||5
1486514192.58564|||5
1486514192.72328|||5
1486514192.86108|||5
1486514192.99635|||6
1486514193.1341|||5
1486514193.27191|||5
1486514193.40975|||5
1486514193.5455|||5
1486514193.68013|||5
1486514193.82053|||5
1486514193.95299|||5
1486514194.08987|||5
1486514194.22412|||5
1486514194.35319|||5
1486514194.47279|||5
1486514194.60732|||4
1486514194.60732|Client|ClientRead|1
1486514194.73048|||4
1486514194.73048|Client|ClientRead|1
1486514194.8691|||4
1486514194.8691|Client|ClientRead|1
1486514194.99219|||4
1486514194.99219|Client|ClientRead|1
1486514195.11234|Client|ClientRead|1
1486514195.11234|||4
1486514195.23253|Client|ClientRead|1
1486514195.23253|||4
1486514195.35226|||5
1486514195.48894|||5
1486514195.62666|||5
1486514195.76138|||5
1486514195.89897|||5
1486514196.0387|||5
1486514196.17661|||5
1486514196.31417|||5
1486514196.45349|||5
1486514196.5867|||5
1486514196.72214|||5
1486514196.85795|||5
1486514196.99554|||5
1486514197.13256|||5
1486514197.27034|||5
1486514197.40721|||5
1486514197.54014|||5
1486514197.67774|||5
1486514197.81502|||5
1486514197.95256|||5
1486514198.09036|||5
1486514198.22815|||5
1486514198.36285|||5
1486514198.50072|||5
1486514198.6385|||5
1486514198.77709|||5
1486514198.9145|||5
1486514199.05082|||5
1486514199.18427|Client|ClientRead|1
1486514199.18427|||4
1486514199.30822|||5
1486514199.4459|||5
1486514199.58368|||5
1486514199.71926|||5
1486514199.85694|||5
1486514199.99449|||5
1486514200.132|||5
1486514200.26853|||5
1486514200.40348|Client|ClientRead|1
1486514200.40348|||4
1486514200.53587|||5
1486514200.67058|||5
1486514200.80614|||5
1486514200.94404|||5
1486514201.07972|||5
1486514201.21759|||5
1486514201.35519|||6
1486514201.49264|||5
1486514201.63025|||5
1486514201.76827|||5
1486514201.90598|||5
1486514202.04364|||5
1486514202.18127|||5
1486514202.31902|||5
1486514202.45461|||5
1486514202.58032|||4
1486514202.58032|Client|ClientRead|1
1486514202.71213|Client|ClientRead|1
1486514202.71213|||4
1486514202.84553|||5
1486514202.98233|||5
1486514203.11999|||5
1486514203.25565|||5
1486514203.39125|||5
1486514203.52885|||5
1486514203.66017|||5
1486514203.78414|||5
1486514203.92188|||5
1486514204.0576|||5
1486514204.19239|||5
1486514204.33033|||5
1486514204.46816|||5
1486514204.6059|||5
1486514204.74436|||5
1486514204.88074|||5
1486514205.01713|||5
1486514205.15109|||5
1486514205.28892|||5
1486514205.42661|||5
1486514205.56423|||5
1486514205.70195|||5
1486514205.83764|||5
1486514205.97346|||6
1486514206.11091|||5
1486514206.24862|||5
1486514206.38575|||5
1486514206.5234|||5
1486514206.66113|||5
1486514206.79685|||5
1486514206.93472|||5
1486514207.0723|||5
1486514207.20997|||5
1486514207.34518|||5
1486514207.48095|||5
1486514207.61875|||5
1486514207.75331|||5
1486514207.89105|||5
1486514208.02894|||5
1486514208.16677|||5
1486514208.30449|||5
1486514208.43918|||6
1486514208.57678|||5
1486514208.71439|||5
1486514208.8522|||5
1486514208.99|||5
1486514209.12779|||5
1486514209.26565|||5
1486514209.40384|||5
1486514209.539|||6
1486514209.67827|||5
1486514209.81392|||5
1486514209.95159|||5
1486514210.08945|||5
1486514210.22717|||5
1486514210.36502|||5
1486514210.5028|||5
1486514210.63942|||5
1486514210.77667|||5
1486514210.77667|Client|ClientRead|1
1486514210.91196|||5
1486514211.04969|||5
1486514211.18658|||5
1486514211.32217|||5
1486514211.45891|||5
1486514211.5966|||5
1486514211.73421|||5
1486514211.87219|||5
1486514212.01151|Client|ClientRead|1
1486514212.01151|||5
1486514212.14693|||5
1486514212.28462|||5
1486514212.42218|||5
1486514212.56003|||5
1486514212.69775|||5
1486514212.83397|||5
1486514212.9718|||5
1486514213.10938|||5
1486514213.24671|||5
1486514213.38539|||5
1486514213.52292|||5
1486514213.66065|||5
1486514213.79633|||5
1486514213.93413|||5
1486514214.07189|||5
1486514214.20896|||5
1486514214.3464|||5
1486514214.4838|||5
1486514214.62154|||5
1486514214.75739|||5
1486514214.89513|||5
1486514215.03294|||5
1486514215.16874|||5
1486514215.30639|||5
1486514215.44303|||5
1486514215.57851|||5
1486514215.71396|||5
1486514215.85055|||5
1486514215.98857|||5
1486514216.12018|||5
1486514216.24062|||5
1486514216.37826|||5
1486514216.51411|||5
1486514216.65206|||5
1486514216.78471|||6
1486514216.92045|||5
1486514217.05836|||5
1486514217.1962|||5
1486514217.33398|||5
1486514217.47192|||5
1486514217.60982|||5
1486514217.74746|||5
1486514217.8849|||5
1486514218.0226|||5
1486514218.16037|||5
1486514218.29911|||5
1486514218.43693|||5
1486514218.57483|||5
1486514218.7127|||5
1486514218.85052|||5
1486514218.98884|||5
1486514219.12442|||6
1486514219.26184|||5
1486514219.40067|||5
1486514219.53629|||5
1486514219.67195|||5
1486514219.80967|||5
1486514219.94729|||5
1486514220.08501|||5
1486514220.22237|||5
1486514220.35944|||5
1486514220.49395|||5
1486514220.63164|||5
1486514220.76522|||5
1486514220.90314|||5
1486514221.04087|||5
1486514221.17859|||5
1486514221.3162|||5
1486514221.44846|||5
1486514221.58386|||5
1486514221.72158|||5
1486514221.85829|||5
1486514221.99601|||5
1486514222.13379|||5
1486514222.27147|||5
1486514222.41048|||5
1486514222.5483|||5
1486514222.68256|||5
1486514222.82049|||5
1486514222.9571|||5
1486514223.09285|||5
1486514223.2306|||5
1486514223.36735|Client|ClientRead|1
1486514223.36735|||4
1486514223.49512|||5
1486514223.63084|||5
1486514223.76874|||5
1486514223.90518|Client|ClientRead|1
1486514223.90518|||5
1486514224.04083|||5
1486514224.17664|||5
1486514224.31424|||5
1486514224.45202|||5
1486514224.58695|||5
1486514224.72464|||5
1486514224.86227|||5
1486514224.99992|||5
1486514225.1315|Client|ClientRead|1
1486514225.1315|||4
1486514225.26418|Client|ClientRead|1
1486514225.26418|||4
1486514225.39305|Client|ClientRead|1
1486514225.39305|||4
1486514225.51957|||4
1486514225.51957|Client|ClientRead|1
1486514225.64363|||4
1486514225.64363|Client|ClientRead|1
1486514225.77758|||5
1486514225.91542|||5
1486514226.05123|||5
1486514226.18865|Client|ClientRead|1
1486514226.18865|||5
1486514226.32415|||5
1486514226.46174|||5
1486514226.59958|||5
1486514226.73521|||5
1486514226.87302|||5
1486514227.01069|||5
1486514227.14832|||5
1486514227.28608|||5
1486514227.42186|||6
1486514227.55974|||5
1486514227.69768|||5
1486514227.83545|||5
1486514227.97115|||5
1486514228.10889|||5
1486514228.24464|||5
1486514228.38052|||5
1486514228.51798|||5
1486514228.51798|Client|ClientRead|1
1486514228.65693|||5
1486514228.79443|||5
1486514228.93219|||5
1486514229.07007|||5
1486514229.20794|||5
1486514229.34578|||5
1486514229.48053|||5
1486514229.6163|||5
1486514229.75398|||5
1486514229.88652|||5
1486514230.02625|||5
1486514230.16412|||5
1486514230.30086|||5
1486514230.43861|||5
1486514230.57545|||5
1486514230.71228|||5
1486514230.84957|||5
1486514230.98494|||5
1486514231.12221|||5
1486514231.25693|||5
1486514231.39478|||5
1486514231.52021|||5
1486514231.65591|||5
1486514231.79366|||5
1486514231.92825|||5
1486514232.06296|||6
1486514232.19998|||5
1486514232.33736|||5
1486514232.47513|||5
1486514232.61293|||5
1486514232.75083|||5
1486514232.88874|||5
1486514233.02661|||5
1486514233.16445|||5
1486514233.30194|||5
1486514233.44223|||5
1486514233.57997|||5
1486514233.71576|||5
1486514233.85364|||5
1486514233.98943|||5
1486514234.12735|||5
1486514234.26509|||5
1486514234.40294|||5
1486514234.54291|||6
1486514234.68195|||5
1486514234.81951|||5
1486514234.95759|||5
1486514235.09555|||5
1486514235.23341|||5
1486514235.37118|||5
1486514235.50888|||5
1486514235.63621|||5
1486514235.77565|||5
1486514235.91336|||5
1486514236.05108|||5
1486514236.18877|||5
1486514236.3265|||5
1486514236.46438|||5
1486514236.60211|||5
1486514236.73998|||5
1486514236.87501|||6
1486514237.00456|Client|ClientRead|2
1486514237.00456|||3
1486514237.12728|||4
1486514237.12728|Client|ClientRead|1
1486514237.25906|||5
1486514237.39469|||5
1486514237.53233|||5
1486514237.67003|||5
1486514237.80778|||5
1486514237.94347|||5
1486514238.07899|||5
1486514238.21428|||5
1486514238.35198|||5
1486514238.49001|||5
1486514238.62899|||5
1486514238.76678|||5
1486514238.90449|||5
1486514239.04287|||5
1486514239.17916|||5
1486514239.31463|||5
1486514239.45024|||5
1486514239.58792|||5
1486514239.72366|||5
1486514239.86164|||5
1486514239.9962|||5
1486514240.13396|||5
1486514240.27175|||5
1486514240.40955|||5
1486514240.54515|||5
1486514240.68286|||5
1486514240.82228|||5
1486514240.96001|||5
1486514241.09792|||5
1486514241.23579|||5
1486514241.37337|||5
1486514241.51106|||5
1486514241.63683|||5
1486514241.75507|||5
1486514241.89276|||5
1486514242.03049|||5
1486514242.16484|||5
1486514242.30246|||5
1486514242.44036|||5
1486514242.57819|||5
1486514242.71245|||6
1486514242.85029|||5
1486514242.98144|Client|ClientRead|1
1486514242.98144|||4
1486514243.11035|||4
1486514243.11035|Client|ClientRead|1
1486514243.23523|Client|ClientRead|1
1486514243.23523|||4
1486514243.35817|||5
1486514243.4811|||4
1486514243.4811|Client|ClientRead|1
1486514243.61514|||5
1486514243.75294|||5
1486514243.89144|||6
1486514244.03021|||5
1486514244.1659|||5
1486514244.30381|||5
1486514244.4405|||5
1486514244.57826|||5
1486514244.71602|||5
1486514244.85353|||5
1486514244.9917|||5
1486514245.12752|||6
1486514245.26113|||5
1486514245.3978|||5
1486514245.53581|||5
1486514245.67364|||5
1486514245.81135|||5
1486514245.94828|||5
1486514246.08619|||5
1486514246.22085|||5
1486514246.3572|||6
1486514246.49487|||5
1486514246.63271|||5
1486514246.76839|||5
1486514246.90705|||5
1486514247.04489|||5
1486514247.18269|||5
1486514247.31742|||5
1486514247.45294|||6
1486514247.59049|||5
1486514247.72839|||5
1486514247.86621|||5
1486514248.00394|||5
1486514248.14071|||5
1486514248.2784|||5
1486514248.41315|||5
1486514248.55095|||5
1486514248.68895|||5
1486514248.82651|||5
1486514248.96238|||5
1486514249.10021|||5
1486514249.23703|||5
1486514249.37491|||5
1486514249.51269|||5
1486514249.64831|||5
1486514249.78599|||5
1486514249.9236|||5
1486514250.06138|||5
1486514250.19825|||5
1486514250.33604|||5
1486514250.47386|||5
1486514250.59762|||5
1486514250.73434|||5
1486514250.8721|||5
1486514251.00995|||6
1486514251.14207|||6
1486514251.27629|||5
1486514251.41186|||5
1486514251.54956|||5
1486514251.6853|||5
1486514251.82312|||5
1486514251.96088|||5
1486514252.0992|||5
1486514252.22523|||5
1486514252.22523|Client|ClientRead|1
1486514252.33897|Client|ClientRead|1
1486514252.33897|||4
1486514252.46985|||5
1486514252.60752|||5
1486514252.74544|||5
1486514252.88325|||5
1486514253.021|||5
1486514253.158|||5
1486514253.29569|||5
1486514253.4302|||5
1486514253.56787|||5
1486514253.7057|||5
1486514253.84331|||5
1486514253.98111|||4
1486514253.98111|Client|ClientRead|1
1486514254.10316|||5
1486514254.2407|||5
1486514254.37439|||5
1486514254.51213|||5
1486514254.64615|||5
1486514254.78085|||5
1486514254.91862|||5
1486514255.05551|||5
1486514255.19342|||5
1486514255.33133|||5
1486514255.4691|||5
1486514255.60586|||5
1486514255.74143|||6
1486514255.87587|||5
1486514256.01031|||5
1486514256.1483|||5
1486514256.28605|||5
1486514256.42351|||5
1486514256.56147|||5
1486514256.69904|||5
1486514256.83661|||5
1486514256.97399|||5
1486514257.11149|||5
1486514257.24941|||5
1486514257.38729|||5
1486514257.52397|||5
1486514257.66176|||5
1486514257.79975|||5
1486514257.93759|||5
1486514258.07548|||5
1486514258.21092|||6
1486514258.34872|||5
1486514258.48674|||5
1486514258.62454|||5
1486514258.76034|||5
1486514258.89795|||5
1486514259.03274|||5
1486514259.17059|||5
1486514259.30634|||5
1486514259.44372|||5
1486514259.44372|Client|ClientRead|1
1486514259.5809|||5
1486514259.71873|||5
1486514259.85654|||5
1486514259.99018|||5
1486514260.12609|||5
1486514260.26081|||5
1486514260.3966|||5
1486514260.53215|||6
1486514260.66205|||4
1486514260.66205|Client|ClientRead|1
1486514260.78321|Client|ClientRead|1
1486514260.78321|||4
1486514260.91115|||5
1486514261.04896|||5
1486514261.18701|||5
1486514261.32483|||5
1486514261.45958|||5
1486514261.59532|||5
1486514261.7311|||6
1486514261.86676|||5
1486514262.00447|||5
1486514262.13922|||5
1486514262.27482|||5
1486514262.41424|||5
1486514262.55195|||5
1486514262.68882|||5
1486514262.82668|||5
1486514262.96099|||5
1486514263.0984|||5
1486514263.23607|||5
1486514263.37379|||5
1486514263.51148|||5
1486514263.64731|||5
1486514263.78522|||5
1486514263.92299|||5
1486514264.061|||5
1486514264.19209|||5
1486514264.32949|||5
1486514264.46611|||5
1486514264.60085|||5
1486514264.73863|||5
1486514264.8742|||5
1486514265.01196|||5
1486514265.14966|||5
1486514265.28732|||5
1486514265.28732|Client|ClientRead|1
1486514265.42236|||5
1486514265.56054|||5
1486514265.6964|||5
1486514265.83208|||5
1486514265.97004|||5
1486514266.10772|||5
1486514266.24559|||5
1486514266.38021|||5
1486514266.51654|||6
1486514266.65216|||5
1486514266.7899|||5
1486514266.92773|||5
1486514267.06533|||5
1486514267.20322|||5
1486514267.33999|||5
1486514267.47778|||5
1486514267.61566|||5
1486514267.75079|||6
1486514267.88756|||5
1486514268.02539|||5
1486514268.16103|Client|ClientRead|1
1486514268.16103|||4
1486514268.2862|||5
1486514268.42384|||5
1486514268.55939|||5
1486514268.69703|||5
1486514268.83469|||5
1486514268.96971|||5
1486514269.10417|||5
1486514269.24105|||5
1486514269.37871|||5
1486514269.51644|||5
1486514269.6533|||5
1486514269.7909|||5
1486514269.92905|||5
1486514270.06656|||6
1486514270.18806|Client|ClientRead|1
1486514270.18806|||4
1486514270.32267|||4
1486514270.32267|Client|ClientRead|1
1486514270.45936|||5
1486514270.5972|||5
1486514270.73475|||5
1486514270.87252|||5
1486514271.00733|||5
1486514271.14503|||5
1486514271.28|||6
1486514271.4179|||5
1486514271.55464|||5
1486514271.6904|||5
1486514271.82823|||5
1486514271.96604|||5
1486514272.10367|||5
1486514272.24146|||5
1486514272.37884|||5
1486514272.37884|Client|ClientRead|1
1486514272.51612|||5
1486514272.65371|||5
1486514272.7916|||5
1486514272.92929|||5
1486514273.0671|||5
1486514273.2049|||5
1486514273.34279|||5
1486514273.48046|||5
1486514273.61799|||5
1486514273.7536|||5
1486514273.88922|||5
1486514274.02722|||5
1486514274.16321|||5
1486514274.30093|||5
1486514274.43868|||5
1486514274.57653|||5
1486514274.71427|Client|ClientRead|1
1486514274.71427|||4
1486514274.83032|||4
1486514274.83032|Client|ClientRead|1
1486514274.9555|||4
1486514274.9555|Client|ClientRead|1
1486514275.07812|||4
1486514275.07812|Client|ClientRead|1
1486514275.20512|||4
1486514275.20512|Client|ClientRead|1
1486514275.33907|||5
1486514275.47685|||5
1486514275.6136|||5
1486514275.75142|||5
1486514275.88722|||6
1486514276.02124|||5
1486514276.14965|||5
1486514276.28749|||5
1486514276.42543|||5
1486514276.56305|||5
1486514276.70082|||5
1486514276.83864|||5
1486514276.97643|||5
1486514277.11432|||6
1486514277.25195|||5
1486514277.38982|||5
1486514277.52556|||5
1486514277.6634|||5
1486514277.79917|||5
1486514277.93705|||5
1486514278.07378|||5
1486514278.1977|||5
1486514278.33527|||6
1486514278.47309|||5
1486514278.60782|||5
1486514278.74561|||5
1486514278.88328|||5
1486514279.02114|||5
1486514279.15894|||5
1486514279.29689|||5
1486514279.43451|||5
1486514279.56749|||6
1486514279.68724|||4
1486514279.68724|Client|ClientRead|1
1486514279.80915|Client|ClientRead|1
1486514279.80915|||4
1486514279.93064|||5
1486514280.06851|||5
1486514280.2064|||5
1486514280.34207|||5
1486514280.47973|||5
1486514280.61543|||5
1486514280.74987|||5
1486514280.88636|||5
1486514281.02401|||5
1486514281.16085|||5
1486514281.2986|||5
1486514281.43625|||5
1486514281.5741|||5
1486514281.71185|||5
1486514281.85012|||6
1486514281.98323|Client|ClientRead|1
1486514281.98323|||4
1486514282.10354|Client|ClientRead|1
1486514282.10354|||4
1486514282.22985|||5
1486514282.3572|||5
1486514282.49497|||5
1486514282.63268|||5
1486514282.76953|||5
1486514282.90762|||5
1486514283.04498|||5
1486514283.17927|||5
1486514283.3169|||5
1486514283.45484|||5
1486514283.59263|||5
1486514283.72832|||5
1486514283.86496|||5
1486514284.00268|||5
1486514284.14021|||5
1486514284.27751|||5
1486514284.41516|||5
1486514284.55326|||5
1486514284.68795|||5
1486514284.82375|||5
1486514284.95114|||5
1486514285.08877|||5
1486514285.22657|||5
1486514285.36328|||6
1486514285.50109|||5
1486514285.63879|||5
1486514285.7748|||5
1486514285.91157|||5
1486514286.04924|||5
1486514286.18709|||5
1486514286.32502|||5
1486514286.46199|||5
1486514286.59756|||6
1486514286.73546|||5
1486514286.87314|||5
1486514287.01083|||5
1486514287.14872|||5
1486514287.28702|||5
1486514287.4248|||5
1486514287.56276|||5
1486514287.69846|||5
1486514287.83581|||5
1486514287.97311|||5
1486514288.10888|||5
1486514288.24701|||5
1486514288.38478|||5
1486514288.52263|||5
1486514288.66033|||5
1486514288.79807|||5
1486514288.93567|||5
1486514289.07227|||5
1486514289.20903|||5
1486514289.34461|||5
1486514289.4804|||5
1486514289.61611|||5
1486514289.75386|||5
1486514289.89164|||5
1486514290.02723|||5
1486514290.16506|||6
1486514290.30274|||5
1486514290.44071|||5
1486514290.57543|||5
1486514290.71295|||5
1486514290.84866|||5
1486514290.98373|||5
1486514291.12155|||5
1486514291.25711|||5
1486514291.39138|||5
1486514291.52549|||5
1486514291.66231|||5
1486514291.80016|||5
1486514291.93801|||5
1486514292.07382|||5
1486514292.20977|||5
1486514292.34761|||5
1486514292.48335|||5
1486514292.61856|||5
1486514292.75569|||5
1486514292.89374|||5
1486514293.03154|||5
1486514293.16629|||5
1486514293.27661|||5
1486514293.38925|||4
1486514293.38925|Client|ClientRead|1
1486514293.51663|Client|ClientRead|1
1486514293.51663|||4
1486514293.64169|||4
1486514293.64169|Client|ClientRead|1
1486514293.75319|||5
1486514293.86216|||5
1486514293.98257|||4
1486514293.98257|Client|ClientRead|1
1486514294.11323|||4
1486514294.11323|Client|ClientRead|1
1486514294.24311|||5
1486514294.38068|||5
1486514294.51755|||5
1486514294.65247|||5
1486514294.78867|||6
1486514294.92332|||6
1486514295.05833|||5
1486514295.19507|||5
1486514295.33283|||5
1486514295.47051|||5
1486514295.60853|||5
1486514295.74735|||5
1486514295.88514|||5
1486514296.02086|||6
1486514296.15826|||5
1486514296.29617|||5
1486514296.43403|||5
1486514296.57197|||5
1486514296.70981|||5
1486514296.84767|||5
1486514296.98327|||5
1486514297.12106|||5
1486514297.25398|||5
1486514297.39179|||5
1486514297.5294|||5
1486514297.66701|||5
1486514297.8037|||5
1486514297.94157|||5
1486514298.07058|Client|ClientRead|1
1486514298.07058|||4
1486514298.19511|||5
1486514298.33301|||6
1486514298.47045|||5
1486514298.60789|||5
1486514298.74569|||5
1486514298.88032|||5
1486514299.01808|||5
1486514299.15288|||5
1486514299.29057|||5
1486514299.42876|||5
1486514299.55703|||6
1486514299.68017|||4
1486514299.68017|Client|ClientRead|1
1486514299.80338|||5
1486514299.92764|Client|ClientRead|1
1486514299.92764|||4
1486514300.06058|||4
1486514300.06058|Client|ClientRead|1
1486514300.17456|Client|ClientRead|1
1486514300.17456|||4
1486514300.29553|Client|ClientRead|1
1486514300.29553|||4
1486514300.41317|Client|ClientRead|1
1486514300.41317|||4
1486514300.53257|||4
1486514300.53257|Client|ClientRead|1
1486514300.66495|||5
1486514300.66495|Client|ClientRead|1
1486514300.79727|||5
1486514300.92356|||4
1486514300.92356|Client|ClientRead|1
1486514301.04486|Client|ClientRead|1
1486514301.04486|||4
1486514301.17298|||4
1486514301.17298|Client|ClientRead|1
1486514301.29648|Client|ClientRead|1
1486514301.29648|||4
1486514301.42067|||3
1486514301.42067|Client|ClientRead|2
1486514301.54507|||2
1486514301.54507|Client|ClientRead|3
1486514301.66117|Client|ClientRead|1
1486514301.66117|||4
1486514301.78798|||5
1486514301.78798|Client|ClientRead|1
1486514301.90905|Client|ClientRead|2
1486514301.90905|||3
1486514302.02249|||4
1486514302.02249|Client|ClientRead|1
1486514302.14441|||4
1486514302.14441|Client|ClientRead|1
1486514302.26903|Client|ClientRead|1
1486514302.26903|||4
1486514302.40314|||5
1486514302.53886|||5
1486514302.67675|||5
1486514302.81461|||5
1486514302.94924|||5
1486514302.94924|Client|ClientRead|1
1486514303.08665|||5
1486514303.22232|||5
1486514303.36014|||5
1486514303.49783|||5
1486514303.63567|||5
1486514303.77163|||5
1486514303.90937|||5
1486514304.04714|||5
1486514304.18293|Client|ClientRead|1
1486514304.18293|||5
1486514304.31745|Client|ClientRead|1
1486514304.31745|||4
1486514304.447|||5
1486514304.58505|||5
1486514304.72282|||5
1486514304.86101|||5
1486514304.99859|||5
1486514305.13629|||5
1486514305.27453|||5
1486514305.40948|||5
1486514305.54856|||5
1486514305.68436|||5
1486514305.82214|||5
1486514305.95985|||5
1486514306.09706|||5
1486514306.235|||5
1486514306.37282|||5
1486514306.51126|||5
1486514306.64554|||5
1486514306.78325|||5
1486514306.91899|||5
1486514307.05672|||5
1486514307.19448|||5
1486514307.33219|||5
1486514307.47005|||5
1486514307.6069|||5
1486514307.74105|||5
1486514307.8776|||5
1486514308.01523|||5
1486514308.15299|||5
1486514308.29068|||5
1486514308.42643|||5
1486514308.56427|||5
1486514308.70191|||5
1486514308.83911|||6
1486514308.97681|||5
1486514309.11467|||5
1486514309.2503|||5
1486514309.38802|||5
1486514309.52564|||5
1486514309.66342|||5
1486514309.80102|||5
1486514309.93884|||5
1486514310.07537|||5
1486514310.21195|||5
1486514310.34959|||5
1486514310.48801|||5
1486514310.62571|||5
1486514310.7635|||5
1486514310.90133|||5
1486514311.03915|||5
1486514311.17704|||5
1486514311.31483|||6
1486514311.45274|||5
1486514311.59073|||5
1486514311.72839|||5
1486514311.86626|||5
1486514312.00389|||5
1486514312.14165|||5
1486514312.27969|||5
1486514312.41648|||5
1486514312.55252|||5
1486514312.69015|||5
1486514312.82582|||5
1486514312.96374|||5
1486514313.09853|||5
1486514313.23431|||5
1486514313.36898|||5
1486514313.50673|||5
1486514313.64242|Client|ClientRead|1
1486514313.64242|||5
1486514313.78015|||5
1486514313.9179|||5
1486514314.05582|||5
1486514314.19369|||5
1486514314.33145|||5
1486514314.46928|||5
1486514314.60595|||5
1486514314.74386|||5
1486514314.87897|||6
1486514315.01653|||5
1486514315.1512|||5
1486514315.26701|||4
1486514315.26701|Client|ClientRead|1
1486514315.40007|||4
1486514315.40007|Client|ClientRead|1
1486514315.53474|||5
1486514315.67263|||5
1486514315.81033|||5
1486514315.94809|||5
1486514316.08548|||5
1486514316.22318|||5
1486514316.36095|||5
1486514316.48057|||5
1486514316.6183|||5
1486514316.75621|||5
1486514316.89398|||5
1486514317.03168|||5
1486514317.16946|||5
1486514317.30495|||6
1486514317.44263|||5
1486514317.57829|||5
1486514317.71592|||5
1486514317.85369|||5
1486514317.98752|||5
1486514318.12541|||5
1486514318.26326|||5
1486514318.39981|||5
1486514318.52759|Client|ClientRead|1
1486514318.52759|||4
1486514318.66361|||4
1486514318.66361|Client|ClientRead|1
1486514318.79496|||4
1486514318.79496|Client|ClientRead|1
1486514318.91953|||4
1486514318.91953|Client|ClientRead|1
1486514319.04759|||5
1486514319.18547|||5
1486514319.32331|||5
1486514319.46004|||5
1486514319.59752|||5
1486514319.73168|||5
1486514319.86941|||5
1486514320.00709|||5
1486514320.14494|||5
1486514320.28263|||5
1486514320.41868|||5
1486514320.55631|||5
1486514320.69142|||5
1486514320.8247|||5
1486514320.96222|||5
1486514321.09984|||5
1486514321.2377|||5
1486514321.37556|||5
1486514321.51222|||5
1486514321.64805|||5
1486514321.78582|||5
1486514321.9226|||5
1486514322.05887|||5
1486514322.19649|||5
1486514322.33415|||5
1486514322.47179|||5
1486514322.60956|||5
1486514322.7446|||5
1486514322.88236|||5
1486514323.0201|||5
1486514323.15808|||5
1486514323.29201|||5
1486514323.42715|||5
1486514323.56483|||5
1486514323.70174|||4
1486514323.70174|Client|ClientRead|1
1486514323.83378|||5
1486514323.97161|||5
1486514324.10928|||5
1486514324.24692|||5
1486514324.38417|||5
1486514324.38417|Client|ClientRead|1
1486514324.52153|||5
1486514324.65922|||5
1486514324.7972|||5
1486514324.93505|||5
1486514325.07278|||5
1486514325.21081|||5
1486514325.3486|||5
1486514325.48582|||6
1486514325.62087|||5
1486514325.75761|||5
1486514325.89542|||5
1486514326.03311|||5
1486514326.17086|||5
1486514326.30881|||5
1486514326.4482|||5
1486514326.58607|||5
1486514326.72351|||5
1486514326.72351|Client|ClientRead|1
1486514326.85443|||5
1486514326.98083|||4
1486514326.98083|Client|ClientRead|1
1486514327.11322|||4
1486514327.11322|Client|ClientRead|1
1486514327.24845|||4
1486514327.24845|Client|ClientRead|1
1486514327.36857|||4
1486514327.36857|Client|ClientRead|1
1486514327.49908|Client|ClientRead|1
1486514327.49908|||4
1486514327.63462|||5
1486514327.77059|||5
1486514327.90826|||5
1486514328.04361|||5
1486514328.1793|||5
1486514328.31303|||5
1486514328.45067|||5
1486514328.58631|||5
1486514328.72193|||5
1486514328.8598|||5
1486514328.99696|||5
1486514329.13277|||5
1486514329.27217|||5
1486514329.41015|||5
1486514329.54928|||5
1486514329.68718|||5
1486514329.82492|||5
1486514329.96275|||5
1486514330.10059|||5
1486514330.23839|||5
1486514330.23839|Client|ClientRead|1
1486514330.37622|||5
1486514330.51393|||5
1486514330.65077|||5
1486514330.78766|||5
1486514330.92555|||5
1486514331.06131|||5
1486514331.19905|||5
1486514331.33712|||5
1486514331.47349|Client|ClientRead|1
1486514331.47349|||5
1486514331.61072|||5
1486514331.74847|||5
1486514331.88423|||5
1486514332.0219|||5
1486514332.15973|||5
1486514332.29765|||5
1486514332.43556|||5
1486514332.57144|||5
1486514332.70737|||5
1486514332.84249|||5
1486514332.98037|||5
1486514333.11808|||5
1486514333.25604|||5
1486514333.39383|||5
1486514333.5306|||5
1486514333.66657|||5
1486514333.80248|||5
1486514333.9398|||5
1486514334.07533|||5
1486514334.21323|||5
1486514334.34799|||5
1486514334.48365|||5
1486514334.62129|||5
1486514334.75919|||5
1486514334.89687|||5
1486514335.03224|||5
1486514335.16764|||5
1486514335.30539|||5
1486514335.44319|||5
1486514335.58084|||5
1486514335.71861|||5
1486514335.85625|||5
1486514335.99407|||5
1486514336.13196|||5
1486514336.2635|||4
1486514336.2635|Client|ClientRead|1
1486514336.39584|||4
1486514336.39584|Client|ClientRead|1
1486514336.5327|||5
1486514336.66712|||5
1486514336.80484|||5
1486514336.94275|||5
1486514337.08065|||5
1486514337.20112|||4
1486514337.20112|Client|ClientRead|1
1486514337.33051|||5
1486514337.33051|Client|ClientRead|1
1486514337.45053|||4
1486514337.45053|Client|ClientRead|1
1486514337.58509|||5
1486514337.72068|||5
1486514337.8585|||5
1486514337.99614|||5
1486514338.13389|||5
1486514338.27152|||5
1486514338.40937|||5
1486514338.54717|||6
1486514338.68485|||5
1486514338.82258|||5
1486514338.95931|||5
1486514339.09697|||5
1486514339.23355|||5
1486514339.37135|||5
1486514339.50902|||5
1486514339.64668|||5
1486514339.64668|Client|ClientRead|1
1486514339.78465|Client|ClientRead|1
1486514339.78465|||5
1486514339.92016|||5
1486514340.05585|||5
1486514340.19576|||5
1486514340.3335|||5
1486514340.46947|||5
1486514340.60726|||5
1486514340.74409|||5
1486514340.87954|||6
1486514341.01726|||5
1486514341.15486|||5
1486514341.2926|||5
1486514341.43023|||5
1486514341.56793|||5
1486514341.70476|||5
1486514341.84238|||5
1486514341.97598|||5
1486514342.11103|Client|ClientRead|1
1486514342.11103|||5
1486514342.2489|||5
1486514342.38589|||5
1486514342.52385|||5
1486514342.66168|||5
1486514342.79938|||5
1486514342.93621|||5
1486514343.07421|||5
1486514343.21184|||5
1486514343.34446|||5
1486514343.48173|||5
1486514343.61952|||5
1486514343.7573|||5
1486514343.89513|||5
1486514344.03291|||5
1486514344.17085|||5
1486514344.30874|||5
1486514344.44622|||5
1486514344.58392|||5
1486514344.71968|||5
1486514344.85646|||5
1486514344.97665|||5
1486514345.11444|||5
1486514345.25224|||5
1486514345.39011|||5
1486514345.52574|||5
1486514345.6633|||5
1486514345.79986|||5
1486514345.9356|||5
1486514346.0712|||5
1486514346.20797|||5
1486514346.34585|||5
1486514346.48367|||5
1486514346.61945|||5
1486514346.75717|||5
1486514346.88822|Client|ClientRead|1
1486514346.88822|||4
1486514347.00956|||4
1486514347.00956|Client|ClientRead|1
1486514347.12715|||4
1486514347.12715|Client|ClientRead|1
1486514347.24225|||3
1486514347.24225|Client|ClientRead|2
1486514347.36989|||5
1486514347.49411|||4
1486514347.49411|Client|ClientRead|1
1486514347.61802|||4
1486514347.61802|Client|ClientRead|1
1486514347.74349|||4
1486514347.74349|Client|ClientRead|1
1486514347.87979|||4
1486514347.87979|Client|ClientRead|1
1486514348.01746|||5
1486514348.15536|||5
1486514348.29328|||5
1486514348.43093|||5
1486514348.5688|||5
1486514348.70664|||5
1486514348.84124|||5
1486514348.96889|||5
1486514349.10663|||5
1486514349.23195|||4
1486514349.23195|Client|ClientRead|1
1486514349.35527|||4
1486514349.35527|Client|ClientRead|1
1486514349.48|||4
1486514349.48|Client|ClientRead|1
1486514349.60529|||5
1486514349.73426|||4
1486514349.73426|Client|ClientRead|1
1486514349.85722|||4
1486514349.85722|Client|ClientRead|1
1486514349.98038|Client|ClientRead|2
1486514349.98038|||3
1486514350.10083|Client|ClientRead|1
1486514350.10083|||4
1486514350.2194|Client|ClientRead|1
1486514350.2194|||5
1486514350.34215|Client|ClientRead|1
1486514350.34215|||4
1486514350.47125|||5
