 2017-02-09 04:50:29.968346+01 | 1486612229.96835 | pgbench_accounts |       4028858368
 2017-02-09 04:50:29.968346+01 | 1486612229.96835 | pgbench_tellers  |           139264
 2017-02-09 04:50:29.968346+01 | 1486612229.96835 | pgbench_history  |                0
 2017-02-09 04:50:29.968346+01 | 1486612229.96835 | pgbench_branches |            16384

 2017-02-09 04:50:31.149331+01 | 1486612231.14933 | pgbench_accounts |       4028858368
 2017-02-09 04:50:31.149331+01 | 1486612231.14933 | pgbench_tellers  |           139264
 2017-02-09 04:50:31.149331+01 | 1486612231.14933 | pgbench_history  |                0
 2017-02-09 04:50:31.149331+01 | 1486612231.14933 | pgbench_branches |            16384

 2017-02-09 04:50:32.300432+01 | 1486612232.30043 | pgbench_accounts |       4028858368
 2017-02-09 04:50:32.300432+01 | 1486612232.30043 | pgbench_tellers  |           139264
 2017-02-09 04:50:32.300432+01 | 1486612232.30043 | pgbench_history  |                0
 2017-02-09 04:50:32.300432+01 | 1486612232.30043 | pgbench_branches |            16384

 2017-02-09 04:50:33.476356+01 | 1486612233.47636 | pgbench_accounts |       4028858368
 2017-02-09 04:50:33.476356+01 | 1486612233.47636 | pgbench_tellers  |           139264
 2017-02-09 04:50:33.476356+01 | 1486612233.47636 | pgbench_history  |                0
 2017-02-09 04:50:33.476356+01 | 1486612233.47636 | pgbench_branches |            16384

 2017-02-09 04:50:34.658983+01 | 1486612234.65898 | pgbench_accounts |       4028858368
 2017-02-09 04:50:34.658983+01 | 1486612234.65898 | pgbench_tellers  |           139264
 2017-02-09 04:50:34.658983+01 | 1486612234.65898 | pgbench_history  |                0
 2017-02-09 04:50:34.658983+01 | 1486612234.65898 | pgbench_branches |            16384

 2017-02-09 04:50:35.841315+01 | 1486612235.84132 | pgbench_accounts |       4028858368
 2017-02-09 04:50:35.841315+01 | 1486612235.84132 | pgbench_tellers  |           139264
 2017-02-09 04:50:35.841315+01 | 1486612235.84132 | pgbench_history  |                0
 2017-02-09 04:50:35.841315+01 | 1486612235.84132 | pgbench_branches |            16384

 2017-02-09 04:50:37.02561+01 | 1486612237.02561 | pgbench_accounts |       4028858368
 2017-02-09 04:50:37.02561+01 | 1486612237.02561 | pgbench_tellers  |           139264
 2017-02-09 04:50:37.02561+01 | 1486612237.02561 | pgbench_history  |                0
 2017-02-09 04:50:37.02561+01 | 1486612237.02561 | pgbench_branches |            16384

 2017-02-09 04:50:38.208372+01 | 1486612238.20837 | pgbench_accounts |       4028858368
 2017-02-09 04:50:38.208372+01 | 1486612238.20837 | pgbench_tellers  |           139264
 2017-02-09 04:50:38.208372+01 | 1486612238.20837 | pgbench_history  |                0
 2017-02-09 04:50:38.208372+01 | 1486612238.20837 | pgbench_branches |            16384

 2017-02-09 04:50:39.388021+01 | 1486612239.38802 | pgbench_accounts |       4028858368
 2017-02-09 04:50:39.388021+01 | 1486612239.38802 | pgbench_tellers  |           139264
 2017-02-09 04:50:39.388021+01 | 1486612239.38802 | pgbench_history  |                0
 2017-02-09 04:50:39.388021+01 | 1486612239.38802 | pgbench_branches |            16384

 2017-02-09 04:50:40.563086+01 | 1486612240.56309 | pgbench_accounts |       4028858368
 2017-02-09 04:50:40.563086+01 | 1486612240.56309 | pgbench_tellers  |           139264
 2017-02-09 04:50:40.563086+01 | 1486612240.56309 | pgbench_history  |                0
 2017-02-09 04:50:40.563086+01 | 1486612240.56309 | pgbench_branches |            16384

 2017-02-09 04:50:41.680272+01 | 1486612241.68027 | pgbench_accounts |       4028858368
 2017-02-09 04:50:41.680272+01 | 1486612241.68027 | pgbench_tellers  |           139264
 2017-02-09 04:50:41.680272+01 | 1486612241.68027 | pgbench_history  |                0
 2017-02-09 04:50:41.680272+01 | 1486612241.68027 | pgbench_branches |            16384

 2017-02-09 04:50:42.805389+01 | 1486612242.80539 | pgbench_accounts |       4028858368
 2017-02-09 04:50:42.805389+01 | 1486612242.80539 | pgbench_tellers  |           139264
 2017-02-09 04:50:42.805389+01 | 1486612242.80539 | pgbench_history  |                0
 2017-02-09 04:50:42.805389+01 | 1486612242.80539 | pgbench_branches |            16384

 2017-02-09 04:50:43.9722+01 | 1486612243.9722 | pgbench_accounts |       4028858368
 2017-02-09 04:50:43.9722+01 | 1486612243.9722 | pgbench_tellers  |           139264
 2017-02-09 04:50:43.9722+01 | 1486612243.9722 | pgbench_history  |                0
 2017-02-09 04:50:43.9722+01 | 1486612243.9722 | pgbench_branches |            16384

 2017-02-09 04:50:45.156373+01 | 1486612245.15637 | pgbench_accounts |       4028858368
 2017-02-09 04:50:45.156373+01 | 1486612245.15637 | pgbench_tellers  |           139264
 2017-02-09 04:50:45.156373+01 | 1486612245.15637 | pgbench_history  |                0
 2017-02-09 04:50:45.156373+01 | 1486612245.15637 | pgbench_branches |            16384

 2017-02-09 04:50:46.337446+01 | 1486612246.33745 | pgbench_accounts |       4028858368
 2017-02-09 04:50:46.337446+01 | 1486612246.33745 | pgbench_tellers  |           139264
 2017-02-09 04:50:46.337446+01 | 1486612246.33745 | pgbench_history  |                0
 2017-02-09 04:50:46.337446+01 | 1486612246.33745 | pgbench_branches |            16384

 2017-02-09 04:50:47.521781+01 | 1486612247.52178 | pgbench_accounts |       4028858368
 2017-02-09 04:50:47.521781+01 | 1486612247.52178 | pgbench_tellers  |           139264
 2017-02-09 04:50:47.521781+01 | 1486612247.52178 | pgbench_history  |                0
 2017-02-09 04:50:47.521781+01 | 1486612247.52178 | pgbench_branches |            16384

 2017-02-09 04:50:48.703336+01 | 1486612248.70334 | pgbench_accounts |       4028858368
 2017-02-09 04:50:48.703336+01 | 1486612248.70334 | pgbench_tellers  |           139264
 2017-02-09 04:50:48.703336+01 | 1486612248.70334 | pgbench_history  |                0
 2017-02-09 04:50:48.703336+01 | 1486612248.70334 | pgbench_branches |            16384

 2017-02-09 04:50:49.886432+01 | 1486612249.88643 | pgbench_accounts |       4028858368
 2017-02-09 04:50:49.886432+01 | 1486612249.88643 | pgbench_tellers  |           139264
 2017-02-09 04:50:49.886432+01 | 1486612249.88643 | pgbench_history  |                0
 2017-02-09 04:50:49.886432+01 | 1486612249.88643 | pgbench_branches |            16384

 2017-02-09 04:50:51.069403+01 | 1486612251.0694 | pgbench_accounts |       4028858368
 2017-02-09 04:50:51.069403+01 | 1486612251.0694 | pgbench_tellers  |           139264
 2017-02-09 04:50:51.069403+01 | 1486612251.0694 | pgbench_history  |                0
 2017-02-09 04:50:51.069403+01 | 1486612251.0694 | pgbench_branches |            16384

 2017-02-09 04:50:52.250832+01 | 1486612252.25083 | pgbench_accounts |       4028858368
 2017-02-09 04:50:52.250832+01 | 1486612252.25083 | pgbench_tellers  |           139264
 2017-02-09 04:50:52.250832+01 | 1486612252.25083 | pgbench_history  |                0
 2017-02-09 04:50:52.250832+01 | 1486612252.25083 | pgbench_branches |            16384

 2017-02-09 04:50:53.426144+01 | 1486612253.42614 | pgbench_accounts |       4028858368
 2017-02-09 04:50:53.426144+01 | 1486612253.42614 | pgbench_tellers  |           139264
 2017-02-09 04:50:53.426144+01 | 1486612253.42614 | pgbench_history  |                0
 2017-02-09 04:50:53.426144+01 | 1486612253.42614 | pgbench_branches |            16384

 2017-02-09 04:50:54.551782+01 | 1486612254.55178 | pgbench_accounts |       4028858368
 2017-02-09 04:50:54.551782+01 | 1486612254.55178 | pgbench_tellers  |           139264
 2017-02-09 04:50:54.551782+01 | 1486612254.55178 | pgbench_history  |                0
 2017-02-09 04:50:54.551782+01 | 1486612254.55178 | pgbench_branches |            16384

 2017-02-09 04:50:55.654453+01 | 1486612255.65445 | pgbench_accounts |       4028858368
 2017-02-09 04:50:55.654453+01 | 1486612255.65445 | pgbench_tellers  |           139264
 2017-02-09 04:50:55.654453+01 | 1486612255.65445 | pgbench_history  |                0
 2017-02-09 04:50:55.654453+01 | 1486612255.65445 | pgbench_branches |            16384

 2017-02-09 04:50:56.793135+01 | 1486612256.79313 | pgbench_accounts |       4028858368
 2017-02-09 04:50:56.793135+01 | 1486612256.79313 | pgbench_tellers  |           139264
 2017-02-09 04:50:56.793135+01 | 1486612256.79313 | pgbench_history  |                0
 2017-02-09 04:50:56.793135+01 | 1486612256.79313 | pgbench_branches |            16384

 2017-02-09 04:50:57.93837+01 | 1486612257.93837 | pgbench_accounts |       4028858368
 2017-02-09 04:50:57.93837+01 | 1486612257.93837 | pgbench_tellers  |           139264
 2017-02-09 04:50:57.93837+01 | 1486612257.93837 | pgbench_history  |                0
 2017-02-09 04:50:57.93837+01 | 1486612257.93837 | pgbench_branches |            16384

 2017-02-09 04:50:59.054506+01 | 1486612259.05451 | pgbench_accounts |       4028858368
 2017-02-09 04:50:59.054506+01 | 1486612259.05451 | pgbench_tellers  |           139264
 2017-02-09 04:50:59.054506+01 | 1486612259.05451 | pgbench_history  |                0
 2017-02-09 04:50:59.054506+01 | 1486612259.05451 | pgbench_branches |            16384

 2017-02-09 04:51:00.218686+01 | 1486612260.21869 | pgbench_accounts |       4028858368
 2017-02-09 04:51:00.218686+01 | 1486612260.21869 | pgbench_tellers  |           139264
 2017-02-09 04:51:00.218686+01 | 1486612260.21869 | pgbench_history  |                0
 2017-02-09 04:51:00.218686+01 | 1486612260.21869 | pgbench_branches |            16384

 2017-02-09 04:51:01.401278+01 | 1486612261.40128 | pgbench_accounts |       4028858368
 2017-02-09 04:51:01.401278+01 | 1486612261.40128 | pgbench_tellers  |           139264
 2017-02-09 04:51:01.401278+01 | 1486612261.40128 | pgbench_history  |                0
 2017-02-09 04:51:01.401278+01 | 1486612261.40128 | pgbench_branches |            16384

 2017-02-09 04:51:02.578555+01 | 1486612262.57856 | pgbench_accounts |       4028858368
 2017-02-09 04:51:02.578555+01 | 1486612262.57856 | pgbench_tellers  |           139264
 2017-02-09 04:51:02.578555+01 | 1486612262.57856 | pgbench_history  |                0
 2017-02-09 04:51:02.578555+01 | 1486612262.57856 | pgbench_branches |            16384

 2017-02-09 04:51:03.717382+01 | 1486612263.71738 | pgbench_accounts |       4028858368
 2017-02-09 04:51:03.717382+01 | 1486612263.71738 | pgbench_tellers  |           139264
 2017-02-09 04:51:03.717382+01 | 1486612263.71738 | pgbench_history  |                0
 2017-02-09 04:51:03.717382+01 | 1486612263.71738 | pgbench_branches |            16384

 2017-02-09 04:51:04.840456+01 | 1486612264.84046 | pgbench_accounts |       4028858368
 2017-02-09 04:51:04.840456+01 | 1486612264.84046 | pgbench_tellers  |           139264
 2017-02-09 04:51:04.840456+01 | 1486612264.84046 | pgbench_history  |                0
 2017-02-09 04:51:04.840456+01 | 1486612264.84046 | pgbench_branches |            16384

 2017-02-09 04:51:05.972267+01 | 1486612265.97227 | pgbench_accounts |       4028858368
 2017-02-09 04:51:05.972267+01 | 1486612265.97227 | pgbench_tellers  |           139264
 2017-02-09 04:51:05.972267+01 | 1486612265.97227 | pgbench_history  |                0
 2017-02-09 04:51:05.972267+01 | 1486612265.97227 | pgbench_branches |            16384

 2017-02-09 04:51:07.133869+01 | 1486612267.13387 | pgbench_accounts |       4028858368
 2017-02-09 04:51:07.133869+01 | 1486612267.13387 | pgbench_tellers  |           139264
 2017-02-09 04:51:07.133869+01 | 1486612267.13387 | pgbench_history  |                0
 2017-02-09 04:51:07.133869+01 | 1486612267.13387 | pgbench_branches |            16384

 2017-02-09 04:51:08.32088+01 | 1486612268.32088 | pgbench_accounts |       4028858368
 2017-02-09 04:51:08.32088+01 | 1486612268.32088 | pgbench_tellers  |           139264
 2017-02-09 04:51:08.32088+01 | 1486612268.32088 | pgbench_history  |                0
 2017-02-09 04:51:08.32088+01 | 1486612268.32088 | pgbench_branches |            16384

 2017-02-09 04:51:09.483173+01 | 1486612269.48317 | pgbench_accounts |       4028858368
 2017-02-09 04:51:09.483173+01 | 1486612269.48317 | pgbench_tellers  |           139264
 2017-02-09 04:51:09.483173+01 | 1486612269.48317 | pgbench_history  |                0
 2017-02-09 04:51:09.483173+01 | 1486612269.48317 | pgbench_branches |            16384

 2017-02-09 04:51:10.652685+01 | 1486612270.65268 | pgbench_accounts |       4028858368
 2017-02-09 04:51:10.652685+01 | 1486612270.65268 | pgbench_tellers  |           139264
 2017-02-09 04:51:10.652685+01 | 1486612270.65268 | pgbench_history  |                0
 2017-02-09 04:51:10.652685+01 | 1486612270.65268 | pgbench_branches |            16384

 2017-02-09 04:51:11.835939+01 | 1486612271.83594 | pgbench_accounts |       4028858368
 2017-02-09 04:51:11.835939+01 | 1486612271.83594 | pgbench_tellers  |           139264
 2017-02-09 04:51:11.835939+01 | 1486612271.83594 | pgbench_history  |                0
 2017-02-09 04:51:11.835939+01 | 1486612271.83594 | pgbench_branches |            16384

 2017-02-09 04:51:13.019111+01 | 1486612273.01911 | pgbench_accounts |       4028858368
 2017-02-09 04:51:13.019111+01 | 1486612273.01911 | pgbench_tellers  |           139264
 2017-02-09 04:51:13.019111+01 | 1486612273.01911 | pgbench_history  |                0
 2017-02-09 04:51:13.019111+01 | 1486612273.01911 | pgbench_branches |            16384

 2017-02-09 04:51:14.199523+01 | 1486612274.19952 | pgbench_accounts |       4028858368
 2017-02-09 04:51:14.199523+01 | 1486612274.19952 | pgbench_tellers  |           139264
 2017-02-09 04:51:14.199523+01 | 1486612274.19952 | pgbench_history  |                0
 2017-02-09 04:51:14.199523+01 | 1486612274.19952 | pgbench_branches |            16384

 2017-02-09 04:51:15.382508+01 | 1486612275.38251 | pgbench_accounts |       4028858368
 2017-02-09 04:51:15.382508+01 | 1486612275.38251 | pgbench_tellers  |           139264
 2017-02-09 04:51:15.382508+01 | 1486612275.38251 | pgbench_history  |                0
 2017-02-09 04:51:15.382508+01 | 1486612275.38251 | pgbench_branches |            16384

 2017-02-09 04:51:16.566106+01 | 1486612276.56611 | pgbench_accounts |       4028858368
 2017-02-09 04:51:16.566106+01 | 1486612276.56611 | pgbench_tellers  |           139264
 2017-02-09 04:51:16.566106+01 | 1486612276.56611 | pgbench_history  |                0
 2017-02-09 04:51:16.566106+01 | 1486612276.56611 | pgbench_branches |            16384

 2017-02-09 04:51:17.748318+01 | 1486612277.74832 | pgbench_accounts |       4028858368
 2017-02-09 04:51:17.748318+01 | 1486612277.74832 | pgbench_tellers  |           139264
 2017-02-09 04:51:17.748318+01 | 1486612277.74832 | pgbench_history  |                0
 2017-02-09 04:51:17.748318+01 | 1486612277.74832 | pgbench_branches |            16384

 2017-02-09 04:51:18.917397+01 | 1486612278.9174 | pgbench_accounts |       4028858368
 2017-02-09 04:51:18.917397+01 | 1486612278.9174 | pgbench_tellers  |           139264
 2017-02-09 04:51:18.917397+01 | 1486612278.9174 | pgbench_history  |                0
 2017-02-09 04:51:18.917397+01 | 1486612278.9174 | pgbench_branches |            16384

 2017-02-09 04:51:20.098663+01 | 1486612280.09866 | pgbench_accounts |       4028858368
 2017-02-09 04:51:20.098663+01 | 1486612280.09866 | pgbench_tellers  |           139264
 2017-02-09 04:51:20.098663+01 | 1486612280.09866 | pgbench_history  |                0
 2017-02-09 04:51:20.098663+01 | 1486612280.09866 | pgbench_branches |            16384

 2017-02-09 04:51:21.281171+01 | 1486612281.28117 | pgbench_accounts |       4028858368
 2017-02-09 04:51:21.281171+01 | 1486612281.28117 | pgbench_tellers  |           139264
 2017-02-09 04:51:21.281171+01 | 1486612281.28117 | pgbench_history  |                0
 2017-02-09 04:51:21.281171+01 | 1486612281.28117 | pgbench_branches |            16384

 2017-02-09 04:51:22.463095+01 | 1486612282.46309 | pgbench_accounts |       4028858368
 2017-02-09 04:51:22.463095+01 | 1486612282.46309 | pgbench_tellers  |           139264
 2017-02-09 04:51:22.463095+01 | 1486612282.46309 | pgbench_history  |                0
 2017-02-09 04:51:22.463095+01 | 1486612282.46309 | pgbench_branches |            16384

 2017-02-09 04:51:23.653655+01 | 1486612283.65366 | pgbench_accounts |       4028858368
 2017-02-09 04:51:23.653655+01 | 1486612283.65366 | pgbench_tellers  |           139264
 2017-02-09 04:51:23.653655+01 | 1486612283.65366 | pgbench_history  |                0
 2017-02-09 04:51:23.653655+01 | 1486612283.65366 | pgbench_branches |            16384

 2017-02-09 04:51:24.835626+01 | 1486612284.83563 | pgbench_accounts |       4028858368
 2017-02-09 04:51:24.835626+01 | 1486612284.83563 | pgbench_tellers  |           139264
 2017-02-09 04:51:24.835626+01 | 1486612284.83563 | pgbench_history  |                0
 2017-02-09 04:51:24.835626+01 | 1486612284.83563 | pgbench_branches |            16384

 2017-02-09 04:51:25.9994+01 | 1486612285.9994 | pgbench_accounts |       4028858368
 2017-02-09 04:51:25.9994+01 | 1486612285.9994 | pgbench_tellers  |           139264
 2017-02-09 04:51:25.9994+01 | 1486612285.9994 | pgbench_history  |                0
 2017-02-09 04:51:25.9994+01 | 1486612285.9994 | pgbench_branches |            16384

 2017-02-09 04:51:27.144496+01 | 1486612287.1445 | pgbench_accounts |       4028858368
 2017-02-09 04:51:27.144496+01 | 1486612287.1445 | pgbench_tellers  |           139264
 2017-02-09 04:51:27.144496+01 | 1486612287.1445 | pgbench_history  |                0
 2017-02-09 04:51:27.144496+01 | 1486612287.1445 | pgbench_branches |            16384

 2017-02-09 04:51:28.306019+01 | 1486612288.30602 | pgbench_accounts |       4028858368
 2017-02-09 04:51:28.306019+01 | 1486612288.30602 | pgbench_tellers  |           139264
 2017-02-09 04:51:28.306019+01 | 1486612288.30602 | pgbench_history  |                0
 2017-02-09 04:51:28.306019+01 | 1486612288.30602 | pgbench_branches |            16384

 2017-02-09 04:51:29.486371+01 | 1486612289.48637 | pgbench_accounts |       4028858368
 2017-02-09 04:51:29.486371+01 | 1486612289.48637 | pgbench_tellers  |           139264
 2017-02-09 04:51:29.486371+01 | 1486612289.48637 | pgbench_history  |                0
 2017-02-09 04:51:29.486371+01 | 1486612289.48637 | pgbench_branches |            16384

 2017-02-09 04:51:30.671059+01 | 1486612290.67106 | pgbench_accounts |       4028858368
 2017-02-09 04:51:30.671059+01 | 1486612290.67106 | pgbench_tellers  |           139264
 2017-02-09 04:51:30.671059+01 | 1486612290.67106 | pgbench_history  |                0
 2017-02-09 04:51:30.671059+01 | 1486612290.67106 | pgbench_branches |            16384

 2017-02-09 04:51:31.851963+01 | 1486612291.85196 | pgbench_accounts |       4028858368
 2017-02-09 04:51:31.851963+01 | 1486612291.85196 | pgbench_tellers  |           139264
 2017-02-09 04:51:31.851963+01 | 1486612291.85196 | pgbench_history  |                0
 2017-02-09 04:51:31.851963+01 | 1486612291.85196 | pgbench_branches |            16384

 2017-02-09 04:51:33.029075+01 | 1486612293.02907 | pgbench_accounts |       4028858368
 2017-02-09 04:51:33.029075+01 | 1486612293.02907 | pgbench_tellers  |           139264
 2017-02-09 04:51:33.029075+01 | 1486612293.02907 | pgbench_history  |                0
 2017-02-09 04:51:33.029075+01 | 1486612293.02907 | pgbench_branches |            16384

 2017-02-09 04:51:34.210817+01 | 1486612294.21082 | pgbench_accounts |       4028858368
 2017-02-09 04:51:34.210817+01 | 1486612294.21082 | pgbench_tellers  |           139264
 2017-02-09 04:51:34.210817+01 | 1486612294.21082 | pgbench_history  |                0
 2017-02-09 04:51:34.210817+01 | 1486612294.21082 | pgbench_branches |            16384

 2017-02-09 04:51:35.385766+01 | 1486612295.38577 | pgbench_accounts |       4028858368
 2017-02-09 04:51:35.385766+01 | 1486612295.38577 | pgbench_tellers  |           139264
 2017-02-09 04:51:35.385766+01 | 1486612295.38577 | pgbench_history  |                0
 2017-02-09 04:51:35.385766+01 | 1486612295.38577 | pgbench_branches |            16384

 2017-02-09 04:51:36.565474+01 | 1486612296.56547 | pgbench_accounts |       4028858368
 2017-02-09 04:51:36.565474+01 | 1486612296.56547 | pgbench_tellers  |           139264
 2017-02-09 04:51:36.565474+01 | 1486612296.56547 | pgbench_history  |                0
 2017-02-09 04:51:36.565474+01 | 1486612296.56547 | pgbench_branches |            16384

 2017-02-09 04:51:37.745731+01 | 1486612297.74573 | pgbench_accounts |       4028858368
 2017-02-09 04:51:37.745731+01 | 1486612297.74573 | pgbench_tellers  |           139264
 2017-02-09 04:51:37.745731+01 | 1486612297.74573 | pgbench_history  |                0
 2017-02-09 04:51:37.745731+01 | 1486612297.74573 | pgbench_branches |            16384

 2017-02-09 04:51:38.889902+01 | 1486612298.8899 | pgbench_accounts |       4028858368
 2017-02-09 04:51:38.889902+01 | 1486612298.8899 | pgbench_tellers  |           139264
 2017-02-09 04:51:38.889902+01 | 1486612298.8899 | pgbench_history  |                0
 2017-02-09 04:51:38.889902+01 | 1486612298.8899 | pgbench_branches |            16384

 2017-02-09 04:51:40.019729+01 | 1486612300.01973 | pgbench_accounts |       4028858368
 2017-02-09 04:51:40.019729+01 | 1486612300.01973 | pgbench_tellers  |           139264
 2017-02-09 04:51:40.019729+01 | 1486612300.01973 | pgbench_history  |                0
 2017-02-09 04:51:40.019729+01 | 1486612300.01973 | pgbench_branches |            16384

 2017-02-09 04:51:41.181366+01 | 1486612301.18137 | pgbench_accounts |       4028858368
 2017-02-09 04:51:41.181366+01 | 1486612301.18137 | pgbench_tellers  |           139264
 2017-02-09 04:51:41.181366+01 | 1486612301.18137 | pgbench_history  |                0
 2017-02-09 04:51:41.181366+01 | 1486612301.18137 | pgbench_branches |            16384

 2017-02-09 04:51:42.321614+01 | 1486612302.32161 | pgbench_accounts |       4028858368
 2017-02-09 04:51:42.321614+01 | 1486612302.32161 | pgbench_tellers  |           139264
 2017-02-09 04:51:42.321614+01 | 1486612302.32161 | pgbench_history  |                0
 2017-02-09 04:51:42.321614+01 | 1486612302.32161 | pgbench_branches |            16384

 2017-02-09 04:51:43.466313+01 | 1486612303.46631 | pgbench_accounts |       4028858368
 2017-02-09 04:51:43.466313+01 | 1486612303.46631 | pgbench_tellers  |           139264
 2017-02-09 04:51:43.466313+01 | 1486612303.46631 | pgbench_history  |                0
 2017-02-09 04:51:43.466313+01 | 1486612303.46631 | pgbench_branches |            16384

 2017-02-09 04:51:44.617186+01 | 1486612304.61719 | pgbench_accounts |       4028858368
 2017-02-09 04:51:44.617186+01 | 1486612304.61719 | pgbench_tellers  |           139264
 2017-02-09 04:51:44.617186+01 | 1486612304.61719 | pgbench_history  |                0
 2017-02-09 04:51:44.617186+01 | 1486612304.61719 | pgbench_branches |            16384

 2017-02-09 04:51:45.741995+01 | 1486612305.742 | pgbench_accounts |       4028858368
 2017-02-09 04:51:45.741995+01 | 1486612305.742 | pgbench_tellers  |           139264
 2017-02-09 04:51:45.741995+01 | 1486612305.742 | pgbench_history  |                0
 2017-02-09 04:51:45.741995+01 | 1486612305.742 | pgbench_branches |            16384

 2017-02-09 04:51:46.86483+01 | 1486612306.86483 | pgbench_accounts |       4028858368
 2017-02-09 04:51:46.86483+01 | 1486612306.86483 | pgbench_tellers  |           139264
 2017-02-09 04:51:46.86483+01 | 1486612306.86483 | pgbench_history  |                0
 2017-02-09 04:51:46.86483+01 | 1486612306.86483 | pgbench_branches |            16384

 2017-02-09 04:51:47.983409+01 | 1486612307.98341 | pgbench_accounts |       4028858368
 2017-02-09 04:51:47.983409+01 | 1486612307.98341 | pgbench_tellers  |           139264
 2017-02-09 04:51:47.983409+01 | 1486612307.98341 | pgbench_history  |                0
 2017-02-09 04:51:47.983409+01 | 1486612307.98341 | pgbench_branches |            16384

 2017-02-09 04:51:49.135992+01 | 1486612309.13599 | pgbench_accounts |       4028858368
 2017-02-09 04:51:49.135992+01 | 1486612309.13599 | pgbench_tellers  |           139264
 2017-02-09 04:51:49.135992+01 | 1486612309.13599 | pgbench_history  |                0
 2017-02-09 04:51:49.135992+01 | 1486612309.13599 | pgbench_branches |            16384

 2017-02-09 04:51:50.286415+01 | 1486612310.28642 | pgbench_accounts |       4028858368
 2017-02-09 04:51:50.286415+01 | 1486612310.28642 | pgbench_tellers  |           139264
 2017-02-09 04:51:50.286415+01 | 1486612310.28642 | pgbench_history  |                0
 2017-02-09 04:51:50.286415+01 | 1486612310.28642 | pgbench_branches |            16384

 2017-02-09 04:51:51.426891+01 | 1486612311.42689 | pgbench_accounts |       4028858368
 2017-02-09 04:51:51.426891+01 | 1486612311.42689 | pgbench_tellers  |           139264
 2017-02-09 04:51:51.426891+01 | 1486612311.42689 | pgbench_history  |                0
 2017-02-09 04:51:51.426891+01 | 1486612311.42689 | pgbench_branches |            16384

 2017-02-09 04:51:52.6095+01 | 1486612312.6095 | pgbench_accounts |       4028858368
 2017-02-09 04:51:52.6095+01 | 1486612312.6095 | pgbench_tellers  |           139264
 2017-02-09 04:51:52.6095+01 | 1486612312.6095 | pgbench_history  |                0
 2017-02-09 04:51:52.6095+01 | 1486612312.6095 | pgbench_branches |            16384

 2017-02-09 04:51:53.790989+01 | 1486612313.79099 | pgbench_accounts |       4028858368
 2017-02-09 04:51:53.790989+01 | 1486612313.79099 | pgbench_tellers  |           139264
 2017-02-09 04:51:53.790989+01 | 1486612313.79099 | pgbench_history  |                0
 2017-02-09 04:51:53.790989+01 | 1486612313.79099 | pgbench_branches |            16384

 2017-02-09 04:51:54.974284+01 | 1486612314.97428 | pgbench_accounts |       4028858368
 2017-02-09 04:51:54.974284+01 | 1486612314.97428 | pgbench_tellers  |           139264
 2017-02-09 04:51:54.974284+01 | 1486612314.97428 | pgbench_history  |                0
 2017-02-09 04:51:54.974284+01 | 1486612314.97428 | pgbench_branches |            16384

 2017-02-09 04:51:56.161499+01 | 1486612316.1615 | pgbench_accounts |       4028858368
 2017-02-09 04:51:56.161499+01 | 1486612316.1615 | pgbench_tellers  |           139264
 2017-02-09 04:51:56.161499+01 | 1486612316.1615 | pgbench_history  |                0
 2017-02-09 04:51:56.161499+01 | 1486612316.1615 | pgbench_branches |            16384

 2017-02-09 04:51:57.344575+01 | 1486612317.34457 | pgbench_accounts |       4028858368
 2017-02-09 04:51:57.344575+01 | 1486612317.34457 | pgbench_tellers  |           139264
 2017-02-09 04:51:57.344575+01 | 1486612317.34457 | pgbench_history  |                0
 2017-02-09 04:51:57.344575+01 | 1486612317.34457 | pgbench_branches |            16384

 2017-02-09 04:51:58.493224+01 | 1486612318.49322 | pgbench_accounts |       4028858368
 2017-02-09 04:51:58.493224+01 | 1486612318.49322 | pgbench_tellers  |           139264
 2017-02-09 04:51:58.493224+01 | 1486612318.49322 | pgbench_history  |                0
 2017-02-09 04:51:58.493224+01 | 1486612318.49322 | pgbench_branches |            16384

 2017-02-09 04:51:59.665532+01 | 1486612319.66553 | pgbench_accounts |       4028858368
 2017-02-09 04:51:59.665532+01 | 1486612319.66553 | pgbench_tellers  |           139264
 2017-02-09 04:51:59.665532+01 | 1486612319.66553 | pgbench_history  |                0
 2017-02-09 04:51:59.665532+01 | 1486612319.66553 | pgbench_branches |            16384

 2017-02-09 04:52:00.834432+01 | 1486612320.83443 | pgbench_accounts |       4028858368
 2017-02-09 04:52:00.834432+01 | 1486612320.83443 | pgbench_tellers  |           139264
 2017-02-09 04:52:00.834432+01 | 1486612320.83443 | pgbench_history  |                0
 2017-02-09 04:52:00.834432+01 | 1486612320.83443 | pgbench_branches |            16384

 2017-02-09 04:52:01.989732+01 | 1486612321.98973 | pgbench_accounts |       4028858368
 2017-02-09 04:52:01.989732+01 | 1486612321.98973 | pgbench_tellers  |           139264
 2017-02-09 04:52:01.989732+01 | 1486612321.98973 | pgbench_history  |                0
 2017-02-09 04:52:01.989732+01 | 1486612321.98973 | pgbench_branches |            16384

 2017-02-09 04:52:03.140622+01 | 1486612323.14062 | pgbench_accounts |       4028858368
 2017-02-09 04:52:03.140622+01 | 1486612323.14062 | pgbench_tellers  |           139264
 2017-02-09 04:52:03.140622+01 | 1486612323.14062 | pgbench_history  |                0
 2017-02-09 04:52:03.140622+01 | 1486612323.14062 | pgbench_branches |            16384

 2017-02-09 04:52:04.327243+01 | 1486612324.32724 | pgbench_accounts |       4028858368
 2017-02-09 04:52:04.327243+01 | 1486612324.32724 | pgbench_tellers  |           139264
 2017-02-09 04:52:04.327243+01 | 1486612324.32724 | pgbench_history  |                0
 2017-02-09 04:52:04.327243+01 | 1486612324.32724 | pgbench_branches |            16384

 2017-02-09 04:52:05.505931+01 | 1486612325.50593 | pgbench_accounts |       4028858368
 2017-02-09 04:52:05.505931+01 | 1486612325.50593 | pgbench_tellers  |           139264
 2017-02-09 04:52:05.505931+01 | 1486612325.50593 | pgbench_history  |                0
 2017-02-09 04:52:05.505931+01 | 1486612325.50593 | pgbench_branches |            16384

 2017-02-09 04:52:06.691032+01 | 1486612326.69103 | pgbench_accounts |       4028858368
 2017-02-09 04:52:06.691032+01 | 1486612326.69103 | pgbench_tellers  |           139264
 2017-02-09 04:52:06.691032+01 | 1486612326.69103 | pgbench_history  |                0
 2017-02-09 04:52:06.691032+01 | 1486612326.69103 | pgbench_branches |            16384

 2017-02-09 04:52:07.874516+01 | 1486612327.87452 | pgbench_accounts |       4028858368
 2017-02-09 04:52:07.874516+01 | 1486612327.87452 | pgbench_tellers  |           139264
 2017-02-09 04:52:07.874516+01 | 1486612327.87452 | pgbench_history  |                0
 2017-02-09 04:52:07.874516+01 | 1486612327.87452 | pgbench_branches |            16384

 2017-02-09 04:52:09.059358+01 | 1486612329.05936 | pgbench_accounts |       4028858368
 2017-02-09 04:52:09.059358+01 | 1486612329.05936 | pgbench_tellers  |           139264
 2017-02-09 04:52:09.059358+01 | 1486612329.05936 | pgbench_history  |                0
 2017-02-09 04:52:09.059358+01 | 1486612329.05936 | pgbench_branches |            16384

 2017-02-09 04:52:10.210077+01 | 1486612330.21008 | pgbench_accounts |       4028858368
 2017-02-09 04:52:10.210077+01 | 1486612330.21008 | pgbench_tellers  |           139264
 2017-02-09 04:52:10.210077+01 | 1486612330.21008 | pgbench_history  |                0
 2017-02-09 04:52:10.210077+01 | 1486612330.21008 | pgbench_branches |            16384

 2017-02-09 04:52:11.344992+01 | 1486612331.34499 | pgbench_accounts |       4028858368
 2017-02-09 04:52:11.344992+01 | 1486612331.34499 | pgbench_tellers  |           139264
 2017-02-09 04:52:11.344992+01 | 1486612331.34499 | pgbench_history  |                0
 2017-02-09 04:52:11.344992+01 | 1486612331.34499 | pgbench_branches |            16384

 2017-02-09 04:52:12.526817+01 | 1486612332.52682 | pgbench_accounts |       4028858368
 2017-02-09 04:52:12.526817+01 | 1486612332.52682 | pgbench_tellers  |           139264
 2017-02-09 04:52:12.526817+01 | 1486612332.52682 | pgbench_history  |                0
 2017-02-09 04:52:12.526817+01 | 1486612332.52682 | pgbench_branches |            16384

 2017-02-09 04:52:13.708066+01 | 1486612333.70807 | pgbench_accounts |       4028858368
 2017-02-09 04:52:13.708066+01 | 1486612333.70807 | pgbench_tellers  |           139264
 2017-02-09 04:52:13.708066+01 | 1486612333.70807 | pgbench_history  |                0
 2017-02-09 04:52:13.708066+01 | 1486612333.70807 | pgbench_branches |            16384

 2017-02-09 04:52:14.890544+01 | 1486612334.89054 | pgbench_accounts |       4028858368
 2017-02-09 04:52:14.890544+01 | 1486612334.89054 | pgbench_tellers  |           139264
 2017-02-09 04:52:14.890544+01 | 1486612334.89054 | pgbench_history  |                0
 2017-02-09 04:52:14.890544+01 | 1486612334.89054 | pgbench_branches |            16384

 2017-02-09 04:52:16.07073+01 | 1486612336.07073 | pgbench_accounts |       4028858368
 2017-02-09 04:52:16.07073+01 | 1486612336.07073 | pgbench_tellers  |           139264
 2017-02-09 04:52:16.07073+01 | 1486612336.07073 | pgbench_history  |                0
 2017-02-09 04:52:16.07073+01 | 1486612336.07073 | pgbench_branches |            16384

 2017-02-09 04:52:17.250765+01 | 1486612337.25077 | pgbench_accounts |       4028858368
 2017-02-09 04:52:17.250765+01 | 1486612337.25077 | pgbench_tellers  |           139264
 2017-02-09 04:52:17.250765+01 | 1486612337.25077 | pgbench_history  |                0
 2017-02-09 04:52:17.250765+01 | 1486612337.25077 | pgbench_branches |            16384

 2017-02-09 04:52:18.433539+01 | 1486612338.43354 | pgbench_accounts |       4028858368
 2017-02-09 04:52:18.433539+01 | 1486612338.43354 | pgbench_tellers  |           139264
 2017-02-09 04:52:18.433539+01 | 1486612338.43354 | pgbench_history  |                0
 2017-02-09 04:52:18.433539+01 | 1486612338.43354 | pgbench_branches |            16384

 2017-02-09 04:52:19.617849+01 | 1486612339.61785 | pgbench_accounts |       4028858368
 2017-02-09 04:52:19.617849+01 | 1486612339.61785 | pgbench_tellers  |           139264
 2017-02-09 04:52:19.617849+01 | 1486612339.61785 | pgbench_history  |                0
 2017-02-09 04:52:19.617849+01 | 1486612339.61785 | pgbench_branches |            16384

 2017-02-09 04:52:20.802848+01 | 1486612340.80285 | pgbench_accounts |       4028858368
 2017-02-09 04:52:20.802848+01 | 1486612340.80285 | pgbench_tellers  |           139264
 2017-02-09 04:52:20.802848+01 | 1486612340.80285 | pgbench_history  |                0
 2017-02-09 04:52:20.802848+01 | 1486612340.80285 | pgbench_branches |            16384

 2017-02-09 04:52:21.937103+01 | 1486612341.9371 | pgbench_accounts |       4028858368
 2017-02-09 04:52:21.937103+01 | 1486612341.9371 | pgbench_tellers  |           139264
 2017-02-09 04:52:21.937103+01 | 1486612341.9371 | pgbench_history  |                0
 2017-02-09 04:52:21.937103+01 | 1486612341.9371 | pgbench_branches |            16384

 2017-02-09 04:52:23.090737+01 | 1486612343.09074 | pgbench_accounts |       4028858368
 2017-02-09 04:52:23.090737+01 | 1486612343.09074 | pgbench_tellers  |           139264
 2017-02-09 04:52:23.090737+01 | 1486612343.09074 | pgbench_history  |                0
 2017-02-09 04:52:23.090737+01 | 1486612343.09074 | pgbench_branches |            16384

 2017-02-09 04:52:24.226711+01 | 1486612344.22671 | pgbench_accounts |       4028858368
 2017-02-09 04:52:24.226711+01 | 1486612344.22671 | pgbench_tellers  |           139264
 2017-02-09 04:52:24.226711+01 | 1486612344.22671 | pgbench_history  |                0
 2017-02-09 04:52:24.226711+01 | 1486612344.22671 | pgbench_branches |            16384

 2017-02-09 04:52:25.404589+01 | 1486612345.40459 | pgbench_accounts |       4028858368
 2017-02-09 04:52:25.404589+01 | 1486612345.40459 | pgbench_tellers  |           139264
 2017-02-09 04:52:25.404589+01 | 1486612345.40459 | pgbench_history  |                0
 2017-02-09 04:52:25.404589+01 | 1486612345.40459 | pgbench_branches |            16384

 2017-02-09 04:52:26.586375+01 | 1486612346.58637 | pgbench_accounts |       4028858368
 2017-02-09 04:52:26.586375+01 | 1486612346.58637 | pgbench_tellers  |           139264
 2017-02-09 04:52:26.586375+01 | 1486612346.58637 | pgbench_history  |                0
 2017-02-09 04:52:26.586375+01 | 1486612346.58637 | pgbench_branches |            16384

 2017-02-09 04:52:27.768407+01 | 1486612347.76841 | pgbench_accounts |       4028858368
 2017-02-09 04:52:27.768407+01 | 1486612347.76841 | pgbench_tellers  |           139264
 2017-02-09 04:52:27.768407+01 | 1486612347.76841 | pgbench_history  |                0
 2017-02-09 04:52:27.768407+01 | 1486612347.76841 | pgbench_branches |            16384

 2017-02-09 04:52:28.897723+01 | 1486612348.89772 | pgbench_accounts |       4028858368
 2017-02-09 04:52:28.897723+01 | 1486612348.89772 | pgbench_tellers  |           139264
 2017-02-09 04:52:28.897723+01 | 1486612348.89772 | pgbench_history  |                0
 2017-02-09 04:52:28.897723+01 | 1486612348.89772 | pgbench_branches |            16384

 2017-02-09 04:52:30.038283+01 | 1486612350.03828 | pgbench_accounts |       4028858368
 2017-02-09 04:52:30.038283+01 | 1486612350.03828 | pgbench_tellers  |           139264
 2017-02-09 04:52:30.038283+01 | 1486612350.03828 | pgbench_history  |                0
 2017-02-09 04:52:30.038283+01 | 1486612350.03828 | pgbench_branches |            16384

 2017-02-09 04:52:31.146454+01 | 1486612351.14645 | pgbench_accounts |       4028858368
 2017-02-09 04:52:31.146454+01 | 1486612351.14645 | pgbench_tellers  |           139264
 2017-02-09 04:52:31.146454+01 | 1486612351.14645 | pgbench_history  |                0
 2017-02-09 04:52:31.146454+01 | 1486612351.14645 | pgbench_branches |            16384

 2017-02-09 04:52:32.286089+01 | 1486612352.28609 | pgbench_accounts |       4028858368
 2017-02-09 04:52:32.286089+01 | 1486612352.28609 | pgbench_tellers  |           139264
 2017-02-09 04:52:32.286089+01 | 1486612352.28609 | pgbench_history  |                0
 2017-02-09 04:52:32.286089+01 | 1486612352.28609 | pgbench_branches |            16384

 2017-02-09 04:52:33.468552+01 | 1486612353.46855 | pgbench_accounts |       4028858368
 2017-02-09 04:52:33.468552+01 | 1486612353.46855 | pgbench_tellers  |           139264
 2017-02-09 04:52:33.468552+01 | 1486612353.46855 | pgbench_history  |                0
 2017-02-09 04:52:33.468552+01 | 1486612353.46855 | pgbench_branches |            16384

 2017-02-09 04:52:34.651482+01 | 1486612354.65148 | pgbench_accounts |       4028858368
 2017-02-09 04:52:34.651482+01 | 1486612354.65148 | pgbench_tellers  |           139264
 2017-02-09 04:52:34.651482+01 | 1486612354.65148 | pgbench_history  |                0
 2017-02-09 04:52:34.651482+01 | 1486612354.65148 | pgbench_branches |            16384

 2017-02-09 04:52:35.834821+01 | 1486612355.83482 | pgbench_accounts |       4028858368
 2017-02-09 04:52:35.834821+01 | 1486612355.83482 | pgbench_tellers  |           139264
 2017-02-09 04:52:35.834821+01 | 1486612355.83482 | pgbench_history  |                0
 2017-02-09 04:52:35.834821+01 | 1486612355.83482 | pgbench_branches |            16384

 2017-02-09 04:52:37.018263+01 | 1486612357.01826 | pgbench_accounts |       4028858368
 2017-02-09 04:52:37.018263+01 | 1486612357.01826 | pgbench_tellers  |           139264
 2017-02-09 04:52:37.018263+01 | 1486612357.01826 | pgbench_history  |                0
 2017-02-09 04:52:37.018263+01 | 1486612357.01826 | pgbench_branches |            16384

 2017-02-09 04:52:38.198276+01 | 1486612358.19828 | pgbench_accounts |       4028858368
 2017-02-09 04:52:38.198276+01 | 1486612358.19828 | pgbench_tellers  |           139264
 2017-02-09 04:52:38.198276+01 | 1486612358.19828 | pgbench_history  |                0
 2017-02-09 04:52:38.198276+01 | 1486612358.19828 | pgbench_branches |            16384

 2017-02-09 04:52:39.382836+01 | 1486612359.38284 | pgbench_accounts |       4028858368
 2017-02-09 04:52:39.382836+01 | 1486612359.38284 | pgbench_tellers  |           139264
 2017-02-09 04:52:39.382836+01 | 1486612359.38284 | pgbench_history  |                0
 2017-02-09 04:52:39.382836+01 | 1486612359.38284 | pgbench_branches |            16384

 2017-02-09 04:52:40.526423+01 | 1486612360.52642 | pgbench_accounts |       4028858368
 2017-02-09 04:52:40.526423+01 | 1486612360.52642 | pgbench_tellers  |           139264
 2017-02-09 04:52:40.526423+01 | 1486612360.52642 | pgbench_history  |                0
 2017-02-09 04:52:40.526423+01 | 1486612360.52642 | pgbench_branches |            16384

 2017-02-09 04:52:41.706493+01 | 1486612361.70649 | pgbench_accounts |       4028858368
 2017-02-09 04:52:41.706493+01 | 1486612361.70649 | pgbench_tellers  |           139264
 2017-02-09 04:52:41.706493+01 | 1486612361.70649 | pgbench_history  |                0
 2017-02-09 04:52:41.706493+01 | 1486612361.70649 | pgbench_branches |            16384

 2017-02-09 04:52:42.886902+01 | 1486612362.8869 | pgbench_accounts |       4028858368
 2017-02-09 04:52:42.886902+01 | 1486612362.8869 | pgbench_tellers  |           139264
 2017-02-09 04:52:42.886902+01 | 1486612362.8869 | pgbench_history  |                0
 2017-02-09 04:52:42.886902+01 | 1486612362.8869 | pgbench_branches |            16384

 2017-02-09 04:52:44.070178+01 | 1486612364.07018 | pgbench_accounts |       4028858368
 2017-02-09 04:52:44.070178+01 | 1486612364.07018 | pgbench_tellers  |           139264
 2017-02-09 04:52:44.070178+01 | 1486612364.07018 | pgbench_history  |                0
 2017-02-09 04:52:44.070178+01 | 1486612364.07018 | pgbench_branches |            16384

 2017-02-09 04:52:45.254719+01 | 1486612365.25472 | pgbench_accounts |       4028858368
 2017-02-09 04:52:45.254719+01 | 1486612365.25472 | pgbench_tellers  |           139264
 2017-02-09 04:52:45.254719+01 | 1486612365.25472 | pgbench_history  |                0
 2017-02-09 04:52:45.254719+01 | 1486612365.25472 | pgbench_branches |            16384

 2017-02-09 04:52:46.43496+01 | 1486612366.43496 | pgbench_accounts |       4028858368
 2017-02-09 04:52:46.43496+01 | 1486612366.43496 | pgbench_tellers  |           139264
 2017-02-09 04:52:46.43496+01 | 1486612366.43496 | pgbench_history  |                0
 2017-02-09 04:52:46.43496+01 | 1486612366.43496 | pgbench_branches |            16384

 2017-02-09 04:52:47.603218+01 | 1486612367.60322 | pgbench_accounts |       4028858368
 2017-02-09 04:52:47.603218+01 | 1486612367.60322 | pgbench_tellers  |           139264
 2017-02-09 04:52:47.603218+01 | 1486612367.60322 | pgbench_history  |                0
 2017-02-09 04:52:47.603218+01 | 1486612367.60322 | pgbench_branches |            16384

 2017-02-09 04:52:48.737013+01 | 1486612368.73701 | pgbench_accounts |       4028858368
 2017-02-09 04:52:48.737013+01 | 1486612368.73701 | pgbench_tellers  |           139264
 2017-02-09 04:52:48.737013+01 | 1486612368.73701 | pgbench_history  |                0
 2017-02-09 04:52:48.737013+01 | 1486612368.73701 | pgbench_branches |            16384

 2017-02-09 04:52:49.923105+01 | 1486612369.92311 | pgbench_accounts |       4028858368
 2017-02-09 04:52:49.923105+01 | 1486612369.92311 | pgbench_tellers  |           139264
 2017-02-09 04:52:49.923105+01 | 1486612369.92311 | pgbench_history  |                0
 2017-02-09 04:52:49.923105+01 | 1486612369.92311 | pgbench_branches |            16384

 2017-02-09 04:52:51.068346+01 | 1486612371.06835 | pgbench_accounts |       4028858368
 2017-02-09 04:52:51.068346+01 | 1486612371.06835 | pgbench_tellers  |           139264
 2017-02-09 04:52:51.068346+01 | 1486612371.06835 | pgbench_history  |                0
 2017-02-09 04:52:51.068346+01 | 1486612371.06835 | pgbench_branches |            16384

 2017-02-09 04:52:52.213403+01 | 1486612372.2134 | pgbench_accounts |       4028858368
 2017-02-09 04:52:52.213403+01 | 1486612372.2134 | pgbench_tellers  |           139264
 2017-02-09 04:52:52.213403+01 | 1486612372.2134 | pgbench_history  |                0
 2017-02-09 04:52:52.213403+01 | 1486612372.2134 | pgbench_branches |            16384

 2017-02-09 04:52:53.398315+01 | 1486612373.39831 | pgbench_accounts |       4028858368
 2017-02-09 04:52:53.398315+01 | 1486612373.39831 | pgbench_tellers  |           139264
 2017-02-09 04:52:53.398315+01 | 1486612373.39831 | pgbench_history  |                0
 2017-02-09 04:52:53.398315+01 | 1486612373.39831 | pgbench_branches |            16384

 2017-02-09 04:52:54.549492+01 | 1486612374.54949 | pgbench_accounts |       4028858368
 2017-02-09 04:52:54.549492+01 | 1486612374.54949 | pgbench_tellers  |           139264
 2017-02-09 04:52:54.549492+01 | 1486612374.54949 | pgbench_history  |                0
 2017-02-09 04:52:54.549492+01 | 1486612374.54949 | pgbench_branches |            16384

 2017-02-09 04:52:55.733753+01 | 1486612375.73375 | pgbench_accounts |       4028858368
 2017-02-09 04:52:55.733753+01 | 1486612375.73375 | pgbench_tellers  |           139264
 2017-02-09 04:52:55.733753+01 | 1486612375.73375 | pgbench_history  |                0
 2017-02-09 04:52:55.733753+01 | 1486612375.73375 | pgbench_branches |            16384

 2017-02-09 04:52:56.918562+01 | 1486612376.91856 | pgbench_accounts |       4028858368
 2017-02-09 04:52:56.918562+01 | 1486612376.91856 | pgbench_tellers  |           139264
 2017-02-09 04:52:56.918562+01 | 1486612376.91856 | pgbench_history  |                0
 2017-02-09 04:52:56.918562+01 | 1486612376.91856 | pgbench_branches |            16384

 2017-02-09 04:52:58.101138+01 | 1486612378.10114 | pgbench_accounts |       4028858368
 2017-02-09 04:52:58.101138+01 | 1486612378.10114 | pgbench_tellers  |           139264
 2017-02-09 04:52:58.101138+01 | 1486612378.10114 | pgbench_history  |                0
 2017-02-09 04:52:58.101138+01 | 1486612378.10114 | pgbench_branches |            16384

 2017-02-09 04:52:59.283585+01 | 1486612379.28359 | pgbench_accounts |       4028858368
 2017-02-09 04:52:59.283585+01 | 1486612379.28359 | pgbench_tellers  |           139264
 2017-02-09 04:52:59.283585+01 | 1486612379.28359 | pgbench_history  |                0
 2017-02-09 04:52:59.283585+01 | 1486612379.28359 | pgbench_branches |            16384

 2017-02-09 04:53:00.465978+01 | 1486612380.46598 | pgbench_accounts |       4028858368
 2017-02-09 04:53:00.465978+01 | 1486612380.46598 | pgbench_tellers  |           139264
 2017-02-09 04:53:00.465978+01 | 1486612380.46598 | pgbench_history  |                0
 2017-02-09 04:53:00.465978+01 | 1486612380.46598 | pgbench_branches |            16384

 2017-02-09 04:53:01.647284+01 | 1486612381.64728 | pgbench_accounts |       4028858368
 2017-02-09 04:53:01.647284+01 | 1486612381.64728 | pgbench_tellers  |           139264
 2017-02-09 04:53:01.647284+01 | 1486612381.64728 | pgbench_history  |                0
 2017-02-09 04:53:01.647284+01 | 1486612381.64728 | pgbench_branches |            16384

 2017-02-09 04:53:02.828753+01 | 1486612382.82875 | pgbench_accounts |       4028858368
 2017-02-09 04:53:02.828753+01 | 1486612382.82875 | pgbench_tellers  |           139264
 2017-02-09 04:53:02.828753+01 | 1486612382.82875 | pgbench_history  |                0
 2017-02-09 04:53:02.828753+01 | 1486612382.82875 | pgbench_branches |            16384

 2017-02-09 04:53:04.001109+01 | 1486612384.00111 | pgbench_accounts |       4028858368
 2017-02-09 04:53:04.001109+01 | 1486612384.00111 | pgbench_tellers  |           139264
 2017-02-09 04:53:04.001109+01 | 1486612384.00111 | pgbench_history  |                0
 2017-02-09 04:53:04.001109+01 | 1486612384.00111 | pgbench_branches |            16384

 2017-02-09 04:53:05.147329+01 | 1486612385.14733 | pgbench_accounts |       4028858368
 2017-02-09 04:53:05.147329+01 | 1486612385.14733 | pgbench_tellers  |           139264
 2017-02-09 04:53:05.147329+01 | 1486612385.14733 | pgbench_history  |                0
 2017-02-09 04:53:05.147329+01 | 1486612385.14733 | pgbench_branches |            16384

 2017-02-09 04:53:06.327901+01 | 1486612386.3279 | pgbench_accounts |       4028858368
 2017-02-09 04:53:06.327901+01 | 1486612386.3279 | pgbench_tellers  |           139264
 2017-02-09 04:53:06.327901+01 | 1486612386.3279 | pgbench_history  |                0
 2017-02-09 04:53:06.327901+01 | 1486612386.3279 | pgbench_branches |            16384

 2017-02-09 04:53:07.506713+01 | 1486612387.50671 | pgbench_accounts |       4028858368
 2017-02-09 04:53:07.506713+01 | 1486612387.50671 | pgbench_tellers  |           139264
 2017-02-09 04:53:07.506713+01 | 1486612387.50671 | pgbench_history  |                0
 2017-02-09 04:53:07.506713+01 | 1486612387.50671 | pgbench_branches |            16384

 2017-02-09 04:53:08.687487+01 | 1486612388.68749 | pgbench_accounts |       4028858368
 2017-02-09 04:53:08.687487+01 | 1486612388.68749 | pgbench_tellers  |           139264
 2017-02-09 04:53:08.687487+01 | 1486612388.68749 | pgbench_history  |                0
 2017-02-09 04:53:08.687487+01 | 1486612388.68749 | pgbench_branches |            16384

 2017-02-09 04:53:09.870023+01 | 1486612389.87002 | pgbench_accounts |       4028858368
 2017-02-09 04:53:09.870023+01 | 1486612389.87002 | pgbench_tellers  |           139264
 2017-02-09 04:53:09.870023+01 | 1486612389.87002 | pgbench_history  |                0
 2017-02-09 04:53:09.870023+01 | 1486612389.87002 | pgbench_branches |            16384

 2017-02-09 04:53:10.998332+01 | 1486612390.99833 | pgbench_accounts |       4028858368
 2017-02-09 04:53:10.998332+01 | 1486612390.99833 | pgbench_tellers  |           139264
 2017-02-09 04:53:10.998332+01 | 1486612390.99833 | pgbench_history  |                0
 2017-02-09 04:53:10.998332+01 | 1486612390.99833 | pgbench_branches |            16384

 2017-02-09 04:53:12.124414+01 | 1486612392.12441 | pgbench_accounts |       4028858368
 2017-02-09 04:53:12.124414+01 | 1486612392.12441 | pgbench_tellers  |           139264
 2017-02-09 04:53:12.124414+01 | 1486612392.12441 | pgbench_history  |                0
 2017-02-09 04:53:12.124414+01 | 1486612392.12441 | pgbench_branches |            16384

 2017-02-09 04:53:13.256601+01 | 1486612393.2566 | pgbench_accounts |       4028858368
 2017-02-09 04:53:13.256601+01 | 1486612393.2566 | pgbench_tellers  |           139264
 2017-02-09 04:53:13.256601+01 | 1486612393.2566 | pgbench_history  |                0
 2017-02-09 04:53:13.256601+01 | 1486612393.2566 | pgbench_branches |            16384

 2017-02-09 04:53:14.358245+01 | 1486612394.35824 | pgbench_accounts |       4028858368
 2017-02-09 04:53:14.358245+01 | 1486612394.35824 | pgbench_tellers  |           139264
 2017-02-09 04:53:14.358245+01 | 1486612394.35824 | pgbench_history  |                0
 2017-02-09 04:53:14.358245+01 | 1486612394.35824 | pgbench_branches |            16384

 2017-02-09 04:53:15.50615+01 | 1486612395.50615 | pgbench_accounts |       4028858368
 2017-02-09 04:53:15.50615+01 | 1486612395.50615 | pgbench_tellers  |           139264
 2017-02-09 04:53:15.50615+01 | 1486612395.50615 | pgbench_history  |                0
 2017-02-09 04:53:15.50615+01 | 1486612395.50615 | pgbench_branches |            16384

 2017-02-09 04:53:16.688864+01 | 1486612396.68886 | pgbench_accounts |       4028858368
 2017-02-09 04:53:16.688864+01 | 1486612396.68886 | pgbench_tellers  |           139264
 2017-02-09 04:53:16.688864+01 | 1486612396.68886 | pgbench_history  |                0
 2017-02-09 04:53:16.688864+01 | 1486612396.68886 | pgbench_branches |            16384

 2017-02-09 04:53:17.809754+01 | 1486612397.80975 | pgbench_accounts |       4028858368
 2017-02-09 04:53:17.809754+01 | 1486612397.80975 | pgbench_tellers  |           139264
 2017-02-09 04:53:17.809754+01 | 1486612397.80975 | pgbench_history  |                0
 2017-02-09 04:53:17.809754+01 | 1486612397.80975 | pgbench_branches |            16384

 2017-02-09 04:53:18.938393+01 | 1486612398.93839 | pgbench_accounts |       4028858368
 2017-02-09 04:53:18.938393+01 | 1486612398.93839 | pgbench_tellers  |           139264
 2017-02-09 04:53:18.938393+01 | 1486612398.93839 | pgbench_history  |                0
 2017-02-09 04:53:18.938393+01 | 1486612398.93839 | pgbench_branches |            16384

 2017-02-09 04:53:20.090238+01 | 1486612400.09024 | pgbench_accounts |       4028858368
 2017-02-09 04:53:20.090238+01 | 1486612400.09024 | pgbench_tellers  |           139264
 2017-02-09 04:53:20.090238+01 | 1486612400.09024 | pgbench_history  |                0
 2017-02-09 04:53:20.090238+01 | 1486612400.09024 | pgbench_branches |            16384

 2017-02-09 04:53:21.272811+01 | 1486612401.27281 | pgbench_accounts |       4028858368
 2017-02-09 04:53:21.272811+01 | 1486612401.27281 | pgbench_tellers  |           139264
 2017-02-09 04:53:21.272811+01 | 1486612401.27281 | pgbench_history  |                0
 2017-02-09 04:53:21.272811+01 | 1486612401.27281 | pgbench_branches |            16384

 2017-02-09 04:53:22.449465+01 | 1486612402.44947 | pgbench_accounts |       4028858368
 2017-02-09 04:53:22.449465+01 | 1486612402.44947 | pgbench_tellers  |           139264
 2017-02-09 04:53:22.449465+01 | 1486612402.44947 | pgbench_history  |                0
 2017-02-09 04:53:22.449465+01 | 1486612402.44947 | pgbench_branches |            16384

 2017-02-09 04:53:23.633427+01 | 1486612403.63343 | pgbench_accounts |       4028858368
 2017-02-09 04:53:23.633427+01 | 1486612403.63343 | pgbench_tellers  |           139264
 2017-02-09 04:53:23.633427+01 | 1486612403.63343 | pgbench_history  |                0
 2017-02-09 04:53:23.633427+01 | 1486612403.63343 | pgbench_branches |            16384

 2017-02-09 04:53:24.797679+01 | 1486612404.79768 | pgbench_accounts |       4028858368
 2017-02-09 04:53:24.797679+01 | 1486612404.79768 | pgbench_tellers  |           139264
 2017-02-09 04:53:24.797679+01 | 1486612404.79768 | pgbench_history  |                0
 2017-02-09 04:53:24.797679+01 | 1486612404.79768 | pgbench_branches |            16384

 2017-02-09 04:53:25.961625+01 | 1486612405.96163 | pgbench_accounts |       4028858368
 2017-02-09 04:53:25.961625+01 | 1486612405.96163 | pgbench_tellers  |           139264
 2017-02-09 04:53:25.961625+01 | 1486612405.96163 | pgbench_history  |                0
 2017-02-09 04:53:25.961625+01 | 1486612405.96163 | pgbench_branches |            16384

 2017-02-09 04:53:27.106113+01 | 1486612407.10611 | pgbench_accounts |       4028858368
 2017-02-09 04:53:27.106113+01 | 1486612407.10611 | pgbench_tellers  |           139264
 2017-02-09 04:53:27.106113+01 | 1486612407.10611 | pgbench_history  |                0
 2017-02-09 04:53:27.106113+01 | 1486612407.10611 | pgbench_branches |            16384

 2017-02-09 04:53:28.284018+01 | 1486612408.28402 | pgbench_accounts |       4028858368
 2017-02-09 04:53:28.284018+01 | 1486612408.28402 | pgbench_tellers  |           139264
 2017-02-09 04:53:28.284018+01 | 1486612408.28402 | pgbench_history  |                0
 2017-02-09 04:53:28.284018+01 | 1486612408.28402 | pgbench_branches |            16384

 2017-02-09 04:53:29.466662+01 | 1486612409.46666 | pgbench_accounts |       4028858368
 2017-02-09 04:53:29.466662+01 | 1486612409.46666 | pgbench_tellers  |           139264
 2017-02-09 04:53:29.466662+01 | 1486612409.46666 | pgbench_history  |                0
 2017-02-09 04:53:29.466662+01 | 1486612409.46666 | pgbench_branches |            16384

 2017-02-09 04:53:30.646741+01 | 1486612410.64674 | pgbench_accounts |       4028858368
 2017-02-09 04:53:30.646741+01 | 1486612410.64674 | pgbench_tellers  |           139264
 2017-02-09 04:53:30.646741+01 | 1486612410.64674 | pgbench_history  |                0
 2017-02-09 04:53:30.646741+01 | 1486612410.64674 | pgbench_branches |            16384

 2017-02-09 04:53:31.830766+01 | 1486612411.83077 | pgbench_accounts |       4028858368
 2017-02-09 04:53:31.830766+01 | 1486612411.83077 | pgbench_tellers  |           139264
 2017-02-09 04:53:31.830766+01 | 1486612411.83077 | pgbench_history  |                0
 2017-02-09 04:53:31.830766+01 | 1486612411.83077 | pgbench_branches |            16384

 2017-02-09 04:53:32.985323+01 | 1486612412.98532 | pgbench_accounts |       4028858368
 2017-02-09 04:53:32.985323+01 | 1486612412.98532 | pgbench_tellers  |           139264
 2017-02-09 04:53:32.985323+01 | 1486612412.98532 | pgbench_history  |                0
 2017-02-09 04:53:32.985323+01 | 1486612412.98532 | pgbench_branches |            16384

 2017-02-09 04:53:34.1578+01 | 1486612414.1578 | pgbench_accounts |       4028858368
 2017-02-09 04:53:34.1578+01 | 1486612414.1578 | pgbench_tellers  |           139264
 2017-02-09 04:53:34.1578+01 | 1486612414.1578 | pgbench_history  |                0
 2017-02-09 04:53:34.1578+01 | 1486612414.1578 | pgbench_branches |            16384

 2017-02-09 04:53:35.340535+01 | 1486612415.34053 | pgbench_accounts |       4028858368
 2017-02-09 04:53:35.340535+01 | 1486612415.34053 | pgbench_tellers  |           139264
 2017-02-09 04:53:35.340535+01 | 1486612415.34053 | pgbench_history  |                0
 2017-02-09 04:53:35.340535+01 | 1486612415.34053 | pgbench_branches |            16384

 2017-02-09 04:53:36.492462+01 | 1486612416.49246 | pgbench_accounts |       4028858368
 2017-02-09 04:53:36.492462+01 | 1486612416.49246 | pgbench_tellers  |           139264
 2017-02-09 04:53:36.492462+01 | 1486612416.49246 | pgbench_history  |                0
 2017-02-09 04:53:36.492462+01 | 1486612416.49246 | pgbench_branches |            16384

 2017-02-09 04:53:37.644106+01 | 1486612417.64411 | pgbench_accounts |       4028858368
 2017-02-09 04:53:37.644106+01 | 1486612417.64411 | pgbench_tellers  |           139264
 2017-02-09 04:53:37.644106+01 | 1486612417.64411 | pgbench_history  |                0
 2017-02-09 04:53:37.644106+01 | 1486612417.64411 | pgbench_branches |            16384

 2017-02-09 04:53:38.827629+01 | 1486612418.82763 | pgbench_accounts |       4028858368
 2017-02-09 04:53:38.827629+01 | 1486612418.82763 | pgbench_tellers  |           139264
 2017-02-09 04:53:38.827629+01 | 1486612418.82763 | pgbench_history  |                0
 2017-02-09 04:53:38.827629+01 | 1486612418.82763 | pgbench_branches |            16384

 2017-02-09 04:53:40.009658+01 | 1486612420.00966 | pgbench_accounts |       4028858368
 2017-02-09 04:53:40.009658+01 | 1486612420.00966 | pgbench_tellers  |           139264
 2017-02-09 04:53:40.009658+01 | 1486612420.00966 | pgbench_history  |                0
 2017-02-09 04:53:40.009658+01 | 1486612420.00966 | pgbench_branches |            16384

 2017-02-09 04:53:41.19474+01 | 1486612421.19474 | pgbench_accounts |       4028858368
 2017-02-09 04:53:41.19474+01 | 1486612421.19474 | pgbench_tellers  |           139264
 2017-02-09 04:53:41.19474+01 | 1486612421.19474 | pgbench_history  |                0
 2017-02-09 04:53:41.19474+01 | 1486612421.19474 | pgbench_branches |            16384

 2017-02-09 04:53:42.375659+01 | 1486612422.37566 | pgbench_accounts |       4028858368
 2017-02-09 04:53:42.375659+01 | 1486612422.37566 | pgbench_tellers  |           139264
 2017-02-09 04:53:42.375659+01 | 1486612422.37566 | pgbench_history  |                0
 2017-02-09 04:53:42.375659+01 | 1486612422.37566 | pgbench_branches |            16384

 2017-02-09 04:53:43.559247+01 | 1486612423.55925 | pgbench_accounts |       4028858368
 2017-02-09 04:53:43.559247+01 | 1486612423.55925 | pgbench_tellers  |           139264
 2017-02-09 04:53:43.559247+01 | 1486612423.55925 | pgbench_history  |                0
 2017-02-09 04:53:43.559247+01 | 1486612423.55925 | pgbench_branches |            16384

 2017-02-09 04:53:44.743078+01 | 1486612424.74308 | pgbench_accounts |       4028858368
 2017-02-09 04:53:44.743078+01 | 1486612424.74308 | pgbench_tellers  |           139264
 2017-02-09 04:53:44.743078+01 | 1486612424.74308 | pgbench_history  |                0
 2017-02-09 04:53:44.743078+01 | 1486612424.74308 | pgbench_branches |            16384

 2017-02-09 04:53:45.925841+01 | 1486612425.92584 | pgbench_accounts |       4028858368
 2017-02-09 04:53:45.925841+01 | 1486612425.92584 | pgbench_tellers  |           139264
 2017-02-09 04:53:45.925841+01 | 1486612425.92584 | pgbench_history  |                0
 2017-02-09 04:53:45.925841+01 | 1486612425.92584 | pgbench_branches |            16384

 2017-02-09 04:53:47.107951+01 | 1486612427.10795 | pgbench_accounts |       4028858368
 2017-02-09 04:53:47.107951+01 | 1486612427.10795 | pgbench_tellers  |           139264
 2017-02-09 04:53:47.107951+01 | 1486612427.10795 | pgbench_history  |                0
 2017-02-09 04:53:47.107951+01 | 1486612427.10795 | pgbench_branches |            16384

 2017-02-09 04:53:48.281416+01 | 1486612428.28142 | pgbench_accounts |       4028858368
 2017-02-09 04:53:48.281416+01 | 1486612428.28142 | pgbench_tellers  |           139264
 2017-02-09 04:53:48.281416+01 | 1486612428.28142 | pgbench_history  |                0
 2017-02-09 04:53:48.281416+01 | 1486612428.28142 | pgbench_branches |            16384

 2017-02-09 04:53:49.463707+01 | 1486612429.46371 | pgbench_accounts |       4028858368
 2017-02-09 04:53:49.463707+01 | 1486612429.46371 | pgbench_tellers  |           139264
 2017-02-09 04:53:49.463707+01 | 1486612429.46371 | pgbench_history  |                0
 2017-02-09 04:53:49.463707+01 | 1486612429.46371 | pgbench_branches |            16384

 2017-02-09 04:53:50.641112+01 | 1486612430.64111 | pgbench_accounts |       4028858368
 2017-02-09 04:53:50.641112+01 | 1486612430.64111 | pgbench_tellers  |           139264
 2017-02-09 04:53:50.641112+01 | 1486612430.64111 | pgbench_history  |                0
 2017-02-09 04:53:50.641112+01 | 1486612430.64111 | pgbench_branches |            16384

 2017-02-09 04:53:51.824745+01 | 1486612431.82474 | pgbench_accounts |       4028858368
 2017-02-09 04:53:51.824745+01 | 1486612431.82474 | pgbench_tellers  |           139264
 2017-02-09 04:53:51.824745+01 | 1486612431.82474 | pgbench_history  |                0
 2017-02-09 04:53:51.824745+01 | 1486612431.82474 | pgbench_branches |            16384

 2017-02-09 04:53:53.006301+01 | 1486612433.0063 | pgbench_accounts |       4028858368
 2017-02-09 04:53:53.006301+01 | 1486612433.0063 | pgbench_tellers  |           139264
 2017-02-09 04:53:53.006301+01 | 1486612433.0063 | pgbench_history  |                0
 2017-02-09 04:53:53.006301+01 | 1486612433.0063 | pgbench_branches |            16384

 2017-02-09 04:53:54.189742+01 | 1486612434.18974 | pgbench_accounts |       4028858368
 2017-02-09 04:53:54.189742+01 | 1486612434.18974 | pgbench_tellers  |           139264
 2017-02-09 04:53:54.189742+01 | 1486612434.18974 | pgbench_history  |                0
 2017-02-09 04:53:54.189742+01 | 1486612434.18974 | pgbench_branches |            16384

 2017-02-09 04:53:55.371653+01 | 1486612435.37165 | pgbench_accounts |       4028858368
 2017-02-09 04:53:55.371653+01 | 1486612435.37165 | pgbench_tellers  |           139264
 2017-02-09 04:53:55.371653+01 | 1486612435.37165 | pgbench_history  |                0
 2017-02-09 04:53:55.371653+01 | 1486612435.37165 | pgbench_branches |            16384

 2017-02-09 04:53:56.554259+01 | 1486612436.55426 | pgbench_accounts |       4028858368
 2017-02-09 04:53:56.554259+01 | 1486612436.55426 | pgbench_tellers  |           139264
 2017-02-09 04:53:56.554259+01 | 1486612436.55426 | pgbench_history  |                0
 2017-02-09 04:53:56.554259+01 | 1486612436.55426 | pgbench_branches |            16384

 2017-02-09 04:53:57.739711+01 | 1486612437.73971 | pgbench_accounts |       4028858368
 2017-02-09 04:53:57.739711+01 | 1486612437.73971 | pgbench_tellers  |           139264
 2017-02-09 04:53:57.739711+01 | 1486612437.73971 | pgbench_history  |                0
 2017-02-09 04:53:57.739711+01 | 1486612437.73971 | pgbench_branches |            16384

 2017-02-09 04:53:58.923068+01 | 1486612438.92307 | pgbench_accounts |       4028858368
 2017-02-09 04:53:58.923068+01 | 1486612438.92307 | pgbench_tellers  |           139264
 2017-02-09 04:53:58.923068+01 | 1486612438.92307 | pgbench_history  |                0
 2017-02-09 04:53:58.923068+01 | 1486612438.92307 | pgbench_branches |            16384

 2017-02-09 04:54:00.103755+01 | 1486612440.10375 | pgbench_accounts |       4028858368
 2017-02-09 04:54:00.103755+01 | 1486612440.10375 | pgbench_tellers  |           139264
 2017-02-09 04:54:00.103755+01 | 1486612440.10375 | pgbench_history  |                0
 2017-02-09 04:54:00.103755+01 | 1486612440.10375 | pgbench_branches |            16384

 2017-02-09 04:54:01.284796+01 | 1486612441.2848 | pgbench_accounts |       4028858368
 2017-02-09 04:54:01.284796+01 | 1486612441.2848 | pgbench_tellers  |           139264
 2017-02-09 04:54:01.284796+01 | 1486612441.2848 | pgbench_history  |                0
 2017-02-09 04:54:01.284796+01 | 1486612441.2848 | pgbench_branches |            16384

 2017-02-09 04:54:02.469596+01 | 1486612442.4696 | pgbench_accounts |       4028858368
 2017-02-09 04:54:02.469596+01 | 1486612442.4696 | pgbench_tellers  |           139264
 2017-02-09 04:54:02.469596+01 | 1486612442.4696 | pgbench_history  |                0
 2017-02-09 04:54:02.469596+01 | 1486612442.4696 | pgbench_branches |            16384

 2017-02-09 04:54:03.655116+01 | 1486612443.65512 | pgbench_accounts |       4028858368
 2017-02-09 04:54:03.655116+01 | 1486612443.65512 | pgbench_tellers  |           139264
 2017-02-09 04:54:03.655116+01 | 1486612443.65512 | pgbench_history  |                0
 2017-02-09 04:54:03.655116+01 | 1486612443.65512 | pgbench_branches |            16384

 2017-02-09 04:54:04.824436+01 | 1486612444.82444 | pgbench_accounts |       4028858368
 2017-02-09 04:54:04.824436+01 | 1486612444.82444 | pgbench_tellers  |           139264
 2017-02-09 04:54:04.824436+01 | 1486612444.82444 | pgbench_history  |                0
 2017-02-09 04:54:04.824436+01 | 1486612444.82444 | pgbench_branches |            16384

 2017-02-09 04:54:06.007029+01 | 1486612446.00703 | pgbench_accounts |       4028858368
 2017-02-09 04:54:06.007029+01 | 1486612446.00703 | pgbench_tellers  |           139264
 2017-02-09 04:54:06.007029+01 | 1486612446.00703 | pgbench_history  |                0
 2017-02-09 04:54:06.007029+01 | 1486612446.00703 | pgbench_branches |            16384

 2017-02-09 04:54:07.191709+01 | 1486612447.19171 | pgbench_accounts |       4028858368
 2017-02-09 04:54:07.191709+01 | 1486612447.19171 | pgbench_tellers  |           139264
 2017-02-09 04:54:07.191709+01 | 1486612447.19171 | pgbench_history  |                0
 2017-02-09 04:54:07.191709+01 | 1486612447.19171 | pgbench_branches |            16384

 2017-02-09 04:54:08.375817+01 | 1486612448.37582 | pgbench_accounts |       4028858368
 2017-02-09 04:54:08.375817+01 | 1486612448.37582 | pgbench_tellers  |           139264
 2017-02-09 04:54:08.375817+01 | 1486612448.37582 | pgbench_history  |                0
 2017-02-09 04:54:08.375817+01 | 1486612448.37582 | pgbench_branches |            16384

 2017-02-09 04:54:09.526292+01 | 1486612449.52629 | pgbench_accounts |       4028858368
 2017-02-09 04:54:09.526292+01 | 1486612449.52629 | pgbench_tellers  |           139264
 2017-02-09 04:54:09.526292+01 | 1486612449.52629 | pgbench_history  |                0
 2017-02-09 04:54:09.526292+01 | 1486612449.52629 | pgbench_branches |            16384

 2017-02-09 04:54:10.668852+01 | 1486612450.66885 | pgbench_accounts |       4028858368
 2017-02-09 04:54:10.668852+01 | 1486612450.66885 | pgbench_tellers  |           139264
 2017-02-09 04:54:10.668852+01 | 1486612450.66885 | pgbench_history  |                0
 2017-02-09 04:54:10.668852+01 | 1486612450.66885 | pgbench_branches |            16384

 2017-02-09 04:54:11.854118+01 | 1486612451.85412 | pgbench_accounts |       4028858368
 2017-02-09 04:54:11.854118+01 | 1486612451.85412 | pgbench_tellers  |           139264
 2017-02-09 04:54:11.854118+01 | 1486612451.85412 | pgbench_history  |                0
 2017-02-09 04:54:11.854118+01 | 1486612451.85412 | pgbench_branches |            16384

 2017-02-09 04:54:13.035365+01 | 1486612453.03537 | pgbench_accounts |       4028858368
 2017-02-09 04:54:13.035365+01 | 1486612453.03537 | pgbench_tellers  |           139264
 2017-02-09 04:54:13.035365+01 | 1486612453.03537 | pgbench_history  |                0
 2017-02-09 04:54:13.035365+01 | 1486612453.03537 | pgbench_branches |            16384

 2017-02-09 04:54:14.216274+01 | 1486612454.21627 | pgbench_accounts |       4028858368
 2017-02-09 04:54:14.216274+01 | 1486612454.21627 | pgbench_tellers  |           139264
 2017-02-09 04:54:14.216274+01 | 1486612454.21627 | pgbench_history  |                0
 2017-02-09 04:54:14.216274+01 | 1486612454.21627 | pgbench_branches |            16384

 2017-02-09 04:54:15.396078+01 | 1486612455.39608 | pgbench_accounts |       4028858368
 2017-02-09 04:54:15.396078+01 | 1486612455.39608 | pgbench_tellers  |           139264
 2017-02-09 04:54:15.396078+01 | 1486612455.39608 | pgbench_history  |                0
 2017-02-09 04:54:15.396078+01 | 1486612455.39608 | pgbench_branches |            16384

 2017-02-09 04:54:16.57956+01 | 1486612456.57956 | pgbench_accounts |       4028858368
 2017-02-09 04:54:16.57956+01 | 1486612456.57956 | pgbench_tellers  |           139264
 2017-02-09 04:54:16.57956+01 | 1486612456.57956 | pgbench_history  |                0
 2017-02-09 04:54:16.57956+01 | 1486612456.57956 | pgbench_branches |            16384

 2017-02-09 04:54:17.761926+01 | 1486612457.76193 | pgbench_accounts |       4028858368
 2017-02-09 04:54:17.761926+01 | 1486612457.76193 | pgbench_tellers  |           139264
 2017-02-09 04:54:17.761926+01 | 1486612457.76193 | pgbench_history  |                0
 2017-02-09 04:54:17.761926+01 | 1486612457.76193 | pgbench_branches |            16384

 2017-02-09 04:54:18.944875+01 | 1486612458.94488 | pgbench_accounts |       4028858368
 2017-02-09 04:54:18.944875+01 | 1486612458.94488 | pgbench_tellers  |           139264
 2017-02-09 04:54:18.944875+01 | 1486612458.94488 | pgbench_history  |                0
 2017-02-09 04:54:18.944875+01 | 1486612458.94488 | pgbench_branches |            16384

 2017-02-09 04:54:20.115972+01 | 1486612460.11597 | pgbench_accounts |       4028858368
 2017-02-09 04:54:20.115972+01 | 1486612460.11597 | pgbench_tellers  |           139264
 2017-02-09 04:54:20.115972+01 | 1486612460.11597 | pgbench_history  |                0
 2017-02-09 04:54:20.115972+01 | 1486612460.11597 | pgbench_branches |            16384

 2017-02-09 04:54:21.249472+01 | 1486612461.24947 | pgbench_accounts |       4028858368
 2017-02-09 04:54:21.249472+01 | 1486612461.24947 | pgbench_tellers  |           139264
 2017-02-09 04:54:21.249472+01 | 1486612461.24947 | pgbench_history  |                0
 2017-02-09 04:54:21.249472+01 | 1486612461.24947 | pgbench_branches |            16384

 2017-02-09 04:54:22.362011+01 | 1486612462.36201 | pgbench_accounts |       4028858368
 2017-02-09 04:54:22.362011+01 | 1486612462.36201 | pgbench_tellers  |           139264
 2017-02-09 04:54:22.362011+01 | 1486612462.36201 | pgbench_history  |                0
 2017-02-09 04:54:22.362011+01 | 1486612462.36201 | pgbench_branches |            16384

 2017-02-09 04:54:23.467193+01 | 1486612463.46719 | pgbench_accounts |       4028858368
 2017-02-09 04:54:23.467193+01 | 1486612463.46719 | pgbench_tellers  |           139264
 2017-02-09 04:54:23.467193+01 | 1486612463.46719 | pgbench_history  |                0
 2017-02-09 04:54:23.467193+01 | 1486612463.46719 | pgbench_branches |            16384

 2017-02-09 04:54:24.581472+01 | 1486612464.58147 | pgbench_accounts |       4028858368
 2017-02-09 04:54:24.581472+01 | 1486612464.58147 | pgbench_tellers  |           139264
 2017-02-09 04:54:24.581472+01 | 1486612464.58147 | pgbench_history  |                0
 2017-02-09 04:54:24.581472+01 | 1486612464.58147 | pgbench_branches |            16384

 2017-02-09 04:54:25.740524+01 | 1486612465.74052 | pgbench_accounts |       4028858368
 2017-02-09 04:54:25.740524+01 | 1486612465.74052 | pgbench_tellers  |           139264
 2017-02-09 04:54:25.740524+01 | 1486612465.74052 | pgbench_history  |                0
 2017-02-09 04:54:25.740524+01 | 1486612465.74052 | pgbench_branches |            16384

 2017-02-09 04:54:26.922522+01 | 1486612466.92252 | pgbench_accounts |       4028858368
 2017-02-09 04:54:26.922522+01 | 1486612466.92252 | pgbench_tellers  |           139264
 2017-02-09 04:54:26.922522+01 | 1486612466.92252 | pgbench_history  |                0
 2017-02-09 04:54:26.922522+01 | 1486612466.92252 | pgbench_branches |            16384

 2017-02-09 04:54:28.075063+01 | 1486612468.07506 | pgbench_accounts |       4028858368
 2017-02-09 04:54:28.075063+01 | 1486612468.07506 | pgbench_tellers  |           139264
 2017-02-09 04:54:28.075063+01 | 1486612468.07506 | pgbench_history  |                0
 2017-02-09 04:54:28.075063+01 | 1486612468.07506 | pgbench_branches |            16384

 2017-02-09 04:54:29.202956+01 | 1486612469.20296 | pgbench_accounts |       4028858368
 2017-02-09 04:54:29.202956+01 | 1486612469.20296 | pgbench_tellers  |           139264
 2017-02-09 04:54:29.202956+01 | 1486612469.20296 | pgbench_history  |                0
 2017-02-09 04:54:29.202956+01 | 1486612469.20296 | pgbench_branches |            16384

 2017-02-09 04:54:30.34856+01 | 1486612470.34856 | pgbench_accounts |       4028858368
 2017-02-09 04:54:30.34856+01 | 1486612470.34856 | pgbench_tellers  |           139264
 2017-02-09 04:54:30.34856+01 | 1486612470.34856 | pgbench_history  |                0
 2017-02-09 04:54:30.34856+01 | 1486612470.34856 | pgbench_branches |            16384

 2017-02-09 04:54:31.534198+01 | 1486612471.5342 | pgbench_accounts |       4028858368
 2017-02-09 04:54:31.534198+01 | 1486612471.5342 | pgbench_tellers  |           139264
 2017-02-09 04:54:31.534198+01 | 1486612471.5342 | pgbench_history  |                0
 2017-02-09 04:54:31.534198+01 | 1486612471.5342 | pgbench_branches |            16384

 2017-02-09 04:54:32.72015+01 | 1486612472.72015 | pgbench_accounts |       4028858368
 2017-02-09 04:54:32.72015+01 | 1486612472.72015 | pgbench_tellers  |           139264
 2017-02-09 04:54:32.72015+01 | 1486612472.72015 | pgbench_history  |                0
 2017-02-09 04:54:32.72015+01 | 1486612472.72015 | pgbench_branches |            16384

 2017-02-09 04:54:33.885605+01 | 1486612473.88561 | pgbench_accounts |       4028858368
 2017-02-09 04:54:33.885605+01 | 1486612473.88561 | pgbench_tellers  |           139264
 2017-02-09 04:54:33.885605+01 | 1486612473.88561 | pgbench_history  |                0
 2017-02-09 04:54:33.885605+01 | 1486612473.88561 | pgbench_branches |            16384

 2017-02-09 04:54:35.052669+01 | 1486612475.05267 | pgbench_accounts |       4028858368
 2017-02-09 04:54:35.052669+01 | 1486612475.05267 | pgbench_tellers  |           139264
 2017-02-09 04:54:35.052669+01 | 1486612475.05267 | pgbench_history  |                0
 2017-02-09 04:54:35.052669+01 | 1486612475.05267 | pgbench_branches |            16384

 2017-02-09 04:54:36.232367+01 | 1486612476.23237 | pgbench_accounts |       4028858368
 2017-02-09 04:54:36.232367+01 | 1486612476.23237 | pgbench_tellers  |           139264
 2017-02-09 04:54:36.232367+01 | 1486612476.23237 | pgbench_history  |                0
 2017-02-09 04:54:36.232367+01 | 1486612476.23237 | pgbench_branches |            16384

 2017-02-09 04:54:37.416798+01 | 1486612477.4168 | pgbench_accounts |       4028858368
 2017-02-09 04:54:37.416798+01 | 1486612477.4168 | pgbench_tellers  |           139264
 2017-02-09 04:54:37.416798+01 | 1486612477.4168 | pgbench_history  |                0
 2017-02-09 04:54:37.416798+01 | 1486612477.4168 | pgbench_branches |            16384

 2017-02-09 04:54:38.599014+01 | 1486612478.59901 | pgbench_accounts |       4028858368
 2017-02-09 04:54:38.599014+01 | 1486612478.59901 | pgbench_tellers  |           139264
 2017-02-09 04:54:38.599014+01 | 1486612478.59901 | pgbench_history  |                0
 2017-02-09 04:54:38.599014+01 | 1486612478.59901 | pgbench_branches |            16384

 2017-02-09 04:54:39.777884+01 | 1486612479.77788 | pgbench_accounts |       4028858368
 2017-02-09 04:54:39.777884+01 | 1486612479.77788 | pgbench_tellers  |           139264
 2017-02-09 04:54:39.777884+01 | 1486612479.77788 | pgbench_history  |                0
 2017-02-09 04:54:39.777884+01 | 1486612479.77788 | pgbench_branches |            16384

 2017-02-09 04:54:40.959921+01 | 1486612480.95992 | pgbench_accounts |       4028858368
 2017-02-09 04:54:40.959921+01 | 1486612480.95992 | pgbench_tellers  |           139264
 2017-02-09 04:54:40.959921+01 | 1486612480.95992 | pgbench_history  |                0
 2017-02-09 04:54:40.959921+01 | 1486612480.95992 | pgbench_branches |            16384

 2017-02-09 04:54:42.141562+01 | 1486612482.14156 | pgbench_accounts |       4028858368
 2017-02-09 04:54:42.141562+01 | 1486612482.14156 | pgbench_tellers  |           139264
 2017-02-09 04:54:42.141562+01 | 1486612482.14156 | pgbench_history  |                0
 2017-02-09 04:54:42.141562+01 | 1486612482.14156 | pgbench_branches |            16384

 2017-02-09 04:54:43.321863+01 | 1486612483.32186 | pgbench_accounts |       4028858368
 2017-02-09 04:54:43.321863+01 | 1486612483.32186 | pgbench_tellers  |           139264
 2017-02-09 04:54:43.321863+01 | 1486612483.32186 | pgbench_history  |                0
 2017-02-09 04:54:43.321863+01 | 1486612483.32186 | pgbench_branches |            16384

 2017-02-09 04:54:44.485115+01 | 1486612484.48512 | pgbench_accounts |       4028858368
 2017-02-09 04:54:44.485115+01 | 1486612484.48512 | pgbench_tellers  |           139264
 2017-02-09 04:54:44.485115+01 | 1486612484.48512 | pgbench_history  |                0
 2017-02-09 04:54:44.485115+01 | 1486612484.48512 | pgbench_branches |            16384

 2017-02-09 04:54:45.624289+01 | 1486612485.62429 | pgbench_accounts |       4028858368
 2017-02-09 04:54:45.624289+01 | 1486612485.62429 | pgbench_tellers  |           139264
 2017-02-09 04:54:45.624289+01 | 1486612485.62429 | pgbench_history  |                0
 2017-02-09 04:54:45.624289+01 | 1486612485.62429 | pgbench_branches |            16384

 2017-02-09 04:54:46.808194+01 | 1486612486.80819 | pgbench_accounts |       4028858368
 2017-02-09 04:54:46.808194+01 | 1486612486.80819 | pgbench_tellers  |           139264
 2017-02-09 04:54:46.808194+01 | 1486612486.80819 | pgbench_history  |                0
 2017-02-09 04:54:46.808194+01 | 1486612486.80819 | pgbench_branches |            16384

 2017-02-09 04:54:47.99106+01 | 1486612487.99106 | pgbench_accounts |       4028858368
 2017-02-09 04:54:47.99106+01 | 1486612487.99106 | pgbench_tellers  |           139264
 2017-02-09 04:54:47.99106+01 | 1486612487.99106 | pgbench_history  |                0
 2017-02-09 04:54:47.99106+01 | 1486612487.99106 | pgbench_branches |            16384

 2017-02-09 04:54:49.174297+01 | 1486612489.1743 | pgbench_accounts |       4028858368
 2017-02-09 04:54:49.174297+01 | 1486612489.1743 | pgbench_tellers  |           139264
 2017-02-09 04:54:49.174297+01 | 1486612489.1743 | pgbench_history  |                0
 2017-02-09 04:54:49.174297+01 | 1486612489.1743 | pgbench_branches |            16384

 2017-02-09 04:54:50.357133+01 | 1486612490.35713 | pgbench_accounts |       4028858368
 2017-02-09 04:54:50.357133+01 | 1486612490.35713 | pgbench_tellers  |           139264
 2017-02-09 04:54:50.357133+01 | 1486612490.35713 | pgbench_history  |                0
 2017-02-09 04:54:50.357133+01 | 1486612490.35713 | pgbench_branches |            16384

 2017-02-09 04:54:51.514289+01 | 1486612491.51429 | pgbench_accounts |       4028858368
 2017-02-09 04:54:51.514289+01 | 1486612491.51429 | pgbench_tellers  |           139264
 2017-02-09 04:54:51.514289+01 | 1486612491.51429 | pgbench_history  |                0
 2017-02-09 04:54:51.514289+01 | 1486612491.51429 | pgbench_branches |            16384

 2017-02-09 04:54:52.695561+01 | 1486612492.69556 | pgbench_accounts |       4028858368
 2017-02-09 04:54:52.695561+01 | 1486612492.69556 | pgbench_tellers  |           139264
 2017-02-09 04:54:52.695561+01 | 1486612492.69556 | pgbench_history  |                0
 2017-02-09 04:54:52.695561+01 | 1486612492.69556 | pgbench_branches |            16384

 2017-02-09 04:54:53.867602+01 | 1486612493.8676 | pgbench_accounts |       4028858368
 2017-02-09 04:54:53.867602+01 | 1486612493.8676 | pgbench_tellers  |           139264
 2017-02-09 04:54:53.867602+01 | 1486612493.8676 | pgbench_history  |                0
 2017-02-09 04:54:53.867602+01 | 1486612493.8676 | pgbench_branches |            16384

 2017-02-09 04:54:55.034382+01 | 1486612495.03438 | pgbench_accounts |       4028858368
 2017-02-09 04:54:55.034382+01 | 1486612495.03438 | pgbench_tellers  |           139264
 2017-02-09 04:54:55.034382+01 | 1486612495.03438 | pgbench_history  |                0
 2017-02-09 04:54:55.034382+01 | 1486612495.03438 | pgbench_branches |            16384

 2017-02-09 04:54:56.216698+01 | 1486612496.2167 | pgbench_accounts |       4028858368
 2017-02-09 04:54:56.216698+01 | 1486612496.2167 | pgbench_tellers  |           139264
 2017-02-09 04:54:56.216698+01 | 1486612496.2167 | pgbench_history  |                0
 2017-02-09 04:54:56.216698+01 | 1486612496.2167 | pgbench_branches |            16384

 2017-02-09 04:54:57.367982+01 | 1486612497.36798 | pgbench_accounts |       4028858368
 2017-02-09 04:54:57.367982+01 | 1486612497.36798 | pgbench_tellers  |           139264
 2017-02-09 04:54:57.367982+01 | 1486612497.36798 | pgbench_history  |                0
 2017-02-09 04:54:57.367982+01 | 1486612497.36798 | pgbench_branches |            16384

 2017-02-09 04:54:58.550973+01 | 1486612498.55097 | pgbench_accounts |       4028858368
 2017-02-09 04:54:58.550973+01 | 1486612498.55097 | pgbench_tellers  |           139264
 2017-02-09 04:54:58.550973+01 | 1486612498.55097 | pgbench_history  |                0
 2017-02-09 04:54:58.550973+01 | 1486612498.55097 | pgbench_branches |            16384

 2017-02-09 04:54:59.733895+01 | 1486612499.7339 | pgbench_accounts |       4028858368
 2017-02-09 04:54:59.733895+01 | 1486612499.7339 | pgbench_tellers  |           139264
 2017-02-09 04:54:59.733895+01 | 1486612499.7339 | pgbench_history  |                0
 2017-02-09 04:54:59.733895+01 | 1486612499.7339 | pgbench_branches |            16384

 2017-02-09 04:55:00.90801+01 | 1486612500.90801 | pgbench_accounts |       4028858368
 2017-02-09 04:55:00.90801+01 | 1486612500.90801 | pgbench_tellers  |           139264
 2017-02-09 04:55:00.90801+01 | 1486612500.90801 | pgbench_history  |                0
 2017-02-09 04:55:00.90801+01 | 1486612500.90801 | pgbench_branches |            16384

 2017-02-09 04:55:02.083515+01 | 1486612502.08351 | pgbench_accounts |       4028858368
 2017-02-09 04:55:02.083515+01 | 1486612502.08351 | pgbench_tellers  |           139264
 2017-02-09 04:55:02.083515+01 | 1486612502.08351 | pgbench_history  |                0
 2017-02-09 04:55:02.083515+01 | 1486612502.08351 | pgbench_branches |            16384

 2017-02-09 04:55:03.268289+01 | 1486612503.26829 | pgbench_accounts |       4028858368
 2017-02-09 04:55:03.268289+01 | 1486612503.26829 | pgbench_tellers  |           139264
 2017-02-09 04:55:03.268289+01 | 1486612503.26829 | pgbench_history  |                0
 2017-02-09 04:55:03.268289+01 | 1486612503.26829 | pgbench_branches |            16384

 2017-02-09 04:55:04.450543+01 | 1486612504.45054 | pgbench_accounts |       4028858368
 2017-02-09 04:55:04.450543+01 | 1486612504.45054 | pgbench_tellers  |           139264
 2017-02-09 04:55:04.450543+01 | 1486612504.45054 | pgbench_history  |                0
 2017-02-09 04:55:04.450543+01 | 1486612504.45054 | pgbench_branches |            16384

 2017-02-09 04:55:05.635756+01 | 1486612505.63576 | pgbench_accounts |       4028858368
 2017-02-09 04:55:05.635756+01 | 1486612505.63576 | pgbench_tellers  |           139264
 2017-02-09 04:55:05.635756+01 | 1486612505.63576 | pgbench_history  |                0
 2017-02-09 04:55:05.635756+01 | 1486612505.63576 | pgbench_branches |            16384

 2017-02-09 04:55:06.818906+01 | 1486612506.81891 | pgbench_accounts |       4028858368
 2017-02-09 04:55:06.818906+01 | 1486612506.81891 | pgbench_tellers  |           139264
 2017-02-09 04:55:06.818906+01 | 1486612506.81891 | pgbench_history  |                0
 2017-02-09 04:55:06.818906+01 | 1486612506.81891 | pgbench_branches |            16384

 2017-02-09 04:55:08.0019+01 | 1486612508.0019 | pgbench_accounts |       4028858368
 2017-02-09 04:55:08.0019+01 | 1486612508.0019 | pgbench_tellers  |           139264
 2017-02-09 04:55:08.0019+01 | 1486612508.0019 | pgbench_history  |                0
 2017-02-09 04:55:08.0019+01 | 1486612508.0019 | pgbench_branches |            16384

 2017-02-09 04:55:09.175669+01 | 1486612509.17567 | pgbench_accounts |       4028858368
 2017-02-09 04:55:09.175669+01 | 1486612509.17567 | pgbench_tellers  |           139264
 2017-02-09 04:55:09.175669+01 | 1486612509.17567 | pgbench_history  |                0
 2017-02-09 04:55:09.175669+01 | 1486612509.17567 | pgbench_branches |            16384

 2017-02-09 04:55:10.294092+01 | 1486612510.29409 | pgbench_accounts |       4028858368
 2017-02-09 04:55:10.294092+01 | 1486612510.29409 | pgbench_tellers  |           139264
 2017-02-09 04:55:10.294092+01 | 1486612510.29409 | pgbench_history  |                0
 2017-02-09 04:55:10.294092+01 | 1486612510.29409 | pgbench_branches |            16384

 2017-02-09 04:55:11.475779+01 | 1486612511.47578 | pgbench_accounts |       4028858368
 2017-02-09 04:55:11.475779+01 | 1486612511.47578 | pgbench_tellers  |           139264
 2017-02-09 04:55:11.475779+01 | 1486612511.47578 | pgbench_history  |                0
 2017-02-09 04:55:11.475779+01 | 1486612511.47578 | pgbench_branches |            16384

 2017-02-09 04:55:12.661317+01 | 1486612512.66132 | pgbench_accounts |       4028858368
 2017-02-09 04:55:12.661317+01 | 1486612512.66132 | pgbench_tellers  |           139264
 2017-02-09 04:55:12.661317+01 | 1486612512.66132 | pgbench_history  |                0
 2017-02-09 04:55:12.661317+01 | 1486612512.66132 | pgbench_branches |            16384

 2017-02-09 04:55:13.845372+01 | 1486612513.84537 | pgbench_accounts |       4028858368
 2017-02-09 04:55:13.845372+01 | 1486612513.84537 | pgbench_tellers  |           139264
 2017-02-09 04:55:13.845372+01 | 1486612513.84537 | pgbench_history  |                0
 2017-02-09 04:55:13.845372+01 | 1486612513.84537 | pgbench_branches |            16384

 2017-02-09 04:55:15.031797+01 | 1486612515.0318 | pgbench_accounts |       4028858368
 2017-02-09 04:55:15.031797+01 | 1486612515.0318 | pgbench_tellers  |           139264
 2017-02-09 04:55:15.031797+01 | 1486612515.0318 | pgbench_history  |                0
 2017-02-09 04:55:15.031797+01 | 1486612515.0318 | pgbench_branches |            16384

 2017-02-09 04:55:16.219235+01 | 1486612516.21923 | pgbench_accounts |       4028858368
 2017-02-09 04:55:16.219235+01 | 1486612516.21923 | pgbench_tellers  |           139264
 2017-02-09 04:55:16.219235+01 | 1486612516.21923 | pgbench_history  |                0
 2017-02-09 04:55:16.219235+01 | 1486612516.21923 | pgbench_branches |            16384

 2017-02-09 04:55:17.398204+01 | 1486612517.3982 | pgbench_accounts |       4028858368
 2017-02-09 04:55:17.398204+01 | 1486612517.3982 | pgbench_tellers  |           139264
 2017-02-09 04:55:17.398204+01 | 1486612517.3982 | pgbench_history  |                0
 2017-02-09 04:55:17.398204+01 | 1486612517.3982 | pgbench_branches |            16384

 2017-02-09 04:55:18.581518+01 | 1486612518.58152 | pgbench_accounts |       4028858368
 2017-02-09 04:55:18.581518+01 | 1486612518.58152 | pgbench_tellers  |           139264
 2017-02-09 04:55:18.581518+01 | 1486612518.58152 | pgbench_history  |                0
 2017-02-09 04:55:18.581518+01 | 1486612518.58152 | pgbench_branches |            16384

 2017-02-09 04:55:19.763854+01 | 1486612519.76385 | pgbench_accounts |       4028858368
 2017-02-09 04:55:19.763854+01 | 1486612519.76385 | pgbench_tellers  |           139264
 2017-02-09 04:55:19.763854+01 | 1486612519.76385 | pgbench_history  |                0
 2017-02-09 04:55:19.763854+01 | 1486612519.76385 | pgbench_branches |            16384

 2017-02-09 04:55:20.945108+01 | 1486612520.94511 | pgbench_accounts |       4028858368
 2017-02-09 04:55:20.945108+01 | 1486612520.94511 | pgbench_tellers  |           139264
 2017-02-09 04:55:20.945108+01 | 1486612520.94511 | pgbench_history  |                0
 2017-02-09 04:55:20.945108+01 | 1486612520.94511 | pgbench_branches |            16384

 2017-02-09 04:55:22.096327+01 | 1486612522.09633 | pgbench_accounts |       4028858368
 2017-02-09 04:55:22.096327+01 | 1486612522.09633 | pgbench_tellers  |           139264
 2017-02-09 04:55:22.096327+01 | 1486612522.09633 | pgbench_history  |                0
 2017-02-09 04:55:22.096327+01 | 1486612522.09633 | pgbench_branches |            16384

 2017-02-09 04:55:23.221216+01 | 1486612523.22122 | pgbench_accounts |       4028858368
 2017-02-09 04:55:23.221216+01 | 1486612523.22122 | pgbench_tellers  |           139264
 2017-02-09 04:55:23.221216+01 | 1486612523.22122 | pgbench_history  |                0
 2017-02-09 04:55:23.221216+01 | 1486612523.22122 | pgbench_branches |            16384

 2017-02-09 04:55:24.376855+01 | 1486612524.37685 | pgbench_accounts |       4028858368
 2017-02-09 04:55:24.376855+01 | 1486612524.37685 | pgbench_tellers  |           139264
 2017-02-09 04:55:24.376855+01 | 1486612524.37685 | pgbench_history  |                0
 2017-02-09 04:55:24.376855+01 | 1486612524.37685 | pgbench_branches |            16384

 2017-02-09 04:55:25.550186+01 | 1486612525.55019 | pgbench_accounts |       4028858368
 2017-02-09 04:55:25.550186+01 | 1486612525.55019 | pgbench_tellers  |           139264
 2017-02-09 04:55:25.550186+01 | 1486612525.55019 | pgbench_history  |                0
 2017-02-09 04:55:25.550186+01 | 1486612525.55019 | pgbench_branches |            16384

 2017-02-09 04:55:26.726403+01 | 1486612526.7264 | pgbench_accounts |       4028858368
 2017-02-09 04:55:26.726403+01 | 1486612526.7264 | pgbench_tellers  |           139264
 2017-02-09 04:55:26.726403+01 | 1486612526.7264 | pgbench_history  |                0
 2017-02-09 04:55:26.726403+01 | 1486612526.7264 | pgbench_branches |            16384

 2017-02-09 04:55:27.896367+01 | 1486612527.89637 | pgbench_accounts |       4028858368
 2017-02-09 04:55:27.896367+01 | 1486612527.89637 | pgbench_tellers  |           139264
 2017-02-09 04:55:27.896367+01 | 1486612527.89637 | pgbench_history  |                0
 2017-02-09 04:55:27.896367+01 | 1486612527.89637 | pgbench_branches |            16384

 2017-02-09 04:55:29.078554+01 | 1486612529.07855 | pgbench_accounts |       4028858368
 2017-02-09 04:55:29.078554+01 | 1486612529.07855 | pgbench_tellers  |           139264
 2017-02-09 04:55:29.078554+01 | 1486612529.07855 | pgbench_history  |                0
 2017-02-09 04:55:29.078554+01 | 1486612529.07855 | pgbench_branches |            16384

