 2017-02-09 05:15:31.035416+01 | 1486613731.03542 | pgbench_branches_pkey |            16384
 2017-02-09 05:15:31.035416+01 | 1486613731.03542 | pgbench_tellers_pkey  |            90112
 2017-02-09 05:15:31.035416+01 | 1486613731.03542 | pgbench_accounts_pkey |        673882112

 2017-02-09 05:15:32.40118+01 | 1486613732.40118 | pgbench_branches_pkey |            16384
 2017-02-09 05:15:32.40118+01 | 1486613732.40118 | pgbench_tellers_pkey  |            90112
 2017-02-09 05:15:32.40118+01 | 1486613732.40118 | pgbench_accounts_pkey |        673882112

 2017-02-09 05:15:33.773251+01 | 1486613733.77325 | pgbench_branches_pkey |            16384
 2017-02-09 05:15:33.773251+01 | 1486613733.77325 | pgbench_tellers_pkey  |            90112
 2017-02-09 05:15:33.773251+01 | 1486613733.77325 | pgbench_accounts_pkey |        673882112

 2017-02-09 05:15:35.191373+01 | 1486613735.19137 | pgbench_branches_pkey |            16384
 2017-02-09 05:15:35.191373+01 | 1486613735.19137 | pgbench_tellers_pkey  |            90112
 2017-02-09 05:15:35.191373+01 | 1486613735.19137 | pgbench_accounts_pkey |        673882112

 2017-02-09 05:15:36.527747+01 | 1486613736.52775 | pgbench_branches_pkey |            16384
 2017-02-09 05:15:36.527747+01 | 1486613736.52775 | pgbench_tellers_pkey  |            90112
 2017-02-09 05:15:36.527747+01 | 1486613736.52775 | pgbench_accounts_pkey |        673882112

 2017-02-09 05:15:37.92407+01 | 1486613737.92407 | pgbench_branches_pkey |            16384
 2017-02-09 05:15:37.92407+01 | 1486613737.92407 | pgbench_tellers_pkey  |            90112
 2017-02-09 05:15:37.92407+01 | 1486613737.92407 | pgbench_accounts_pkey |        673882112

 2017-02-09 05:15:39.373523+01 | 1486613739.37352 | pgbench_branches_pkey |            16384
 2017-02-09 05:15:39.373523+01 | 1486613739.37352 | pgbench_tellers_pkey  |            90112
 2017-02-09 05:15:39.373523+01 | 1486613739.37352 | pgbench_accounts_pkey |        673882112

 2017-02-09 05:15:40.731486+01 | 1486613740.73149 | pgbench_branches_pkey |            16384
 2017-02-09 05:15:40.731486+01 | 1486613740.73149 | pgbench_tellers_pkey  |            90112
 2017-02-09 05:15:40.731486+01 | 1486613740.73149 | pgbench_accounts_pkey |        673882112

 2017-02-09 05:15:42.13655+01 | 1486613742.13655 | pgbench_branches_pkey |            16384
 2017-02-09 05:15:42.13655+01 | 1486613742.13655 | pgbench_tellers_pkey  |            90112
 2017-02-09 05:15:42.13655+01 | 1486613742.13655 | pgbench_accounts_pkey |        673882112

 2017-02-09 05:15:43.500874+01 | 1486613743.50087 | pgbench_branches_pkey |            16384
 2017-02-09 05:15:43.500874+01 | 1486613743.50087 | pgbench_tellers_pkey  |            90112
 2017-02-09 05:15:43.500874+01 | 1486613743.50087 | pgbench_accounts_pkey |        673882112

 2017-02-09 05:15:44.892998+01 | 1486613744.893 | pgbench_branches_pkey |            16384
 2017-02-09 05:15:44.892998+01 | 1486613744.893 | pgbench_tellers_pkey  |            90112
 2017-02-09 05:15:44.892998+01 | 1486613744.893 | pgbench_accounts_pkey |        673882112

 2017-02-09 05:15:46.32935+01 | 1486613746.32935 | pgbench_branches_pkey |            16384
 2017-02-09 05:15:46.32935+01 | 1486613746.32935 | pgbench_tellers_pkey  |            90112
 2017-02-09 05:15:46.32935+01 | 1486613746.32935 | pgbench_accounts_pkey |        673882112

 2017-02-09 05:15:47.80629+01 | 1486613747.80629 | pgbench_branches_pkey |            16384
 2017-02-09 05:15:47.80629+01 | 1486613747.80629 | pgbench_tellers_pkey  |            90112
 2017-02-09 05:15:47.80629+01 | 1486613747.80629 | pgbench_accounts_pkey |        673882112

 2017-02-09 05:15:49.161673+01 | 1486613749.16167 | pgbench_branches_pkey |            16384
 2017-02-09 05:15:49.161673+01 | 1486613749.16167 | pgbench_tellers_pkey  |            90112
 2017-02-09 05:15:49.161673+01 | 1486613749.16167 | pgbench_accounts_pkey |        673882112

 2017-02-09 05:15:50.505388+01 | 1486613750.50539 | pgbench_branches_pkey |            16384
 2017-02-09 05:15:50.505388+01 | 1486613750.50539 | pgbench_tellers_pkey  |            90112
 2017-02-09 05:15:50.505388+01 | 1486613750.50539 | pgbench_accounts_pkey |        673882112

 2017-02-09 05:15:51.875013+01 | 1486613751.87501 | pgbench_branches_pkey |            16384
 2017-02-09 05:15:51.875013+01 | 1486613751.87501 | pgbench_tellers_pkey  |            90112
 2017-02-09 05:15:51.875013+01 | 1486613751.87501 | pgbench_accounts_pkey |        673882112

 2017-02-09 05:15:53.27942+01 | 1486613753.27942 | pgbench_branches_pkey |            16384
 2017-02-09 05:15:53.27942+01 | 1486613753.27942 | pgbench_tellers_pkey  |            90112
 2017-02-09 05:15:53.27942+01 | 1486613753.27942 | pgbench_accounts_pkey |        673882112

 2017-02-09 05:15:54.692386+01 | 1486613754.69239 | pgbench_branches_pkey |            16384
 2017-02-09 05:15:54.692386+01 | 1486613754.69239 | pgbench_tellers_pkey  |            90112
 2017-02-09 05:15:54.692386+01 | 1486613754.69239 | pgbench_accounts_pkey |        673882112

 2017-02-09 05:15:56.035602+01 | 1486613756.0356 | pgbench_branches_pkey |            16384
 2017-02-09 05:15:56.035602+01 | 1486613756.0356 | pgbench_tellers_pkey  |            90112
 2017-02-09 05:15:56.035602+01 | 1486613756.0356 | pgbench_accounts_pkey |        673882112

 2017-02-09 05:15:57.361878+01 | 1486613757.36188 | pgbench_branches_pkey |            16384
 2017-02-09 05:15:57.361878+01 | 1486613757.36188 | pgbench_tellers_pkey  |            90112
 2017-02-09 05:15:57.361878+01 | 1486613757.36188 | pgbench_accounts_pkey |        673882112

 2017-02-09 05:15:58.708183+01 | 1486613758.70818 | pgbench_branches_pkey |            16384
 2017-02-09 05:15:58.708183+01 | 1486613758.70818 | pgbench_tellers_pkey  |            90112
 2017-02-09 05:15:58.708183+01 | 1486613758.70818 | pgbench_accounts_pkey |        673882112

 2017-02-09 05:16:00.026468+01 | 1486613760.02647 | pgbench_branches_pkey |            16384
 2017-02-09 05:16:00.026468+01 | 1486613760.02647 | pgbench_tellers_pkey  |            90112
 2017-02-09 05:16:00.026468+01 | 1486613760.02647 | pgbench_accounts_pkey |        673882112

 2017-02-09 05:16:01.326359+01 | 1486613761.32636 | pgbench_branches_pkey |            16384
 2017-02-09 05:16:01.326359+01 | 1486613761.32636 | pgbench_tellers_pkey  |            90112
 2017-02-09 05:16:01.326359+01 | 1486613761.32636 | pgbench_accounts_pkey |        673882112

 2017-02-09 05:16:02.664638+01 | 1486613762.66464 | pgbench_branches_pkey |            16384
 2017-02-09 05:16:02.664638+01 | 1486613762.66464 | pgbench_tellers_pkey  |            90112
 2017-02-09 05:16:02.664638+01 | 1486613762.66464 | pgbench_accounts_pkey |        673882112

 2017-02-09 05:16:03.992859+01 | 1486613763.99286 | pgbench_branches_pkey |            16384
 2017-02-09 05:16:03.992859+01 | 1486613763.99286 | pgbench_tellers_pkey  |            90112
 2017-02-09 05:16:03.992859+01 | 1486613763.99286 | pgbench_accounts_pkey |        673882112

 2017-02-09 05:16:05.303921+01 | 1486613765.30392 | pgbench_branches_pkey |            16384
 2017-02-09 05:16:05.303921+01 | 1486613765.30392 | pgbench_tellers_pkey  |            90112
 2017-02-09 05:16:05.303921+01 | 1486613765.30392 | pgbench_accounts_pkey |        673882112

 2017-02-09 05:16:06.644255+01 | 1486613766.64425 | pgbench_branches_pkey |            16384
 2017-02-09 05:16:06.644255+01 | 1486613766.64425 | pgbench_tellers_pkey  |            90112
 2017-02-09 05:16:06.644255+01 | 1486613766.64425 | pgbench_accounts_pkey |        673882112

 2017-02-09 05:16:08.025437+01 | 1486613768.02544 | pgbench_branches_pkey |            16384
 2017-02-09 05:16:08.025437+01 | 1486613768.02544 | pgbench_tellers_pkey  |            90112
 2017-02-09 05:16:08.025437+01 | 1486613768.02544 | pgbench_accounts_pkey |        673882112

 2017-02-09 05:16:09.427328+01 | 1486613769.42733 | pgbench_branches_pkey |            16384
 2017-02-09 05:16:09.427328+01 | 1486613769.42733 | pgbench_tellers_pkey  |            90112
 2017-02-09 05:16:09.427328+01 | 1486613769.42733 | pgbench_accounts_pkey |        673882112

 2017-02-09 05:16:10.813978+01 | 1486613770.81398 | pgbench_branches_pkey |            16384
 2017-02-09 05:16:10.813978+01 | 1486613770.81398 | pgbench_tellers_pkey  |            90112
 2017-02-09 05:16:10.813978+01 | 1486613770.81398 | pgbench_accounts_pkey |        673882112

 2017-02-09 05:16:12.217783+01 | 1486613772.21778 | pgbench_branches_pkey |            16384
 2017-02-09 05:16:12.217783+01 | 1486613772.21778 | pgbench_tellers_pkey  |            90112
 2017-02-09 05:16:12.217783+01 | 1486613772.21778 | pgbench_accounts_pkey |        673882112

 2017-02-09 05:16:13.543408+01 | 1486613773.54341 | pgbench_branches_pkey |            16384
 2017-02-09 05:16:13.543408+01 | 1486613773.54341 | pgbench_tellers_pkey  |            90112
 2017-02-09 05:16:13.543408+01 | 1486613773.54341 | pgbench_accounts_pkey |        673882112

 2017-02-09 05:16:14.857493+01 | 1486613774.85749 | pgbench_branches_pkey |            16384
 2017-02-09 05:16:14.857493+01 | 1486613774.85749 | pgbench_tellers_pkey  |            90112
 2017-02-09 05:16:14.857493+01 | 1486613774.85749 | pgbench_accounts_pkey |        673882112

 2017-02-09 05:16:16.250165+01 | 1486613776.25016 | pgbench_branches_pkey |            16384
 2017-02-09 05:16:16.250165+01 | 1486613776.25016 | pgbench_tellers_pkey  |            90112
 2017-02-09 05:16:16.250165+01 | 1486613776.25016 | pgbench_accounts_pkey |        673882112

 2017-02-09 05:16:17.666519+01 | 1486613777.66652 | pgbench_branches_pkey |            16384
 2017-02-09 05:16:17.666519+01 | 1486613777.66652 | pgbench_tellers_pkey  |            90112
 2017-02-09 05:16:17.666519+01 | 1486613777.66652 | pgbench_accounts_pkey |        673882112

 2017-02-09 05:16:19.037186+01 | 1486613779.03719 | pgbench_branches_pkey |            16384
 2017-02-09 05:16:19.037186+01 | 1486613779.03719 | pgbench_tellers_pkey  |            90112
 2017-02-09 05:16:19.037186+01 | 1486613779.03719 | pgbench_accounts_pkey |        673882112

 2017-02-09 05:16:20.489996+01 | 1486613780.49 | pgbench_branches_pkey |            16384
 2017-02-09 05:16:20.489996+01 | 1486613780.49 | pgbench_tellers_pkey  |            90112
 2017-02-09 05:16:20.489996+01 | 1486613780.49 | pgbench_accounts_pkey |        673882112

 2017-02-09 05:16:21.866173+01 | 1486613781.86617 | pgbench_branches_pkey |            16384
 2017-02-09 05:16:21.866173+01 | 1486613781.86617 | pgbench_tellers_pkey  |            90112
 2017-02-09 05:16:21.866173+01 | 1486613781.86617 | pgbench_accounts_pkey |        673882112

 2017-02-09 05:16:23.17747+01 | 1486613783.17747 | pgbench_branches_pkey |            16384
 2017-02-09 05:16:23.17747+01 | 1486613783.17747 | pgbench_tellers_pkey  |            90112
 2017-02-09 05:16:23.17747+01 | 1486613783.17747 | pgbench_accounts_pkey |        673882112

 2017-02-09 05:16:24.54922+01 | 1486613784.54922 | pgbench_branches_pkey |            16384
 2017-02-09 05:16:24.54922+01 | 1486613784.54922 | pgbench_tellers_pkey  |            90112
 2017-02-09 05:16:24.54922+01 | 1486613784.54922 | pgbench_accounts_pkey |        673882112

 2017-02-09 05:16:25.927675+01 | 1486613785.92768 | pgbench_branches_pkey |            16384
 2017-02-09 05:16:25.927675+01 | 1486613785.92768 | pgbench_tellers_pkey  |            90112
 2017-02-09 05:16:25.927675+01 | 1486613785.92768 | pgbench_accounts_pkey |        673882112

 2017-02-09 05:16:27.315991+01 | 1486613787.31599 | pgbench_branches_pkey |            16384
 2017-02-09 05:16:27.315991+01 | 1486613787.31599 | pgbench_tellers_pkey  |            90112
 2017-02-09 05:16:27.315991+01 | 1486613787.31599 | pgbench_accounts_pkey |        673882112

 2017-02-09 05:16:28.614204+01 | 1486613788.6142 | pgbench_branches_pkey |            16384
 2017-02-09 05:16:28.614204+01 | 1486613788.6142 | pgbench_tellers_pkey  |            90112
 2017-02-09 05:16:28.614204+01 | 1486613788.6142 | pgbench_accounts_pkey |        673882112

 2017-02-09 05:16:29.889028+01 | 1486613789.88903 | pgbench_branches_pkey |            16384
 2017-02-09 05:16:29.889028+01 | 1486613789.88903 | pgbench_tellers_pkey  |            90112
 2017-02-09 05:16:29.889028+01 | 1486613789.88903 | pgbench_accounts_pkey |        673882112

 2017-02-09 05:16:31.225781+01 | 1486613791.22578 | pgbench_branches_pkey |            16384
 2017-02-09 05:16:31.225781+01 | 1486613791.22578 | pgbench_tellers_pkey  |            90112
 2017-02-09 05:16:31.225781+01 | 1486613791.22578 | pgbench_accounts_pkey |        673882112

 2017-02-09 05:16:32.550265+01 | 1486613792.55027 | pgbench_branches_pkey |            16384
 2017-02-09 05:16:32.550265+01 | 1486613792.55027 | pgbench_tellers_pkey  |            90112
 2017-02-09 05:16:32.550265+01 | 1486613792.55027 | pgbench_accounts_pkey |        673882112

 2017-02-09 05:16:33.891637+01 | 1486613793.89164 | pgbench_branches_pkey |            16384
 2017-02-09 05:16:33.891637+01 | 1486613793.89164 | pgbench_tellers_pkey  |            90112
 2017-02-09 05:16:33.891637+01 | 1486613793.89164 | pgbench_accounts_pkey |        673882112

 2017-02-09 05:16:35.260849+01 | 1486613795.26085 | pgbench_branches_pkey |            16384
 2017-02-09 05:16:35.260849+01 | 1486613795.26085 | pgbench_tellers_pkey  |            90112
 2017-02-09 05:16:35.260849+01 | 1486613795.26085 | pgbench_accounts_pkey |        673882112

 2017-02-09 05:16:36.646131+01 | 1486613796.64613 | pgbench_branches_pkey |            16384
 2017-02-09 05:16:36.646131+01 | 1486613796.64613 | pgbench_tellers_pkey  |            90112
 2017-02-09 05:16:36.646131+01 | 1486613796.64613 | pgbench_accounts_pkey |        673882112

 2017-02-09 05:16:38.081615+01 | 1486613798.08161 | pgbench_branches_pkey |            16384
 2017-02-09 05:16:38.081615+01 | 1486613798.08161 | pgbench_tellers_pkey  |            90112
 2017-02-09 05:16:38.081615+01 | 1486613798.08161 | pgbench_accounts_pkey |        673882112

 2017-02-09 05:16:39.512156+01 | 1486613799.51216 | pgbench_branches_pkey |            16384
 2017-02-09 05:16:39.512156+01 | 1486613799.51216 | pgbench_tellers_pkey  |            90112
 2017-02-09 05:16:39.512156+01 | 1486613799.51216 | pgbench_accounts_pkey |        673882112

 2017-02-09 05:16:40.923122+01 | 1486613800.92312 | pgbench_branches_pkey |            16384
 2017-02-09 05:16:40.923122+01 | 1486613800.92312 | pgbench_tellers_pkey  |            90112
 2017-02-09 05:16:40.923122+01 | 1486613800.92312 | pgbench_accounts_pkey |        673882112

 2017-02-09 05:16:42.288644+01 | 1486613802.28864 | pgbench_branches_pkey |            16384
 2017-02-09 05:16:42.288644+01 | 1486613802.28864 | pgbench_tellers_pkey  |            90112
 2017-02-09 05:16:42.288644+01 | 1486613802.28864 | pgbench_accounts_pkey |        673882112

 2017-02-09 05:16:43.666104+01 | 1486613803.6661 | pgbench_branches_pkey |            16384
 2017-02-09 05:16:43.666104+01 | 1486613803.6661 | pgbench_tellers_pkey  |            90112
 2017-02-09 05:16:43.666104+01 | 1486613803.6661 | pgbench_accounts_pkey |        673882112

 2017-02-09 05:16:44.990397+01 | 1486613804.9904 | pgbench_branches_pkey |            16384
 2017-02-09 05:16:44.990397+01 | 1486613804.9904 | pgbench_tellers_pkey  |            90112
 2017-02-09 05:16:44.990397+01 | 1486613804.9904 | pgbench_accounts_pkey |        673882112

 2017-02-09 05:16:46.309495+01 | 1486613806.30949 | pgbench_branches_pkey |            16384
 2017-02-09 05:16:46.309495+01 | 1486613806.30949 | pgbench_tellers_pkey  |            90112
 2017-02-09 05:16:46.309495+01 | 1486613806.30949 | pgbench_accounts_pkey |        673882112

 2017-02-09 05:16:47.676085+01 | 1486613807.67608 | pgbench_branches_pkey |            16384
 2017-02-09 05:16:47.676085+01 | 1486613807.67608 | pgbench_tellers_pkey  |            90112
 2017-02-09 05:16:47.676085+01 | 1486613807.67608 | pgbench_accounts_pkey |        673882112

 2017-02-09 05:16:49.093631+01 | 1486613809.09363 | pgbench_branches_pkey |            16384
 2017-02-09 05:16:49.093631+01 | 1486613809.09363 | pgbench_tellers_pkey  |            90112
 2017-02-09 05:16:49.093631+01 | 1486613809.09363 | pgbench_accounts_pkey |        673882112

 2017-02-09 05:16:50.493885+01 | 1486613810.49389 | pgbench_branches_pkey |            16384
 2017-02-09 05:16:50.493885+01 | 1486613810.49389 | pgbench_tellers_pkey  |            90112
 2017-02-09 05:16:50.493885+01 | 1486613810.49389 | pgbench_accounts_pkey |        673882112

 2017-02-09 05:16:51.951032+01 | 1486613811.95103 | pgbench_branches_pkey |            16384
 2017-02-09 05:16:51.951032+01 | 1486613811.95103 | pgbench_tellers_pkey  |            90112
 2017-02-09 05:16:51.951032+01 | 1486613811.95103 | pgbench_accounts_pkey |        673882112

 2017-02-09 05:16:53.339846+01 | 1486613813.33985 | pgbench_branches_pkey |            16384
 2017-02-09 05:16:53.339846+01 | 1486613813.33985 | pgbench_tellers_pkey  |            90112
 2017-02-09 05:16:53.339846+01 | 1486613813.33985 | pgbench_accounts_pkey |        673882112

 2017-02-09 05:16:54.678029+01 | 1486613814.67803 | pgbench_branches_pkey |            16384
 2017-02-09 05:16:54.678029+01 | 1486613814.67803 | pgbench_tellers_pkey  |            90112
 2017-02-09 05:16:54.678029+01 | 1486613814.67803 | pgbench_accounts_pkey |        673882112

 2017-02-09 05:16:56.061541+01 | 1486613816.06154 | pgbench_branches_pkey |            16384
 2017-02-09 05:16:56.061541+01 | 1486613816.06154 | pgbench_tellers_pkey  |            90112
 2017-02-09 05:16:56.061541+01 | 1486613816.06154 | pgbench_accounts_pkey |        673882112

 2017-02-09 05:16:57.412128+01 | 1486613817.41213 | pgbench_branches_pkey |            16384
 2017-02-09 05:16:57.412128+01 | 1486613817.41213 | pgbench_tellers_pkey  |            90112
 2017-02-09 05:16:57.412128+01 | 1486613817.41213 | pgbench_accounts_pkey |        673882112

 2017-02-09 05:16:58.728817+01 | 1486613818.72882 | pgbench_branches_pkey |            16384
 2017-02-09 05:16:58.728817+01 | 1486613818.72882 | pgbench_tellers_pkey  |            90112
 2017-02-09 05:16:58.728817+01 | 1486613818.72882 | pgbench_accounts_pkey |        673882112

 2017-02-09 05:17:00.058565+01 | 1486613820.05856 | pgbench_branches_pkey |            16384
 2017-02-09 05:17:00.058565+01 | 1486613820.05856 | pgbench_tellers_pkey  |            90112
 2017-02-09 05:17:00.058565+01 | 1486613820.05856 | pgbench_accounts_pkey |        673882112

 2017-02-09 05:17:01.389035+01 | 1486613821.38903 | pgbench_branches_pkey |            16384
 2017-02-09 05:17:01.389035+01 | 1486613821.38903 | pgbench_tellers_pkey  |            90112
 2017-02-09 05:17:01.389035+01 | 1486613821.38903 | pgbench_accounts_pkey |        673882112

 2017-02-09 05:17:02.792639+01 | 1486613822.79264 | pgbench_branches_pkey |            16384
 2017-02-09 05:17:02.792639+01 | 1486613822.79264 | pgbench_tellers_pkey  |            90112
 2017-02-09 05:17:02.792639+01 | 1486613822.79264 | pgbench_accounts_pkey |        673882112

 2017-02-09 05:17:04.192693+01 | 1486613824.19269 | pgbench_branches_pkey |            16384
 2017-02-09 05:17:04.192693+01 | 1486613824.19269 | pgbench_tellers_pkey  |            90112
 2017-02-09 05:17:04.192693+01 | 1486613824.19269 | pgbench_accounts_pkey |        673882112

 2017-02-09 05:17:05.521888+01 | 1486613825.52189 | pgbench_branches_pkey |            16384
 2017-02-09 05:17:05.521888+01 | 1486613825.52189 | pgbench_tellers_pkey  |            90112
 2017-02-09 05:17:05.521888+01 | 1486613825.52189 | pgbench_accounts_pkey |        673882112

 2017-02-09 05:17:06.843553+01 | 1486613826.84355 | pgbench_branches_pkey |            16384
 2017-02-09 05:17:06.843553+01 | 1486613826.84355 | pgbench_tellers_pkey  |            90112
 2017-02-09 05:17:06.843553+01 | 1486613826.84355 | pgbench_accounts_pkey |        673882112

 2017-02-09 05:17:08.222262+01 | 1486613828.22226 | pgbench_branches_pkey |            16384
 2017-02-09 05:17:08.222262+01 | 1486613828.22226 | pgbench_tellers_pkey  |            90112
 2017-02-09 05:17:08.222262+01 | 1486613828.22226 | pgbench_accounts_pkey |        673882112

 2017-02-09 05:17:09.581439+01 | 1486613829.58144 | pgbench_branches_pkey |            16384
 2017-02-09 05:17:09.581439+01 | 1486613829.58144 | pgbench_tellers_pkey  |            90112
 2017-02-09 05:17:09.581439+01 | 1486613829.58144 | pgbench_accounts_pkey |        673882112

 2017-02-09 05:17:10.883249+01 | 1486613830.88325 | pgbench_branches_pkey |            16384
 2017-02-09 05:17:10.883249+01 | 1486613830.88325 | pgbench_tellers_pkey  |            90112
 2017-02-09 05:17:10.883249+01 | 1486613830.88325 | pgbench_accounts_pkey |        673882112

 2017-02-09 05:17:12.22053+01 | 1486613832.22053 | pgbench_branches_pkey |            16384
 2017-02-09 05:17:12.22053+01 | 1486613832.22053 | pgbench_tellers_pkey  |            90112
 2017-02-09 05:17:12.22053+01 | 1486613832.22053 | pgbench_accounts_pkey |        673882112

 2017-02-09 05:17:13.585259+01 | 1486613833.58526 | pgbench_branches_pkey |            16384
 2017-02-09 05:17:13.585259+01 | 1486613833.58526 | pgbench_tellers_pkey  |            90112
 2017-02-09 05:17:13.585259+01 | 1486613833.58526 | pgbench_accounts_pkey |        673882112

 2017-02-09 05:17:14.966771+01 | 1486613834.96677 | pgbench_branches_pkey |            16384
 2017-02-09 05:17:14.966771+01 | 1486613834.96677 | pgbench_tellers_pkey  |            90112
 2017-02-09 05:17:14.966771+01 | 1486613834.96677 | pgbench_accounts_pkey |        673882112

 2017-02-09 05:17:16.296025+01 | 1486613836.29603 | pgbench_branches_pkey |            16384
 2017-02-09 05:17:16.296025+01 | 1486613836.29603 | pgbench_tellers_pkey  |            90112
 2017-02-09 05:17:16.296025+01 | 1486613836.29603 | pgbench_accounts_pkey |        673882112

 2017-02-09 05:17:17.643079+01 | 1486613837.64308 | pgbench_branches_pkey |            16384
 2017-02-09 05:17:17.643079+01 | 1486613837.64308 | pgbench_tellers_pkey  |            90112
 2017-02-09 05:17:17.643079+01 | 1486613837.64308 | pgbench_accounts_pkey |        673882112

 2017-02-09 05:17:19.026683+01 | 1486613839.02668 | pgbench_branches_pkey |            16384
 2017-02-09 05:17:19.026683+01 | 1486613839.02668 | pgbench_tellers_pkey  |            90112
 2017-02-09 05:17:19.026683+01 | 1486613839.02668 | pgbench_accounts_pkey |        673882112

 2017-02-09 05:17:20.421118+01 | 1486613840.42112 | pgbench_branches_pkey |            16384
 2017-02-09 05:17:20.421118+01 | 1486613840.42112 | pgbench_tellers_pkey  |            90112
 2017-02-09 05:17:20.421118+01 | 1486613840.42112 | pgbench_accounts_pkey |        673882112

 2017-02-09 05:17:21.727372+01 | 1486613841.72737 | pgbench_branches_pkey |            16384
 2017-02-09 05:17:21.727372+01 | 1486613841.72737 | pgbench_tellers_pkey  |            90112
 2017-02-09 05:17:21.727372+01 | 1486613841.72737 | pgbench_accounts_pkey |        673882112

 2017-02-09 05:17:23.100129+01 | 1486613843.10013 | pgbench_branches_pkey |            16384
 2017-02-09 05:17:23.100129+01 | 1486613843.10013 | pgbench_tellers_pkey  |            90112
 2017-02-09 05:17:23.100129+01 | 1486613843.10013 | pgbench_accounts_pkey |        673882112

 2017-02-09 05:17:24.442652+01 | 1486613844.44265 | pgbench_branches_pkey |            16384
 2017-02-09 05:17:24.442652+01 | 1486613844.44265 | pgbench_tellers_pkey  |            90112
 2017-02-09 05:17:24.442652+01 | 1486613844.44265 | pgbench_accounts_pkey |        673882112

 2017-02-09 05:17:25.75814+01 | 1486613845.75814 | pgbench_branches_pkey |            16384
 2017-02-09 05:17:25.75814+01 | 1486613845.75814 | pgbench_tellers_pkey  |            90112
 2017-02-09 05:17:25.75814+01 | 1486613845.75814 | pgbench_accounts_pkey |        673882112

 2017-02-09 05:17:27.07871+01 | 1486613847.07871 | pgbench_branches_pkey |            16384
 2017-02-09 05:17:27.07871+01 | 1486613847.07871 | pgbench_tellers_pkey  |            90112
 2017-02-09 05:17:27.07871+01 | 1486613847.07871 | pgbench_accounts_pkey |        673882112

 2017-02-09 05:17:28.384413+01 | 1486613848.38441 | pgbench_branches_pkey |            16384
 2017-02-09 05:17:28.384413+01 | 1486613848.38441 | pgbench_tellers_pkey  |            90112
 2017-02-09 05:17:28.384413+01 | 1486613848.38441 | pgbench_accounts_pkey |        673882112

 2017-02-09 05:17:29.718483+01 | 1486613849.71848 | pgbench_branches_pkey |            16384
 2017-02-09 05:17:29.718483+01 | 1486613849.71848 | pgbench_tellers_pkey  |            90112
 2017-02-09 05:17:29.718483+01 | 1486613849.71848 | pgbench_accounts_pkey |        673882112

 2017-02-09 05:17:31.094048+01 | 1486613851.09405 | pgbench_branches_pkey |            16384
 2017-02-09 05:17:31.094048+01 | 1486613851.09405 | pgbench_tellers_pkey  |            90112
 2017-02-09 05:17:31.094048+01 | 1486613851.09405 | pgbench_accounts_pkey |        673882112

 2017-02-09 05:17:32.417815+01 | 1486613852.41781 | pgbench_branches_pkey |            16384
 2017-02-09 05:17:32.417815+01 | 1486613852.41781 | pgbench_tellers_pkey  |            90112
 2017-02-09 05:17:32.417815+01 | 1486613852.41781 | pgbench_accounts_pkey |        673882112

 2017-02-09 05:17:33.80894+01 | 1486613853.80894 | pgbench_branches_pkey |            16384
 2017-02-09 05:17:33.80894+01 | 1486613853.80894 | pgbench_tellers_pkey  |            90112
 2017-02-09 05:17:33.80894+01 | 1486613853.80894 | pgbench_accounts_pkey |        673882112

 2017-02-09 05:17:35.115352+01 | 1486613855.11535 | pgbench_branches_pkey |            16384
 2017-02-09 05:17:35.115352+01 | 1486613855.11535 | pgbench_tellers_pkey  |            90112
 2017-02-09 05:17:35.115352+01 | 1486613855.11535 | pgbench_accounts_pkey |        673882112

 2017-02-09 05:17:36.536992+01 | 1486613856.53699 | pgbench_branches_pkey |            16384
 2017-02-09 05:17:36.536992+01 | 1486613856.53699 | pgbench_tellers_pkey  |            90112
 2017-02-09 05:17:36.536992+01 | 1486613856.53699 | pgbench_accounts_pkey |        673882112

 2017-02-09 05:17:37.901148+01 | 1486613857.90115 | pgbench_branches_pkey |            16384
 2017-02-09 05:17:37.901148+01 | 1486613857.90115 | pgbench_tellers_pkey  |            90112
 2017-02-09 05:17:37.901148+01 | 1486613857.90115 | pgbench_accounts_pkey |        673882112

 2017-02-09 05:17:39.286133+01 | 1486613859.28613 | pgbench_branches_pkey |            16384
 2017-02-09 05:17:39.286133+01 | 1486613859.28613 | pgbench_tellers_pkey  |            90112
 2017-02-09 05:17:39.286133+01 | 1486613859.28613 | pgbench_accounts_pkey |        673882112

 2017-02-09 05:17:40.592346+01 | 1486613860.59235 | pgbench_branches_pkey |            16384
 2017-02-09 05:17:40.592346+01 | 1486613860.59235 | pgbench_tellers_pkey  |            90112
 2017-02-09 05:17:40.592346+01 | 1486613860.59235 | pgbench_accounts_pkey |        673882112

 2017-02-09 05:17:41.88457+01 | 1486613861.88457 | pgbench_branches_pkey |            16384
 2017-02-09 05:17:41.88457+01 | 1486613861.88457 | pgbench_tellers_pkey  |            90112
 2017-02-09 05:17:41.88457+01 | 1486613861.88457 | pgbench_accounts_pkey |        673882112

 2017-02-09 05:17:43.246059+01 | 1486613863.24606 | pgbench_branches_pkey |            16384
 2017-02-09 05:17:43.246059+01 | 1486613863.24606 | pgbench_tellers_pkey  |            90112
 2017-02-09 05:17:43.246059+01 | 1486613863.24606 | pgbench_accounts_pkey |        673882112

 2017-02-09 05:17:44.652395+01 | 1486613864.6524 | pgbench_branches_pkey |            16384
 2017-02-09 05:17:44.652395+01 | 1486613864.6524 | pgbench_tellers_pkey  |            90112
 2017-02-09 05:17:44.652395+01 | 1486613864.6524 | pgbench_accounts_pkey |        673882112

 2017-02-09 05:17:46.04187+01 | 1486613866.04187 | pgbench_branches_pkey |            16384
 2017-02-09 05:17:46.04187+01 | 1486613866.04187 | pgbench_tellers_pkey  |            90112
 2017-02-09 05:17:46.04187+01 | 1486613866.04187 | pgbench_accounts_pkey |        673882112

 2017-02-09 05:17:47.442272+01 | 1486613867.44227 | pgbench_branches_pkey |            16384
 2017-02-09 05:17:47.442272+01 | 1486613867.44227 | pgbench_tellers_pkey  |            90112
 2017-02-09 05:17:47.442272+01 | 1486613867.44227 | pgbench_accounts_pkey |        673882112

 2017-02-09 05:17:48.868847+01 | 1486613868.86885 | pgbench_branches_pkey |            16384
 2017-02-09 05:17:48.868847+01 | 1486613868.86885 | pgbench_tellers_pkey  |            90112
 2017-02-09 05:17:48.868847+01 | 1486613868.86885 | pgbench_accounts_pkey |        673882112

 2017-02-09 05:17:50.306978+01 | 1486613870.30698 | pgbench_branches_pkey |            16384
 2017-02-09 05:17:50.306978+01 | 1486613870.30698 | pgbench_tellers_pkey  |            90112
 2017-02-09 05:17:50.306978+01 | 1486613870.30698 | pgbench_accounts_pkey |        673882112

 2017-02-09 05:17:51.776036+01 | 1486613871.77604 | pgbench_branches_pkey |            16384
 2017-02-09 05:17:51.776036+01 | 1486613871.77604 | pgbench_tellers_pkey  |            90112
 2017-02-09 05:17:51.776036+01 | 1486613871.77604 | pgbench_accounts_pkey |        673882112

 2017-02-09 05:17:53.215137+01 | 1486613873.21514 | pgbench_branches_pkey |            16384
 2017-02-09 05:17:53.215137+01 | 1486613873.21514 | pgbench_tellers_pkey  |            90112
 2017-02-09 05:17:53.215137+01 | 1486613873.21514 | pgbench_accounts_pkey |        673882112

 2017-02-09 05:17:54.563089+01 | 1486613874.56309 | pgbench_branches_pkey |            16384
 2017-02-09 05:17:54.563089+01 | 1486613874.56309 | pgbench_tellers_pkey  |            90112
 2017-02-09 05:17:54.563089+01 | 1486613874.56309 | pgbench_accounts_pkey |        673882112

 2017-02-09 05:17:55.839426+01 | 1486613875.83943 | pgbench_branches_pkey |            16384
 2017-02-09 05:17:55.839426+01 | 1486613875.83943 | pgbench_tellers_pkey  |            90112
 2017-02-09 05:17:55.839426+01 | 1486613875.83943 | pgbench_accounts_pkey |        673882112

 2017-02-09 05:17:57.199478+01 | 1486613877.19948 | pgbench_branches_pkey |            16384
 2017-02-09 05:17:57.199478+01 | 1486613877.19948 | pgbench_tellers_pkey  |            90112
 2017-02-09 05:17:57.199478+01 | 1486613877.19948 | pgbench_accounts_pkey |        673882112

 2017-02-09 05:17:58.56818+01 | 1486613878.56818 | pgbench_branches_pkey |            16384
 2017-02-09 05:17:58.56818+01 | 1486613878.56818 | pgbench_tellers_pkey  |            90112
 2017-02-09 05:17:58.56818+01 | 1486613878.56818 | pgbench_accounts_pkey |        673882112

 2017-02-09 05:17:59.880119+01 | 1486613879.88012 | pgbench_branches_pkey |            16384
 2017-02-09 05:17:59.880119+01 | 1486613879.88012 | pgbench_tellers_pkey  |            90112
 2017-02-09 05:17:59.880119+01 | 1486613879.88012 | pgbench_accounts_pkey |        673882112

 2017-02-09 05:18:01.263202+01 | 1486613881.2632 | pgbench_branches_pkey |            16384
 2017-02-09 05:18:01.263202+01 | 1486613881.2632 | pgbench_tellers_pkey  |            90112
 2017-02-09 05:18:01.263202+01 | 1486613881.2632 | pgbench_accounts_pkey |        673882112

 2017-02-09 05:18:02.597454+01 | 1486613882.59745 | pgbench_branches_pkey |            16384
 2017-02-09 05:18:02.597454+01 | 1486613882.59745 | pgbench_tellers_pkey  |            90112
 2017-02-09 05:18:02.597454+01 | 1486613882.59745 | pgbench_accounts_pkey |        673882112

 2017-02-09 05:18:03.918345+01 | 1486613883.91834 | pgbench_branches_pkey |            16384
 2017-02-09 05:18:03.918345+01 | 1486613883.91834 | pgbench_tellers_pkey  |            90112
 2017-02-09 05:18:03.918345+01 | 1486613883.91834 | pgbench_accounts_pkey |        673882112

 2017-02-09 05:18:05.305774+01 | 1486613885.30577 | pgbench_branches_pkey |            16384
 2017-02-09 05:18:05.305774+01 | 1486613885.30577 | pgbench_tellers_pkey  |            90112
 2017-02-09 05:18:05.305774+01 | 1486613885.30577 | pgbench_accounts_pkey |        673882112

 2017-02-09 05:18:06.726523+01 | 1486613886.72652 | pgbench_branches_pkey |            16384
 2017-02-09 05:18:06.726523+01 | 1486613886.72652 | pgbench_tellers_pkey  |            90112
 2017-02-09 05:18:06.726523+01 | 1486613886.72652 | pgbench_accounts_pkey |        673882112

 2017-02-09 05:18:08.072966+01 | 1486613888.07297 | pgbench_branches_pkey |            16384
 2017-02-09 05:18:08.072966+01 | 1486613888.07297 | pgbench_tellers_pkey  |            90112
 2017-02-09 05:18:08.072966+01 | 1486613888.07297 | pgbench_accounts_pkey |        673882112

 2017-02-09 05:18:09.351442+01 | 1486613889.35144 | pgbench_branches_pkey |            16384
 2017-02-09 05:18:09.351442+01 | 1486613889.35144 | pgbench_tellers_pkey  |            90112
 2017-02-09 05:18:09.351442+01 | 1486613889.35144 | pgbench_accounts_pkey |        673882112

 2017-02-09 05:18:10.65317+01 | 1486613890.65317 | pgbench_branches_pkey |            16384
 2017-02-09 05:18:10.65317+01 | 1486613890.65317 | pgbench_tellers_pkey  |            90112
 2017-02-09 05:18:10.65317+01 | 1486613890.65317 | pgbench_accounts_pkey |        673882112

 2017-02-09 05:18:12.041729+01 | 1486613892.04173 | pgbench_branches_pkey |            16384
 2017-02-09 05:18:12.041729+01 | 1486613892.04173 | pgbench_tellers_pkey  |            90112
 2017-02-09 05:18:12.041729+01 | 1486613892.04173 | pgbench_accounts_pkey |        673882112

 2017-02-09 05:18:13.431145+01 | 1486613893.43114 | pgbench_branches_pkey |            16384
 2017-02-09 05:18:13.431145+01 | 1486613893.43114 | pgbench_tellers_pkey  |            90112
 2017-02-09 05:18:13.431145+01 | 1486613893.43114 | pgbench_accounts_pkey |        673882112

 2017-02-09 05:18:14.851979+01 | 1486613894.85198 | pgbench_branches_pkey |            16384
 2017-02-09 05:18:14.851979+01 | 1486613894.85198 | pgbench_tellers_pkey  |            90112
 2017-02-09 05:18:14.851979+01 | 1486613894.85198 | pgbench_accounts_pkey |        673882112

 2017-02-09 05:18:16.280983+01 | 1486613896.28098 | pgbench_branches_pkey |            16384
 2017-02-09 05:18:16.280983+01 | 1486613896.28098 | pgbench_tellers_pkey  |            90112
 2017-02-09 05:18:16.280983+01 | 1486613896.28098 | pgbench_accounts_pkey |        673882112

 2017-02-09 05:18:17.642698+01 | 1486613897.6427 | pgbench_branches_pkey |            16384
 2017-02-09 05:18:17.642698+01 | 1486613897.6427 | pgbench_tellers_pkey  |            90112
 2017-02-09 05:18:17.642698+01 | 1486613897.6427 | pgbench_accounts_pkey |        673882112

 2017-02-09 05:18:19.031647+01 | 1486613899.03165 | pgbench_branches_pkey |            16384
 2017-02-09 05:18:19.031647+01 | 1486613899.03165 | pgbench_tellers_pkey  |            90112
 2017-02-09 05:18:19.031647+01 | 1486613899.03165 | pgbench_accounts_pkey |        673882112

 2017-02-09 05:18:20.440814+01 | 1486613900.44081 | pgbench_branches_pkey |            16384
 2017-02-09 05:18:20.440814+01 | 1486613900.44081 | pgbench_tellers_pkey  |            90112
 2017-02-09 05:18:20.440814+01 | 1486613900.44081 | pgbench_accounts_pkey |        673882112

 2017-02-09 05:18:21.757411+01 | 1486613901.75741 | pgbench_branches_pkey |            16384
 2017-02-09 05:18:21.757411+01 | 1486613901.75741 | pgbench_tellers_pkey  |            90112
 2017-02-09 05:18:21.757411+01 | 1486613901.75741 | pgbench_accounts_pkey |        673882112

 2017-02-09 05:18:23.131428+01 | 1486613903.13143 | pgbench_branches_pkey |            16384
 2017-02-09 05:18:23.131428+01 | 1486613903.13143 | pgbench_tellers_pkey  |            90112
 2017-02-09 05:18:23.131428+01 | 1486613903.13143 | pgbench_accounts_pkey |        673882112

 2017-02-09 05:18:24.476191+01 | 1486613904.47619 | pgbench_branches_pkey |            16384
 2017-02-09 05:18:24.476191+01 | 1486613904.47619 | pgbench_tellers_pkey  |            90112
 2017-02-09 05:18:24.476191+01 | 1486613904.47619 | pgbench_accounts_pkey |        673882112

 2017-02-09 05:18:25.875337+01 | 1486613905.87534 | pgbench_branches_pkey |            16384
 2017-02-09 05:18:25.875337+01 | 1486613905.87534 | pgbench_tellers_pkey  |            90112
 2017-02-09 05:18:25.875337+01 | 1486613905.87534 | pgbench_accounts_pkey |        673882112

 2017-02-09 05:18:27.253624+01 | 1486613907.25362 | pgbench_branches_pkey |            16384
 2017-02-09 05:18:27.253624+01 | 1486613907.25362 | pgbench_tellers_pkey  |            90112
 2017-02-09 05:18:27.253624+01 | 1486613907.25362 | pgbench_accounts_pkey |        673882112

 2017-02-09 05:18:28.628866+01 | 1486613908.62887 | pgbench_branches_pkey |            16384
 2017-02-09 05:18:28.628866+01 | 1486613908.62887 | pgbench_tellers_pkey  |            90112
 2017-02-09 05:18:28.628866+01 | 1486613908.62887 | pgbench_accounts_pkey |        673882112

 2017-02-09 05:18:30.009854+01 | 1486613910.00985 | pgbench_branches_pkey |            16384
 2017-02-09 05:18:30.009854+01 | 1486613910.00985 | pgbench_tellers_pkey  |            90112
 2017-02-09 05:18:30.009854+01 | 1486613910.00985 | pgbench_accounts_pkey |        673882112

 2017-02-09 05:18:31.396467+01 | 1486613911.39647 | pgbench_branches_pkey |            16384
 2017-02-09 05:18:31.396467+01 | 1486613911.39647 | pgbench_tellers_pkey  |            90112
 2017-02-09 05:18:31.396467+01 | 1486613911.39647 | pgbench_accounts_pkey |        673882112

 2017-02-09 05:18:32.788979+01 | 1486613912.78898 | pgbench_branches_pkey |            16384
 2017-02-09 05:18:32.788979+01 | 1486613912.78898 | pgbench_tellers_pkey  |            90112
 2017-02-09 05:18:32.788979+01 | 1486613912.78898 | pgbench_accounts_pkey |        673882112

 2017-02-09 05:18:34.216307+01 | 1486613914.21631 | pgbench_branches_pkey |            16384
 2017-02-09 05:18:34.216307+01 | 1486613914.21631 | pgbench_tellers_pkey  |            90112
 2017-02-09 05:18:34.216307+01 | 1486613914.21631 | pgbench_accounts_pkey |        673882112

 2017-02-09 05:18:35.572452+01 | 1486613915.57245 | pgbench_branches_pkey |            16384
 2017-02-09 05:18:35.572452+01 | 1486613915.57245 | pgbench_tellers_pkey  |            90112
 2017-02-09 05:18:35.572452+01 | 1486613915.57245 | pgbench_accounts_pkey |        673882112

 2017-02-09 05:18:36.977621+01 | 1486613916.97762 | pgbench_branches_pkey |            16384
 2017-02-09 05:18:36.977621+01 | 1486613916.97762 | pgbench_tellers_pkey  |            90112
 2017-02-09 05:18:36.977621+01 | 1486613916.97762 | pgbench_accounts_pkey |        673882112

 2017-02-09 05:18:38.405269+01 | 1486613918.40527 | pgbench_branches_pkey |            16384
 2017-02-09 05:18:38.405269+01 | 1486613918.40527 | pgbench_tellers_pkey  |            90112
 2017-02-09 05:18:38.405269+01 | 1486613918.40527 | pgbench_accounts_pkey |        673882112

 2017-02-09 05:18:39.735342+01 | 1486613919.73534 | pgbench_branches_pkey |            16384
 2017-02-09 05:18:39.735342+01 | 1486613919.73534 | pgbench_tellers_pkey  |            90112
 2017-02-09 05:18:39.735342+01 | 1486613919.73534 | pgbench_accounts_pkey |        673882112

 2017-02-09 05:18:41.094232+01 | 1486613921.09423 | pgbench_branches_pkey |            16384
 2017-02-09 05:18:41.094232+01 | 1486613921.09423 | pgbench_tellers_pkey  |            90112
 2017-02-09 05:18:41.094232+01 | 1486613921.09423 | pgbench_accounts_pkey |        673882112

 2017-02-09 05:18:42.467026+01 | 1486613922.46703 | pgbench_branches_pkey |            16384
 2017-02-09 05:18:42.467026+01 | 1486613922.46703 | pgbench_tellers_pkey  |            90112
 2017-02-09 05:18:42.467026+01 | 1486613922.46703 | pgbench_accounts_pkey |        673882112

 2017-02-09 05:18:43.765969+01 | 1486613923.76597 | pgbench_branches_pkey |            16384
 2017-02-09 05:18:43.765969+01 | 1486613923.76597 | pgbench_tellers_pkey  |            90112
 2017-02-09 05:18:43.765969+01 | 1486613923.76597 | pgbench_accounts_pkey |        673882112

 2017-02-09 05:18:45.117796+01 | 1486613925.1178 | pgbench_branches_pkey |            16384
 2017-02-09 05:18:45.117796+01 | 1486613925.1178 | pgbench_tellers_pkey  |            90112
 2017-02-09 05:18:45.117796+01 | 1486613925.1178 | pgbench_accounts_pkey |        673882112

 2017-02-09 05:18:46.455541+01 | 1486613926.45554 | pgbench_branches_pkey |            16384
 2017-02-09 05:18:46.455541+01 | 1486613926.45554 | pgbench_tellers_pkey  |            90112
 2017-02-09 05:18:46.455541+01 | 1486613926.45554 | pgbench_accounts_pkey |        673882112

 2017-02-09 05:18:47.820777+01 | 1486613927.82078 | pgbench_branches_pkey |            16384
 2017-02-09 05:18:47.820777+01 | 1486613927.82078 | pgbench_tellers_pkey  |            90112
 2017-02-09 05:18:47.820777+01 | 1486613927.82078 | pgbench_accounts_pkey |        673882112

 2017-02-09 05:18:49.203606+01 | 1486613929.20361 | pgbench_branches_pkey |            16384
 2017-02-09 05:18:49.203606+01 | 1486613929.20361 | pgbench_tellers_pkey  |            90112
 2017-02-09 05:18:49.203606+01 | 1486613929.20361 | pgbench_accounts_pkey |        673882112

 2017-02-09 05:18:50.546126+01 | 1486613930.54613 | pgbench_branches_pkey |            16384
 2017-02-09 05:18:50.546126+01 | 1486613930.54613 | pgbench_tellers_pkey  |            90112
 2017-02-09 05:18:50.546126+01 | 1486613930.54613 | pgbench_accounts_pkey |        673882112

 2017-02-09 05:18:51.803684+01 | 1486613931.80368 | pgbench_branches_pkey |            16384
 2017-02-09 05:18:51.803684+01 | 1486613931.80368 | pgbench_tellers_pkey  |            90112
 2017-02-09 05:18:51.803684+01 | 1486613931.80368 | pgbench_accounts_pkey |        673882112

 2017-02-09 05:18:53.228595+01 | 1486613933.2286 | pgbench_branches_pkey |            16384
 2017-02-09 05:18:53.228595+01 | 1486613933.2286 | pgbench_tellers_pkey  |            90112
 2017-02-09 05:18:53.228595+01 | 1486613933.2286 | pgbench_accounts_pkey |        673882112

 2017-02-09 05:18:54.620177+01 | 1486613934.62018 | pgbench_branches_pkey |            16384
 2017-02-09 05:18:54.620177+01 | 1486613934.62018 | pgbench_tellers_pkey  |            90112
 2017-02-09 05:18:54.620177+01 | 1486613934.62018 | pgbench_accounts_pkey |        673882112

 2017-02-09 05:18:56.003342+01 | 1486613936.00334 | pgbench_branches_pkey |            16384
 2017-02-09 05:18:56.003342+01 | 1486613936.00334 | pgbench_tellers_pkey  |            90112
 2017-02-09 05:18:56.003342+01 | 1486613936.00334 | pgbench_accounts_pkey |        673882112

 2017-02-09 05:18:57.322498+01 | 1486613937.3225 | pgbench_branches_pkey |            16384
 2017-02-09 05:18:57.322498+01 | 1486613937.3225 | pgbench_tellers_pkey  |            90112
 2017-02-09 05:18:57.322498+01 | 1486613937.3225 | pgbench_accounts_pkey |        673882112

 2017-02-09 05:18:58.69022+01 | 1486613938.69022 | pgbench_branches_pkey |            16384
 2017-02-09 05:18:58.69022+01 | 1486613938.69022 | pgbench_tellers_pkey  |            90112
 2017-02-09 05:18:58.69022+01 | 1486613938.69022 | pgbench_accounts_pkey |        673882112

 2017-02-09 05:19:00.012357+01 | 1486613940.01236 | pgbench_branches_pkey |            16384
 2017-02-09 05:19:00.012357+01 | 1486613940.01236 | pgbench_tellers_pkey  |            90112
 2017-02-09 05:19:00.012357+01 | 1486613940.01236 | pgbench_accounts_pkey |        673882112

 2017-02-09 05:19:01.39177+01 | 1486613941.39177 | pgbench_branches_pkey |            16384
 2017-02-09 05:19:01.39177+01 | 1486613941.39177 | pgbench_tellers_pkey  |            90112
 2017-02-09 05:19:01.39177+01 | 1486613941.39177 | pgbench_accounts_pkey |        673882112

 2017-02-09 05:19:02.706075+01 | 1486613942.70607 | pgbench_branches_pkey |            16384
 2017-02-09 05:19:02.706075+01 | 1486613942.70607 | pgbench_tellers_pkey  |            90112
 2017-02-09 05:19:02.706075+01 | 1486613942.70607 | pgbench_accounts_pkey |        673882112

 2017-02-09 05:19:04.015639+01 | 1486613944.01564 | pgbench_branches_pkey |            16384
 2017-02-09 05:19:04.015639+01 | 1486613944.01564 | pgbench_tellers_pkey  |            90112
 2017-02-09 05:19:04.015639+01 | 1486613944.01564 | pgbench_accounts_pkey |        673882112

 2017-02-09 05:19:05.42915+01 | 1486613945.42915 | pgbench_branches_pkey |            16384
 2017-02-09 05:19:05.42915+01 | 1486613945.42915 | pgbench_tellers_pkey  |            90112
 2017-02-09 05:19:05.42915+01 | 1486613945.42915 | pgbench_accounts_pkey |        673882112

 2017-02-09 05:19:06.797241+01 | 1486613946.79724 | pgbench_branches_pkey |            16384
 2017-02-09 05:19:06.797241+01 | 1486613946.79724 | pgbench_tellers_pkey  |            90112
 2017-02-09 05:19:06.797241+01 | 1486613946.79724 | pgbench_accounts_pkey |        673882112

 2017-02-09 05:19:08.142851+01 | 1486613948.14285 | pgbench_branches_pkey |            16384
 2017-02-09 05:19:08.142851+01 | 1486613948.14285 | pgbench_tellers_pkey  |            90112
 2017-02-09 05:19:08.142851+01 | 1486613948.14285 | pgbench_accounts_pkey |        673882112

 2017-02-09 05:19:09.506091+01 | 1486613949.50609 | pgbench_branches_pkey |            16384
 2017-02-09 05:19:09.506091+01 | 1486613949.50609 | pgbench_tellers_pkey  |            90112
 2017-02-09 05:19:09.506091+01 | 1486613949.50609 | pgbench_accounts_pkey |        673882112

 2017-02-09 05:19:10.755673+01 | 1486613950.75567 | pgbench_branches_pkey |            16384
 2017-02-09 05:19:10.755673+01 | 1486613950.75567 | pgbench_tellers_pkey  |            90112
 2017-02-09 05:19:10.755673+01 | 1486613950.75567 | pgbench_accounts_pkey |        673882112

 2017-02-09 05:19:12.110069+01 | 1486613952.11007 | pgbench_branches_pkey |            16384
 2017-02-09 05:19:12.110069+01 | 1486613952.11007 | pgbench_tellers_pkey  |            90112
 2017-02-09 05:19:12.110069+01 | 1486613952.11007 | pgbench_accounts_pkey |        673882112

 2017-02-09 05:19:13.445264+01 | 1486613953.44526 | pgbench_branches_pkey |            16384
 2017-02-09 05:19:13.445264+01 | 1486613953.44526 | pgbench_tellers_pkey  |            90112
 2017-02-09 05:19:13.445264+01 | 1486613953.44526 | pgbench_accounts_pkey |        673882112

 2017-02-09 05:19:14.790631+01 | 1486613954.79063 | pgbench_branches_pkey |            16384
 2017-02-09 05:19:14.790631+01 | 1486613954.79063 | pgbench_tellers_pkey  |            90112
 2017-02-09 05:19:14.790631+01 | 1486613954.79063 | pgbench_accounts_pkey |        673882112

 2017-02-09 05:19:16.223317+01 | 1486613956.22332 | pgbench_branches_pkey |            16384
 2017-02-09 05:19:16.223317+01 | 1486613956.22332 | pgbench_tellers_pkey  |            90112
 2017-02-09 05:19:16.223317+01 | 1486613956.22332 | pgbench_accounts_pkey |        673882112

 2017-02-09 05:19:17.567182+01 | 1486613957.56718 | pgbench_branches_pkey |            16384
 2017-02-09 05:19:17.567182+01 | 1486613957.56718 | pgbench_tellers_pkey  |            90112
 2017-02-09 05:19:17.567182+01 | 1486613957.56718 | pgbench_accounts_pkey |        673882112

 2017-02-09 05:19:18.923969+01 | 1486613958.92397 | pgbench_branches_pkey |            16384
 2017-02-09 05:19:18.923969+01 | 1486613958.92397 | pgbench_tellers_pkey  |            90112
 2017-02-09 05:19:18.923969+01 | 1486613958.92397 | pgbench_accounts_pkey |        673882112

 2017-02-09 05:19:20.27941+01 | 1486613960.27941 | pgbench_branches_pkey |            16384
 2017-02-09 05:19:20.27941+01 | 1486613960.27941 | pgbench_tellers_pkey  |            90112
 2017-02-09 05:19:20.27941+01 | 1486613960.27941 | pgbench_accounts_pkey |        673882112

 2017-02-09 05:19:21.645571+01 | 1486613961.64557 | pgbench_branches_pkey |            16384
 2017-02-09 05:19:21.645571+01 | 1486613961.64557 | pgbench_tellers_pkey  |            90112
 2017-02-09 05:19:21.645571+01 | 1486613961.64557 | pgbench_accounts_pkey |        673882112

 2017-02-09 05:19:23.025668+01 | 1486613963.02567 | pgbench_branches_pkey |            16384
 2017-02-09 05:19:23.025668+01 | 1486613963.02567 | pgbench_tellers_pkey  |            90112
 2017-02-09 05:19:23.025668+01 | 1486613963.02567 | pgbench_accounts_pkey |        673882112

 2017-02-09 05:19:24.438979+01 | 1486613964.43898 | pgbench_branches_pkey |            16384
 2017-02-09 05:19:24.438979+01 | 1486613964.43898 | pgbench_tellers_pkey  |            90112
 2017-02-09 05:19:24.438979+01 | 1486613964.43898 | pgbench_accounts_pkey |        673882112

 2017-02-09 05:19:25.77636+01 | 1486613965.77636 | pgbench_branches_pkey |            16384
 2017-02-09 05:19:25.77636+01 | 1486613965.77636 | pgbench_tellers_pkey  |            90112
 2017-02-09 05:19:25.77636+01 | 1486613965.77636 | pgbench_accounts_pkey |        673882112

 2017-02-09 05:19:27.183425+01 | 1486613967.18342 | pgbench_branches_pkey |            16384
 2017-02-09 05:19:27.183425+01 | 1486613967.18342 | pgbench_tellers_pkey  |            90112
 2017-02-09 05:19:27.183425+01 | 1486613967.18342 | pgbench_accounts_pkey |        673882112

 2017-02-09 05:19:28.582667+01 | 1486613968.58267 | pgbench_branches_pkey |            16384
 2017-02-09 05:19:28.582667+01 | 1486613968.58267 | pgbench_tellers_pkey  |            90112
 2017-02-09 05:19:28.582667+01 | 1486613968.58267 | pgbench_accounts_pkey |        673882112

 2017-02-09 05:19:29.961842+01 | 1486613969.96184 | pgbench_branches_pkey |            16384
 2017-02-09 05:19:29.961842+01 | 1486613969.96184 | pgbench_tellers_pkey  |            90112
 2017-02-09 05:19:29.961842+01 | 1486613969.96184 | pgbench_accounts_pkey |        673882112

 2017-02-09 05:19:31.404602+01 | 1486613971.4046 | pgbench_branches_pkey |            16384
 2017-02-09 05:19:31.404602+01 | 1486613971.4046 | pgbench_tellers_pkey  |            90112
 2017-02-09 05:19:31.404602+01 | 1486613971.4046 | pgbench_accounts_pkey |        673882112

 2017-02-09 05:19:32.790369+01 | 1486613972.79037 | pgbench_branches_pkey |            16384
 2017-02-09 05:19:32.790369+01 | 1486613972.79037 | pgbench_tellers_pkey  |            90112
 2017-02-09 05:19:32.790369+01 | 1486613972.79037 | pgbench_accounts_pkey |        673882112

 2017-02-09 05:19:34.137833+01 | 1486613974.13783 | pgbench_branches_pkey |            16384
 2017-02-09 05:19:34.137833+01 | 1486613974.13783 | pgbench_tellers_pkey  |            90112
 2017-02-09 05:19:34.137833+01 | 1486613974.13783 | pgbench_accounts_pkey |        673882112

 2017-02-09 05:19:35.508291+01 | 1486613975.50829 | pgbench_branches_pkey |            16384
 2017-02-09 05:19:35.508291+01 | 1486613975.50829 | pgbench_tellers_pkey  |            90112
 2017-02-09 05:19:35.508291+01 | 1486613975.50829 | pgbench_accounts_pkey |        673882112

 2017-02-09 05:19:36.911447+01 | 1486613976.91145 | pgbench_branches_pkey |            16384
 2017-02-09 05:19:36.911447+01 | 1486613976.91145 | pgbench_tellers_pkey  |            90112
 2017-02-09 05:19:36.911447+01 | 1486613976.91145 | pgbench_accounts_pkey |        673882112

 2017-02-09 05:19:38.188105+01 | 1486613978.18811 | pgbench_branches_pkey |            16384
 2017-02-09 05:19:38.188105+01 | 1486613978.18811 | pgbench_tellers_pkey  |            90112
 2017-02-09 05:19:38.188105+01 | 1486613978.18811 | pgbench_accounts_pkey |        673882112

 2017-02-09 05:19:39.550909+01 | 1486613979.55091 | pgbench_branches_pkey |            16384
 2017-02-09 05:19:39.550909+01 | 1486613979.55091 | pgbench_tellers_pkey  |            90112
 2017-02-09 05:19:39.550909+01 | 1486613979.55091 | pgbench_accounts_pkey |        673882112

 2017-02-09 05:19:40.92648+01 | 1486613980.92648 | pgbench_branches_pkey |            16384
 2017-02-09 05:19:40.92648+01 | 1486613980.92648 | pgbench_tellers_pkey  |            90112
 2017-02-09 05:19:40.92648+01 | 1486613980.92648 | pgbench_accounts_pkey |        673882112

 2017-02-09 05:19:42.299171+01 | 1486613982.29917 | pgbench_branches_pkey |            16384
 2017-02-09 05:19:42.299171+01 | 1486613982.29917 | pgbench_tellers_pkey  |            90112
 2017-02-09 05:19:42.299171+01 | 1486613982.29917 | pgbench_accounts_pkey |        673882112

 2017-02-09 05:19:43.623127+01 | 1486613983.62313 | pgbench_branches_pkey |            16384
 2017-02-09 05:19:43.623127+01 | 1486613983.62313 | pgbench_tellers_pkey  |            90112
 2017-02-09 05:19:43.623127+01 | 1486613983.62313 | pgbench_accounts_pkey |        673882112

 2017-02-09 05:19:45.019963+01 | 1486613985.01996 | pgbench_branches_pkey |            16384
 2017-02-09 05:19:45.019963+01 | 1486613985.01996 | pgbench_tellers_pkey  |            90112
 2017-02-09 05:19:45.019963+01 | 1486613985.01996 | pgbench_accounts_pkey |        673882112

 2017-02-09 05:19:46.470307+01 | 1486613986.47031 | pgbench_branches_pkey |            16384
 2017-02-09 05:19:46.470307+01 | 1486613986.47031 | pgbench_tellers_pkey  |            90112
 2017-02-09 05:19:46.470307+01 | 1486613986.47031 | pgbench_accounts_pkey |        673882112

 2017-02-09 05:19:47.852427+01 | 1486613987.85243 | pgbench_branches_pkey |            16384
 2017-02-09 05:19:47.852427+01 | 1486613987.85243 | pgbench_tellers_pkey  |            90112
 2017-02-09 05:19:47.852427+01 | 1486613987.85243 | pgbench_accounts_pkey |        673882112

 2017-02-09 05:19:49.270566+01 | 1486613989.27057 | pgbench_branches_pkey |            16384
 2017-02-09 05:19:49.270566+01 | 1486613989.27057 | pgbench_tellers_pkey  |            90112
 2017-02-09 05:19:49.270566+01 | 1486613989.27057 | pgbench_accounts_pkey |        673882112

 2017-02-09 05:19:50.629216+01 | 1486613990.62922 | pgbench_branches_pkey |            16384
 2017-02-09 05:19:50.629216+01 | 1486613990.62922 | pgbench_tellers_pkey  |            90112
 2017-02-09 05:19:50.629216+01 | 1486613990.62922 | pgbench_accounts_pkey |        673882112

 2017-02-09 05:19:51.960888+01 | 1486613991.96089 | pgbench_branches_pkey |            16384
 2017-02-09 05:19:51.960888+01 | 1486613991.96089 | pgbench_tellers_pkey  |            90112
 2017-02-09 05:19:51.960888+01 | 1486613991.96089 | pgbench_accounts_pkey |        673882112

 2017-02-09 05:19:53.319977+01 | 1486613993.31998 | pgbench_branches_pkey |            16384
 2017-02-09 05:19:53.319977+01 | 1486613993.31998 | pgbench_tellers_pkey  |            90112
 2017-02-09 05:19:53.319977+01 | 1486613993.31998 | pgbench_accounts_pkey |        673882112

 2017-02-09 05:19:54.621726+01 | 1486613994.62173 | pgbench_branches_pkey |            16384
 2017-02-09 05:19:54.621726+01 | 1486613994.62173 | pgbench_tellers_pkey  |            90112
 2017-02-09 05:19:54.621726+01 | 1486613994.62173 | pgbench_accounts_pkey |        673882112

 2017-02-09 05:19:56.040741+01 | 1486613996.04074 | pgbench_branches_pkey |            16384
 2017-02-09 05:19:56.040741+01 | 1486613996.04074 | pgbench_tellers_pkey  |            90112
 2017-02-09 05:19:56.040741+01 | 1486613996.04074 | pgbench_accounts_pkey |        673882112

 2017-02-09 05:19:57.42214+01 | 1486613997.42214 | pgbench_branches_pkey |            16384
 2017-02-09 05:19:57.42214+01 | 1486613997.42214 | pgbench_tellers_pkey  |            90112
 2017-02-09 05:19:57.42214+01 | 1486613997.42214 | pgbench_accounts_pkey |        673882112

 2017-02-09 05:19:58.791267+01 | 1486613998.79127 | pgbench_branches_pkey |            16384
 2017-02-09 05:19:58.791267+01 | 1486613998.79127 | pgbench_tellers_pkey  |            90112
 2017-02-09 05:19:58.791267+01 | 1486613998.79127 | pgbench_accounts_pkey |        673882112

 2017-02-09 05:20:00.229254+01 | 1486614000.22925 | pgbench_branches_pkey |            16384
 2017-02-09 05:20:00.229254+01 | 1486614000.22925 | pgbench_tellers_pkey  |            90112
 2017-02-09 05:20:00.229254+01 | 1486614000.22925 | pgbench_accounts_pkey |        673882112

 2017-02-09 05:20:01.580623+01 | 1486614001.58062 | pgbench_branches_pkey |            16384
 2017-02-09 05:20:01.580623+01 | 1486614001.58062 | pgbench_tellers_pkey  |            90112
 2017-02-09 05:20:01.580623+01 | 1486614001.58062 | pgbench_accounts_pkey |        673882112

 2017-02-09 05:20:02.889361+01 | 1486614002.88936 | pgbench_branches_pkey |            16384
 2017-02-09 05:20:02.889361+01 | 1486614002.88936 | pgbench_tellers_pkey  |            90112
 2017-02-09 05:20:02.889361+01 | 1486614002.88936 | pgbench_accounts_pkey |        673882112

 2017-02-09 05:20:04.210692+01 | 1486614004.21069 | pgbench_branches_pkey |            16384
 2017-02-09 05:20:04.210692+01 | 1486614004.21069 | pgbench_tellers_pkey  |            90112
 2017-02-09 05:20:04.210692+01 | 1486614004.21069 | pgbench_accounts_pkey |        673882112

 2017-02-09 05:20:05.540507+01 | 1486614005.54051 | pgbench_branches_pkey |            16384
 2017-02-09 05:20:05.540507+01 | 1486614005.54051 | pgbench_tellers_pkey  |            90112
 2017-02-09 05:20:05.540507+01 | 1486614005.54051 | pgbench_accounts_pkey |        673882112

 2017-02-09 05:20:06.856813+01 | 1486614006.85681 | pgbench_branches_pkey |            16384
 2017-02-09 05:20:06.856813+01 | 1486614006.85681 | pgbench_tellers_pkey  |            90112
 2017-02-09 05:20:06.856813+01 | 1486614006.85681 | pgbench_accounts_pkey |        673882112

 2017-02-09 05:20:08.205+01 | 1486614008.205 | pgbench_branches_pkey |            16384
 2017-02-09 05:20:08.205+01 | 1486614008.205 | pgbench_tellers_pkey  |            90112
 2017-02-09 05:20:08.205+01 | 1486614008.205 | pgbench_accounts_pkey |        673882112

 2017-02-09 05:20:09.584986+01 | 1486614009.58499 | pgbench_branches_pkey |            16384
 2017-02-09 05:20:09.584986+01 | 1486614009.58499 | pgbench_tellers_pkey  |            90112
 2017-02-09 05:20:09.584986+01 | 1486614009.58499 | pgbench_accounts_pkey |        673882112

 2017-02-09 05:20:10.947457+01 | 1486614010.94746 | pgbench_branches_pkey |            16384
 2017-02-09 05:20:10.947457+01 | 1486614010.94746 | pgbench_tellers_pkey  |            90112
 2017-02-09 05:20:10.947457+01 | 1486614010.94746 | pgbench_accounts_pkey |        673882112

 2017-02-09 05:20:12.258576+01 | 1486614012.25858 | pgbench_branches_pkey |            16384
 2017-02-09 05:20:12.258576+01 | 1486614012.25858 | pgbench_tellers_pkey  |            90112
 2017-02-09 05:20:12.258576+01 | 1486614012.25858 | pgbench_accounts_pkey |        673882112

 2017-02-09 05:20:13.601509+01 | 1486614013.60151 | pgbench_branches_pkey |            16384
 2017-02-09 05:20:13.601509+01 | 1486614013.60151 | pgbench_tellers_pkey  |            90112
 2017-02-09 05:20:13.601509+01 | 1486614013.60151 | pgbench_accounts_pkey |        673882112

 2017-02-09 05:20:14.955251+01 | 1486614014.95525 | pgbench_branches_pkey |            16384
 2017-02-09 05:20:14.955251+01 | 1486614014.95525 | pgbench_tellers_pkey  |            90112
 2017-02-09 05:20:14.955251+01 | 1486614014.95525 | pgbench_accounts_pkey |        673882112

 2017-02-09 05:20:16.312264+01 | 1486614016.31226 | pgbench_branches_pkey |            16384
 2017-02-09 05:20:16.312264+01 | 1486614016.31226 | pgbench_tellers_pkey  |            90112
 2017-02-09 05:20:16.312264+01 | 1486614016.31226 | pgbench_accounts_pkey |        673882112

 2017-02-09 05:20:17.616804+01 | 1486614017.6168 | pgbench_branches_pkey |            16384
 2017-02-09 05:20:17.616804+01 | 1486614017.6168 | pgbench_tellers_pkey  |            90112
 2017-02-09 05:20:17.616804+01 | 1486614017.6168 | pgbench_accounts_pkey |        673882112

 2017-02-09 05:20:18.987949+01 | 1486614018.98795 | pgbench_branches_pkey |            16384
 2017-02-09 05:20:18.987949+01 | 1486614018.98795 | pgbench_tellers_pkey  |            90112
 2017-02-09 05:20:18.987949+01 | 1486614018.98795 | pgbench_accounts_pkey |        673882112

 2017-02-09 05:20:20.337999+01 | 1486614020.338 | pgbench_branches_pkey |            16384
 2017-02-09 05:20:20.337999+01 | 1486614020.338 | pgbench_tellers_pkey  |            90112
 2017-02-09 05:20:20.337999+01 | 1486614020.338 | pgbench_accounts_pkey |        673882112

 2017-02-09 05:20:21.621754+01 | 1486614021.62175 | pgbench_branches_pkey |            16384
 2017-02-09 05:20:21.621754+01 | 1486614021.62175 | pgbench_tellers_pkey  |            90112
 2017-02-09 05:20:21.621754+01 | 1486614021.62175 | pgbench_accounts_pkey |        673882112

 2017-02-09 05:20:22.983162+01 | 1486614022.98316 | pgbench_branches_pkey |            16384
 2017-02-09 05:20:22.983162+01 | 1486614022.98316 | pgbench_tellers_pkey  |            90112
 2017-02-09 05:20:22.983162+01 | 1486614022.98316 | pgbench_accounts_pkey |        673882112

 2017-02-09 05:20:24.304525+01 | 1486614024.30452 | pgbench_branches_pkey |            16384
 2017-02-09 05:20:24.304525+01 | 1486614024.30452 | pgbench_tellers_pkey  |            90112
 2017-02-09 05:20:24.304525+01 | 1486614024.30452 | pgbench_accounts_pkey |        673882112

 2017-02-09 05:20:25.639924+01 | 1486614025.63992 | pgbench_branches_pkey |            16384
 2017-02-09 05:20:25.639924+01 | 1486614025.63992 | pgbench_tellers_pkey  |            90112
 2017-02-09 05:20:25.639924+01 | 1486614025.63992 | pgbench_accounts_pkey |        673882112

 2017-02-09 05:20:26.943363+01 | 1486614026.94336 | pgbench_branches_pkey |            16384
 2017-02-09 05:20:26.943363+01 | 1486614026.94336 | pgbench_tellers_pkey  |            90112
 2017-02-09 05:20:26.943363+01 | 1486614026.94336 | pgbench_accounts_pkey |        673882112

 2017-02-09 05:20:28.345396+01 | 1486614028.3454 | pgbench_branches_pkey |            16384
 2017-02-09 05:20:28.345396+01 | 1486614028.3454 | pgbench_tellers_pkey  |            90112
 2017-02-09 05:20:28.345396+01 | 1486614028.3454 | pgbench_accounts_pkey |        673882112

 2017-02-09 05:20:29.680819+01 | 1486614029.68082 | pgbench_branches_pkey |            16384
 2017-02-09 05:20:29.680819+01 | 1486614029.68082 | pgbench_tellers_pkey  |            90112
 2017-02-09 05:20:29.680819+01 | 1486614029.68082 | pgbench_accounts_pkey |        673882112

