 2017-02-09 05:15:30.804087+01 | 1486613730.80409 | 0/E7DCEF28               |            3890016040

 2017-02-09 05:15:32.1355+01 | 1486613732.1355 | 0/E7DCEF28               |            3890016040

 2017-02-09 05:15:33.532979+01 | 1486613733.53298 | 0/E7DCEF28               |            3890016040

 2017-02-09 05:15:34.890586+01 | 1486613734.89059 | 0/E7DCEF28               |            3890016040

 2017-02-09 05:15:36.319779+01 | 1486613736.31978 | 0/E7DCEF28               |            3890016040

 2017-02-09 05:15:37.634694+01 | 1486613737.63469 | 0/E7DCEF28               |            3890016040

 2017-02-09 05:15:39.067881+01 | 1486613739.06788 | 0/E7DCEF28               |            3890016040

 2017-02-09 05:15:40.520742+01 | 1486613740.52074 | 0/E7DCEF28               |            3890016040

 2017-02-09 05:15:41.848649+01 | 1486613741.84865 | 0/E7DCEF28               |            3890016040

 2017-02-09 05:15:43.229954+01 | 1486613743.22995 | 0/E7DCEF28               |            3890016040

 2017-02-09 05:15:44.630062+01 | 1486613744.63006 | 0/E7DCEF28               |            3890016040

 2017-02-09 05:15:46.024075+01 | 1486613746.02408 | 0/E7DCEF28               |            3890016040

 2017-02-09 05:15:47.461875+01 | 1486613747.46187 | 0/E7DCEF28               |            3890016040

 2017-02-09 05:15:48.933476+01 | 1486613748.93348 | 0/E7DCEF28               |            3890016040

 2017-02-09 05:15:50.24673+01 | 1486613750.24673 | 0/E7DCEF28               |            3890016040

 2017-02-09 05:15:51.620458+01 | 1486613751.62046 | 0/E7DCEF28               |            3890016040

 2017-02-09 05:15:53.013181+01 | 1486613753.01318 | 0/E7DCEF28               |            3890016040

 2017-02-09 05:15:54.426964+01 | 1486613754.42696 | 0/E7DCEF28               |            3890016040

 2017-02-09 05:15:55.832237+01 | 1486613755.83224 | 0/E7DCEF28               |            3890016040

 2017-02-09 05:15:57.161967+01 | 1486613757.16197 | 0/E7DCEF28               |            3890016040

 2017-02-09 05:15:58.471277+01 | 1486613758.47128 | 0/E7DCEF28               |            3890016040

 2017-02-09 05:15:59.825551+01 | 1486613759.82555 | 0/E7DCEF28               |            3890016040

 2017-02-09 05:16:01.118925+01 | 1486613761.11893 | 0/E7DCEF28               |            3890016040

 2017-02-09 05:16:02.452045+01 | 1486613762.45204 | 0/E7DCEF28               |            3890016040

 2017-02-09 05:16:03.803896+01 | 1486613763.8039 | 0/E7DCEF28               |            3890016040

 2017-02-09 05:16:05.071205+01 | 1486613765.0712 | 0/E7DCEF28               |            3890016040

 2017-02-09 05:16:06.430475+01 | 1486613766.43047 | 0/E7DCEF28               |            3890016040

 2017-02-09 05:16:07.757468+01 | 1486613767.75747 | 0/E7DCEF28               |            3890016040

 2017-02-09 05:16:09.158662+01 | 1486613769.15866 | 0/E7DCEF28               |            3890016040

 2017-02-09 05:16:10.544046+01 | 1486613770.54405 | 0/E7DCEF28               |            3890016040

 2017-02-09 05:16:11.947763+01 | 1486613771.94776 | 0/E7DCEF28               |            3890016040

 2017-02-09 05:16:13.310923+01 | 1486613773.31092 | 0/E7DCEF28               |            3890016040

 2017-02-09 05:16:14.644801+01 | 1486613774.6448 | 0/E7DCEF28               |            3890016040

 2017-02-09 05:16:15.96424+01 | 1486613775.96424 | 0/E7DCEF28               |            3890016040

 2017-02-09 05:16:17.383099+01 | 1486613777.3831 | 0/E7DCEF28               |            3890016040

 2017-02-09 05:16:18.795556+01 | 1486613778.79556 | 0/E7DCEF28               |            3890016040

 2017-02-09 05:16:20.189875+01 | 1486613780.18987 | 0/E7DCEF28               |            3890016040

 2017-02-09 05:16:21.619926+01 | 1486613781.61993 | 0/E7DCEF28               |            3890016040

 2017-02-09 05:16:22.965325+01 | 1486613782.96533 | 0/E7DCEF28               |            3890016040

 2017-02-09 05:16:24.286604+01 | 1486613784.2866 | 0/E7DCEF28               |            3890016040

 2017-02-09 05:16:25.652481+01 | 1486613785.65248 | 0/E7DCEF28               |            3890016040

 2017-02-09 05:16:27.051711+01 | 1486613787.05171 | 0/E7DCEF28               |            3890016040

 2017-02-09 05:16:28.412374+01 | 1486613788.41237 | 0/E7DCEF28               |            3890016040

 2017-02-09 05:16:29.724713+01 | 1486613789.72471 | 0/E7DCEF28               |            3890016040

 2017-02-09 05:16:31.00735+01 | 1486613791.00735 | 0/E7DCEF28               |            3890016040

 2017-02-09 05:16:32.352742+01 | 1486613792.35274 | 0/E7DCEF28               |            3890016040

 2017-02-09 05:16:33.673256+01 | 1486613793.67326 | 0/E7DCEF28               |            3890016040

 2017-02-09 05:16:34.999826+01 | 1486613794.99983 | 0/E7DCEF28               |            3890016040

 2017-02-09 05:16:36.391332+01 | 1486613796.39133 | 0/E7DCEF28               |            3890016040

 2017-02-09 05:16:37.781886+01 | 1486613797.78189 | 0/E7DCEF28               |            3890016040

 2017-02-09 05:16:39.217511+01 | 1486613799.21751 | 0/E7DCEF28               |            3890016040

 2017-02-09 05:16:40.645059+01 | 1486613800.64506 | 0/E7DCEF28               |            3890016040

 2017-02-09 05:16:42.064523+01 | 1486613802.06452 | 0/E7DCEF28               |            3890016040

 2017-02-09 05:16:43.393637+01 | 1486613803.39364 | 0/E7DCEF28               |            3890016040

 2017-02-09 05:16:44.800542+01 | 1486613804.80054 | 0/E7DCEF28               |            3890016040

 2017-02-09 05:16:46.105985+01 | 1486613806.10598 | 0/E7DCEF28               |            3890016040

 2017-02-09 05:16:47.416615+01 | 1486613807.41662 | 0/E7DCEF28               |            3890016040

 2017-02-09 05:16:48.827142+01 | 1486613808.82714 | 0/E7DCEF28               |            3890016040

 2017-02-09 05:16:50.230024+01 | 1486613810.23002 | 0/E7DCEF28               |            3890016040

 2017-02-09 05:16:51.624467+01 | 1486613811.62447 | 0/E7DCEF28               |            3890016040

 2017-02-09 05:16:53.066927+01 | 1486613813.06693 | 0/E7DCEF28               |            3890016040

 2017-02-09 05:16:54.456079+01 | 1486613814.45608 | 0/E7DCEF28               |            3890016040

 2017-02-09 05:16:55.818914+01 | 1486613815.81891 | 0/E7DCEF28               |            3890016040

 2017-02-09 05:16:57.18523+01 | 1486613817.18523 | 0/E7DCEF28               |            3890016040

 2017-02-09 05:16:58.545794+01 | 1486613818.54579 | 0/E7DCEF28               |            3890016040

 2017-02-09 05:16:59.838712+01 | 1486613819.83871 | 0/E7DCEF28               |            3890016040

 2017-02-09 05:17:01.144322+01 | 1486613821.14432 | 0/E7DCEF28               |            3890016040

 2017-02-09 05:17:02.490426+01 | 1486613822.49043 | 0/E7DCEF28               |            3890016040

 2017-02-09 05:17:03.9109+01 | 1486613823.9109 | 0/E7DCEF28               |            3890016040

 2017-02-09 05:17:05.279374+01 | 1486613825.27937 | 0/E7DCEF28               |            3890016040

 2017-02-09 05:17:06.636909+01 | 1486613826.63691 | 0/E7DCEF28               |            3890016040

 2017-02-09 05:17:07.967531+01 | 1486613827.96753 | 0/E7DCEF28               |            3890016040

 2017-02-09 05:17:09.308985+01 | 1486613829.30898 | 0/E7DCEF28               |            3890016040

 2017-02-09 05:17:10.694047+01 | 1486613830.69405 | 0/E7DCEF28               |            3890016040

 2017-02-09 05:17:11.972215+01 | 1486613831.97221 | 0/E7DCEF28               |            3890016040

 2017-02-09 05:17:13.333174+01 | 1486613833.33317 | 0/E7DCEF28               |            3890016040

 2017-02-09 05:17:14.730482+01 | 1486613834.73048 | 0/E7DCEF28               |            3890016040

 2017-02-09 05:17:16.104896+01 | 1486613836.1049 | 0/E7DCEF28               |            3890016040

 2017-02-09 05:17:17.407079+01 | 1486613837.40708 | 0/E7DCEF28               |            3890016040

 2017-02-09 05:17:18.760111+01 | 1486613838.76011 | 0/E7DCEF28               |            3890016040

 2017-02-09 05:17:20.171134+01 | 1486613840.17113 | 0/E7DCEF28               |            3890016040

 2017-02-09 05:17:21.547842+01 | 1486613841.54784 | 0/E7DCEF28               |            3890016040

 2017-02-09 05:17:22.868854+01 | 1486613842.86885 | 0/E7DCEF28               |            3890016040

 2017-02-09 05:17:24.212816+01 | 1486613844.21282 | 0/E7DCEF28               |            3890016040

 2017-02-09 05:17:25.532194+01 | 1486613845.53219 | 0/E7DCEF28               |            3890016040

 2017-02-09 05:17:26.856899+01 | 1486613846.8569 | 0/E7DCEF28               |            3890016040

 2017-02-09 05:17:28.190223+01 | 1486613848.19022 | 0/E7DCEF28               |            3890016040

 2017-02-09 05:17:29.467561+01 | 1486613849.46756 | 0/E7DCEF28               |            3890016040

 2017-02-09 05:17:30.856641+01 | 1486613850.85664 | 0/E7DCEF28               |            3890016040

 2017-02-09 05:17:32.211484+01 | 1486613852.21148 | 0/E7DCEF28               |            3890016040

 2017-02-09 05:17:33.536877+01 | 1486613853.53688 | 0/E7DCEF28               |            3890016040

 2017-02-09 05:17:34.886047+01 | 1486613854.88605 | 0/E7DCEF28               |            3890016040

 2017-02-09 05:17:36.237264+01 | 1486613856.23726 | 0/E7DCEF28               |            3890016040

 2017-02-09 05:17:37.694334+01 | 1486613857.69433 | 0/E7DCEF28               |            3890016040

 2017-02-09 05:17:39.015681+01 | 1486613859.01568 | 0/E7DCEF28               |            3890016040

 2017-02-09 05:17:40.367595+01 | 1486613860.36759 | 0/E7DCEF28               |            3890016040

 2017-02-09 05:17:41.672298+01 | 1486613861.6723 | 0/E7DCEF28               |            3890016040

 2017-02-09 05:17:43.018764+01 | 1486613863.01876 | 0/E7DCEF28               |            3890016040

 2017-02-09 05:17:44.405847+01 | 1486613864.40585 | 0/E7DCEF28               |            3890016040

 2017-02-09 05:17:45.782145+01 | 1486613865.78215 | 0/E7DCEF28               |            3890016040

 2017-02-09 05:17:47.186762+01 | 1486613867.18676 | 0/E7DCEF28               |            3890016040

 2017-02-09 05:17:48.598691+01 | 1486613868.59869 | 0/E7DCEF28               |            3890016040

 2017-02-09 05:17:50.023336+01 | 1486613870.02334 | 0/E7DCEF28               |            3890016040

 2017-02-09 05:17:51.456184+01 | 1486613871.45618 | 0/E7DCEF28               |            3890016040

 2017-02-09 05:17:52.92402+01 | 1486613872.92402 | 0/E7DCEF28               |            3890016040

 2017-02-09 05:17:54.33781+01 | 1486613874.33781 | 0/E7DCEF28               |            3890016040

 2017-02-09 05:17:55.651631+01 | 1486613875.65163 | 0/E7DCEF28               |            3890016040

 2017-02-09 05:17:56.951331+01 | 1486613876.95133 | 0/E7DCEF28               |            3890016040

 2017-02-09 05:17:58.318109+01 | 1486613878.31811 | 0/E7DCEF28               |            3890016040

 2017-02-09 05:17:59.703467+01 | 1486613879.70347 | 0/E7DCEF28               |            3890016040

 2017-02-09 05:18:00.99343+01 | 1486613880.99343 | 0/E7DCEF28               |            3890016040

 2017-02-09 05:18:02.383338+01 | 1486613882.38334 | 0/E7DCEF28               |            3890016040

 2017-02-09 05:18:03.678538+01 | 1486613883.67854 | 0/E7DCEF28               |            3890016040

 2017-02-09 05:18:05.056273+01 | 1486613885.05627 | 0/E7DCEF28               |            3890016040

 2017-02-09 05:18:06.427725+01 | 1486613886.42773 | 0/E7DCEF28               |            3890016040

 2017-02-09 05:18:07.839356+01 | 1486613887.83936 | 0/E7DCEF28               |            3890016040

 2017-02-09 05:18:09.171215+01 | 1486613889.17122 | 0/E7DCEF28               |            3890016040

 2017-02-09 05:18:10.459425+01 | 1486613890.45942 | 0/E7DCEF28               |            3890016040

 2017-02-09 05:18:11.785633+01 | 1486613891.78563 | 0/E7DCEF28               |            3890016040

 2017-02-09 05:18:13.200623+01 | 1486613893.20062 | 0/E7DCEF28               |            3890016040

 2017-02-09 05:18:14.574232+01 | 1486613894.57423 | 0/E7DCEF28               |            3890016040

 2017-02-09 05:18:15.993109+01 | 1486613895.99311 | 0/E7DCEF28               |            3890016040

 2017-02-09 05:18:17.407475+01 | 1486613897.40747 | 0/E7DCEF28               |            3890016040

 2017-02-09 05:18:18.767749+01 | 1486613898.76775 | 0/E7DCEF28               |            3890016040

 2017-02-09 05:18:20.172482+01 | 1486613900.17248 | 0/E7DCEF28               |            3890016040

 2017-02-09 05:18:21.522027+01 | 1486613901.52203 | 0/E7DCEF28               |            3890016040

 2017-02-09 05:18:22.913857+01 | 1486613902.91386 | 0/E7DCEF28               |            3890016040

 2017-02-09 05:18:24.247629+01 | 1486613904.24763 | 0/E7DCEF28               |            3890016040

 2017-02-09 05:18:25.591304+01 | 1486613905.5913 | 0/E7DCEF28               |            3890016040

 2017-02-09 05:18:27.010209+01 | 1486613907.01021 | 0/E7DCEF28               |            3890016040

 2017-02-09 05:18:28.372158+01 | 1486613908.37216 | 0/E7DCEF28               |            3890016040

 2017-02-09 05:18:29.765795+01 | 1486613909.76579 | 0/E7DCEF28               |            3890016040

 2017-02-09 05:18:31.126881+01 | 1486613911.12688 | 0/E7DCEF28               |            3890016040

 2017-02-09 05:18:32.523743+01 | 1486613912.52374 | 0/E7DCEF28               |            3890016040

 2017-02-09 05:18:33.919174+01 | 1486613913.91917 | 0/E7DCEF28               |            3890016040

 2017-02-09 05:18:35.327961+01 | 1486613915.32796 | 0/E7DCEF28               |            3890016040

 2017-02-09 05:18:36.720925+01 | 1486613916.72093 | 0/E7DCEF28               |            3890016040

 2017-02-09 05:18:38.104194+01 | 1486613918.10419 | 0/E7DCEF28               |            3890016040

 2017-02-09 05:18:39.520457+01 | 1486613919.52046 | 0/E7DCEF28               |            3890016040

 2017-02-09 05:18:40.845934+01 | 1486613920.84593 | 0/E7DCEF28               |            3890016040

 2017-02-09 05:18:42.185259+01 | 1486613922.18526 | 0/E7DCEF28               |            3890016040

 2017-02-09 05:18:43.556461+01 | 1486613923.55646 | 0/E7DCEF28               |            3890016040

 2017-02-09 05:18:44.905878+01 | 1486613924.90588 | 0/E7DCEF28               |            3890016040

 2017-02-09 05:18:46.253953+01 | 1486613926.25395 | 0/E7DCEF28               |            3890016040

 2017-02-09 05:18:47.578613+01 | 1486613927.57861 | 0/E7DCEF28               |            3890016040

 2017-02-09 05:18:48.958424+01 | 1486613928.95842 | 0/E7DCEF28               |            3890016040

 2017-02-09 05:18:50.322789+01 | 1486613930.32279 | 0/E7DCEF28               |            3890016040

 2017-02-09 05:18:51.637604+01 | 1486613931.6376 | 0/E7DCEF28               |            3890016040

 2017-02-09 05:18:52.95346+01 | 1486613932.95346 | 0/E7DCEF28               |            3890016040

 2017-02-09 05:18:54.359488+01 | 1486613934.35949 | 0/E7DCEF28               |            3890016040

 2017-02-09 05:18:55.749522+01 | 1486613935.74952 | 0/E7DCEF28               |            3890016040

 2017-02-09 05:18:57.117904+01 | 1486613937.1179 | 0/E7DCEF28               |            3890016040

 2017-02-09 05:18:58.450211+01 | 1486613938.45021 | 0/E7DCEF28               |            3890016040

 2017-02-09 05:18:59.800225+01 | 1486613939.80023 | 0/E7DCEF28               |            3890016040

 2017-02-09 05:19:01.150874+01 | 1486613941.15087 | 0/E7DCEF28               |            3890016040

 2017-02-09 05:19:02.487942+01 | 1486613942.48794 | 0/E7DCEF28               |            3890016040

 2017-02-09 05:19:03.817353+01 | 1486613943.81735 | 0/E7DCEF28               |            3890016040

 2017-02-09 05:19:05.117553+01 | 1486613945.11755 | 0/E7DCEF28               |            3890016040

 2017-02-09 05:19:06.556772+01 | 1486613946.55677 | 0/E7DCEF28               |            3890016040

 2017-02-09 05:19:07.87639+01 | 1486613947.87639 | 0/E7DCEF28               |            3890016040

 2017-02-09 05:19:09.269969+01 | 1486613949.26997 | 0/E7DCEF28               |            3890016040

 2017-02-09 05:19:10.598622+01 | 1486613950.59862 | 0/E7DCEF28               |            3890016040

 2017-02-09 05:19:11.838638+01 | 1486613951.83864 | 0/E7DCEF28               |            3890016040

 2017-02-09 05:19:13.239403+01 | 1486613953.2394 | 0/E7DCEF28               |            3890016040

 2017-02-09 05:19:14.541224+01 | 1486613954.54122 | 0/E7DCEF28               |            3890016040

 2017-02-09 05:19:15.938645+01 | 1486613955.93864 | 0/E7DCEF28               |            3890016040

 2017-02-09 05:19:17.357109+01 | 1486613957.35711 | 0/E7DCEF28               |            3890016040

 2017-02-09 05:19:18.673972+01 | 1486613958.67397 | 0/E7DCEF28               |            3890016040

 2017-02-09 05:19:20.022838+01 | 1486613960.02284 | 0/E7DCEF28               |            3890016040

 2017-02-09 05:19:21.420863+01 | 1486613961.42086 | 0/E7DCEF28               |            3890016040

 2017-02-09 05:19:22.787321+01 | 1486613962.78732 | 0/E7DCEF28               |            3890016040

 2017-02-09 05:19:24.146853+01 | 1486613964.14685 | 0/E7DCEF28               |            3890016040

 2017-02-09 05:19:25.575994+01 | 1486613965.57599 | 0/E7DCEF28               |            3890016040

 2017-02-09 05:19:26.904173+01 | 1486613966.90417 | 0/E7DCEF28               |            3890016040

 2017-02-09 05:19:28.326596+01 | 1486613968.3266 | 0/E7DCEF28               |            3890016040

 2017-02-09 05:19:29.706363+01 | 1486613969.70636 | 0/E7DCEF28               |            3890016040

 2017-02-09 05:19:31.113532+01 | 1486613971.11353 | 0/E7DCEF28               |            3890016040

 2017-02-09 05:19:32.532494+01 | 1486613972.53249 | 0/E7DCEF28               |            3890016040

 2017-02-09 05:19:33.917524+01 | 1486613973.91752 | 0/E7DCEF28               |            3890016040

 2017-02-09 05:19:35.24883+01 | 1486613975.24883 | 0/E7DCEF28               |            3890016040

 2017-02-09 05:19:36.651333+01 | 1486613976.65133 | 0/E7DCEF28               |            3890016040

 2017-02-09 05:19:37.998345+01 | 1486613977.99834 | 0/E7DCEF28               |            3890016040

 2017-02-09 05:19:39.323586+01 | 1486613979.32359 | 0/E7DCEF28               |            3890016040

 2017-02-09 05:19:40.680699+01 | 1486613980.6807 | 0/E7DCEF28               |            3890016040

 2017-02-09 05:19:42.067587+01 | 1486613982.06759 | 0/E7DCEF28               |            3890016040

 2017-02-09 05:19:43.388476+01 | 1486613983.38848 | 0/E7DCEF28               |            3890016040

 2017-02-09 05:19:44.772319+01 | 1486613984.77232 | 0/E7DCEF28               |            3890016040

 2017-02-09 05:19:46.181295+01 | 1486613986.18129 | 0/E7DCEF28               |            3890016040

 2017-02-09 05:19:47.583694+01 | 1486613987.58369 | 0/E7DCEF28               |            3890016040

 2017-02-09 05:19:48.971068+01 | 1486613988.97107 | 0/E7DCEF28               |            3890016040

 2017-02-09 05:19:50.408155+01 | 1486613990.40815 | 0/E7DCEF28               |            3890016040

 2017-02-09 05:19:51.723532+01 | 1486613991.72353 | 0/E7DCEF28               |            3890016040

 2017-02-09 05:19:53.097704+01 | 1486613993.0977 | 0/E7DCEF28               |            3890016040

 2017-02-09 05:19:54.410029+01 | 1486613994.41003 | 0/E7DCEF28               |            3890016040

 2017-02-09 05:19:55.742674+01 | 1486613995.74267 | 0/E7DCEF28               |            3890016040

 2017-02-09 05:19:57.176775+01 | 1486613997.17677 | 0/E7DCEF28               |            3890016040

 2017-02-09 05:19:58.54581+01 | 1486613998.54581 | 0/E7DCEF28               |            3890016040

 2017-02-09 05:19:59.921638+01 | 1486613999.92164 | 0/E7DCEF28               |            3890016040

 2017-02-09 05:20:01.351751+01 | 1486614001.35175 | 0/E7DCEF28               |            3890016040

 2017-02-09 05:20:02.690272+01 | 1486614002.69027 | 0/E7DCEF28               |            3890016040

 2017-02-09 05:20:03.983925+01 | 1486614003.98393 | 0/E7DCEF28               |            3890016040

 2017-02-09 05:20:05.325588+01 | 1486614005.32559 | 0/E7DCEF28               |            3890016040

 2017-02-09 05:20:06.639103+01 | 1486614006.6391 | 0/E7DCEF28               |            3890016040

 2017-02-09 05:20:07.960019+01 | 1486614007.96002 | 0/E7DCEF28               |            3890016040

 2017-02-09 05:20:09.337725+01 | 1486614009.33772 | 0/E7DCEF28               |            3890016040

 2017-02-09 05:20:10.735135+01 | 1486614010.73514 | 0/E7DCEF28               |            3890016040

 2017-02-09 05:20:12.03631+01 | 1486614012.03631 | 0/E7DCEF28               |            3890016040

 2017-02-09 05:20:13.355522+01 | 1486614013.35552 | 0/E7DCEF28               |            3890016040

 2017-02-09 05:20:14.712973+01 | 1486614014.71297 | 0/E7DCEF28               |            3890016040

 2017-02-09 05:20:16.10581+01 | 1486614016.10581 | 0/E7DCEF28               |            3890016040

 2017-02-09 05:20:17.412051+01 | 1486614017.41205 | 0/E7DCEF28               |            3890016040

 2017-02-09 05:20:18.739568+01 | 1486614018.73957 | 0/E7DCEF28               |            3890016040

 2017-02-09 05:20:20.143064+01 | 1486614020.14306 | 0/E7DCEF28               |            3890016040

 2017-02-09 05:20:21.447321+01 | 1486614021.44732 | 0/E7DCEF28               |            3890016040

 2017-02-09 05:20:22.753616+01 | 1486614022.75362 | 0/E7DCEF28               |            3890016040

 2017-02-09 05:20:24.089374+01 | 1486614024.08937 | 0/E7DCEF28               |            3890016040

 2017-02-09 05:20:25.414318+01 | 1486614025.41432 | 0/E7DCEF28               |            3890016040

 2017-02-09 05:20:26.758598+01 | 1486614026.7586 | 0/E7DCEF28               |            3890016040

 2017-02-09 05:20:28.078174+01 | 1486614028.07817 | 0/E7DCEF28               |            3890016040

 2017-02-09 05:20:29.458484+01 | 1486614029.45848 | 0/E7DCEF28               |            3890016040

