 2017-02-09 02:08:35.16116+01 | 1486602515.16116 | pgbench_accounts |       4028858368
 2017-02-09 02:08:35.16116+01 | 1486602515.16116 | pgbench_tellers  |           139264
 2017-02-09 02:08:35.16116+01 | 1486602515.16116 | pgbench_history  |                0
 2017-02-09 02:08:35.16116+01 | 1486602515.16116 | pgbench_branches |            16384

 2017-02-09 02:08:36.460714+01 | 1486602516.46071 | pgbench_accounts |       4028858368
 2017-02-09 02:08:36.460714+01 | 1486602516.46071 | pgbench_tellers  |           139264
 2017-02-09 02:08:36.460714+01 | 1486602516.46071 | pgbench_history  |                0
 2017-02-09 02:08:36.460714+01 | 1486602516.46071 | pgbench_branches |            16384

 2017-02-09 02:08:37.809333+01 | 1486602517.80933 | pgbench_accounts |       4028858368
 2017-02-09 02:08:37.809333+01 | 1486602517.80933 | pgbench_tellers  |           139264
 2017-02-09 02:08:37.809333+01 | 1486602517.80933 | pgbench_history  |                0
 2017-02-09 02:08:37.809333+01 | 1486602517.80933 | pgbench_branches |            16384

 2017-02-09 02:08:39.166286+01 | 1486602519.16629 | pgbench_accounts |       4028858368
 2017-02-09 02:08:39.166286+01 | 1486602519.16629 | pgbench_tellers  |           139264
 2017-02-09 02:08:39.166286+01 | 1486602519.16629 | pgbench_history  |                0
 2017-02-09 02:08:39.166286+01 | 1486602519.16629 | pgbench_branches |            16384

 2017-02-09 02:08:40.537545+01 | 1486602520.53754 | pgbench_accounts |       4028858368
 2017-02-09 02:08:40.537545+01 | 1486602520.53754 | pgbench_tellers  |           139264
 2017-02-09 02:08:40.537545+01 | 1486602520.53754 | pgbench_history  |                0
 2017-02-09 02:08:40.537545+01 | 1486602520.53754 | pgbench_branches |            16384

 2017-02-09 02:08:41.965164+01 | 1486602521.96516 | pgbench_accounts |       4028858368
 2017-02-09 02:08:41.965164+01 | 1486602521.96516 | pgbench_tellers  |           139264
 2017-02-09 02:08:41.965164+01 | 1486602521.96516 | pgbench_history  |                0
 2017-02-09 02:08:41.965164+01 | 1486602521.96516 | pgbench_branches |            16384

 2017-02-09 02:08:43.312547+01 | 1486602523.31255 | pgbench_accounts |       4028858368
 2017-02-09 02:08:43.312547+01 | 1486602523.31255 | pgbench_tellers  |           139264
 2017-02-09 02:08:43.312547+01 | 1486602523.31255 | pgbench_history  |                0
 2017-02-09 02:08:43.312547+01 | 1486602523.31255 | pgbench_branches |            16384

 2017-02-09 02:08:44.582889+01 | 1486602524.58289 | pgbench_accounts |       4028858368
 2017-02-09 02:08:44.582889+01 | 1486602524.58289 | pgbench_tellers  |           139264
 2017-02-09 02:08:44.582889+01 | 1486602524.58289 | pgbench_history  |                0
 2017-02-09 02:08:44.582889+01 | 1486602524.58289 | pgbench_branches |            16384

 2017-02-09 02:08:45.957337+01 | 1486602525.95734 | pgbench_accounts |       4028858368
 2017-02-09 02:08:45.957337+01 | 1486602525.95734 | pgbench_tellers  |           139264
 2017-02-09 02:08:45.957337+01 | 1486602525.95734 | pgbench_history  |                0
 2017-02-09 02:08:45.957337+01 | 1486602525.95734 | pgbench_branches |            16384

 2017-02-09 02:08:47.277094+01 | 1486602527.27709 | pgbench_accounts |       4028858368
 2017-02-09 02:08:47.277094+01 | 1486602527.27709 | pgbench_tellers  |           139264
 2017-02-09 02:08:47.277094+01 | 1486602527.27709 | pgbench_history  |                0
 2017-02-09 02:08:47.277094+01 | 1486602527.27709 | pgbench_branches |            16384

 2017-02-09 02:08:48.647672+01 | 1486602528.64767 | pgbench_accounts |       4028858368
 2017-02-09 02:08:48.647672+01 | 1486602528.64767 | pgbench_tellers  |           139264
 2017-02-09 02:08:48.647672+01 | 1486602528.64767 | pgbench_history  |                0
 2017-02-09 02:08:48.647672+01 | 1486602528.64767 | pgbench_branches |            16384

 2017-02-09 02:08:50.000011+01 | 1486602530.00001 | pgbench_accounts |       4028858368
 2017-02-09 02:08:50.000011+01 | 1486602530.00001 | pgbench_tellers  |           139264
 2017-02-09 02:08:50.000011+01 | 1486602530.00001 | pgbench_history  |                0
 2017-02-09 02:08:50.000011+01 | 1486602530.00001 | pgbench_branches |            16384

 2017-02-09 02:08:51.412772+01 | 1486602531.41277 | pgbench_accounts |       4028858368
 2017-02-09 02:08:51.412772+01 | 1486602531.41277 | pgbench_tellers  |           139264
 2017-02-09 02:08:51.412772+01 | 1486602531.41277 | pgbench_history  |                0
 2017-02-09 02:08:51.412772+01 | 1486602531.41277 | pgbench_branches |            16384

 2017-02-09 02:08:52.763218+01 | 1486602532.76322 | pgbench_accounts |       4028858368
 2017-02-09 02:08:52.763218+01 | 1486602532.76322 | pgbench_tellers  |           139264
 2017-02-09 02:08:52.763218+01 | 1486602532.76322 | pgbench_history  |                0
 2017-02-09 02:08:52.763218+01 | 1486602532.76322 | pgbench_branches |            16384

 2017-02-09 02:08:54.059442+01 | 1486602534.05944 | pgbench_accounts |       4028858368
 2017-02-09 02:08:54.059442+01 | 1486602534.05944 | pgbench_tellers  |           139264
 2017-02-09 02:08:54.059442+01 | 1486602534.05944 | pgbench_history  |                0
 2017-02-09 02:08:54.059442+01 | 1486602534.05944 | pgbench_branches |            16384

 2017-02-09 02:08:55.449164+01 | 1486602535.44916 | pgbench_accounts |       4028858368
 2017-02-09 02:08:55.449164+01 | 1486602535.44916 | pgbench_tellers  |           139264
 2017-02-09 02:08:55.449164+01 | 1486602535.44916 | pgbench_history  |                0
 2017-02-09 02:08:55.449164+01 | 1486602535.44916 | pgbench_branches |            16384

 2017-02-09 02:08:56.793262+01 | 1486602536.79326 | pgbench_accounts |       4028858368
 2017-02-09 02:08:56.793262+01 | 1486602536.79326 | pgbench_tellers  |           139264
 2017-02-09 02:08:56.793262+01 | 1486602536.79326 | pgbench_history  |                0
 2017-02-09 02:08:56.793262+01 | 1486602536.79326 | pgbench_branches |            16384

 2017-02-09 02:08:58.157756+01 | 1486602538.15776 | pgbench_accounts |       4028858368
 2017-02-09 02:08:58.157756+01 | 1486602538.15776 | pgbench_tellers  |           139264
 2017-02-09 02:08:58.157756+01 | 1486602538.15776 | pgbench_history  |                0
 2017-02-09 02:08:58.157756+01 | 1486602538.15776 | pgbench_branches |            16384

 2017-02-09 02:08:59.405981+01 | 1486602539.40598 | pgbench_accounts |       4028858368
 2017-02-09 02:08:59.405981+01 | 1486602539.40598 | pgbench_tellers  |           139264
 2017-02-09 02:08:59.405981+01 | 1486602539.40598 | pgbench_history  |                0
 2017-02-09 02:08:59.405981+01 | 1486602539.40598 | pgbench_branches |            16384

 2017-02-09 02:09:00.741312+01 | 1486602540.74131 | pgbench_accounts |       4028858368
 2017-02-09 02:09:00.741312+01 | 1486602540.74131 | pgbench_tellers  |           139264
 2017-02-09 02:09:00.741312+01 | 1486602540.74131 | pgbench_history  |                0
 2017-02-09 02:09:00.741312+01 | 1486602540.74131 | pgbench_branches |            16384

 2017-02-09 02:09:02.131549+01 | 1486602542.13155 | pgbench_accounts |       4028858368
 2017-02-09 02:09:02.131549+01 | 1486602542.13155 | pgbench_tellers  |           139264
 2017-02-09 02:09:02.131549+01 | 1486602542.13155 | pgbench_history  |                0
 2017-02-09 02:09:02.131549+01 | 1486602542.13155 | pgbench_branches |            16384

 2017-02-09 02:09:03.525808+01 | 1486602543.52581 | pgbench_accounts |       4028858368
 2017-02-09 02:09:03.525808+01 | 1486602543.52581 | pgbench_tellers  |           139264
 2017-02-09 02:09:03.525808+01 | 1486602543.52581 | pgbench_history  |                0
 2017-02-09 02:09:03.525808+01 | 1486602543.52581 | pgbench_branches |            16384

 2017-02-09 02:09:04.88301+01 | 1486602544.88301 | pgbench_accounts |       4028858368
 2017-02-09 02:09:04.88301+01 | 1486602544.88301 | pgbench_tellers  |           139264
 2017-02-09 02:09:04.88301+01 | 1486602544.88301 | pgbench_history  |                0
 2017-02-09 02:09:04.88301+01 | 1486602544.88301 | pgbench_branches |            16384

 2017-02-09 02:09:06.253854+01 | 1486602546.25385 | pgbench_accounts |       4028858368
 2017-02-09 02:09:06.253854+01 | 1486602546.25385 | pgbench_tellers  |           139264
 2017-02-09 02:09:06.253854+01 | 1486602546.25385 | pgbench_history  |                0
 2017-02-09 02:09:06.253854+01 | 1486602546.25385 | pgbench_branches |            16384

 2017-02-09 02:09:07.529073+01 | 1486602547.52907 | pgbench_accounts |       4028858368
 2017-02-09 02:09:07.529073+01 | 1486602547.52907 | pgbench_tellers  |           139264
 2017-02-09 02:09:07.529073+01 | 1486602547.52907 | pgbench_history  |                0
 2017-02-09 02:09:07.529073+01 | 1486602547.52907 | pgbench_branches |            16384

 2017-02-09 02:09:08.940562+01 | 1486602548.94056 | pgbench_accounts |       4028858368
 2017-02-09 02:09:08.940562+01 | 1486602548.94056 | pgbench_tellers  |           139264
 2017-02-09 02:09:08.940562+01 | 1486602548.94056 | pgbench_history  |                0
 2017-02-09 02:09:08.940562+01 | 1486602548.94056 | pgbench_branches |            16384

 2017-02-09 02:09:10.340543+01 | 1486602550.34054 | pgbench_accounts |       4028858368
 2017-02-09 02:09:10.340543+01 | 1486602550.34054 | pgbench_tellers  |           139264
 2017-02-09 02:09:10.340543+01 | 1486602550.34054 | pgbench_history  |                0
 2017-02-09 02:09:10.340543+01 | 1486602550.34054 | pgbench_branches |            16384

 2017-02-09 02:09:11.648147+01 | 1486602551.64815 | pgbench_accounts |       4028858368
 2017-02-09 02:09:11.648147+01 | 1486602551.64815 | pgbench_tellers  |           139264
 2017-02-09 02:09:11.648147+01 | 1486602551.64815 | pgbench_history  |                0
 2017-02-09 02:09:11.648147+01 | 1486602551.64815 | pgbench_branches |            16384

 2017-02-09 02:09:12.958929+01 | 1486602552.95893 | pgbench_accounts |       4028858368
 2017-02-09 02:09:12.958929+01 | 1486602552.95893 | pgbench_tellers  |           139264
 2017-02-09 02:09:12.958929+01 | 1486602552.95893 | pgbench_history  |                0
 2017-02-09 02:09:12.958929+01 | 1486602552.95893 | pgbench_branches |            16384

 2017-02-09 02:09:14.274342+01 | 1486602554.27434 | pgbench_accounts |       4028858368
 2017-02-09 02:09:14.274342+01 | 1486602554.27434 | pgbench_tellers  |           139264
 2017-02-09 02:09:14.274342+01 | 1486602554.27434 | pgbench_history  |                0
 2017-02-09 02:09:14.274342+01 | 1486602554.27434 | pgbench_branches |            16384

 2017-02-09 02:09:15.629928+01 | 1486602555.62993 | pgbench_accounts |       4028858368
 2017-02-09 02:09:15.629928+01 | 1486602555.62993 | pgbench_tellers  |           139264
 2017-02-09 02:09:15.629928+01 | 1486602555.62993 | pgbench_history  |                0
 2017-02-09 02:09:15.629928+01 | 1486602555.62993 | pgbench_branches |            16384

 2017-02-09 02:09:16.90163+01 | 1486602556.90163 | pgbench_accounts |       4028858368
 2017-02-09 02:09:16.90163+01 | 1486602556.90163 | pgbench_tellers  |           139264
 2017-02-09 02:09:16.90163+01 | 1486602556.90163 | pgbench_history  |                0
 2017-02-09 02:09:16.90163+01 | 1486602556.90163 | pgbench_branches |            16384

 2017-02-09 02:09:18.264999+01 | 1486602558.265 | pgbench_accounts |       4028858368
 2017-02-09 02:09:18.264999+01 | 1486602558.265 | pgbench_tellers  |           139264
 2017-02-09 02:09:18.264999+01 | 1486602558.265 | pgbench_history  |                0
 2017-02-09 02:09:18.264999+01 | 1486602558.265 | pgbench_branches |            16384

 2017-02-09 02:09:19.625072+01 | 1486602559.62507 | pgbench_accounts |       4028858368
 2017-02-09 02:09:19.625072+01 | 1486602559.62507 | pgbench_tellers  |           139264
 2017-02-09 02:09:19.625072+01 | 1486602559.62507 | pgbench_history  |                0
 2017-02-09 02:09:19.625072+01 | 1486602559.62507 | pgbench_branches |            16384

 2017-02-09 02:09:20.970705+01 | 1486602560.97071 | pgbench_accounts |       4028858368
 2017-02-09 02:09:20.970705+01 | 1486602560.97071 | pgbench_tellers  |           139264
 2017-02-09 02:09:20.970705+01 | 1486602560.97071 | pgbench_history  |                0
 2017-02-09 02:09:20.970705+01 | 1486602560.97071 | pgbench_branches |            16384

 2017-02-09 02:09:22.257526+01 | 1486602562.25753 | pgbench_accounts |       4028858368
 2017-02-09 02:09:22.257526+01 | 1486602562.25753 | pgbench_tellers  |           139264
 2017-02-09 02:09:22.257526+01 | 1486602562.25753 | pgbench_history  |                0
 2017-02-09 02:09:22.257526+01 | 1486602562.25753 | pgbench_branches |            16384

 2017-02-09 02:09:23.569517+01 | 1486602563.56952 | pgbench_accounts |       4028858368
 2017-02-09 02:09:23.569517+01 | 1486602563.56952 | pgbench_tellers  |           139264
 2017-02-09 02:09:23.569517+01 | 1486602563.56952 | pgbench_history  |                0
 2017-02-09 02:09:23.569517+01 | 1486602563.56952 | pgbench_branches |            16384

 2017-02-09 02:09:24.911398+01 | 1486602564.9114 | pgbench_accounts |       4028858368
 2017-02-09 02:09:24.911398+01 | 1486602564.9114 | pgbench_tellers  |           139264
 2017-02-09 02:09:24.911398+01 | 1486602564.9114 | pgbench_history  |                0
 2017-02-09 02:09:24.911398+01 | 1486602564.9114 | pgbench_branches |            16384

 2017-02-09 02:09:26.161268+01 | 1486602566.16127 | pgbench_accounts |       4028858368
 2017-02-09 02:09:26.161268+01 | 1486602566.16127 | pgbench_tellers  |           139264
 2017-02-09 02:09:26.161268+01 | 1486602566.16127 | pgbench_history  |                0
 2017-02-09 02:09:26.161268+01 | 1486602566.16127 | pgbench_branches |            16384

 2017-02-09 02:09:27.475992+01 | 1486602567.47599 | pgbench_accounts |       4028858368
 2017-02-09 02:09:27.475992+01 | 1486602567.47599 | pgbench_tellers  |           139264
 2017-02-09 02:09:27.475992+01 | 1486602567.47599 | pgbench_history  |                0
 2017-02-09 02:09:27.475992+01 | 1486602567.47599 | pgbench_branches |            16384

 2017-02-09 02:09:28.852109+01 | 1486602568.85211 | pgbench_accounts |       4028858368
 2017-02-09 02:09:28.852109+01 | 1486602568.85211 | pgbench_tellers  |           139264
 2017-02-09 02:09:28.852109+01 | 1486602568.85211 | pgbench_history  |                0
 2017-02-09 02:09:28.852109+01 | 1486602568.85211 | pgbench_branches |            16384

 2017-02-09 02:09:30.254948+01 | 1486602570.25495 | pgbench_accounts |       4028858368
 2017-02-09 02:09:30.254948+01 | 1486602570.25495 | pgbench_tellers  |           139264
 2017-02-09 02:09:30.254948+01 | 1486602570.25495 | pgbench_history  |                0
 2017-02-09 02:09:30.254948+01 | 1486602570.25495 | pgbench_branches |            16384

 2017-02-09 02:09:31.614056+01 | 1486602571.61406 | pgbench_accounts |       4028858368
 2017-02-09 02:09:31.614056+01 | 1486602571.61406 | pgbench_tellers  |           139264
 2017-02-09 02:09:31.614056+01 | 1486602571.61406 | pgbench_history  |                0
 2017-02-09 02:09:31.614056+01 | 1486602571.61406 | pgbench_branches |            16384

 2017-02-09 02:09:32.996141+01 | 1486602572.99614 | pgbench_accounts |       4028858368
 2017-02-09 02:09:32.996141+01 | 1486602572.99614 | pgbench_tellers  |           139264
 2017-02-09 02:09:32.996141+01 | 1486602572.99614 | pgbench_history  |                0
 2017-02-09 02:09:32.996141+01 | 1486602572.99614 | pgbench_branches |            16384

 2017-02-09 02:09:34.348837+01 | 1486602574.34884 | pgbench_accounts |       4028858368
 2017-02-09 02:09:34.348837+01 | 1486602574.34884 | pgbench_tellers  |           139264
 2017-02-09 02:09:34.348837+01 | 1486602574.34884 | pgbench_history  |                0
 2017-02-09 02:09:34.348837+01 | 1486602574.34884 | pgbench_branches |            16384

 2017-02-09 02:09:35.65278+01 | 1486602575.65278 | pgbench_accounts |       4028858368
 2017-02-09 02:09:35.65278+01 | 1486602575.65278 | pgbench_tellers  |           139264
 2017-02-09 02:09:35.65278+01 | 1486602575.65278 | pgbench_history  |                0
 2017-02-09 02:09:35.65278+01 | 1486602575.65278 | pgbench_branches |            16384

 2017-02-09 02:09:36.966522+01 | 1486602576.96652 | pgbench_accounts |       4028858368
 2017-02-09 02:09:36.966522+01 | 1486602576.96652 | pgbench_tellers  |           139264
 2017-02-09 02:09:36.966522+01 | 1486602576.96652 | pgbench_history  |                0
 2017-02-09 02:09:36.966522+01 | 1486602576.96652 | pgbench_branches |            16384

 2017-02-09 02:09:38.335159+01 | 1486602578.33516 | pgbench_accounts |       4028858368
 2017-02-09 02:09:38.335159+01 | 1486602578.33516 | pgbench_tellers  |           139264
 2017-02-09 02:09:38.335159+01 | 1486602578.33516 | pgbench_history  |                0
 2017-02-09 02:09:38.335159+01 | 1486602578.33516 | pgbench_branches |            16384

 2017-02-09 02:09:39.685241+01 | 1486602579.68524 | pgbench_accounts |       4028858368
 2017-02-09 02:09:39.685241+01 | 1486602579.68524 | pgbench_tellers  |           139264
 2017-02-09 02:09:39.685241+01 | 1486602579.68524 | pgbench_history  |                0
 2017-02-09 02:09:39.685241+01 | 1486602579.68524 | pgbench_branches |            16384

 2017-02-09 02:09:41.044878+01 | 1486602581.04488 | pgbench_accounts |       4028858368
 2017-02-09 02:09:41.044878+01 | 1486602581.04488 | pgbench_tellers  |           139264
 2017-02-09 02:09:41.044878+01 | 1486602581.04488 | pgbench_history  |                0
 2017-02-09 02:09:41.044878+01 | 1486602581.04488 | pgbench_branches |            16384

 2017-02-09 02:09:42.369617+01 | 1486602582.36962 | pgbench_accounts |       4028858368
 2017-02-09 02:09:42.369617+01 | 1486602582.36962 | pgbench_tellers  |           139264
 2017-02-09 02:09:42.369617+01 | 1486602582.36962 | pgbench_history  |                0
 2017-02-09 02:09:42.369617+01 | 1486602582.36962 | pgbench_branches |            16384

 2017-02-09 02:09:43.729392+01 | 1486602583.72939 | pgbench_accounts |       4028858368
 2017-02-09 02:09:43.729392+01 | 1486602583.72939 | pgbench_tellers  |           139264
 2017-02-09 02:09:43.729392+01 | 1486602583.72939 | pgbench_history  |                0
 2017-02-09 02:09:43.729392+01 | 1486602583.72939 | pgbench_branches |            16384

 2017-02-09 02:09:45.10567+01 | 1486602585.10567 | pgbench_accounts |       4028858368
 2017-02-09 02:09:45.10567+01 | 1486602585.10567 | pgbench_tellers  |           139264
 2017-02-09 02:09:45.10567+01 | 1486602585.10567 | pgbench_history  |                0
 2017-02-09 02:09:45.10567+01 | 1486602585.10567 | pgbench_branches |            16384

 2017-02-09 02:09:46.422248+01 | 1486602586.42225 | pgbench_accounts |       4028858368
 2017-02-09 02:09:46.422248+01 | 1486602586.42225 | pgbench_tellers  |           139264
 2017-02-09 02:09:46.422248+01 | 1486602586.42225 | pgbench_history  |                0
 2017-02-09 02:09:46.422248+01 | 1486602586.42225 | pgbench_branches |            16384

 2017-02-09 02:09:47.7875+01 | 1486602587.7875 | pgbench_accounts |       4028858368
 2017-02-09 02:09:47.7875+01 | 1486602587.7875 | pgbench_tellers  |           139264
 2017-02-09 02:09:47.7875+01 | 1486602587.7875 | pgbench_history  |                0
 2017-02-09 02:09:47.7875+01 | 1486602587.7875 | pgbench_branches |            16384

 2017-02-09 02:09:49.19473+01 | 1486602589.19473 | pgbench_accounts |       4028858368
 2017-02-09 02:09:49.19473+01 | 1486602589.19473 | pgbench_tellers  |           139264
 2017-02-09 02:09:49.19473+01 | 1486602589.19473 | pgbench_history  |                0
 2017-02-09 02:09:49.19473+01 | 1486602589.19473 | pgbench_branches |            16384

 2017-02-09 02:09:50.664432+01 | 1486602590.66443 | pgbench_accounts |       4028858368
 2017-02-09 02:09:50.664432+01 | 1486602590.66443 | pgbench_tellers  |           139264
 2017-02-09 02:09:50.664432+01 | 1486602590.66443 | pgbench_history  |                0
 2017-02-09 02:09:50.664432+01 | 1486602590.66443 | pgbench_branches |            16384

 2017-02-09 02:09:51.98951+01 | 1486602591.98951 | pgbench_accounts |       4028858368
 2017-02-09 02:09:51.98951+01 | 1486602591.98951 | pgbench_tellers  |           139264
 2017-02-09 02:09:51.98951+01 | 1486602591.98951 | pgbench_history  |                0
 2017-02-09 02:09:51.98951+01 | 1486602591.98951 | pgbench_branches |            16384

 2017-02-09 02:09:53.394002+01 | 1486602593.394 | pgbench_accounts |       4028858368
 2017-02-09 02:09:53.394002+01 | 1486602593.394 | pgbench_tellers  |           139264
 2017-02-09 02:09:53.394002+01 | 1486602593.394 | pgbench_history  |                0
 2017-02-09 02:09:53.394002+01 | 1486602593.394 | pgbench_branches |            16384

 2017-02-09 02:09:54.731938+01 | 1486602594.73194 | pgbench_accounts |       4028858368
 2017-02-09 02:09:54.731938+01 | 1486602594.73194 | pgbench_tellers  |           139264
 2017-02-09 02:09:54.731938+01 | 1486602594.73194 | pgbench_history  |                0
 2017-02-09 02:09:54.731938+01 | 1486602594.73194 | pgbench_branches |            16384

 2017-02-09 02:09:56.037493+01 | 1486602596.03749 | pgbench_accounts |       4028858368
 2017-02-09 02:09:56.037493+01 | 1486602596.03749 | pgbench_tellers  |           139264
 2017-02-09 02:09:56.037493+01 | 1486602596.03749 | pgbench_history  |                0
 2017-02-09 02:09:56.037493+01 | 1486602596.03749 | pgbench_branches |            16384

 2017-02-09 02:09:57.438842+01 | 1486602597.43884 | pgbench_accounts |       4028858368
 2017-02-09 02:09:57.438842+01 | 1486602597.43884 | pgbench_tellers  |           139264
 2017-02-09 02:09:57.438842+01 | 1486602597.43884 | pgbench_history  |                0
 2017-02-09 02:09:57.438842+01 | 1486602597.43884 | pgbench_branches |            16384

 2017-02-09 02:09:58.83158+01 | 1486602598.83158 | pgbench_accounts |       4028858368
 2017-02-09 02:09:58.83158+01 | 1486602598.83158 | pgbench_tellers  |           139264
 2017-02-09 02:09:58.83158+01 | 1486602598.83158 | pgbench_history  |                0
 2017-02-09 02:09:58.83158+01 | 1486602598.83158 | pgbench_branches |            16384

 2017-02-09 02:10:00.244399+01 | 1486602600.2444 | pgbench_accounts |       4028858368
 2017-02-09 02:10:00.244399+01 | 1486602600.2444 | pgbench_tellers  |           139264
 2017-02-09 02:10:00.244399+01 | 1486602600.2444 | pgbench_history  |                0
 2017-02-09 02:10:00.244399+01 | 1486602600.2444 | pgbench_branches |            16384

 2017-02-09 02:10:01.59611+01 | 1486602601.59611 | pgbench_accounts |       4028858368
 2017-02-09 02:10:01.59611+01 | 1486602601.59611 | pgbench_tellers  |           139264
 2017-02-09 02:10:01.59611+01 | 1486602601.59611 | pgbench_history  |                0
 2017-02-09 02:10:01.59611+01 | 1486602601.59611 | pgbench_branches |            16384

 2017-02-09 02:10:02.990909+01 | 1486602602.99091 | pgbench_accounts |       4028858368
 2017-02-09 02:10:02.990909+01 | 1486602602.99091 | pgbench_tellers  |           139264
 2017-02-09 02:10:02.990909+01 | 1486602602.99091 | pgbench_history  |                0
 2017-02-09 02:10:02.990909+01 | 1486602602.99091 | pgbench_branches |            16384

 2017-02-09 02:10:04.364107+01 | 1486602604.36411 | pgbench_accounts |       4028858368
 2017-02-09 02:10:04.364107+01 | 1486602604.36411 | pgbench_tellers  |           139264
 2017-02-09 02:10:04.364107+01 | 1486602604.36411 | pgbench_history  |                0
 2017-02-09 02:10:04.364107+01 | 1486602604.36411 | pgbench_branches |            16384

 2017-02-09 02:10:05.672074+01 | 1486602605.67207 | pgbench_accounts |       4028858368
 2017-02-09 02:10:05.672074+01 | 1486602605.67207 | pgbench_tellers  |           139264
 2017-02-09 02:10:05.672074+01 | 1486602605.67207 | pgbench_history  |                0
 2017-02-09 02:10:05.672074+01 | 1486602605.67207 | pgbench_branches |            16384

 2017-02-09 02:10:07.042402+01 | 1486602607.0424 | pgbench_accounts |       4028858368
 2017-02-09 02:10:07.042402+01 | 1486602607.0424 | pgbench_tellers  |           139264
 2017-02-09 02:10:07.042402+01 | 1486602607.0424 | pgbench_history  |                0
 2017-02-09 02:10:07.042402+01 | 1486602607.0424 | pgbench_branches |            16384

 2017-02-09 02:10:08.45334+01 | 1486602608.45334 | pgbench_accounts |       4028858368
 2017-02-09 02:10:08.45334+01 | 1486602608.45334 | pgbench_tellers  |           139264
 2017-02-09 02:10:08.45334+01 | 1486602608.45334 | pgbench_history  |                0
 2017-02-09 02:10:08.45334+01 | 1486602608.45334 | pgbench_branches |            16384

 2017-02-09 02:10:09.820566+01 | 1486602609.82057 | pgbench_accounts |       4028858368
 2017-02-09 02:10:09.820566+01 | 1486602609.82057 | pgbench_tellers  |           139264
 2017-02-09 02:10:09.820566+01 | 1486602609.82057 | pgbench_history  |                0
 2017-02-09 02:10:09.820566+01 | 1486602609.82057 | pgbench_branches |            16384

 2017-02-09 02:10:11.155727+01 | 1486602611.15573 | pgbench_accounts |       4028858368
 2017-02-09 02:10:11.155727+01 | 1486602611.15573 | pgbench_tellers  |           139264
 2017-02-09 02:10:11.155727+01 | 1486602611.15573 | pgbench_history  |                0
 2017-02-09 02:10:11.155727+01 | 1486602611.15573 | pgbench_branches |            16384

 2017-02-09 02:10:12.472693+01 | 1486602612.47269 | pgbench_accounts |       4028858368
 2017-02-09 02:10:12.472693+01 | 1486602612.47269 | pgbench_tellers  |           139264
 2017-02-09 02:10:12.472693+01 | 1486602612.47269 | pgbench_history  |                0
 2017-02-09 02:10:12.472693+01 | 1486602612.47269 | pgbench_branches |            16384

 2017-02-09 02:10:13.796906+01 | 1486602613.79691 | pgbench_accounts |       4028858368
 2017-02-09 02:10:13.796906+01 | 1486602613.79691 | pgbench_tellers  |           139264
 2017-02-09 02:10:13.796906+01 | 1486602613.79691 | pgbench_history  |                0
 2017-02-09 02:10:13.796906+01 | 1486602613.79691 | pgbench_branches |            16384

 2017-02-09 02:10:15.154829+01 | 1486602615.15483 | pgbench_accounts |       4028858368
 2017-02-09 02:10:15.154829+01 | 1486602615.15483 | pgbench_tellers  |           139264
 2017-02-09 02:10:15.154829+01 | 1486602615.15483 | pgbench_history  |                0
 2017-02-09 02:10:15.154829+01 | 1486602615.15483 | pgbench_branches |            16384

 2017-02-09 02:10:16.508264+01 | 1486602616.50826 | pgbench_accounts |       4028858368
 2017-02-09 02:10:16.508264+01 | 1486602616.50826 | pgbench_tellers  |           139264
 2017-02-09 02:10:16.508264+01 | 1486602616.50826 | pgbench_history  |                0
 2017-02-09 02:10:16.508264+01 | 1486602616.50826 | pgbench_branches |            16384

 2017-02-09 02:10:17.884469+01 | 1486602617.88447 | pgbench_accounts |       4028858368
 2017-02-09 02:10:17.884469+01 | 1486602617.88447 | pgbench_tellers  |           139264
 2017-02-09 02:10:17.884469+01 | 1486602617.88447 | pgbench_history  |                0
 2017-02-09 02:10:17.884469+01 | 1486602617.88447 | pgbench_branches |            16384

 2017-02-09 02:10:19.307473+01 | 1486602619.30747 | pgbench_accounts |       4028858368
 2017-02-09 02:10:19.307473+01 | 1486602619.30747 | pgbench_tellers  |           139264
 2017-02-09 02:10:19.307473+01 | 1486602619.30747 | pgbench_history  |                0
 2017-02-09 02:10:19.307473+01 | 1486602619.30747 | pgbench_branches |            16384

 2017-02-09 02:10:20.604612+01 | 1486602620.60461 | pgbench_accounts |       4028858368
 2017-02-09 02:10:20.604612+01 | 1486602620.60461 | pgbench_tellers  |           139264
 2017-02-09 02:10:20.604612+01 | 1486602620.60461 | pgbench_history  |                0
 2017-02-09 02:10:20.604612+01 | 1486602620.60461 | pgbench_branches |            16384

 2017-02-09 02:10:21.956594+01 | 1486602621.95659 | pgbench_accounts |       4028858368
 2017-02-09 02:10:21.956594+01 | 1486602621.95659 | pgbench_tellers  |           139264
 2017-02-09 02:10:21.956594+01 | 1486602621.95659 | pgbench_history  |                0
 2017-02-09 02:10:21.956594+01 | 1486602621.95659 | pgbench_branches |            16384

 2017-02-09 02:10:23.365974+01 | 1486602623.36597 | pgbench_accounts |       4028858368
 2017-02-09 02:10:23.365974+01 | 1486602623.36597 | pgbench_tellers  |           139264
 2017-02-09 02:10:23.365974+01 | 1486602623.36597 | pgbench_history  |                0
 2017-02-09 02:10:23.365974+01 | 1486602623.36597 | pgbench_branches |            16384

 2017-02-09 02:10:24.729005+01 | 1486602624.72901 | pgbench_accounts |       4028858368
 2017-02-09 02:10:24.729005+01 | 1486602624.72901 | pgbench_tellers  |           139264
 2017-02-09 02:10:24.729005+01 | 1486602624.72901 | pgbench_history  |                0
 2017-02-09 02:10:24.729005+01 | 1486602624.72901 | pgbench_branches |            16384

 2017-02-09 02:10:26.060387+01 | 1486602626.06039 | pgbench_accounts |       4028858368
 2017-02-09 02:10:26.060387+01 | 1486602626.06039 | pgbench_tellers  |           139264
 2017-02-09 02:10:26.060387+01 | 1486602626.06039 | pgbench_history  |                0
 2017-02-09 02:10:26.060387+01 | 1486602626.06039 | pgbench_branches |            16384

 2017-02-09 02:10:27.435357+01 | 1486602627.43536 | pgbench_accounts |       4028858368
 2017-02-09 02:10:27.435357+01 | 1486602627.43536 | pgbench_tellers  |           139264
 2017-02-09 02:10:27.435357+01 | 1486602627.43536 | pgbench_history  |                0
 2017-02-09 02:10:27.435357+01 | 1486602627.43536 | pgbench_branches |            16384

 2017-02-09 02:10:28.81982+01 | 1486602628.81982 | pgbench_accounts |       4028858368
 2017-02-09 02:10:28.81982+01 | 1486602628.81982 | pgbench_tellers  |           139264
 2017-02-09 02:10:28.81982+01 | 1486602628.81982 | pgbench_history  |                0
 2017-02-09 02:10:28.81982+01 | 1486602628.81982 | pgbench_branches |            16384

 2017-02-09 02:10:30.188517+01 | 1486602630.18852 | pgbench_accounts |       4028858368
 2017-02-09 02:10:30.188517+01 | 1486602630.18852 | pgbench_tellers  |           139264
 2017-02-09 02:10:30.188517+01 | 1486602630.18852 | pgbench_history  |                0
 2017-02-09 02:10:30.188517+01 | 1486602630.18852 | pgbench_branches |            16384

 2017-02-09 02:10:31.583765+01 | 1486602631.58377 | pgbench_accounts |       4028858368
 2017-02-09 02:10:31.583765+01 | 1486602631.58377 | pgbench_tellers  |           139264
 2017-02-09 02:10:31.583765+01 | 1486602631.58377 | pgbench_history  |                0
 2017-02-09 02:10:31.583765+01 | 1486602631.58377 | pgbench_branches |            16384

 2017-02-09 02:10:32.945412+01 | 1486602632.94541 | pgbench_accounts |       4028858368
 2017-02-09 02:10:32.945412+01 | 1486602632.94541 | pgbench_tellers  |           139264
 2017-02-09 02:10:32.945412+01 | 1486602632.94541 | pgbench_history  |                0
 2017-02-09 02:10:32.945412+01 | 1486602632.94541 | pgbench_branches |            16384

 2017-02-09 02:10:34.384394+01 | 1486602634.38439 | pgbench_accounts |       4028858368
 2017-02-09 02:10:34.384394+01 | 1486602634.38439 | pgbench_tellers  |           139264
 2017-02-09 02:10:34.384394+01 | 1486602634.38439 | pgbench_history  |                0
 2017-02-09 02:10:34.384394+01 | 1486602634.38439 | pgbench_branches |            16384

 2017-02-09 02:10:35.76847+01 | 1486602635.76847 | pgbench_accounts |       4028858368
 2017-02-09 02:10:35.76847+01 | 1486602635.76847 | pgbench_tellers  |           139264
 2017-02-09 02:10:35.76847+01 | 1486602635.76847 | pgbench_history  |                0
 2017-02-09 02:10:35.76847+01 | 1486602635.76847 | pgbench_branches |            16384

 2017-02-09 02:10:37.16346+01 | 1486602637.16346 | pgbench_accounts |       4028858368
 2017-02-09 02:10:37.16346+01 | 1486602637.16346 | pgbench_tellers  |           139264
 2017-02-09 02:10:37.16346+01 | 1486602637.16346 | pgbench_history  |                0
 2017-02-09 02:10:37.16346+01 | 1486602637.16346 | pgbench_branches |            16384

 2017-02-09 02:10:38.618424+01 | 1486602638.61842 | pgbench_accounts |       4028858368
 2017-02-09 02:10:38.618424+01 | 1486602638.61842 | pgbench_tellers  |           139264
 2017-02-09 02:10:38.618424+01 | 1486602638.61842 | pgbench_history  |                0
 2017-02-09 02:10:38.618424+01 | 1486602638.61842 | pgbench_branches |            16384

 2017-02-09 02:10:39.976012+01 | 1486602639.97601 | pgbench_accounts |       4028858368
 2017-02-09 02:10:39.976012+01 | 1486602639.97601 | pgbench_tellers  |           139264
 2017-02-09 02:10:39.976012+01 | 1486602639.97601 | pgbench_history  |                0
 2017-02-09 02:10:39.976012+01 | 1486602639.97601 | pgbench_branches |            16384

 2017-02-09 02:10:41.327244+01 | 1486602641.32724 | pgbench_accounts |       4028858368
 2017-02-09 02:10:41.327244+01 | 1486602641.32724 | pgbench_tellers  |           139264
 2017-02-09 02:10:41.327244+01 | 1486602641.32724 | pgbench_history  |                0
 2017-02-09 02:10:41.327244+01 | 1486602641.32724 | pgbench_branches |            16384

 2017-02-09 02:10:42.705136+01 | 1486602642.70514 | pgbench_accounts |       4028858368
 2017-02-09 02:10:42.705136+01 | 1486602642.70514 | pgbench_tellers  |           139264
 2017-02-09 02:10:42.705136+01 | 1486602642.70514 | pgbench_history  |                0
 2017-02-09 02:10:42.705136+01 | 1486602642.70514 | pgbench_branches |            16384

 2017-02-09 02:10:44.07301+01 | 1486602644.07301 | pgbench_accounts |       4028858368
 2017-02-09 02:10:44.07301+01 | 1486602644.07301 | pgbench_tellers  |           139264
 2017-02-09 02:10:44.07301+01 | 1486602644.07301 | pgbench_history  |                0
 2017-02-09 02:10:44.07301+01 | 1486602644.07301 | pgbench_branches |            16384

 2017-02-09 02:10:45.405926+01 | 1486602645.40593 | pgbench_accounts |       4028858368
 2017-02-09 02:10:45.405926+01 | 1486602645.40593 | pgbench_tellers  |           139264
 2017-02-09 02:10:45.405926+01 | 1486602645.40593 | pgbench_history  |                0
 2017-02-09 02:10:45.405926+01 | 1486602645.40593 | pgbench_branches |            16384

 2017-02-09 02:10:46.740547+01 | 1486602646.74055 | pgbench_accounts |       4028858368
 2017-02-09 02:10:46.740547+01 | 1486602646.74055 | pgbench_tellers  |           139264
 2017-02-09 02:10:46.740547+01 | 1486602646.74055 | pgbench_history  |                0
 2017-02-09 02:10:46.740547+01 | 1486602646.74055 | pgbench_branches |            16384

 2017-02-09 02:10:48.1134+01 | 1486602648.1134 | pgbench_accounts |       4028858368
 2017-02-09 02:10:48.1134+01 | 1486602648.1134 | pgbench_tellers  |           139264
 2017-02-09 02:10:48.1134+01 | 1486602648.1134 | pgbench_history  |                0
 2017-02-09 02:10:48.1134+01 | 1486602648.1134 | pgbench_branches |            16384

 2017-02-09 02:10:49.527718+01 | 1486602649.52772 | pgbench_accounts |       4028858368
 2017-02-09 02:10:49.527718+01 | 1486602649.52772 | pgbench_tellers  |           139264
 2017-02-09 02:10:49.527718+01 | 1486602649.52772 | pgbench_history  |                0
 2017-02-09 02:10:49.527718+01 | 1486602649.52772 | pgbench_branches |            16384

 2017-02-09 02:10:50.914213+01 | 1486602650.91421 | pgbench_accounts |       4028858368
 2017-02-09 02:10:50.914213+01 | 1486602650.91421 | pgbench_tellers  |           139264
 2017-02-09 02:10:50.914213+01 | 1486602650.91421 | pgbench_history  |                0
 2017-02-09 02:10:50.914213+01 | 1486602650.91421 | pgbench_branches |            16384

 2017-02-09 02:10:52.29949+01 | 1486602652.29949 | pgbench_accounts |       4028858368
 2017-02-09 02:10:52.29949+01 | 1486602652.29949 | pgbench_tellers  |           139264
 2017-02-09 02:10:52.29949+01 | 1486602652.29949 | pgbench_history  |                0
 2017-02-09 02:10:52.29949+01 | 1486602652.29949 | pgbench_branches |            16384

 2017-02-09 02:10:53.648605+01 | 1486602653.64861 | pgbench_accounts |       4028858368
 2017-02-09 02:10:53.648605+01 | 1486602653.64861 | pgbench_tellers  |           139264
 2017-02-09 02:10:53.648605+01 | 1486602653.64861 | pgbench_history  |                0
 2017-02-09 02:10:53.648605+01 | 1486602653.64861 | pgbench_branches |            16384

 2017-02-09 02:10:55.068103+01 | 1486602655.0681 | pgbench_accounts |       4028858368
 2017-02-09 02:10:55.068103+01 | 1486602655.0681 | pgbench_tellers  |           139264
 2017-02-09 02:10:55.068103+01 | 1486602655.0681 | pgbench_history  |                0
 2017-02-09 02:10:55.068103+01 | 1486602655.0681 | pgbench_branches |            16384

 2017-02-09 02:10:56.486196+01 | 1486602656.4862 | pgbench_accounts |       4028858368
 2017-02-09 02:10:56.486196+01 | 1486602656.4862 | pgbench_tellers  |           139264
 2017-02-09 02:10:56.486196+01 | 1486602656.4862 | pgbench_history  |                0
 2017-02-09 02:10:56.486196+01 | 1486602656.4862 | pgbench_branches |            16384

 2017-02-09 02:10:57.87665+01 | 1486602657.87665 | pgbench_accounts |       4028858368
 2017-02-09 02:10:57.87665+01 | 1486602657.87665 | pgbench_tellers  |           139264
 2017-02-09 02:10:57.87665+01 | 1486602657.87665 | pgbench_history  |                0
 2017-02-09 02:10:57.87665+01 | 1486602657.87665 | pgbench_branches |            16384

 2017-02-09 02:10:59.222144+01 | 1486602659.22214 | pgbench_accounts |       4028858368
 2017-02-09 02:10:59.222144+01 | 1486602659.22214 | pgbench_tellers  |           139264
 2017-02-09 02:10:59.222144+01 | 1486602659.22214 | pgbench_history  |                0
 2017-02-09 02:10:59.222144+01 | 1486602659.22214 | pgbench_branches |            16384

 2017-02-09 02:11:00.5971+01 | 1486602660.5971 | pgbench_accounts |       4028858368
 2017-02-09 02:11:00.5971+01 | 1486602660.5971 | pgbench_tellers  |           139264
 2017-02-09 02:11:00.5971+01 | 1486602660.5971 | pgbench_history  |                0
 2017-02-09 02:11:00.5971+01 | 1486602660.5971 | pgbench_branches |            16384

 2017-02-09 02:11:01.964041+01 | 1486602661.96404 | pgbench_accounts |       4028858368
 2017-02-09 02:11:01.964041+01 | 1486602661.96404 | pgbench_tellers  |           139264
 2017-02-09 02:11:01.964041+01 | 1486602661.96404 | pgbench_history  |                0
 2017-02-09 02:11:01.964041+01 | 1486602661.96404 | pgbench_branches |            16384

 2017-02-09 02:11:03.237716+01 | 1486602663.23772 | pgbench_accounts |       4028858368
 2017-02-09 02:11:03.237716+01 | 1486602663.23772 | pgbench_tellers  |           139264
 2017-02-09 02:11:03.237716+01 | 1486602663.23772 | pgbench_history  |                0
 2017-02-09 02:11:03.237716+01 | 1486602663.23772 | pgbench_branches |            16384

 2017-02-09 02:11:04.622588+01 | 1486602664.62259 | pgbench_accounts |       4028858368
 2017-02-09 02:11:04.622588+01 | 1486602664.62259 | pgbench_tellers  |           139264
 2017-02-09 02:11:04.622588+01 | 1486602664.62259 | pgbench_history  |                0
 2017-02-09 02:11:04.622588+01 | 1486602664.62259 | pgbench_branches |            16384

 2017-02-09 02:11:05.983801+01 | 1486602665.9838 | pgbench_accounts |       4028858368
 2017-02-09 02:11:05.983801+01 | 1486602665.9838 | pgbench_tellers  |           139264
 2017-02-09 02:11:05.983801+01 | 1486602665.9838 | pgbench_history  |                0
 2017-02-09 02:11:05.983801+01 | 1486602665.9838 | pgbench_branches |            16384

 2017-02-09 02:11:07.399021+01 | 1486602667.39902 | pgbench_accounts |       4028858368
 2017-02-09 02:11:07.399021+01 | 1486602667.39902 | pgbench_tellers  |           139264
 2017-02-09 02:11:07.399021+01 | 1486602667.39902 | pgbench_history  |                0
 2017-02-09 02:11:07.399021+01 | 1486602667.39902 | pgbench_branches |            16384

 2017-02-09 02:11:08.773842+01 | 1486602668.77384 | pgbench_accounts |       4028858368
 2017-02-09 02:11:08.773842+01 | 1486602668.77384 | pgbench_tellers  |           139264
 2017-02-09 02:11:08.773842+01 | 1486602668.77384 | pgbench_history  |                0
 2017-02-09 02:11:08.773842+01 | 1486602668.77384 | pgbench_branches |            16384

 2017-02-09 02:11:10.089404+01 | 1486602670.0894 | pgbench_accounts |       4028858368
 2017-02-09 02:11:10.089404+01 | 1486602670.0894 | pgbench_tellers  |           139264
 2017-02-09 02:11:10.089404+01 | 1486602670.0894 | pgbench_history  |                0
 2017-02-09 02:11:10.089404+01 | 1486602670.0894 | pgbench_branches |            16384

 2017-02-09 02:11:11.503959+01 | 1486602671.50396 | pgbench_accounts |       4028858368
 2017-02-09 02:11:11.503959+01 | 1486602671.50396 | pgbench_tellers  |           139264
 2017-02-09 02:11:11.503959+01 | 1486602671.50396 | pgbench_history  |                0
 2017-02-09 02:11:11.503959+01 | 1486602671.50396 | pgbench_branches |            16384

 2017-02-09 02:11:12.891885+01 | 1486602672.89189 | pgbench_accounts |       4028858368
 2017-02-09 02:11:12.891885+01 | 1486602672.89189 | pgbench_tellers  |           139264
 2017-02-09 02:11:12.891885+01 | 1486602672.89189 | pgbench_history  |                0
 2017-02-09 02:11:12.891885+01 | 1486602672.89189 | pgbench_branches |            16384

 2017-02-09 02:11:14.265732+01 | 1486602674.26573 | pgbench_accounts |       4028858368
 2017-02-09 02:11:14.265732+01 | 1486602674.26573 | pgbench_tellers  |           139264
 2017-02-09 02:11:14.265732+01 | 1486602674.26573 | pgbench_history  |                0
 2017-02-09 02:11:14.265732+01 | 1486602674.26573 | pgbench_branches |            16384

 2017-02-09 02:11:15.657719+01 | 1486602675.65772 | pgbench_accounts |       4028858368
 2017-02-09 02:11:15.657719+01 | 1486602675.65772 | pgbench_tellers  |           139264
 2017-02-09 02:11:15.657719+01 | 1486602675.65772 | pgbench_history  |                0
 2017-02-09 02:11:15.657719+01 | 1486602675.65772 | pgbench_branches |            16384

 2017-02-09 02:11:16.990047+01 | 1486602676.99005 | pgbench_accounts |       4028858368
 2017-02-09 02:11:16.990047+01 | 1486602676.99005 | pgbench_tellers  |           139264
 2017-02-09 02:11:16.990047+01 | 1486602676.99005 | pgbench_history  |                0
 2017-02-09 02:11:16.990047+01 | 1486602676.99005 | pgbench_branches |            16384

 2017-02-09 02:11:18.279601+01 | 1486602678.2796 | pgbench_accounts |       4028858368
 2017-02-09 02:11:18.279601+01 | 1486602678.2796 | pgbench_tellers  |           139264
 2017-02-09 02:11:18.279601+01 | 1486602678.2796 | pgbench_history  |                0
 2017-02-09 02:11:18.279601+01 | 1486602678.2796 | pgbench_branches |            16384

 2017-02-09 02:11:19.635255+01 | 1486602679.63526 | pgbench_accounts |       4028858368
 2017-02-09 02:11:19.635255+01 | 1486602679.63526 | pgbench_tellers  |           139264
 2017-02-09 02:11:19.635255+01 | 1486602679.63526 | pgbench_history  |                0
 2017-02-09 02:11:19.635255+01 | 1486602679.63526 | pgbench_branches |            16384

 2017-02-09 02:11:21.024803+01 | 1486602681.0248 | pgbench_accounts |       4028858368
 2017-02-09 02:11:21.024803+01 | 1486602681.0248 | pgbench_tellers  |           139264
 2017-02-09 02:11:21.024803+01 | 1486602681.0248 | pgbench_history  |                0
 2017-02-09 02:11:21.024803+01 | 1486602681.0248 | pgbench_branches |            16384

 2017-02-09 02:11:22.469501+01 | 1486602682.4695 | pgbench_accounts |       4028858368
 2017-02-09 02:11:22.469501+01 | 1486602682.4695 | pgbench_tellers  |           139264
 2017-02-09 02:11:22.469501+01 | 1486602682.4695 | pgbench_history  |                0
 2017-02-09 02:11:22.469501+01 | 1486602682.4695 | pgbench_branches |            16384

 2017-02-09 02:11:23.848128+01 | 1486602683.84813 | pgbench_accounts |       4028858368
 2017-02-09 02:11:23.848128+01 | 1486602683.84813 | pgbench_tellers  |           139264
 2017-02-09 02:11:23.848128+01 | 1486602683.84813 | pgbench_history  |                0
 2017-02-09 02:11:23.848128+01 | 1486602683.84813 | pgbench_branches |            16384

 2017-02-09 02:11:25.075768+01 | 1486602685.07577 | pgbench_accounts |       4028858368
 2017-02-09 02:11:25.075768+01 | 1486602685.07577 | pgbench_tellers  |           139264
 2017-02-09 02:11:25.075768+01 | 1486602685.07577 | pgbench_history  |                0
 2017-02-09 02:11:25.075768+01 | 1486602685.07577 | pgbench_branches |            16384

 2017-02-09 02:11:26.446409+01 | 1486602686.44641 | pgbench_accounts |       4028858368
 2017-02-09 02:11:26.446409+01 | 1486602686.44641 | pgbench_tellers  |           139264
 2017-02-09 02:11:26.446409+01 | 1486602686.44641 | pgbench_history  |                0
 2017-02-09 02:11:26.446409+01 | 1486602686.44641 | pgbench_branches |            16384

 2017-02-09 02:11:27.822088+01 | 1486602687.82209 | pgbench_accounts |       4028858368
 2017-02-09 02:11:27.822088+01 | 1486602687.82209 | pgbench_tellers  |           139264
 2017-02-09 02:11:27.822088+01 | 1486602687.82209 | pgbench_history  |                0
 2017-02-09 02:11:27.822088+01 | 1486602687.82209 | pgbench_branches |            16384

 2017-02-09 02:11:29.178449+01 | 1486602689.17845 | pgbench_accounts |       4028858368
 2017-02-09 02:11:29.178449+01 | 1486602689.17845 | pgbench_tellers  |           139264
 2017-02-09 02:11:29.178449+01 | 1486602689.17845 | pgbench_history  |                0
 2017-02-09 02:11:29.178449+01 | 1486602689.17845 | pgbench_branches |            16384

 2017-02-09 02:11:30.601634+01 | 1486602690.60163 | pgbench_accounts |       4028858368
 2017-02-09 02:11:30.601634+01 | 1486602690.60163 | pgbench_tellers  |           139264
 2017-02-09 02:11:30.601634+01 | 1486602690.60163 | pgbench_history  |                0
 2017-02-09 02:11:30.601634+01 | 1486602690.60163 | pgbench_branches |            16384

 2017-02-09 02:11:31.988311+01 | 1486602691.98831 | pgbench_accounts |       4028858368
 2017-02-09 02:11:31.988311+01 | 1486602691.98831 | pgbench_tellers  |           139264
 2017-02-09 02:11:31.988311+01 | 1486602691.98831 | pgbench_history  |                0
 2017-02-09 02:11:31.988311+01 | 1486602691.98831 | pgbench_branches |            16384

 2017-02-09 02:11:33.327148+01 | 1486602693.32715 | pgbench_accounts |       4028858368
 2017-02-09 02:11:33.327148+01 | 1486602693.32715 | pgbench_tellers  |           139264
 2017-02-09 02:11:33.327148+01 | 1486602693.32715 | pgbench_history  |                0
 2017-02-09 02:11:33.327148+01 | 1486602693.32715 | pgbench_branches |            16384

 2017-02-09 02:11:34.752233+01 | 1486602694.75223 | pgbench_accounts |       4028858368
 2017-02-09 02:11:34.752233+01 | 1486602694.75223 | pgbench_tellers  |           139264
 2017-02-09 02:11:34.752233+01 | 1486602694.75223 | pgbench_history  |                0
 2017-02-09 02:11:34.752233+01 | 1486602694.75223 | pgbench_branches |            16384

 2017-02-09 02:11:36.121564+01 | 1486602696.12156 | pgbench_accounts |       4028858368
 2017-02-09 02:11:36.121564+01 | 1486602696.12156 | pgbench_tellers  |           139264
 2017-02-09 02:11:36.121564+01 | 1486602696.12156 | pgbench_history  |                0
 2017-02-09 02:11:36.121564+01 | 1486602696.12156 | pgbench_branches |            16384

 2017-02-09 02:11:37.428598+01 | 1486602697.4286 | pgbench_accounts |       4028858368
 2017-02-09 02:11:37.428598+01 | 1486602697.4286 | pgbench_tellers  |           139264
 2017-02-09 02:11:37.428598+01 | 1486602697.4286 | pgbench_history  |                0
 2017-02-09 02:11:37.428598+01 | 1486602697.4286 | pgbench_branches |            16384

 2017-02-09 02:11:38.794003+01 | 1486602698.794 | pgbench_accounts |       4028858368
 2017-02-09 02:11:38.794003+01 | 1486602698.794 | pgbench_tellers  |           139264
 2017-02-09 02:11:38.794003+01 | 1486602698.794 | pgbench_history  |                0
 2017-02-09 02:11:38.794003+01 | 1486602698.794 | pgbench_branches |            16384

 2017-02-09 02:11:40.151791+01 | 1486602700.15179 | pgbench_accounts |       4028858368
 2017-02-09 02:11:40.151791+01 | 1486602700.15179 | pgbench_tellers  |           139264
 2017-02-09 02:11:40.151791+01 | 1486602700.15179 | pgbench_history  |                0
 2017-02-09 02:11:40.151791+01 | 1486602700.15179 | pgbench_branches |            16384

 2017-02-09 02:11:41.50528+01 | 1486602701.50528 | pgbench_accounts |       4028858368
 2017-02-09 02:11:41.50528+01 | 1486602701.50528 | pgbench_tellers  |           139264
 2017-02-09 02:11:41.50528+01 | 1486602701.50528 | pgbench_history  |                0
 2017-02-09 02:11:41.50528+01 | 1486602701.50528 | pgbench_branches |            16384

 2017-02-09 02:11:42.807771+01 | 1486602702.80777 | pgbench_accounts |       4028858368
 2017-02-09 02:11:42.807771+01 | 1486602702.80777 | pgbench_tellers  |           139264
 2017-02-09 02:11:42.807771+01 | 1486602702.80777 | pgbench_history  |                0
 2017-02-09 02:11:42.807771+01 | 1486602702.80777 | pgbench_branches |            16384

 2017-02-09 02:11:44.071232+01 | 1486602704.07123 | pgbench_accounts |       4028858368
 2017-02-09 02:11:44.071232+01 | 1486602704.07123 | pgbench_tellers  |           139264
 2017-02-09 02:11:44.071232+01 | 1486602704.07123 | pgbench_history  |                0
 2017-02-09 02:11:44.071232+01 | 1486602704.07123 | pgbench_branches |            16384

 2017-02-09 02:11:45.385023+01 | 1486602705.38502 | pgbench_accounts |       4028858368
 2017-02-09 02:11:45.385023+01 | 1486602705.38502 | pgbench_tellers  |           139264
 2017-02-09 02:11:45.385023+01 | 1486602705.38502 | pgbench_history  |                0
 2017-02-09 02:11:45.385023+01 | 1486602705.38502 | pgbench_branches |            16384

 2017-02-09 02:11:46.668222+01 | 1486602706.66822 | pgbench_accounts |       4028858368
 2017-02-09 02:11:46.668222+01 | 1486602706.66822 | pgbench_tellers  |           139264
 2017-02-09 02:11:46.668222+01 | 1486602706.66822 | pgbench_history  |                0
 2017-02-09 02:11:46.668222+01 | 1486602706.66822 | pgbench_branches |            16384

 2017-02-09 02:11:48.037907+01 | 1486602708.03791 | pgbench_accounts |       4028858368
 2017-02-09 02:11:48.037907+01 | 1486602708.03791 | pgbench_tellers  |           139264
 2017-02-09 02:11:48.037907+01 | 1486602708.03791 | pgbench_history  |                0
 2017-02-09 02:11:48.037907+01 | 1486602708.03791 | pgbench_branches |            16384

 2017-02-09 02:11:49.432856+01 | 1486602709.43286 | pgbench_accounts |       4028858368
 2017-02-09 02:11:49.432856+01 | 1486602709.43286 | pgbench_tellers  |           139264
 2017-02-09 02:11:49.432856+01 | 1486602709.43286 | pgbench_history  |                0
 2017-02-09 02:11:49.432856+01 | 1486602709.43286 | pgbench_branches |            16384

 2017-02-09 02:11:50.847674+01 | 1486602710.84767 | pgbench_accounts |       4028858368
 2017-02-09 02:11:50.847674+01 | 1486602710.84767 | pgbench_tellers  |           139264
 2017-02-09 02:11:50.847674+01 | 1486602710.84767 | pgbench_history  |                0
 2017-02-09 02:11:50.847674+01 | 1486602710.84767 | pgbench_branches |            16384

 2017-02-09 02:11:52.207317+01 | 1486602712.20732 | pgbench_accounts |       4028858368
 2017-02-09 02:11:52.207317+01 | 1486602712.20732 | pgbench_tellers  |           139264
 2017-02-09 02:11:52.207317+01 | 1486602712.20732 | pgbench_history  |                0
 2017-02-09 02:11:52.207317+01 | 1486602712.20732 | pgbench_branches |            16384

 2017-02-09 02:11:53.591484+01 | 1486602713.59148 | pgbench_accounts |       4028858368
 2017-02-09 02:11:53.591484+01 | 1486602713.59148 | pgbench_tellers  |           139264
 2017-02-09 02:11:53.591484+01 | 1486602713.59148 | pgbench_history  |                0
 2017-02-09 02:11:53.591484+01 | 1486602713.59148 | pgbench_branches |            16384

 2017-02-09 02:11:54.930388+01 | 1486602714.93039 | pgbench_accounts |       4028858368
 2017-02-09 02:11:54.930388+01 | 1486602714.93039 | pgbench_tellers  |           139264
 2017-02-09 02:11:54.930388+01 | 1486602714.93039 | pgbench_history  |                0
 2017-02-09 02:11:54.930388+01 | 1486602714.93039 | pgbench_branches |            16384

 2017-02-09 02:11:56.290695+01 | 1486602716.29069 | pgbench_accounts |       4028858368
 2017-02-09 02:11:56.290695+01 | 1486602716.29069 | pgbench_tellers  |           139264
 2017-02-09 02:11:56.290695+01 | 1486602716.29069 | pgbench_history  |                0
 2017-02-09 02:11:56.290695+01 | 1486602716.29069 | pgbench_branches |            16384

 2017-02-09 02:11:57.67564+01 | 1486602717.67564 | pgbench_accounts |       4028858368
 2017-02-09 02:11:57.67564+01 | 1486602717.67564 | pgbench_tellers  |           139264
 2017-02-09 02:11:57.67564+01 | 1486602717.67564 | pgbench_history  |                0
 2017-02-09 02:11:57.67564+01 | 1486602717.67564 | pgbench_branches |            16384

 2017-02-09 02:11:58.996874+01 | 1486602718.99687 | pgbench_accounts |       4028858368
 2017-02-09 02:11:58.996874+01 | 1486602718.99687 | pgbench_tellers  |           139264
 2017-02-09 02:11:58.996874+01 | 1486602718.99687 | pgbench_history  |                0
 2017-02-09 02:11:58.996874+01 | 1486602718.99687 | pgbench_branches |            16384

 2017-02-09 02:12:00.342259+01 | 1486602720.34226 | pgbench_accounts |       4028858368
 2017-02-09 02:12:00.342259+01 | 1486602720.34226 | pgbench_tellers  |           139264
 2017-02-09 02:12:00.342259+01 | 1486602720.34226 | pgbench_history  |                0
 2017-02-09 02:12:00.342259+01 | 1486602720.34226 | pgbench_branches |            16384

 2017-02-09 02:12:01.719394+01 | 1486602721.71939 | pgbench_accounts |       4028858368
 2017-02-09 02:12:01.719394+01 | 1486602721.71939 | pgbench_tellers  |           139264
 2017-02-09 02:12:01.719394+01 | 1486602721.71939 | pgbench_history  |                0
 2017-02-09 02:12:01.719394+01 | 1486602721.71939 | pgbench_branches |            16384

 2017-02-09 02:12:03.037585+01 | 1486602723.03759 | pgbench_accounts |       4028858368
 2017-02-09 02:12:03.037585+01 | 1486602723.03759 | pgbench_tellers  |           139264
 2017-02-09 02:12:03.037585+01 | 1486602723.03759 | pgbench_history  |                0
 2017-02-09 02:12:03.037585+01 | 1486602723.03759 | pgbench_branches |            16384

 2017-02-09 02:12:04.341879+01 | 1486602724.34188 | pgbench_accounts |       4028858368
 2017-02-09 02:12:04.341879+01 | 1486602724.34188 | pgbench_tellers  |           139264
 2017-02-09 02:12:04.341879+01 | 1486602724.34188 | pgbench_history  |                0
 2017-02-09 02:12:04.341879+01 | 1486602724.34188 | pgbench_branches |            16384

 2017-02-09 02:12:05.758835+01 | 1486602725.75884 | pgbench_accounts |       4028858368
 2017-02-09 02:12:05.758835+01 | 1486602725.75884 | pgbench_tellers  |           139264
 2017-02-09 02:12:05.758835+01 | 1486602725.75884 | pgbench_history  |                0
 2017-02-09 02:12:05.758835+01 | 1486602725.75884 | pgbench_branches |            16384

 2017-02-09 02:12:07.079442+01 | 1486602727.07944 | pgbench_accounts |       4028858368
 2017-02-09 02:12:07.079442+01 | 1486602727.07944 | pgbench_tellers  |           139264
 2017-02-09 02:12:07.079442+01 | 1486602727.07944 | pgbench_history  |                0
 2017-02-09 02:12:07.079442+01 | 1486602727.07944 | pgbench_branches |            16384

 2017-02-09 02:12:08.430106+01 | 1486602728.43011 | pgbench_accounts |       4028858368
 2017-02-09 02:12:08.430106+01 | 1486602728.43011 | pgbench_tellers  |           139264
 2017-02-09 02:12:08.430106+01 | 1486602728.43011 | pgbench_history  |                0
 2017-02-09 02:12:08.430106+01 | 1486602728.43011 | pgbench_branches |            16384

 2017-02-09 02:12:09.835348+01 | 1486602729.83535 | pgbench_accounts |       4028858368
 2017-02-09 02:12:09.835348+01 | 1486602729.83535 | pgbench_tellers  |           139264
 2017-02-09 02:12:09.835348+01 | 1486602729.83535 | pgbench_history  |                0
 2017-02-09 02:12:09.835348+01 | 1486602729.83535 | pgbench_branches |            16384

 2017-02-09 02:12:11.262635+01 | 1486602731.26263 | pgbench_accounts |       4028858368
 2017-02-09 02:12:11.262635+01 | 1486602731.26263 | pgbench_tellers  |           139264
 2017-02-09 02:12:11.262635+01 | 1486602731.26263 | pgbench_history  |                0
 2017-02-09 02:12:11.262635+01 | 1486602731.26263 | pgbench_branches |            16384

 2017-02-09 02:12:12.563327+01 | 1486602732.56333 | pgbench_accounts |       4028858368
 2017-02-09 02:12:12.563327+01 | 1486602732.56333 | pgbench_tellers  |           139264
 2017-02-09 02:12:12.563327+01 | 1486602732.56333 | pgbench_history  |                0
 2017-02-09 02:12:12.563327+01 | 1486602732.56333 | pgbench_branches |            16384

 2017-02-09 02:12:13.871182+01 | 1486602733.87118 | pgbench_accounts |       4028858368
 2017-02-09 02:12:13.871182+01 | 1486602733.87118 | pgbench_tellers  |           139264
 2017-02-09 02:12:13.871182+01 | 1486602733.87118 | pgbench_history  |                0
 2017-02-09 02:12:13.871182+01 | 1486602733.87118 | pgbench_branches |            16384

 2017-02-09 02:12:15.232032+01 | 1486602735.23203 | pgbench_accounts |       4028858368
 2017-02-09 02:12:15.232032+01 | 1486602735.23203 | pgbench_tellers  |           139264
 2017-02-09 02:12:15.232032+01 | 1486602735.23203 | pgbench_history  |                0
 2017-02-09 02:12:15.232032+01 | 1486602735.23203 | pgbench_branches |            16384

 2017-02-09 02:12:16.542112+01 | 1486602736.54211 | pgbench_accounts |       4028858368
 2017-02-09 02:12:16.542112+01 | 1486602736.54211 | pgbench_tellers  |           139264
 2017-02-09 02:12:16.542112+01 | 1486602736.54211 | pgbench_history  |                0
 2017-02-09 02:12:16.542112+01 | 1486602736.54211 | pgbench_branches |            16384

 2017-02-09 02:12:17.805229+01 | 1486602737.80523 | pgbench_accounts |       4028858368
 2017-02-09 02:12:17.805229+01 | 1486602737.80523 | pgbench_tellers  |           139264
 2017-02-09 02:12:17.805229+01 | 1486602737.80523 | pgbench_history  |                0
 2017-02-09 02:12:17.805229+01 | 1486602737.80523 | pgbench_branches |            16384

 2017-02-09 02:12:19.125006+01 | 1486602739.12501 | pgbench_accounts |       4028858368
 2017-02-09 02:12:19.125006+01 | 1486602739.12501 | pgbench_tellers  |           139264
 2017-02-09 02:12:19.125006+01 | 1486602739.12501 | pgbench_history  |                0
 2017-02-09 02:12:19.125006+01 | 1486602739.12501 | pgbench_branches |            16384

 2017-02-09 02:12:20.423902+01 | 1486602740.4239 | pgbench_accounts |       4028858368
 2017-02-09 02:12:20.423902+01 | 1486602740.4239 | pgbench_tellers  |           139264
 2017-02-09 02:12:20.423902+01 | 1486602740.4239 | pgbench_history  |                0
 2017-02-09 02:12:20.423902+01 | 1486602740.4239 | pgbench_branches |            16384

 2017-02-09 02:12:21.769457+01 | 1486602741.76946 | pgbench_accounts |       4028858368
 2017-02-09 02:12:21.769457+01 | 1486602741.76946 | pgbench_tellers  |           139264
 2017-02-09 02:12:21.769457+01 | 1486602741.76946 | pgbench_history  |                0
 2017-02-09 02:12:21.769457+01 | 1486602741.76946 | pgbench_branches |            16384

 2017-02-09 02:12:23.092041+01 | 1486602743.09204 | pgbench_accounts |       4028858368
 2017-02-09 02:12:23.092041+01 | 1486602743.09204 | pgbench_tellers  |           139264
 2017-02-09 02:12:23.092041+01 | 1486602743.09204 | pgbench_history  |                0
 2017-02-09 02:12:23.092041+01 | 1486602743.09204 | pgbench_branches |            16384

 2017-02-09 02:12:24.460737+01 | 1486602744.46074 | pgbench_accounts |       4028858368
 2017-02-09 02:12:24.460737+01 | 1486602744.46074 | pgbench_tellers  |           139264
 2017-02-09 02:12:24.460737+01 | 1486602744.46074 | pgbench_history  |                0
 2017-02-09 02:12:24.460737+01 | 1486602744.46074 | pgbench_branches |            16384

 2017-02-09 02:12:25.83307+01 | 1486602745.83307 | pgbench_accounts |       4028858368
 2017-02-09 02:12:25.83307+01 | 1486602745.83307 | pgbench_tellers  |           139264
 2017-02-09 02:12:25.83307+01 | 1486602745.83307 | pgbench_history  |                0
 2017-02-09 02:12:25.83307+01 | 1486602745.83307 | pgbench_branches |            16384

 2017-02-09 02:12:27.23845+01 | 1486602747.23845 | pgbench_accounts |       4028858368
 2017-02-09 02:12:27.23845+01 | 1486602747.23845 | pgbench_tellers  |           139264
 2017-02-09 02:12:27.23845+01 | 1486602747.23845 | pgbench_history  |                0
 2017-02-09 02:12:27.23845+01 | 1486602747.23845 | pgbench_branches |            16384

 2017-02-09 02:12:28.65883+01 | 1486602748.65883 | pgbench_accounts |       4028858368
 2017-02-09 02:12:28.65883+01 | 1486602748.65883 | pgbench_tellers  |           139264
 2017-02-09 02:12:28.65883+01 | 1486602748.65883 | pgbench_history  |                0
 2017-02-09 02:12:28.65883+01 | 1486602748.65883 | pgbench_branches |            16384

 2017-02-09 02:12:30.074775+01 | 1486602750.07477 | pgbench_accounts |       4028858368
 2017-02-09 02:12:30.074775+01 | 1486602750.07477 | pgbench_tellers  |           139264
 2017-02-09 02:12:30.074775+01 | 1486602750.07477 | pgbench_history  |                0
 2017-02-09 02:12:30.074775+01 | 1486602750.07477 | pgbench_branches |            16384

 2017-02-09 02:12:31.511287+01 | 1486602751.51129 | pgbench_accounts |       4028858368
 2017-02-09 02:12:31.511287+01 | 1486602751.51129 | pgbench_tellers  |           139264
 2017-02-09 02:12:31.511287+01 | 1486602751.51129 | pgbench_history  |                0
 2017-02-09 02:12:31.511287+01 | 1486602751.51129 | pgbench_branches |            16384

 2017-02-09 02:12:32.893141+01 | 1486602752.89314 | pgbench_accounts |       4028858368
 2017-02-09 02:12:32.893141+01 | 1486602752.89314 | pgbench_tellers  |           139264
 2017-02-09 02:12:32.893141+01 | 1486602752.89314 | pgbench_history  |                0
 2017-02-09 02:12:32.893141+01 | 1486602752.89314 | pgbench_branches |            16384

 2017-02-09 02:12:34.289626+01 | 1486602754.28963 | pgbench_accounts |       4028858368
 2017-02-09 02:12:34.289626+01 | 1486602754.28963 | pgbench_tellers  |           139264
 2017-02-09 02:12:34.289626+01 | 1486602754.28963 | pgbench_history  |                0
 2017-02-09 02:12:34.289626+01 | 1486602754.28963 | pgbench_branches |            16384

 2017-02-09 02:12:35.713443+01 | 1486602755.71344 | pgbench_accounts |       4028858368
 2017-02-09 02:12:35.713443+01 | 1486602755.71344 | pgbench_tellers  |           139264
 2017-02-09 02:12:35.713443+01 | 1486602755.71344 | pgbench_history  |                0
 2017-02-09 02:12:35.713443+01 | 1486602755.71344 | pgbench_branches |            16384

 2017-02-09 02:12:37.136447+01 | 1486602757.13645 | pgbench_accounts |       4028858368
 2017-02-09 02:12:37.136447+01 | 1486602757.13645 | pgbench_tellers  |           139264
 2017-02-09 02:12:37.136447+01 | 1486602757.13645 | pgbench_history  |                0
 2017-02-09 02:12:37.136447+01 | 1486602757.13645 | pgbench_branches |            16384

 2017-02-09 02:12:38.48025+01 | 1486602758.48025 | pgbench_accounts |       4028858368
 2017-02-09 02:12:38.48025+01 | 1486602758.48025 | pgbench_tellers  |           139264
 2017-02-09 02:12:38.48025+01 | 1486602758.48025 | pgbench_history  |                0
 2017-02-09 02:12:38.48025+01 | 1486602758.48025 | pgbench_branches |            16384

 2017-02-09 02:12:39.821294+01 | 1486602759.82129 | pgbench_accounts |       4028858368
 2017-02-09 02:12:39.821294+01 | 1486602759.82129 | pgbench_tellers  |           139264
 2017-02-09 02:12:39.821294+01 | 1486602759.82129 | pgbench_history  |                0
 2017-02-09 02:12:39.821294+01 | 1486602759.82129 | pgbench_branches |            16384

 2017-02-09 02:12:41.176966+01 | 1486602761.17697 | pgbench_accounts |       4028858368
 2017-02-09 02:12:41.176966+01 | 1486602761.17697 | pgbench_tellers  |           139264
 2017-02-09 02:12:41.176966+01 | 1486602761.17697 | pgbench_history  |                0
 2017-02-09 02:12:41.176966+01 | 1486602761.17697 | pgbench_branches |            16384

 2017-02-09 02:12:42.52724+01 | 1486602762.52724 | pgbench_accounts |       4028858368
 2017-02-09 02:12:42.52724+01 | 1486602762.52724 | pgbench_tellers  |           139264
 2017-02-09 02:12:42.52724+01 | 1486602762.52724 | pgbench_history  |                0
 2017-02-09 02:12:42.52724+01 | 1486602762.52724 | pgbench_branches |            16384

 2017-02-09 02:12:43.887621+01 | 1486602763.88762 | pgbench_accounts |       4028858368
 2017-02-09 02:12:43.887621+01 | 1486602763.88762 | pgbench_tellers  |           139264
 2017-02-09 02:12:43.887621+01 | 1486602763.88762 | pgbench_history  |                0
 2017-02-09 02:12:43.887621+01 | 1486602763.88762 | pgbench_branches |            16384

 2017-02-09 02:12:45.179133+01 | 1486602765.17913 | pgbench_accounts |       4028858368
 2017-02-09 02:12:45.179133+01 | 1486602765.17913 | pgbench_tellers  |           139264
 2017-02-09 02:12:45.179133+01 | 1486602765.17913 | pgbench_history  |                0
 2017-02-09 02:12:45.179133+01 | 1486602765.17913 | pgbench_branches |            16384

 2017-02-09 02:12:46.488883+01 | 1486602766.48888 | pgbench_accounts |       4028858368
 2017-02-09 02:12:46.488883+01 | 1486602766.48888 | pgbench_tellers  |           139264
 2017-02-09 02:12:46.488883+01 | 1486602766.48888 | pgbench_history  |                0
 2017-02-09 02:12:46.488883+01 | 1486602766.48888 | pgbench_branches |            16384

 2017-02-09 02:12:47.831606+01 | 1486602767.83161 | pgbench_accounts |       4028858368
 2017-02-09 02:12:47.831606+01 | 1486602767.83161 | pgbench_tellers  |           139264
 2017-02-09 02:12:47.831606+01 | 1486602767.83161 | pgbench_history  |                0
 2017-02-09 02:12:47.831606+01 | 1486602767.83161 | pgbench_branches |            16384

 2017-02-09 02:12:49.21083+01 | 1486602769.21083 | pgbench_accounts |       4028858368
 2017-02-09 02:12:49.21083+01 | 1486602769.21083 | pgbench_tellers  |           139264
 2017-02-09 02:12:49.21083+01 | 1486602769.21083 | pgbench_history  |                0
 2017-02-09 02:12:49.21083+01 | 1486602769.21083 | pgbench_branches |            16384

 2017-02-09 02:12:50.621361+01 | 1486602770.62136 | pgbench_accounts |       4028858368
 2017-02-09 02:12:50.621361+01 | 1486602770.62136 | pgbench_tellers  |           139264
 2017-02-09 02:12:50.621361+01 | 1486602770.62136 | pgbench_history  |                0
 2017-02-09 02:12:50.621361+01 | 1486602770.62136 | pgbench_branches |            16384

 2017-02-09 02:12:52.006169+01 | 1486602772.00617 | pgbench_accounts |       4028858368
 2017-02-09 02:12:52.006169+01 | 1486602772.00617 | pgbench_tellers  |           139264
 2017-02-09 02:12:52.006169+01 | 1486602772.00617 | pgbench_history  |                0
 2017-02-09 02:12:52.006169+01 | 1486602772.00617 | pgbench_branches |            16384

 2017-02-09 02:12:53.354058+01 | 1486602773.35406 | pgbench_accounts |       4028858368
 2017-02-09 02:12:53.354058+01 | 1486602773.35406 | pgbench_tellers  |           139264
 2017-02-09 02:12:53.354058+01 | 1486602773.35406 | pgbench_history  |                0
 2017-02-09 02:12:53.354058+01 | 1486602773.35406 | pgbench_branches |            16384

 2017-02-09 02:12:54.691251+01 | 1486602774.69125 | pgbench_accounts |       4028858368
 2017-02-09 02:12:54.691251+01 | 1486602774.69125 | pgbench_tellers  |           139264
 2017-02-09 02:12:54.691251+01 | 1486602774.69125 | pgbench_history  |                0
 2017-02-09 02:12:54.691251+01 | 1486602774.69125 | pgbench_branches |            16384

 2017-02-09 02:12:56.09146+01 | 1486602776.09146 | pgbench_accounts |       4028858368
 2017-02-09 02:12:56.09146+01 | 1486602776.09146 | pgbench_tellers  |           139264
 2017-02-09 02:12:56.09146+01 | 1486602776.09146 | pgbench_history  |                0
 2017-02-09 02:12:56.09146+01 | 1486602776.09146 | pgbench_branches |            16384

 2017-02-09 02:12:57.42035+01 | 1486602777.42035 | pgbench_accounts |       4028858368
 2017-02-09 02:12:57.42035+01 | 1486602777.42035 | pgbench_tellers  |           139264
 2017-02-09 02:12:57.42035+01 | 1486602777.42035 | pgbench_history  |                0
 2017-02-09 02:12:57.42035+01 | 1486602777.42035 | pgbench_branches |            16384

 2017-02-09 02:12:58.74745+01 | 1486602778.74745 | pgbench_accounts |       4028858368
 2017-02-09 02:12:58.74745+01 | 1486602778.74745 | pgbench_tellers  |           139264
 2017-02-09 02:12:58.74745+01 | 1486602778.74745 | pgbench_history  |                0
 2017-02-09 02:12:58.74745+01 | 1486602778.74745 | pgbench_branches |            16384

 2017-02-09 02:13:00.085548+01 | 1486602780.08555 | pgbench_accounts |       4028858368
 2017-02-09 02:13:00.085548+01 | 1486602780.08555 | pgbench_tellers  |           139264
 2017-02-09 02:13:00.085548+01 | 1486602780.08555 | pgbench_history  |                0
 2017-02-09 02:13:00.085548+01 | 1486602780.08555 | pgbench_branches |            16384

 2017-02-09 02:13:01.432613+01 | 1486602781.43261 | pgbench_accounts |       4028858368
 2017-02-09 02:13:01.432613+01 | 1486602781.43261 | pgbench_tellers  |           139264
 2017-02-09 02:13:01.432613+01 | 1486602781.43261 | pgbench_history  |                0
 2017-02-09 02:13:01.432613+01 | 1486602781.43261 | pgbench_branches |            16384

 2017-02-09 02:13:02.777436+01 | 1486602782.77744 | pgbench_accounts |       4028858368
 2017-02-09 02:13:02.777436+01 | 1486602782.77744 | pgbench_tellers  |           139264
 2017-02-09 02:13:02.777436+01 | 1486602782.77744 | pgbench_history  |                0
 2017-02-09 02:13:02.777436+01 | 1486602782.77744 | pgbench_branches |            16384

 2017-02-09 02:13:04.067166+01 | 1486602784.06717 | pgbench_accounts |       4028858368
 2017-02-09 02:13:04.067166+01 | 1486602784.06717 | pgbench_tellers  |           139264
 2017-02-09 02:13:04.067166+01 | 1486602784.06717 | pgbench_history  |                0
 2017-02-09 02:13:04.067166+01 | 1486602784.06717 | pgbench_branches |            16384

 2017-02-09 02:13:05.382841+01 | 1486602785.38284 | pgbench_accounts |       4028858368
 2017-02-09 02:13:05.382841+01 | 1486602785.38284 | pgbench_tellers  |           139264
 2017-02-09 02:13:05.382841+01 | 1486602785.38284 | pgbench_history  |                0
 2017-02-09 02:13:05.382841+01 | 1486602785.38284 | pgbench_branches |            16384

 2017-02-09 02:13:06.792921+01 | 1486602786.79292 | pgbench_accounts |       4028858368
 2017-02-09 02:13:06.792921+01 | 1486602786.79292 | pgbench_tellers  |           139264
 2017-02-09 02:13:06.792921+01 | 1486602786.79292 | pgbench_history  |                0
 2017-02-09 02:13:06.792921+01 | 1486602786.79292 | pgbench_branches |            16384

 2017-02-09 02:13:08.166012+01 | 1486602788.16601 | pgbench_accounts |       4028858368
 2017-02-09 02:13:08.166012+01 | 1486602788.16601 | pgbench_tellers  |           139264
 2017-02-09 02:13:08.166012+01 | 1486602788.16601 | pgbench_history  |                0
 2017-02-09 02:13:08.166012+01 | 1486602788.16601 | pgbench_branches |            16384

 2017-02-09 02:13:09.482146+01 | 1486602789.48215 | pgbench_accounts |       4028858368
 2017-02-09 02:13:09.482146+01 | 1486602789.48215 | pgbench_tellers  |           139264
 2017-02-09 02:13:09.482146+01 | 1486602789.48215 | pgbench_history  |                0
 2017-02-09 02:13:09.482146+01 | 1486602789.48215 | pgbench_branches |            16384

 2017-02-09 02:13:10.780548+01 | 1486602790.78055 | pgbench_accounts |       4028858368
 2017-02-09 02:13:10.780548+01 | 1486602790.78055 | pgbench_tellers  |           139264
 2017-02-09 02:13:10.780548+01 | 1486602790.78055 | pgbench_history  |                0
 2017-02-09 02:13:10.780548+01 | 1486602790.78055 | pgbench_branches |            16384

 2017-02-09 02:13:12.184451+01 | 1486602792.18445 | pgbench_accounts |       4028858368
 2017-02-09 02:13:12.184451+01 | 1486602792.18445 | pgbench_tellers  |           139264
 2017-02-09 02:13:12.184451+01 | 1486602792.18445 | pgbench_history  |                0
 2017-02-09 02:13:12.184451+01 | 1486602792.18445 | pgbench_branches |            16384

 2017-02-09 02:13:13.552044+01 | 1486602793.55204 | pgbench_accounts |       4028858368
 2017-02-09 02:13:13.552044+01 | 1486602793.55204 | pgbench_tellers  |           139264
 2017-02-09 02:13:13.552044+01 | 1486602793.55204 | pgbench_history  |                0
 2017-02-09 02:13:13.552044+01 | 1486602793.55204 | pgbench_branches |            16384

 2017-02-09 02:13:14.977002+01 | 1486602794.977 | pgbench_accounts |       4028858368
 2017-02-09 02:13:14.977002+01 | 1486602794.977 | pgbench_tellers  |           139264
 2017-02-09 02:13:14.977002+01 | 1486602794.977 | pgbench_history  |                0
 2017-02-09 02:13:14.977002+01 | 1486602794.977 | pgbench_branches |            16384

 2017-02-09 02:13:16.414477+01 | 1486602796.41448 | pgbench_accounts |       4028858368
 2017-02-09 02:13:16.414477+01 | 1486602796.41448 | pgbench_tellers  |           139264
 2017-02-09 02:13:16.414477+01 | 1486602796.41448 | pgbench_history  |                0
 2017-02-09 02:13:16.414477+01 | 1486602796.41448 | pgbench_branches |            16384

 2017-02-09 02:13:17.845366+01 | 1486602797.84537 | pgbench_accounts |       4028858368
 2017-02-09 02:13:17.845366+01 | 1486602797.84537 | pgbench_tellers  |           139264
 2017-02-09 02:13:17.845366+01 | 1486602797.84537 | pgbench_history  |                0
 2017-02-09 02:13:17.845366+01 | 1486602797.84537 | pgbench_branches |            16384

 2017-02-09 02:13:19.18115+01 | 1486602799.18115 | pgbench_accounts |       4028858368
 2017-02-09 02:13:19.18115+01 | 1486602799.18115 | pgbench_tellers  |           139264
 2017-02-09 02:13:19.18115+01 | 1486602799.18115 | pgbench_history  |                0
 2017-02-09 02:13:19.18115+01 | 1486602799.18115 | pgbench_branches |            16384

 2017-02-09 02:13:20.597738+01 | 1486602800.59774 | pgbench_accounts |       4028858368
 2017-02-09 02:13:20.597738+01 | 1486602800.59774 | pgbench_tellers  |           139264
 2017-02-09 02:13:20.597738+01 | 1486602800.59774 | pgbench_history  |                0
 2017-02-09 02:13:20.597738+01 | 1486602800.59774 | pgbench_branches |            16384

 2017-02-09 02:13:21.917611+01 | 1486602801.91761 | pgbench_accounts |       4028858368
 2017-02-09 02:13:21.917611+01 | 1486602801.91761 | pgbench_tellers  |           139264
 2017-02-09 02:13:21.917611+01 | 1486602801.91761 | pgbench_history  |                0
 2017-02-09 02:13:21.917611+01 | 1486602801.91761 | pgbench_branches |            16384

 2017-02-09 02:13:23.281111+01 | 1486602803.28111 | pgbench_accounts |       4028858368
 2017-02-09 02:13:23.281111+01 | 1486602803.28111 | pgbench_tellers  |           139264
 2017-02-09 02:13:23.281111+01 | 1486602803.28111 | pgbench_history  |                0
 2017-02-09 02:13:23.281111+01 | 1486602803.28111 | pgbench_branches |            16384

 2017-02-09 02:13:24.598837+01 | 1486602804.59884 | pgbench_accounts |       4028858368
 2017-02-09 02:13:24.598837+01 | 1486602804.59884 | pgbench_tellers  |           139264
 2017-02-09 02:13:24.598837+01 | 1486602804.59884 | pgbench_history  |                0
 2017-02-09 02:13:24.598837+01 | 1486602804.59884 | pgbench_branches |            16384

 2017-02-09 02:13:25.946169+01 | 1486602805.94617 | pgbench_accounts |       4028858368
 2017-02-09 02:13:25.946169+01 | 1486602805.94617 | pgbench_tellers  |           139264
 2017-02-09 02:13:25.946169+01 | 1486602805.94617 | pgbench_history  |                0
 2017-02-09 02:13:25.946169+01 | 1486602805.94617 | pgbench_branches |            16384

 2017-02-09 02:13:27.387198+01 | 1486602807.3872 | pgbench_accounts |       4028858368
 2017-02-09 02:13:27.387198+01 | 1486602807.3872 | pgbench_tellers  |           139264
 2017-02-09 02:13:27.387198+01 | 1486602807.3872 | pgbench_history  |                0
 2017-02-09 02:13:27.387198+01 | 1486602807.3872 | pgbench_branches |            16384

 2017-02-09 02:13:28.758726+01 | 1486602808.75873 | pgbench_accounts |       4028858368
 2017-02-09 02:13:28.758726+01 | 1486602808.75873 | pgbench_tellers  |           139264
 2017-02-09 02:13:28.758726+01 | 1486602808.75873 | pgbench_history  |                0
 2017-02-09 02:13:28.758726+01 | 1486602808.75873 | pgbench_branches |            16384

 2017-02-09 02:13:30.107608+01 | 1486602810.10761 | pgbench_accounts |       4028858368
 2017-02-09 02:13:30.107608+01 | 1486602810.10761 | pgbench_tellers  |           139264
 2017-02-09 02:13:30.107608+01 | 1486602810.10761 | pgbench_history  |                0
 2017-02-09 02:13:30.107608+01 | 1486602810.10761 | pgbench_branches |            16384

 2017-02-09 02:13:31.460753+01 | 1486602811.46075 | pgbench_accounts |       4028858368
 2017-02-09 02:13:31.460753+01 | 1486602811.46075 | pgbench_tellers  |           139264
 2017-02-09 02:13:31.460753+01 | 1486602811.46075 | pgbench_history  |                0
 2017-02-09 02:13:31.460753+01 | 1486602811.46075 | pgbench_branches |            16384

 2017-02-09 02:13:32.794152+01 | 1486602812.79415 | pgbench_accounts |       4028858368
 2017-02-09 02:13:32.794152+01 | 1486602812.79415 | pgbench_tellers  |           139264
 2017-02-09 02:13:32.794152+01 | 1486602812.79415 | pgbench_history  |                0
 2017-02-09 02:13:32.794152+01 | 1486602812.79415 | pgbench_branches |            16384

 2017-02-09 02:13:34.087972+01 | 1486602814.08797 | pgbench_accounts |       4028858368
 2017-02-09 02:13:34.087972+01 | 1486602814.08797 | pgbench_tellers  |           139264
 2017-02-09 02:13:34.087972+01 | 1486602814.08797 | pgbench_history  |                0
 2017-02-09 02:13:34.087972+01 | 1486602814.08797 | pgbench_branches |            16384

