 2017-02-08 04:06:05.966664+01 | 1486523165.96666 | pgbench_branches_pkey |            16384
 2017-02-08 04:06:05.966664+01 | 1486523165.96666 | pgbench_tellers_pkey  |            32768
 2017-02-08 04:06:05.966664+01 | 1486523165.96666 | pgbench_accounts_pkey |        112336896

 2017-02-08 04:06:07.345747+01 | 1486523167.34575 | pgbench_branches_pkey |            16384
 2017-02-08 04:06:07.345747+01 | 1486523167.34575 | pgbench_tellers_pkey  |            32768
 2017-02-08 04:06:07.345747+01 | 1486523167.34575 | pgbench_accounts_pkey |        112336896

 2017-02-08 04:06:08.719798+01 | 1486523168.7198 | pgbench_branches_pkey |            16384
 2017-02-08 04:06:08.719798+01 | 1486523168.7198 | pgbench_tellers_pkey  |            32768
 2017-02-08 04:06:08.719798+01 | 1486523168.7198 | pgbench_accounts_pkey |        112336896

 2017-02-08 04:06:10.084838+01 | 1486523170.08484 | pgbench_branches_pkey |            16384
 2017-02-08 04:06:10.084838+01 | 1486523170.08484 | pgbench_tellers_pkey  |            32768
 2017-02-08 04:06:10.084838+01 | 1486523170.08484 | pgbench_accounts_pkey |        112336896

 2017-02-08 04:06:11.449021+01 | 1486523171.44902 | pgbench_branches_pkey |            16384
 2017-02-08 04:06:11.449021+01 | 1486523171.44902 | pgbench_tellers_pkey  |            32768
 2017-02-08 04:06:11.449021+01 | 1486523171.44902 | pgbench_accounts_pkey |        112336896

 2017-02-08 04:06:12.814808+01 | 1486523172.81481 | pgbench_branches_pkey |            16384
 2017-02-08 04:06:12.814808+01 | 1486523172.81481 | pgbench_tellers_pkey  |            32768
 2017-02-08 04:06:12.814808+01 | 1486523172.81481 | pgbench_accounts_pkey |        112336896

 2017-02-08 04:06:14.224991+01 | 1486523174.22499 | pgbench_branches_pkey |            16384
 2017-02-08 04:06:14.224991+01 | 1486523174.22499 | pgbench_tellers_pkey  |            32768
 2017-02-08 04:06:14.224991+01 | 1486523174.22499 | pgbench_accounts_pkey |        112336896

 2017-02-08 04:06:15.532847+01 | 1486523175.53285 | pgbench_branches_pkey |            16384
 2017-02-08 04:06:15.532847+01 | 1486523175.53285 | pgbench_tellers_pkey  |            32768
 2017-02-08 04:06:15.532847+01 | 1486523175.53285 | pgbench_accounts_pkey |        112336896

 2017-02-08 04:06:16.924042+01 | 1486523176.92404 | pgbench_branches_pkey |            16384
 2017-02-08 04:06:16.924042+01 | 1486523176.92404 | pgbench_tellers_pkey  |            32768
 2017-02-08 04:06:16.924042+01 | 1486523176.92404 | pgbench_accounts_pkey |        112336896

 2017-02-08 04:06:18.328611+01 | 1486523178.32861 | pgbench_branches_pkey |            16384
 2017-02-08 04:06:18.328611+01 | 1486523178.32861 | pgbench_tellers_pkey  |            32768
 2017-02-08 04:06:18.328611+01 | 1486523178.32861 | pgbench_accounts_pkey |        112336896

 2017-02-08 04:06:19.70053+01 | 1486523179.70053 | pgbench_branches_pkey |            16384
 2017-02-08 04:06:19.70053+01 | 1486523179.70053 | pgbench_tellers_pkey  |            32768
 2017-02-08 04:06:19.70053+01 | 1486523179.70053 | pgbench_accounts_pkey |        112336896

 2017-02-08 04:06:21.090255+01 | 1486523181.09026 | pgbench_branches_pkey |            16384
 2017-02-08 04:06:21.090255+01 | 1486523181.09026 | pgbench_tellers_pkey  |            32768
 2017-02-08 04:06:21.090255+01 | 1486523181.09026 | pgbench_accounts_pkey |        112336896

 2017-02-08 04:06:22.493035+01 | 1486523182.49304 | pgbench_branches_pkey |            16384
 2017-02-08 04:06:22.493035+01 | 1486523182.49304 | pgbench_tellers_pkey  |            32768
 2017-02-08 04:06:22.493035+01 | 1486523182.49304 | pgbench_accounts_pkey |        112336896

 2017-02-08 04:06:23.89866+01 | 1486523183.89866 | pgbench_branches_pkey |            16384
 2017-02-08 04:06:23.89866+01 | 1486523183.89866 | pgbench_tellers_pkey  |            32768
 2017-02-08 04:06:23.89866+01 | 1486523183.89866 | pgbench_accounts_pkey |        112336896

 2017-02-08 04:06:25.256686+01 | 1486523185.25669 | pgbench_branches_pkey |            16384
 2017-02-08 04:06:25.256686+01 | 1486523185.25669 | pgbench_tellers_pkey  |            32768
 2017-02-08 04:06:25.256686+01 | 1486523185.25669 | pgbench_accounts_pkey |        112336896

 2017-02-08 04:06:26.627072+01 | 1486523186.62707 | pgbench_branches_pkey |            16384
 2017-02-08 04:06:26.627072+01 | 1486523186.62707 | pgbench_tellers_pkey  |            32768
 2017-02-08 04:06:26.627072+01 | 1486523186.62707 | pgbench_accounts_pkey |        112336896

 2017-02-08 04:06:27.990713+01 | 1486523187.99071 | pgbench_branches_pkey |            16384
 2017-02-08 04:06:27.990713+01 | 1486523187.99071 | pgbench_tellers_pkey  |            32768
 2017-02-08 04:06:27.990713+01 | 1486523187.99071 | pgbench_accounts_pkey |        112336896

 2017-02-08 04:06:29.323244+01 | 1486523189.32324 | pgbench_branches_pkey |            16384
 2017-02-08 04:06:29.323244+01 | 1486523189.32324 | pgbench_tellers_pkey  |            32768
 2017-02-08 04:06:29.323244+01 | 1486523189.32324 | pgbench_accounts_pkey |        112336896

 2017-02-08 04:06:30.766452+01 | 1486523190.76645 | pgbench_branches_pkey |            16384
 2017-02-08 04:06:30.766452+01 | 1486523190.76645 | pgbench_tellers_pkey  |            32768
 2017-02-08 04:06:30.766452+01 | 1486523190.76645 | pgbench_accounts_pkey |        112336896

 2017-02-08 04:06:32.216566+01 | 1486523192.21657 | pgbench_branches_pkey |            16384
 2017-02-08 04:06:32.216566+01 | 1486523192.21657 | pgbench_tellers_pkey  |            32768
 2017-02-08 04:06:32.216566+01 | 1486523192.21657 | pgbench_accounts_pkey |        112336896

 2017-02-08 04:06:33.571748+01 | 1486523193.57175 | pgbench_branches_pkey |            16384
 2017-02-08 04:06:33.571748+01 | 1486523193.57175 | pgbench_tellers_pkey  |            32768
 2017-02-08 04:06:33.571748+01 | 1486523193.57175 | pgbench_accounts_pkey |        112336896

 2017-02-08 04:06:34.919959+01 | 1486523194.91996 | pgbench_branches_pkey |            16384
 2017-02-08 04:06:34.919959+01 | 1486523194.91996 | pgbench_tellers_pkey  |            32768
 2017-02-08 04:06:34.919959+01 | 1486523194.91996 | pgbench_accounts_pkey |        112336896

 2017-02-08 04:06:36.231659+01 | 1486523196.23166 | pgbench_branches_pkey |            16384
 2017-02-08 04:06:36.231659+01 | 1486523196.23166 | pgbench_tellers_pkey  |            32768
 2017-02-08 04:06:36.231659+01 | 1486523196.23166 | pgbench_accounts_pkey |        112336896

 2017-02-08 04:06:37.621169+01 | 1486523197.62117 | pgbench_branches_pkey |            16384
 2017-02-08 04:06:37.621169+01 | 1486523197.62117 | pgbench_tellers_pkey  |            32768
 2017-02-08 04:06:37.621169+01 | 1486523197.62117 | pgbench_accounts_pkey |        112336896

 2017-02-08 04:06:38.980264+01 | 1486523198.98026 | pgbench_branches_pkey |            16384
 2017-02-08 04:06:38.980264+01 | 1486523198.98026 | pgbench_tellers_pkey  |            32768
 2017-02-08 04:06:38.980264+01 | 1486523198.98026 | pgbench_accounts_pkey |        112336896

 2017-02-08 04:06:40.338415+01 | 1486523200.33841 | pgbench_branches_pkey |            16384
 2017-02-08 04:06:40.338415+01 | 1486523200.33841 | pgbench_tellers_pkey  |            32768
 2017-02-08 04:06:40.338415+01 | 1486523200.33841 | pgbench_accounts_pkey |        112336896

 2017-02-08 04:06:41.716973+01 | 1486523201.71697 | pgbench_branches_pkey |            16384
 2017-02-08 04:06:41.716973+01 | 1486523201.71697 | pgbench_tellers_pkey  |            32768
 2017-02-08 04:06:41.716973+01 | 1486523201.71697 | pgbench_accounts_pkey |        112336896

 2017-02-08 04:06:43.06619+01 | 1486523203.06619 | pgbench_branches_pkey |            16384
 2017-02-08 04:06:43.06619+01 | 1486523203.06619 | pgbench_tellers_pkey  |            32768
 2017-02-08 04:06:43.06619+01 | 1486523203.06619 | pgbench_accounts_pkey |        112336896

 2017-02-08 04:06:44.411583+01 | 1486523204.41158 | pgbench_branches_pkey |            16384
 2017-02-08 04:06:44.411583+01 | 1486523204.41158 | pgbench_tellers_pkey  |            32768
 2017-02-08 04:06:44.411583+01 | 1486523204.41158 | pgbench_accounts_pkey |        112336896

 2017-02-08 04:06:45.772024+01 | 1486523205.77202 | pgbench_branches_pkey |            16384
 2017-02-08 04:06:45.772024+01 | 1486523205.77202 | pgbench_tellers_pkey  |            32768
 2017-02-08 04:06:45.772024+01 | 1486523205.77202 | pgbench_accounts_pkey |        112336896

 2017-02-08 04:06:47.143463+01 | 1486523207.14346 | pgbench_branches_pkey |            16384
 2017-02-08 04:06:47.143463+01 | 1486523207.14346 | pgbench_tellers_pkey  |            32768
 2017-02-08 04:06:47.143463+01 | 1486523207.14346 | pgbench_accounts_pkey |        112336896

 2017-02-08 04:06:48.514379+01 | 1486523208.51438 | pgbench_branches_pkey |            16384
 2017-02-08 04:06:48.514379+01 | 1486523208.51438 | pgbench_tellers_pkey  |            32768
 2017-02-08 04:06:48.514379+01 | 1486523208.51438 | pgbench_accounts_pkey |        112336896

 2017-02-08 04:06:49.871014+01 | 1486523209.87101 | pgbench_branches_pkey |            16384
 2017-02-08 04:06:49.871014+01 | 1486523209.87101 | pgbench_tellers_pkey  |            32768
 2017-02-08 04:06:49.871014+01 | 1486523209.87101 | pgbench_accounts_pkey |        112336896

 2017-02-08 04:06:51.145286+01 | 1486523211.14529 | pgbench_branches_pkey |            16384
 2017-02-08 04:06:51.145286+01 | 1486523211.14529 | pgbench_tellers_pkey  |            32768
 2017-02-08 04:06:51.145286+01 | 1486523211.14529 | pgbench_accounts_pkey |        112336896

 2017-02-08 04:06:52.427827+01 | 1486523212.42783 | pgbench_branches_pkey |            16384
 2017-02-08 04:06:52.427827+01 | 1486523212.42783 | pgbench_tellers_pkey  |            32768
 2017-02-08 04:06:52.427827+01 | 1486523212.42783 | pgbench_accounts_pkey |        112336896

 2017-02-08 04:06:53.737005+01 | 1486523213.737 | pgbench_branches_pkey |            16384
 2017-02-08 04:06:53.737005+01 | 1486523213.737 | pgbench_tellers_pkey  |            32768
 2017-02-08 04:06:53.737005+01 | 1486523213.737 | pgbench_accounts_pkey |        112336896

 2017-02-08 04:06:55.159659+01 | 1486523215.15966 | pgbench_branches_pkey |            16384
 2017-02-08 04:06:55.159659+01 | 1486523215.15966 | pgbench_tellers_pkey  |            32768
 2017-02-08 04:06:55.159659+01 | 1486523215.15966 | pgbench_accounts_pkey |        112336896

 2017-02-08 04:06:56.552687+01 | 1486523216.55269 | pgbench_branches_pkey |            16384
 2017-02-08 04:06:56.552687+01 | 1486523216.55269 | pgbench_tellers_pkey  |            32768
 2017-02-08 04:06:56.552687+01 | 1486523216.55269 | pgbench_accounts_pkey |        112336896

 2017-02-08 04:06:57.980442+01 | 1486523217.98044 | pgbench_branches_pkey |            16384
 2017-02-08 04:06:57.980442+01 | 1486523217.98044 | pgbench_tellers_pkey  |            32768
 2017-02-08 04:06:57.980442+01 | 1486523217.98044 | pgbench_accounts_pkey |        112336896

 2017-02-08 04:06:59.384988+01 | 1486523219.38499 | pgbench_branches_pkey |            16384
 2017-02-08 04:06:59.384988+01 | 1486523219.38499 | pgbench_tellers_pkey  |            32768
 2017-02-08 04:06:59.384988+01 | 1486523219.38499 | pgbench_accounts_pkey |        112336896

 2017-02-08 04:07:00.764329+01 | 1486523220.76433 | pgbench_branches_pkey |            16384
 2017-02-08 04:07:00.764329+01 | 1486523220.76433 | pgbench_tellers_pkey  |            32768
 2017-02-08 04:07:00.764329+01 | 1486523220.76433 | pgbench_accounts_pkey |        112336896

 2017-02-08 04:07:02.144881+01 | 1486523222.14488 | pgbench_branches_pkey |            16384
 2017-02-08 04:07:02.144881+01 | 1486523222.14488 | pgbench_tellers_pkey  |            32768
 2017-02-08 04:07:02.144881+01 | 1486523222.14488 | pgbench_accounts_pkey |        112336896

 2017-02-08 04:07:03.466157+01 | 1486523223.46616 | pgbench_branches_pkey |            16384
 2017-02-08 04:07:03.466157+01 | 1486523223.46616 | pgbench_tellers_pkey  |            32768
 2017-02-08 04:07:03.466157+01 | 1486523223.46616 | pgbench_accounts_pkey |        112336896

 2017-02-08 04:07:04.743063+01 | 1486523224.74306 | pgbench_branches_pkey |            16384
 2017-02-08 04:07:04.743063+01 | 1486523224.74306 | pgbench_tellers_pkey  |            32768
 2017-02-08 04:07:04.743063+01 | 1486523224.74306 | pgbench_accounts_pkey |        112336896

 2017-02-08 04:07:06.147845+01 | 1486523226.14785 | pgbench_branches_pkey |            16384
 2017-02-08 04:07:06.147845+01 | 1486523226.14785 | pgbench_tellers_pkey  |            32768
 2017-02-08 04:07:06.147845+01 | 1486523226.14785 | pgbench_accounts_pkey |        112336896

 2017-02-08 04:07:07.452857+01 | 1486523227.45286 | pgbench_branches_pkey |            16384
 2017-02-08 04:07:07.452857+01 | 1486523227.45286 | pgbench_tellers_pkey  |            32768
 2017-02-08 04:07:07.452857+01 | 1486523227.45286 | pgbench_accounts_pkey |        112336896

 2017-02-08 04:07:08.937952+01 | 1486523228.93795 | pgbench_branches_pkey |            16384
 2017-02-08 04:07:08.937952+01 | 1486523228.93795 | pgbench_tellers_pkey  |            32768
 2017-02-08 04:07:08.937952+01 | 1486523228.93795 | pgbench_accounts_pkey |        112336896

 2017-02-08 04:07:10.339052+01 | 1486523230.33905 | pgbench_branches_pkey |            16384
 2017-02-08 04:07:10.339052+01 | 1486523230.33905 | pgbench_tellers_pkey  |            32768
 2017-02-08 04:07:10.339052+01 | 1486523230.33905 | pgbench_accounts_pkey |        112336896

 2017-02-08 04:07:11.732175+01 | 1486523231.73218 | pgbench_branches_pkey |            16384
 2017-02-08 04:07:11.732175+01 | 1486523231.73218 | pgbench_tellers_pkey  |            32768
 2017-02-08 04:07:11.732175+01 | 1486523231.73218 | pgbench_accounts_pkey |        112336896

 2017-02-08 04:07:13.126255+01 | 1486523233.12626 | pgbench_branches_pkey |            16384
 2017-02-08 04:07:13.126255+01 | 1486523233.12626 | pgbench_tellers_pkey  |            32768
 2017-02-08 04:07:13.126255+01 | 1486523233.12626 | pgbench_accounts_pkey |        112336896

 2017-02-08 04:07:14.504337+01 | 1486523234.50434 | pgbench_branches_pkey |            16384
 2017-02-08 04:07:14.504337+01 | 1486523234.50434 | pgbench_tellers_pkey  |            32768
 2017-02-08 04:07:14.504337+01 | 1486523234.50434 | pgbench_accounts_pkey |        112336896

 2017-02-08 04:07:15.870121+01 | 1486523235.87012 | pgbench_branches_pkey |            16384
 2017-02-08 04:07:15.870121+01 | 1486523235.87012 | pgbench_tellers_pkey  |            32768
 2017-02-08 04:07:15.870121+01 | 1486523235.87012 | pgbench_accounts_pkey |        112336896

 2017-02-08 04:07:17.206193+01 | 1486523237.20619 | pgbench_branches_pkey |            16384
 2017-02-08 04:07:17.206193+01 | 1486523237.20619 | pgbench_tellers_pkey  |            32768
 2017-02-08 04:07:17.206193+01 | 1486523237.20619 | pgbench_accounts_pkey |        112336896

 2017-02-08 04:07:18.651367+01 | 1486523238.65137 | pgbench_branches_pkey |            16384
 2017-02-08 04:07:18.651367+01 | 1486523238.65137 | pgbench_tellers_pkey  |            32768
 2017-02-08 04:07:18.651367+01 | 1486523238.65137 | pgbench_accounts_pkey |        112336896

 2017-02-08 04:07:20.026045+01 | 1486523240.02605 | pgbench_branches_pkey |            16384
 2017-02-08 04:07:20.026045+01 | 1486523240.02605 | pgbench_tellers_pkey  |            32768
 2017-02-08 04:07:20.026045+01 | 1486523240.02605 | pgbench_accounts_pkey |        112336896

 2017-02-08 04:07:21.297909+01 | 1486523241.29791 | pgbench_branches_pkey |            16384
 2017-02-08 04:07:21.297909+01 | 1486523241.29791 | pgbench_tellers_pkey  |            32768
 2017-02-08 04:07:21.297909+01 | 1486523241.29791 | pgbench_accounts_pkey |        112336896

 2017-02-08 04:07:22.615643+01 | 1486523242.61564 | pgbench_branches_pkey |            16384
 2017-02-08 04:07:22.615643+01 | 1486523242.61564 | pgbench_tellers_pkey  |            32768
 2017-02-08 04:07:22.615643+01 | 1486523242.61564 | pgbench_accounts_pkey |        112336896

 2017-02-08 04:07:23.98208+01 | 1486523243.98208 | pgbench_branches_pkey |            16384
 2017-02-08 04:07:23.98208+01 | 1486523243.98208 | pgbench_tellers_pkey  |            32768
 2017-02-08 04:07:23.98208+01 | 1486523243.98208 | pgbench_accounts_pkey |        112336896

 2017-02-08 04:07:25.385807+01 | 1486523245.38581 | pgbench_branches_pkey |            16384
 2017-02-08 04:07:25.385807+01 | 1486523245.38581 | pgbench_tellers_pkey  |            32768
 2017-02-08 04:07:25.385807+01 | 1486523245.38581 | pgbench_accounts_pkey |        112336896

 2017-02-08 04:07:26.722526+01 | 1486523246.72253 | pgbench_branches_pkey |            16384
 2017-02-08 04:07:26.722526+01 | 1486523246.72253 | pgbench_tellers_pkey  |            32768
 2017-02-08 04:07:26.722526+01 | 1486523246.72253 | pgbench_accounts_pkey |        112336896

 2017-02-08 04:07:28.087419+01 | 1486523248.08742 | pgbench_branches_pkey |            16384
 2017-02-08 04:07:28.087419+01 | 1486523248.08742 | pgbench_tellers_pkey  |            32768
 2017-02-08 04:07:28.087419+01 | 1486523248.08742 | pgbench_accounts_pkey |        112336896

 2017-02-08 04:07:29.445763+01 | 1486523249.44576 | pgbench_branches_pkey |            16384
 2017-02-08 04:07:29.445763+01 | 1486523249.44576 | pgbench_tellers_pkey  |            32768
 2017-02-08 04:07:29.445763+01 | 1486523249.44576 | pgbench_accounts_pkey |        112336896

 2017-02-08 04:07:30.855199+01 | 1486523250.8552 | pgbench_branches_pkey |            16384
 2017-02-08 04:07:30.855199+01 | 1486523250.8552 | pgbench_tellers_pkey  |            32768
 2017-02-08 04:07:30.855199+01 | 1486523250.8552 | pgbench_accounts_pkey |        112336896

 2017-02-08 04:07:32.236281+01 | 1486523252.23628 | pgbench_branches_pkey |            16384
 2017-02-08 04:07:32.236281+01 | 1486523252.23628 | pgbench_tellers_pkey  |            32768
 2017-02-08 04:07:32.236281+01 | 1486523252.23628 | pgbench_accounts_pkey |        112336896

 2017-02-08 04:07:33.542846+01 | 1486523253.54285 | pgbench_branches_pkey |            16384
 2017-02-08 04:07:33.542846+01 | 1486523253.54285 | pgbench_tellers_pkey  |            32768
 2017-02-08 04:07:33.542846+01 | 1486523253.54285 | pgbench_accounts_pkey |        112336896

 2017-02-08 04:07:34.896759+01 | 1486523254.89676 | pgbench_branches_pkey |            16384
 2017-02-08 04:07:34.896759+01 | 1486523254.89676 | pgbench_tellers_pkey  |            32768
 2017-02-08 04:07:34.896759+01 | 1486523254.89676 | pgbench_accounts_pkey |        112336896

 2017-02-08 04:07:36.267072+01 | 1486523256.26707 | pgbench_branches_pkey |            16384
 2017-02-08 04:07:36.267072+01 | 1486523256.26707 | pgbench_tellers_pkey  |            32768
 2017-02-08 04:07:36.267072+01 | 1486523256.26707 | pgbench_accounts_pkey |        112336896

 2017-02-08 04:07:37.664049+01 | 1486523257.66405 | pgbench_branches_pkey |            16384
 2017-02-08 04:07:37.664049+01 | 1486523257.66405 | pgbench_tellers_pkey  |            32768
 2017-02-08 04:07:37.664049+01 | 1486523257.66405 | pgbench_accounts_pkey |        112336896

 2017-02-08 04:07:39.036327+01 | 1486523259.03633 | pgbench_branches_pkey |            16384
 2017-02-08 04:07:39.036327+01 | 1486523259.03633 | pgbench_tellers_pkey  |            32768
 2017-02-08 04:07:39.036327+01 | 1486523259.03633 | pgbench_accounts_pkey |        112336896

 2017-02-08 04:07:40.438366+01 | 1486523260.43837 | pgbench_branches_pkey |            16384
 2017-02-08 04:07:40.438366+01 | 1486523260.43837 | pgbench_tellers_pkey  |            32768
 2017-02-08 04:07:40.438366+01 | 1486523260.43837 | pgbench_accounts_pkey |        112336896

 2017-02-08 04:07:41.838497+01 | 1486523261.8385 | pgbench_branches_pkey |            16384
 2017-02-08 04:07:41.838497+01 | 1486523261.8385 | pgbench_tellers_pkey  |            32768
 2017-02-08 04:07:41.838497+01 | 1486523261.8385 | pgbench_accounts_pkey |        112336896

 2017-02-08 04:07:43.173616+01 | 1486523263.17362 | pgbench_branches_pkey |            16384
 2017-02-08 04:07:43.173616+01 | 1486523263.17362 | pgbench_tellers_pkey  |            32768
 2017-02-08 04:07:43.173616+01 | 1486523263.17362 | pgbench_accounts_pkey |        112336896

 2017-02-08 04:07:44.565738+01 | 1486523264.56574 | pgbench_branches_pkey |            16384
 2017-02-08 04:07:44.565738+01 | 1486523264.56574 | pgbench_tellers_pkey  |            32768
 2017-02-08 04:07:44.565738+01 | 1486523264.56574 | pgbench_accounts_pkey |        112336896

 2017-02-08 04:07:45.946592+01 | 1486523265.94659 | pgbench_branches_pkey |            16384
 2017-02-08 04:07:45.946592+01 | 1486523265.94659 | pgbench_tellers_pkey  |            32768
 2017-02-08 04:07:45.946592+01 | 1486523265.94659 | pgbench_accounts_pkey |        112336896

 2017-02-08 04:07:47.361854+01 | 1486523267.36185 | pgbench_branches_pkey |            16384
 2017-02-08 04:07:47.361854+01 | 1486523267.36185 | pgbench_tellers_pkey  |            32768
 2017-02-08 04:07:47.361854+01 | 1486523267.36185 | pgbench_accounts_pkey |        112336896

 2017-02-08 04:07:48.640753+01 | 1486523268.64075 | pgbench_branches_pkey |            16384
 2017-02-08 04:07:48.640753+01 | 1486523268.64075 | pgbench_tellers_pkey  |            32768
 2017-02-08 04:07:48.640753+01 | 1486523268.64075 | pgbench_accounts_pkey |        112336896

 2017-02-08 04:07:50.059682+01 | 1486523270.05968 | pgbench_branches_pkey |            16384
 2017-02-08 04:07:50.059682+01 | 1486523270.05968 | pgbench_tellers_pkey  |            32768
 2017-02-08 04:07:50.059682+01 | 1486523270.05968 | pgbench_accounts_pkey |        112336896

 2017-02-08 04:07:51.440755+01 | 1486523271.44075 | pgbench_branches_pkey |            16384
 2017-02-08 04:07:51.440755+01 | 1486523271.44075 | pgbench_tellers_pkey  |            32768
 2017-02-08 04:07:51.440755+01 | 1486523271.44075 | pgbench_accounts_pkey |        112336896

 2017-02-08 04:07:52.829972+01 | 1486523272.82997 | pgbench_branches_pkey |            16384
 2017-02-08 04:07:52.829972+01 | 1486523272.82997 | pgbench_tellers_pkey  |            32768
 2017-02-08 04:07:52.829972+01 | 1486523272.82997 | pgbench_accounts_pkey |        112336896

 2017-02-08 04:07:54.21349+01 | 1486523274.21349 | pgbench_branches_pkey |            16384
 2017-02-08 04:07:54.21349+01 | 1486523274.21349 | pgbench_tellers_pkey  |            32768
 2017-02-08 04:07:54.21349+01 | 1486523274.21349 | pgbench_accounts_pkey |        112336896

 2017-02-08 04:07:55.620659+01 | 1486523275.62066 | pgbench_branches_pkey |            16384
 2017-02-08 04:07:55.620659+01 | 1486523275.62066 | pgbench_tellers_pkey  |            32768
 2017-02-08 04:07:55.620659+01 | 1486523275.62066 | pgbench_accounts_pkey |        112336896

 2017-02-08 04:07:56.974844+01 | 1486523276.97484 | pgbench_branches_pkey |            16384
 2017-02-08 04:07:56.974844+01 | 1486523276.97484 | pgbench_tellers_pkey  |            32768
 2017-02-08 04:07:56.974844+01 | 1486523276.97484 | pgbench_accounts_pkey |        112336896

 2017-02-08 04:07:58.320469+01 | 1486523278.32047 | pgbench_branches_pkey |            16384
 2017-02-08 04:07:58.320469+01 | 1486523278.32047 | pgbench_tellers_pkey  |            32768
 2017-02-08 04:07:58.320469+01 | 1486523278.32047 | pgbench_accounts_pkey |        112336896

 2017-02-08 04:07:59.675872+01 | 1486523279.67587 | pgbench_branches_pkey |            16384
 2017-02-08 04:07:59.675872+01 | 1486523279.67587 | pgbench_tellers_pkey  |            32768
 2017-02-08 04:07:59.675872+01 | 1486523279.67587 | pgbench_accounts_pkey |        112336896

 2017-02-08 04:08:01.005792+01 | 1486523281.00579 | pgbench_branches_pkey |            16384
 2017-02-08 04:08:01.005792+01 | 1486523281.00579 | pgbench_tellers_pkey  |            32768
 2017-02-08 04:08:01.005792+01 | 1486523281.00579 | pgbench_accounts_pkey |        112336896

 2017-02-08 04:08:02.433452+01 | 1486523282.43345 | pgbench_branches_pkey |            16384
 2017-02-08 04:08:02.433452+01 | 1486523282.43345 | pgbench_tellers_pkey  |            32768
 2017-02-08 04:08:02.433452+01 | 1486523282.43345 | pgbench_accounts_pkey |        112336896

 2017-02-08 04:08:03.858782+01 | 1486523283.85878 | pgbench_branches_pkey |            16384
 2017-02-08 04:08:03.858782+01 | 1486523283.85878 | pgbench_tellers_pkey  |            32768
 2017-02-08 04:08:03.858782+01 | 1486523283.85878 | pgbench_accounts_pkey |        112336896

 2017-02-08 04:08:05.216241+01 | 1486523285.21624 | pgbench_branches_pkey |            16384
 2017-02-08 04:08:05.216241+01 | 1486523285.21624 | pgbench_tellers_pkey  |            32768
 2017-02-08 04:08:05.216241+01 | 1486523285.21624 | pgbench_accounts_pkey |        112336896

 2017-02-08 04:08:06.572891+01 | 1486523286.57289 | pgbench_branches_pkey |            16384
 2017-02-08 04:08:06.572891+01 | 1486523286.57289 | pgbench_tellers_pkey  |            32768
 2017-02-08 04:08:06.572891+01 | 1486523286.57289 | pgbench_accounts_pkey |        112336896

 2017-02-08 04:08:07.929172+01 | 1486523287.92917 | pgbench_branches_pkey |            16384
 2017-02-08 04:08:07.929172+01 | 1486523287.92917 | pgbench_tellers_pkey  |            32768
 2017-02-08 04:08:07.929172+01 | 1486523287.92917 | pgbench_accounts_pkey |        112336896

 2017-02-08 04:08:09.358453+01 | 1486523289.35845 | pgbench_branches_pkey |            16384
 2017-02-08 04:08:09.358453+01 | 1486523289.35845 | pgbench_tellers_pkey  |            32768
 2017-02-08 04:08:09.358453+01 | 1486523289.35845 | pgbench_accounts_pkey |        112336896

 2017-02-08 04:08:10.744448+01 | 1486523290.74445 | pgbench_branches_pkey |            16384
 2017-02-08 04:08:10.744448+01 | 1486523290.74445 | pgbench_tellers_pkey  |            32768
 2017-02-08 04:08:10.744448+01 | 1486523290.74445 | pgbench_accounts_pkey |        112336896

 2017-02-08 04:08:12.080598+01 | 1486523292.0806 | pgbench_branches_pkey |            16384
 2017-02-08 04:08:12.080598+01 | 1486523292.0806 | pgbench_tellers_pkey  |            32768
 2017-02-08 04:08:12.080598+01 | 1486523292.0806 | pgbench_accounts_pkey |        112336896

 2017-02-08 04:08:13.441625+01 | 1486523293.44163 | pgbench_branches_pkey |            16384
 2017-02-08 04:08:13.441625+01 | 1486523293.44163 | pgbench_tellers_pkey  |            32768
 2017-02-08 04:08:13.441625+01 | 1486523293.44163 | pgbench_accounts_pkey |        112336896

 2017-02-08 04:08:14.870537+01 | 1486523294.87054 | pgbench_branches_pkey |            16384
 2017-02-08 04:08:14.870537+01 | 1486523294.87054 | pgbench_tellers_pkey  |            32768
 2017-02-08 04:08:14.870537+01 | 1486523294.87054 | pgbench_accounts_pkey |        112336896

 2017-02-08 04:08:16.253488+01 | 1486523296.25349 | pgbench_branches_pkey |            16384
 2017-02-08 04:08:16.253488+01 | 1486523296.25349 | pgbench_tellers_pkey  |            32768
 2017-02-08 04:08:16.253488+01 | 1486523296.25349 | pgbench_accounts_pkey |        112336896

 2017-02-08 04:08:17.617426+01 | 1486523297.61743 | pgbench_branches_pkey |            16384
 2017-02-08 04:08:17.617426+01 | 1486523297.61743 | pgbench_tellers_pkey  |            32768
 2017-02-08 04:08:17.617426+01 | 1486523297.61743 | pgbench_accounts_pkey |        112336896

 2017-02-08 04:08:18.926451+01 | 1486523298.92645 | pgbench_branches_pkey |            16384
 2017-02-08 04:08:18.926451+01 | 1486523298.92645 | pgbench_tellers_pkey  |            32768
 2017-02-08 04:08:18.926451+01 | 1486523298.92645 | pgbench_accounts_pkey |        112336896

 2017-02-08 04:08:20.31163+01 | 1486523300.31163 | pgbench_branches_pkey |            16384
 2017-02-08 04:08:20.31163+01 | 1486523300.31163 | pgbench_tellers_pkey  |            32768
 2017-02-08 04:08:20.31163+01 | 1486523300.31163 | pgbench_accounts_pkey |        112336896

 2017-02-08 04:08:21.683708+01 | 1486523301.68371 | pgbench_branches_pkey |            16384
 2017-02-08 04:08:21.683708+01 | 1486523301.68371 | pgbench_tellers_pkey  |            32768
 2017-02-08 04:08:21.683708+01 | 1486523301.68371 | pgbench_accounts_pkey |        112336896

 2017-02-08 04:08:23.06171+01 | 1486523303.06171 | pgbench_branches_pkey |            16384
 2017-02-08 04:08:23.06171+01 | 1486523303.06171 | pgbench_tellers_pkey  |            32768
 2017-02-08 04:08:23.06171+01 | 1486523303.06171 | pgbench_accounts_pkey |        112336896

 2017-02-08 04:08:24.430277+01 | 1486523304.43028 | pgbench_branches_pkey |            16384
 2017-02-08 04:08:24.430277+01 | 1486523304.43028 | pgbench_tellers_pkey  |            32768
 2017-02-08 04:08:24.430277+01 | 1486523304.43028 | pgbench_accounts_pkey |        112336896

 2017-02-08 04:08:25.80963+01 | 1486523305.80963 | pgbench_branches_pkey |            16384
 2017-02-08 04:08:25.80963+01 | 1486523305.80963 | pgbench_tellers_pkey  |            32768
 2017-02-08 04:08:25.80963+01 | 1486523305.80963 | pgbench_accounts_pkey |        112336896

 2017-02-08 04:08:27.206181+01 | 1486523307.20618 | pgbench_branches_pkey |            16384
 2017-02-08 04:08:27.206181+01 | 1486523307.20618 | pgbench_tellers_pkey  |            32768
 2017-02-08 04:08:27.206181+01 | 1486523307.20618 | pgbench_accounts_pkey |        112336896

 2017-02-08 04:08:28.578546+01 | 1486523308.57855 | pgbench_branches_pkey |            16384
 2017-02-08 04:08:28.578546+01 | 1486523308.57855 | pgbench_tellers_pkey  |            32768
 2017-02-08 04:08:28.578546+01 | 1486523308.57855 | pgbench_accounts_pkey |        112336896

 2017-02-08 04:08:29.945695+01 | 1486523309.94569 | pgbench_branches_pkey |            16384
 2017-02-08 04:08:29.945695+01 | 1486523309.94569 | pgbench_tellers_pkey  |            32768
 2017-02-08 04:08:29.945695+01 | 1486523309.94569 | pgbench_accounts_pkey |        112336896

 2017-02-08 04:08:31.254919+01 | 1486523311.25492 | pgbench_branches_pkey |            16384
 2017-02-08 04:08:31.254919+01 | 1486523311.25492 | pgbench_tellers_pkey  |            32768
 2017-02-08 04:08:31.254919+01 | 1486523311.25492 | pgbench_accounts_pkey |        112336896

 2017-02-08 04:08:32.600215+01 | 1486523312.60021 | pgbench_branches_pkey |            16384
 2017-02-08 04:08:32.600215+01 | 1486523312.60021 | pgbench_tellers_pkey  |            32768
 2017-02-08 04:08:32.600215+01 | 1486523312.60021 | pgbench_accounts_pkey |        112336896

 2017-02-08 04:08:33.952426+01 | 1486523313.95243 | pgbench_branches_pkey |            16384
 2017-02-08 04:08:33.952426+01 | 1486523313.95243 | pgbench_tellers_pkey  |            32768
 2017-02-08 04:08:33.952426+01 | 1486523313.95243 | pgbench_accounts_pkey |        112336896

 2017-02-08 04:08:35.368683+01 | 1486523315.36868 | pgbench_branches_pkey |            16384
 2017-02-08 04:08:35.368683+01 | 1486523315.36868 | pgbench_tellers_pkey  |            32768
 2017-02-08 04:08:35.368683+01 | 1486523315.36868 | pgbench_accounts_pkey |        112336896

 2017-02-08 04:08:36.694835+01 | 1486523316.69483 | pgbench_branches_pkey |            16384
 2017-02-08 04:08:36.694835+01 | 1486523316.69483 | pgbench_tellers_pkey  |            32768
 2017-02-08 04:08:36.694835+01 | 1486523316.69483 | pgbench_accounts_pkey |        112336896

 2017-02-08 04:08:37.984379+01 | 1486523317.98438 | pgbench_branches_pkey |            16384
 2017-02-08 04:08:37.984379+01 | 1486523317.98438 | pgbench_tellers_pkey  |            32768
 2017-02-08 04:08:37.984379+01 | 1486523317.98438 | pgbench_accounts_pkey |        112336896

 2017-02-08 04:08:39.307189+01 | 1486523319.30719 | pgbench_branches_pkey |            16384
 2017-02-08 04:08:39.307189+01 | 1486523319.30719 | pgbench_tellers_pkey  |            32768
 2017-02-08 04:08:39.307189+01 | 1486523319.30719 | pgbench_accounts_pkey |        112336896

 2017-02-08 04:08:40.658775+01 | 1486523320.65878 | pgbench_branches_pkey |            16384
 2017-02-08 04:08:40.658775+01 | 1486523320.65878 | pgbench_tellers_pkey  |            32768
 2017-02-08 04:08:40.658775+01 | 1486523320.65878 | pgbench_accounts_pkey |        112336896

 2017-02-08 04:08:42.020758+01 | 1486523322.02076 | pgbench_branches_pkey |            16384
 2017-02-08 04:08:42.020758+01 | 1486523322.02076 | pgbench_tellers_pkey  |            32768
 2017-02-08 04:08:42.020758+01 | 1486523322.02076 | pgbench_accounts_pkey |        112336896

 2017-02-08 04:08:43.423521+01 | 1486523323.42352 | pgbench_branches_pkey |            16384
 2017-02-08 04:08:43.423521+01 | 1486523323.42352 | pgbench_tellers_pkey  |            32768
 2017-02-08 04:08:43.423521+01 | 1486523323.42352 | pgbench_accounts_pkey |        112336896

 2017-02-08 04:08:44.810998+01 | 1486523324.811 | pgbench_branches_pkey |            16384
 2017-02-08 04:08:44.810998+01 | 1486523324.811 | pgbench_tellers_pkey  |            32768
 2017-02-08 04:08:44.810998+01 | 1486523324.811 | pgbench_accounts_pkey |        112336896

 2017-02-08 04:08:46.169839+01 | 1486523326.16984 | pgbench_branches_pkey |            16384
 2017-02-08 04:08:46.169839+01 | 1486523326.16984 | pgbench_tellers_pkey  |            32768
 2017-02-08 04:08:46.169839+01 | 1486523326.16984 | pgbench_accounts_pkey |        112336896

 2017-02-08 04:08:47.569887+01 | 1486523327.56989 | pgbench_branches_pkey |            16384
 2017-02-08 04:08:47.569887+01 | 1486523327.56989 | pgbench_tellers_pkey  |            32768
 2017-02-08 04:08:47.569887+01 | 1486523327.56989 | pgbench_accounts_pkey |        112336896

 2017-02-08 04:08:48.943042+01 | 1486523328.94304 | pgbench_branches_pkey |            16384
 2017-02-08 04:08:48.943042+01 | 1486523328.94304 | pgbench_tellers_pkey  |            32768
 2017-02-08 04:08:48.943042+01 | 1486523328.94304 | pgbench_accounts_pkey |        112336896

 2017-02-08 04:08:50.295769+01 | 1486523330.29577 | pgbench_branches_pkey |            16384
 2017-02-08 04:08:50.295769+01 | 1486523330.29577 | pgbench_tellers_pkey  |            32768
 2017-02-08 04:08:50.295769+01 | 1486523330.29577 | pgbench_accounts_pkey |        112336896

 2017-02-08 04:08:51.634778+01 | 1486523331.63478 | pgbench_branches_pkey |            16384
 2017-02-08 04:08:51.634778+01 | 1486523331.63478 | pgbench_tellers_pkey  |            32768
 2017-02-08 04:08:51.634778+01 | 1486523331.63478 | pgbench_accounts_pkey |        112336896

 2017-02-08 04:08:53.015898+01 | 1486523333.0159 | pgbench_branches_pkey |            16384
 2017-02-08 04:08:53.015898+01 | 1486523333.0159 | pgbench_tellers_pkey  |            32768
 2017-02-08 04:08:53.015898+01 | 1486523333.0159 | pgbench_accounts_pkey |        112336896

 2017-02-08 04:08:54.44756+01 | 1486523334.44756 | pgbench_branches_pkey |            16384
 2017-02-08 04:08:54.44756+01 | 1486523334.44756 | pgbench_tellers_pkey  |            32768
 2017-02-08 04:08:54.44756+01 | 1486523334.44756 | pgbench_accounts_pkey |        112336896

 2017-02-08 04:08:55.784638+01 | 1486523335.78464 | pgbench_branches_pkey |            16384
 2017-02-08 04:08:55.784638+01 | 1486523335.78464 | pgbench_tellers_pkey  |            32768
 2017-02-08 04:08:55.784638+01 | 1486523335.78464 | pgbench_accounts_pkey |        112336896

 2017-02-08 04:08:57.155272+01 | 1486523337.15527 | pgbench_branches_pkey |            16384
 2017-02-08 04:08:57.155272+01 | 1486523337.15527 | pgbench_tellers_pkey  |            32768
 2017-02-08 04:08:57.155272+01 | 1486523337.15527 | pgbench_accounts_pkey |        112336896

 2017-02-08 04:08:58.528439+01 | 1486523338.52844 | pgbench_branches_pkey |            16384
 2017-02-08 04:08:58.528439+01 | 1486523338.52844 | pgbench_tellers_pkey  |            32768
 2017-02-08 04:08:58.528439+01 | 1486523338.52844 | pgbench_accounts_pkey |        112336896

 2017-02-08 04:08:59.939852+01 | 1486523339.93985 | pgbench_branches_pkey |            16384
 2017-02-08 04:08:59.939852+01 | 1486523339.93985 | pgbench_tellers_pkey  |            32768
 2017-02-08 04:08:59.939852+01 | 1486523339.93985 | pgbench_accounts_pkey |        112336896

 2017-02-08 04:09:01.262993+01 | 1486523341.26299 | pgbench_branches_pkey |            16384
 2017-02-08 04:09:01.262993+01 | 1486523341.26299 | pgbench_tellers_pkey  |            32768
 2017-02-08 04:09:01.262993+01 | 1486523341.26299 | pgbench_accounts_pkey |        112336896

 2017-02-08 04:09:02.590542+01 | 1486523342.59054 | pgbench_branches_pkey |            16384
 2017-02-08 04:09:02.590542+01 | 1486523342.59054 | pgbench_tellers_pkey  |            32768
 2017-02-08 04:09:02.590542+01 | 1486523342.59054 | pgbench_accounts_pkey |        112336896

 2017-02-08 04:09:03.948463+01 | 1486523343.94846 | pgbench_branches_pkey |            16384
 2017-02-08 04:09:03.948463+01 | 1486523343.94846 | pgbench_tellers_pkey  |            32768
 2017-02-08 04:09:03.948463+01 | 1486523343.94846 | pgbench_accounts_pkey |        112336896

 2017-02-08 04:09:05.33051+01 | 1486523345.33051 | pgbench_branches_pkey |            16384
 2017-02-08 04:09:05.33051+01 | 1486523345.33051 | pgbench_tellers_pkey  |            32768
 2017-02-08 04:09:05.33051+01 | 1486523345.33051 | pgbench_accounts_pkey |        112336896

 2017-02-08 04:09:06.765283+01 | 1486523346.76528 | pgbench_branches_pkey |            16384
 2017-02-08 04:09:06.765283+01 | 1486523346.76528 | pgbench_tellers_pkey  |            32768
 2017-02-08 04:09:06.765283+01 | 1486523346.76528 | pgbench_accounts_pkey |        112336896

 2017-02-08 04:09:08.084574+01 | 1486523348.08457 | pgbench_branches_pkey |            16384
 2017-02-08 04:09:08.084574+01 | 1486523348.08457 | pgbench_tellers_pkey  |            32768
 2017-02-08 04:09:08.084574+01 | 1486523348.08457 | pgbench_accounts_pkey |        112336896

 2017-02-08 04:09:09.446803+01 | 1486523349.4468 | pgbench_branches_pkey |            16384
 2017-02-08 04:09:09.446803+01 | 1486523349.4468 | pgbench_tellers_pkey  |            32768
 2017-02-08 04:09:09.446803+01 | 1486523349.4468 | pgbench_accounts_pkey |        112336896

 2017-02-08 04:09:10.842644+01 | 1486523350.84264 | pgbench_branches_pkey |            16384
 2017-02-08 04:09:10.842644+01 | 1486523350.84264 | pgbench_tellers_pkey  |            32768
 2017-02-08 04:09:10.842644+01 | 1486523350.84264 | pgbench_accounts_pkey |        112336896

 2017-02-08 04:09:12.221918+01 | 1486523352.22192 | pgbench_branches_pkey |            16384
 2017-02-08 04:09:12.221918+01 | 1486523352.22192 | pgbench_tellers_pkey  |            32768
 2017-02-08 04:09:12.221918+01 | 1486523352.22192 | pgbench_accounts_pkey |        112336896

 2017-02-08 04:09:13.583767+01 | 1486523353.58377 | pgbench_branches_pkey |            16384
 2017-02-08 04:09:13.583767+01 | 1486523353.58377 | pgbench_tellers_pkey  |            32768
 2017-02-08 04:09:13.583767+01 | 1486523353.58377 | pgbench_accounts_pkey |        112336896

 2017-02-08 04:09:14.924909+01 | 1486523354.92491 | pgbench_branches_pkey |            16384
 2017-02-08 04:09:14.924909+01 | 1486523354.92491 | pgbench_tellers_pkey  |            32768
 2017-02-08 04:09:14.924909+01 | 1486523354.92491 | pgbench_accounts_pkey |        112336896

 2017-02-08 04:09:16.328741+01 | 1486523356.32874 | pgbench_branches_pkey |            16384
 2017-02-08 04:09:16.328741+01 | 1486523356.32874 | pgbench_tellers_pkey  |            32768
 2017-02-08 04:09:16.328741+01 | 1486523356.32874 | pgbench_accounts_pkey |        112336896

 2017-02-08 04:09:17.729693+01 | 1486523357.72969 | pgbench_branches_pkey |            16384
 2017-02-08 04:09:17.729693+01 | 1486523357.72969 | pgbench_tellers_pkey  |            32768
 2017-02-08 04:09:17.729693+01 | 1486523357.72969 | pgbench_accounts_pkey |        112336896

 2017-02-08 04:09:19.113381+01 | 1486523359.11338 | pgbench_branches_pkey |            16384
 2017-02-08 04:09:19.113381+01 | 1486523359.11338 | pgbench_tellers_pkey  |            32768
 2017-02-08 04:09:19.113381+01 | 1486523359.11338 | pgbench_accounts_pkey |        112336896

 2017-02-08 04:09:20.489309+01 | 1486523360.48931 | pgbench_branches_pkey |            16384
 2017-02-08 04:09:20.489309+01 | 1486523360.48931 | pgbench_tellers_pkey  |            32768
 2017-02-08 04:09:20.489309+01 | 1486523360.48931 | pgbench_accounts_pkey |        112336896

 2017-02-08 04:09:21.92126+01 | 1486523361.92126 | pgbench_branches_pkey |            16384
 2017-02-08 04:09:21.92126+01 | 1486523361.92126 | pgbench_tellers_pkey  |            32768
 2017-02-08 04:09:21.92126+01 | 1486523361.92126 | pgbench_accounts_pkey |        112336896

 2017-02-08 04:09:23.326825+01 | 1486523363.32682 | pgbench_branches_pkey |            16384
 2017-02-08 04:09:23.326825+01 | 1486523363.32682 | pgbench_tellers_pkey  |            32768
 2017-02-08 04:09:23.326825+01 | 1486523363.32682 | pgbench_accounts_pkey |        112336896

 2017-02-08 04:09:24.709111+01 | 1486523364.70911 | pgbench_branches_pkey |            16384
 2017-02-08 04:09:24.709111+01 | 1486523364.70911 | pgbench_tellers_pkey  |            32768
 2017-02-08 04:09:24.709111+01 | 1486523364.70911 | pgbench_accounts_pkey |        112336896

 2017-02-08 04:09:26.057277+01 | 1486523366.05728 | pgbench_branches_pkey |            16384
 2017-02-08 04:09:26.057277+01 | 1486523366.05728 | pgbench_tellers_pkey  |            32768
 2017-02-08 04:09:26.057277+01 | 1486523366.05728 | pgbench_accounts_pkey |        112336896

 2017-02-08 04:09:27.422102+01 | 1486523367.4221 | pgbench_branches_pkey |            16384
 2017-02-08 04:09:27.422102+01 | 1486523367.4221 | pgbench_tellers_pkey  |            32768
 2017-02-08 04:09:27.422102+01 | 1486523367.4221 | pgbench_accounts_pkey |        112336896

 2017-02-08 04:09:28.796906+01 | 1486523368.79691 | pgbench_branches_pkey |            16384
 2017-02-08 04:09:28.796906+01 | 1486523368.79691 | pgbench_tellers_pkey  |            32768
 2017-02-08 04:09:28.796906+01 | 1486523368.79691 | pgbench_accounts_pkey |        112336896

 2017-02-08 04:09:30.126069+01 | 1486523370.12607 | pgbench_branches_pkey |            16384
 2017-02-08 04:09:30.126069+01 | 1486523370.12607 | pgbench_tellers_pkey  |            32768
 2017-02-08 04:09:30.126069+01 | 1486523370.12607 | pgbench_accounts_pkey |        112336896

 2017-02-08 04:09:31.500556+01 | 1486523371.50056 | pgbench_branches_pkey |            16384
 2017-02-08 04:09:31.500556+01 | 1486523371.50056 | pgbench_tellers_pkey  |            32768
 2017-02-08 04:09:31.500556+01 | 1486523371.50056 | pgbench_accounts_pkey |        112336896

 2017-02-08 04:09:32.922184+01 | 1486523372.92218 | pgbench_branches_pkey |            16384
 2017-02-08 04:09:32.922184+01 | 1486523372.92218 | pgbench_tellers_pkey  |            32768
 2017-02-08 04:09:32.922184+01 | 1486523372.92218 | pgbench_accounts_pkey |        112336896

 2017-02-08 04:09:34.313805+01 | 1486523374.31381 | pgbench_branches_pkey |            16384
 2017-02-08 04:09:34.313805+01 | 1486523374.31381 | pgbench_tellers_pkey  |            32768
 2017-02-08 04:09:34.313805+01 | 1486523374.31381 | pgbench_accounts_pkey |        112336896

 2017-02-08 04:09:35.683464+01 | 1486523375.68346 | pgbench_branches_pkey |            16384
 2017-02-08 04:09:35.683464+01 | 1486523375.68346 | pgbench_tellers_pkey  |            32768
 2017-02-08 04:09:35.683464+01 | 1486523375.68346 | pgbench_accounts_pkey |        112336896

 2017-02-08 04:09:37.037177+01 | 1486523377.03718 | pgbench_branches_pkey |            16384
 2017-02-08 04:09:37.037177+01 | 1486523377.03718 | pgbench_tellers_pkey  |            32768
 2017-02-08 04:09:37.037177+01 | 1486523377.03718 | pgbench_accounts_pkey |        112336896

 2017-02-08 04:09:38.401192+01 | 1486523378.40119 | pgbench_branches_pkey |            16384
 2017-02-08 04:09:38.401192+01 | 1486523378.40119 | pgbench_tellers_pkey  |            32768
 2017-02-08 04:09:38.401192+01 | 1486523378.40119 | pgbench_accounts_pkey |        112336896

 2017-02-08 04:09:39.780986+01 | 1486523379.78099 | pgbench_branches_pkey |            16384
 2017-02-08 04:09:39.780986+01 | 1486523379.78099 | pgbench_tellers_pkey  |            32768
 2017-02-08 04:09:39.780986+01 | 1486523379.78099 | pgbench_accounts_pkey |        112336896

 2017-02-08 04:09:41.138658+01 | 1486523381.13866 | pgbench_branches_pkey |            16384
 2017-02-08 04:09:41.138658+01 | 1486523381.13866 | pgbench_tellers_pkey  |            32768
 2017-02-08 04:09:41.138658+01 | 1486523381.13866 | pgbench_accounts_pkey |        112336896

 2017-02-08 04:09:42.514759+01 | 1486523382.51476 | pgbench_branches_pkey |            16384
 2017-02-08 04:09:42.514759+01 | 1486523382.51476 | pgbench_tellers_pkey  |            32768
 2017-02-08 04:09:42.514759+01 | 1486523382.51476 | pgbench_accounts_pkey |        112336896

 2017-02-08 04:09:43.885427+01 | 1486523383.88543 | pgbench_branches_pkey |            16384
 2017-02-08 04:09:43.885427+01 | 1486523383.88543 | pgbench_tellers_pkey  |            32768
 2017-02-08 04:09:43.885427+01 | 1486523383.88543 | pgbench_accounts_pkey |        112336896

 2017-02-08 04:09:45.247536+01 | 1486523385.24754 | pgbench_branches_pkey |            16384
 2017-02-08 04:09:45.247536+01 | 1486523385.24754 | pgbench_tellers_pkey  |            32768
 2017-02-08 04:09:45.247536+01 | 1486523385.24754 | pgbench_accounts_pkey |        112336896

 2017-02-08 04:09:46.535903+01 | 1486523386.5359 | pgbench_branches_pkey |            16384
 2017-02-08 04:09:46.535903+01 | 1486523386.5359 | pgbench_tellers_pkey  |            32768
 2017-02-08 04:09:46.535903+01 | 1486523386.5359 | pgbench_accounts_pkey |        112336896

 2017-02-08 04:09:47.786841+01 | 1486523387.78684 | pgbench_branches_pkey |            16384
 2017-02-08 04:09:47.786841+01 | 1486523387.78684 | pgbench_tellers_pkey  |            32768
 2017-02-08 04:09:47.786841+01 | 1486523387.78684 | pgbench_accounts_pkey |        112336896

 2017-02-08 04:09:49.072246+01 | 1486523389.07225 | pgbench_branches_pkey |            16384
 2017-02-08 04:09:49.072246+01 | 1486523389.07225 | pgbench_tellers_pkey  |            32768
 2017-02-08 04:09:49.072246+01 | 1486523389.07225 | pgbench_accounts_pkey |        112336896

 2017-02-08 04:09:50.470465+01 | 1486523390.47046 | pgbench_branches_pkey |            16384
 2017-02-08 04:09:50.470465+01 | 1486523390.47046 | pgbench_tellers_pkey  |            32768
 2017-02-08 04:09:50.470465+01 | 1486523390.47046 | pgbench_accounts_pkey |        112336896

 2017-02-08 04:09:51.889031+01 | 1486523391.88903 | pgbench_branches_pkey |            16384
 2017-02-08 04:09:51.889031+01 | 1486523391.88903 | pgbench_tellers_pkey  |            32768
 2017-02-08 04:09:51.889031+01 | 1486523391.88903 | pgbench_accounts_pkey |        112336896

 2017-02-08 04:09:53.266897+01 | 1486523393.2669 | pgbench_branches_pkey |            16384
 2017-02-08 04:09:53.266897+01 | 1486523393.2669 | pgbench_tellers_pkey  |            32768
 2017-02-08 04:09:53.266897+01 | 1486523393.2669 | pgbench_accounts_pkey |        112336896

 2017-02-08 04:09:54.630097+01 | 1486523394.6301 | pgbench_branches_pkey |            16384
 2017-02-08 04:09:54.630097+01 | 1486523394.6301 | pgbench_tellers_pkey  |            32768
 2017-02-08 04:09:54.630097+01 | 1486523394.6301 | pgbench_accounts_pkey |        112336896

 2017-02-08 04:09:56.057761+01 | 1486523396.05776 | pgbench_branches_pkey |            16384
 2017-02-08 04:09:56.057761+01 | 1486523396.05776 | pgbench_tellers_pkey  |            32768
 2017-02-08 04:09:56.057761+01 | 1486523396.05776 | pgbench_accounts_pkey |        112336896

 2017-02-08 04:09:57.377958+01 | 1486523397.37796 | pgbench_branches_pkey |            16384
 2017-02-08 04:09:57.377958+01 | 1486523397.37796 | pgbench_tellers_pkey  |            32768
 2017-02-08 04:09:57.377958+01 | 1486523397.37796 | pgbench_accounts_pkey |        112336896

 2017-02-08 04:09:58.789646+01 | 1486523398.78965 | pgbench_branches_pkey |            16384
 2017-02-08 04:09:58.789646+01 | 1486523398.78965 | pgbench_tellers_pkey  |            32768
 2017-02-08 04:09:58.789646+01 | 1486523398.78965 | pgbench_accounts_pkey |        112336896

 2017-02-08 04:10:00.13102+01 | 1486523400.13102 | pgbench_branches_pkey |            16384
 2017-02-08 04:10:00.13102+01 | 1486523400.13102 | pgbench_tellers_pkey  |            32768
 2017-02-08 04:10:00.13102+01 | 1486523400.13102 | pgbench_accounts_pkey |        112336896

 2017-02-08 04:10:01.512504+01 | 1486523401.5125 | pgbench_branches_pkey |            16384
 2017-02-08 04:10:01.512504+01 | 1486523401.5125 | pgbench_tellers_pkey  |            32768
 2017-02-08 04:10:01.512504+01 | 1486523401.5125 | pgbench_accounts_pkey |        112336896

 2017-02-08 04:10:02.890542+01 | 1486523402.89054 | pgbench_branches_pkey |            16384
 2017-02-08 04:10:02.890542+01 | 1486523402.89054 | pgbench_tellers_pkey  |            32768
 2017-02-08 04:10:02.890542+01 | 1486523402.89054 | pgbench_accounts_pkey |        112336896

 2017-02-08 04:10:04.26313+01 | 1486523404.26313 | pgbench_branches_pkey |            16384
 2017-02-08 04:10:04.26313+01 | 1486523404.26313 | pgbench_tellers_pkey  |            32768
 2017-02-08 04:10:04.26313+01 | 1486523404.26313 | pgbench_accounts_pkey |        112336896

 2017-02-08 04:10:05.628202+01 | 1486523405.6282 | pgbench_branches_pkey |            16384
 2017-02-08 04:10:05.628202+01 | 1486523405.6282 | pgbench_tellers_pkey  |            32768
 2017-02-08 04:10:05.628202+01 | 1486523405.6282 | pgbench_accounts_pkey |        112336896

 2017-02-08 04:10:07.008961+01 | 1486523407.00896 | pgbench_branches_pkey |            16384
 2017-02-08 04:10:07.008961+01 | 1486523407.00896 | pgbench_tellers_pkey  |            32768
 2017-02-08 04:10:07.008961+01 | 1486523407.00896 | pgbench_accounts_pkey |        112336896

 2017-02-08 04:10:08.379794+01 | 1486523408.37979 | pgbench_branches_pkey |            16384
 2017-02-08 04:10:08.379794+01 | 1486523408.37979 | pgbench_tellers_pkey  |            32768
 2017-02-08 04:10:08.379794+01 | 1486523408.37979 | pgbench_accounts_pkey |        112336896

 2017-02-08 04:10:09.663837+01 | 1486523409.66384 | pgbench_branches_pkey |            16384
 2017-02-08 04:10:09.663837+01 | 1486523409.66384 | pgbench_tellers_pkey  |            32768
 2017-02-08 04:10:09.663837+01 | 1486523409.66384 | pgbench_accounts_pkey |        112336896

 2017-02-08 04:10:10.991145+01 | 1486523410.99114 | pgbench_branches_pkey |            16384
 2017-02-08 04:10:10.991145+01 | 1486523410.99114 | pgbench_tellers_pkey  |            32768
 2017-02-08 04:10:10.991145+01 | 1486523410.99114 | pgbench_accounts_pkey |        112336896

 2017-02-08 04:10:12.401991+01 | 1486523412.40199 | pgbench_branches_pkey |            16384
 2017-02-08 04:10:12.401991+01 | 1486523412.40199 | pgbench_tellers_pkey  |            32768
 2017-02-08 04:10:12.401991+01 | 1486523412.40199 | pgbench_accounts_pkey |        112336896

 2017-02-08 04:10:13.820446+01 | 1486523413.82045 | pgbench_branches_pkey |            16384
 2017-02-08 04:10:13.820446+01 | 1486523413.82045 | pgbench_tellers_pkey  |            32768
 2017-02-08 04:10:13.820446+01 | 1486523413.82045 | pgbench_accounts_pkey |        112336896

 2017-02-08 04:10:15.198184+01 | 1486523415.19818 | pgbench_branches_pkey |            16384
 2017-02-08 04:10:15.198184+01 | 1486523415.19818 | pgbench_tellers_pkey  |            32768
 2017-02-08 04:10:15.198184+01 | 1486523415.19818 | pgbench_accounts_pkey |        112336896

 2017-02-08 04:10:16.574098+01 | 1486523416.5741 | pgbench_branches_pkey |            16384
 2017-02-08 04:10:16.574098+01 | 1486523416.5741 | pgbench_tellers_pkey  |            32768
 2017-02-08 04:10:16.574098+01 | 1486523416.5741 | pgbench_accounts_pkey |        112336896

 2017-02-08 04:10:17.93345+01 | 1486523417.93345 | pgbench_branches_pkey |            16384
 2017-02-08 04:10:17.93345+01 | 1486523417.93345 | pgbench_tellers_pkey  |            32768
 2017-02-08 04:10:17.93345+01 | 1486523417.93345 | pgbench_accounts_pkey |        112336896

 2017-02-08 04:10:19.278431+01 | 1486523419.27843 | pgbench_branches_pkey |            16384
 2017-02-08 04:10:19.278431+01 | 1486523419.27843 | pgbench_tellers_pkey  |            32768
 2017-02-08 04:10:19.278431+01 | 1486523419.27843 | pgbench_accounts_pkey |        112336896

 2017-02-08 04:10:20.639072+01 | 1486523420.63907 | pgbench_branches_pkey |            16384
 2017-02-08 04:10:20.639072+01 | 1486523420.63907 | pgbench_tellers_pkey  |            32768
 2017-02-08 04:10:20.639072+01 | 1486523420.63907 | pgbench_accounts_pkey |        112336896

 2017-02-08 04:10:22.018483+01 | 1486523422.01848 | pgbench_branches_pkey |            16384
 2017-02-08 04:10:22.018483+01 | 1486523422.01848 | pgbench_tellers_pkey  |            32768
 2017-02-08 04:10:22.018483+01 | 1486523422.01848 | pgbench_accounts_pkey |        112336896

 2017-02-08 04:10:23.328936+01 | 1486523423.32894 | pgbench_branches_pkey |            16384
 2017-02-08 04:10:23.328936+01 | 1486523423.32894 | pgbench_tellers_pkey  |            32768
 2017-02-08 04:10:23.328936+01 | 1486523423.32894 | pgbench_accounts_pkey |        112336896

 2017-02-08 04:10:24.578665+01 | 1486523424.57867 | pgbench_branches_pkey |            16384
 2017-02-08 04:10:24.578665+01 | 1486523424.57867 | pgbench_tellers_pkey  |            32768
 2017-02-08 04:10:24.578665+01 | 1486523424.57867 | pgbench_accounts_pkey |        112336896

 2017-02-08 04:10:25.931006+01 | 1486523425.93101 | pgbench_branches_pkey |            16384
 2017-02-08 04:10:25.931006+01 | 1486523425.93101 | pgbench_tellers_pkey  |            32768
 2017-02-08 04:10:25.931006+01 | 1486523425.93101 | pgbench_accounts_pkey |        112336896

 2017-02-08 04:10:27.284192+01 | 1486523427.28419 | pgbench_branches_pkey |            16384
 2017-02-08 04:10:27.284192+01 | 1486523427.28419 | pgbench_tellers_pkey  |            32768
 2017-02-08 04:10:27.284192+01 | 1486523427.28419 | pgbench_accounts_pkey |        112336896

 2017-02-08 04:10:28.651042+01 | 1486523428.65104 | pgbench_branches_pkey |            16384
 2017-02-08 04:10:28.651042+01 | 1486523428.65104 | pgbench_tellers_pkey  |            32768
 2017-02-08 04:10:28.651042+01 | 1486523428.65104 | pgbench_accounts_pkey |        112336896

 2017-02-08 04:10:30.024772+01 | 1486523430.02477 | pgbench_branches_pkey |            16384
 2017-02-08 04:10:30.024772+01 | 1486523430.02477 | pgbench_tellers_pkey  |            32768
 2017-02-08 04:10:30.024772+01 | 1486523430.02477 | pgbench_accounts_pkey |        112336896

 2017-02-08 04:10:31.404208+01 | 1486523431.40421 | pgbench_branches_pkey |            16384
 2017-02-08 04:10:31.404208+01 | 1486523431.40421 | pgbench_tellers_pkey  |            32768
 2017-02-08 04:10:31.404208+01 | 1486523431.40421 | pgbench_accounts_pkey |        112336896

 2017-02-08 04:10:32.768559+01 | 1486523432.76856 | pgbench_branches_pkey |            16384
 2017-02-08 04:10:32.768559+01 | 1486523432.76856 | pgbench_tellers_pkey  |            32768
 2017-02-08 04:10:32.768559+01 | 1486523432.76856 | pgbench_accounts_pkey |        112336896

 2017-02-08 04:10:34.136705+01 | 1486523434.1367 | pgbench_branches_pkey |            16384
 2017-02-08 04:10:34.136705+01 | 1486523434.1367 | pgbench_tellers_pkey  |            32768
 2017-02-08 04:10:34.136705+01 | 1486523434.1367 | pgbench_accounts_pkey |        112336896

 2017-02-08 04:10:35.522526+01 | 1486523435.52253 | pgbench_branches_pkey |            16384
 2017-02-08 04:10:35.522526+01 | 1486523435.52253 | pgbench_tellers_pkey  |            32768
 2017-02-08 04:10:35.522526+01 | 1486523435.52253 | pgbench_accounts_pkey |        112336896

 2017-02-08 04:10:36.890586+01 | 1486523436.89059 | pgbench_branches_pkey |            16384
 2017-02-08 04:10:36.890586+01 | 1486523436.89059 | pgbench_tellers_pkey  |            32768
 2017-02-08 04:10:36.890586+01 | 1486523436.89059 | pgbench_accounts_pkey |        112336896

 2017-02-08 04:10:38.202947+01 | 1486523438.20295 | pgbench_branches_pkey |            16384
 2017-02-08 04:10:38.202947+01 | 1486523438.20295 | pgbench_tellers_pkey  |            32768
 2017-02-08 04:10:38.202947+01 | 1486523438.20295 | pgbench_accounts_pkey |        112336896

 2017-02-08 04:10:39.526736+01 | 1486523439.52674 | pgbench_branches_pkey |            16384
 2017-02-08 04:10:39.526736+01 | 1486523439.52674 | pgbench_tellers_pkey  |            32768
 2017-02-08 04:10:39.526736+01 | 1486523439.52674 | pgbench_accounts_pkey |        112336896

 2017-02-08 04:10:40.875919+01 | 1486523440.87592 | pgbench_branches_pkey |            16384
 2017-02-08 04:10:40.875919+01 | 1486523440.87592 | pgbench_tellers_pkey  |            32768
 2017-02-08 04:10:40.875919+01 | 1486523440.87592 | pgbench_accounts_pkey |        112336896

 2017-02-08 04:10:42.239343+01 | 1486523442.23934 | pgbench_branches_pkey |            16384
 2017-02-08 04:10:42.239343+01 | 1486523442.23934 | pgbench_tellers_pkey  |            32768
 2017-02-08 04:10:42.239343+01 | 1486523442.23934 | pgbench_accounts_pkey |        112336896

 2017-02-08 04:10:43.576451+01 | 1486523443.57645 | pgbench_branches_pkey |            16384
 2017-02-08 04:10:43.576451+01 | 1486523443.57645 | pgbench_tellers_pkey  |            32768
 2017-02-08 04:10:43.576451+01 | 1486523443.57645 | pgbench_accounts_pkey |        112336896

 2017-02-08 04:10:44.941988+01 | 1486523444.94199 | pgbench_branches_pkey |            16384
 2017-02-08 04:10:44.941988+01 | 1486523444.94199 | pgbench_tellers_pkey  |            32768
 2017-02-08 04:10:44.941988+01 | 1486523444.94199 | pgbench_accounts_pkey |        112336896

 2017-02-08 04:10:46.347729+01 | 1486523446.34773 | pgbench_branches_pkey |            16384
 2017-02-08 04:10:46.347729+01 | 1486523446.34773 | pgbench_tellers_pkey  |            32768
 2017-02-08 04:10:46.347729+01 | 1486523446.34773 | pgbench_accounts_pkey |        112336896

 2017-02-08 04:10:47.749229+01 | 1486523447.74923 | pgbench_branches_pkey |            16384
 2017-02-08 04:10:47.749229+01 | 1486523447.74923 | pgbench_tellers_pkey  |            32768
 2017-02-08 04:10:47.749229+01 | 1486523447.74923 | pgbench_accounts_pkey |        112336896

 2017-02-08 04:10:49.127565+01 | 1486523449.12756 | pgbench_branches_pkey |            16384
 2017-02-08 04:10:49.127565+01 | 1486523449.12756 | pgbench_tellers_pkey  |            32768
 2017-02-08 04:10:49.127565+01 | 1486523449.12756 | pgbench_accounts_pkey |        112336896

 2017-02-08 04:10:50.5147+01 | 1486523450.5147 | pgbench_branches_pkey |            16384
 2017-02-08 04:10:50.5147+01 | 1486523450.5147 | pgbench_tellers_pkey  |            32768
 2017-02-08 04:10:50.5147+01 | 1486523450.5147 | pgbench_accounts_pkey |        112336896

 2017-02-08 04:10:51.842514+01 | 1486523451.84251 | pgbench_branches_pkey |            16384
 2017-02-08 04:10:51.842514+01 | 1486523451.84251 | pgbench_tellers_pkey  |            32768
 2017-02-08 04:10:51.842514+01 | 1486523451.84251 | pgbench_accounts_pkey |        112336896

 2017-02-08 04:10:53.248047+01 | 1486523453.24805 | pgbench_branches_pkey |            16384
 2017-02-08 04:10:53.248047+01 | 1486523453.24805 | pgbench_tellers_pkey  |            32768
 2017-02-08 04:10:53.248047+01 | 1486523453.24805 | pgbench_accounts_pkey |        112336896

 2017-02-08 04:10:54.550064+01 | 1486523454.55006 | pgbench_branches_pkey |            16384
 2017-02-08 04:10:54.550064+01 | 1486523454.55006 | pgbench_tellers_pkey  |            32768
 2017-02-08 04:10:54.550064+01 | 1486523454.55006 | pgbench_accounts_pkey |        112336896

 2017-02-08 04:10:55.912938+01 | 1486523455.91294 | pgbench_branches_pkey |            16384
 2017-02-08 04:10:55.912938+01 | 1486523455.91294 | pgbench_tellers_pkey  |            32768
 2017-02-08 04:10:55.912938+01 | 1486523455.91294 | pgbench_accounts_pkey |        112336896

 2017-02-08 04:10:57.307279+01 | 1486523457.30728 | pgbench_branches_pkey |            16384
 2017-02-08 04:10:57.307279+01 | 1486523457.30728 | pgbench_tellers_pkey  |            32768
 2017-02-08 04:10:57.307279+01 | 1486523457.30728 | pgbench_accounts_pkey |        112336896

 2017-02-08 04:10:58.705472+01 | 1486523458.70547 | pgbench_branches_pkey |            16384
 2017-02-08 04:10:58.705472+01 | 1486523458.70547 | pgbench_tellers_pkey  |            32768
 2017-02-08 04:10:58.705472+01 | 1486523458.70547 | pgbench_accounts_pkey |        112336896

 2017-02-08 04:10:59.988613+01 | 1486523459.98861 | pgbench_branches_pkey |            16384
 2017-02-08 04:10:59.988613+01 | 1486523459.98861 | pgbench_tellers_pkey  |            32768
 2017-02-08 04:10:59.988613+01 | 1486523459.98861 | pgbench_accounts_pkey |        112336896

 2017-02-08 04:11:01.365298+01 | 1486523461.3653 | pgbench_branches_pkey |            16384
 2017-02-08 04:11:01.365298+01 | 1486523461.3653 | pgbench_tellers_pkey  |            32768
 2017-02-08 04:11:01.365298+01 | 1486523461.3653 | pgbench_accounts_pkey |        112336896

 2017-02-08 04:11:02.725756+01 | 1486523462.72576 | pgbench_branches_pkey |            16384
 2017-02-08 04:11:02.725756+01 | 1486523462.72576 | pgbench_tellers_pkey  |            32768
 2017-02-08 04:11:02.725756+01 | 1486523462.72576 | pgbench_accounts_pkey |        112336896

 2017-02-08 04:11:04.012965+01 | 1486523464.01296 | pgbench_branches_pkey |            16384
 2017-02-08 04:11:04.012965+01 | 1486523464.01296 | pgbench_tellers_pkey  |            32768
 2017-02-08 04:11:04.012965+01 | 1486523464.01296 | pgbench_accounts_pkey |        112336896

 2017-02-08 04:11:05.397884+01 | 1486523465.39788 | pgbench_branches_pkey |            16384
 2017-02-08 04:11:05.397884+01 | 1486523465.39788 | pgbench_tellers_pkey  |            32768
 2017-02-08 04:11:05.397884+01 | 1486523465.39788 | pgbench_accounts_pkey |        112336896

