 2017-02-09 08:43:28.047755+01 | 1486626208.04776 | pgbench_branches_pkey |            16384
 2017-02-09 08:43:28.047755+01 | 1486626208.04776 | pgbench_tellers_pkey  |            73728
 2017-02-09 08:43:28.047755+01 | 1486626208.04776 | pgbench_accounts_pkey |        112336896

 2017-02-09 08:43:29.110892+01 | 1486626209.11089 | pgbench_branches_pkey |            16384
 2017-02-09 08:43:29.110892+01 | 1486626209.11089 | pgbench_tellers_pkey  |            73728
 2017-02-09 08:43:29.110892+01 | 1486626209.11089 | pgbench_accounts_pkey |        112336896

 2017-02-09 08:43:30.169451+01 | 1486626210.16945 | pgbench_branches_pkey |            16384
 2017-02-09 08:43:30.169451+01 | 1486626210.16945 | pgbench_tellers_pkey  |            73728
 2017-02-09 08:43:30.169451+01 | 1486626210.16945 | pgbench_accounts_pkey |        112336896

 2017-02-09 08:43:31.227848+01 | 1486626211.22785 | pgbench_branches_pkey |            16384
 2017-02-09 08:43:31.227848+01 | 1486626211.22785 | pgbench_tellers_pkey  |            73728
 2017-02-09 08:43:31.227848+01 | 1486626211.22785 | pgbench_accounts_pkey |        112336896

 2017-02-09 08:43:32.287457+01 | 1486626212.28746 | pgbench_branches_pkey |            16384
 2017-02-09 08:43:32.287457+01 | 1486626212.28746 | pgbench_tellers_pkey  |            73728
 2017-02-09 08:43:32.287457+01 | 1486626212.28746 | pgbench_accounts_pkey |        112336896

 2017-02-09 08:43:33.346254+01 | 1486626213.34625 | pgbench_branches_pkey |            16384
 2017-02-09 08:43:33.346254+01 | 1486626213.34625 | pgbench_tellers_pkey  |            73728
 2017-02-09 08:43:33.346254+01 | 1486626213.34625 | pgbench_accounts_pkey |        112336896

 2017-02-09 08:43:34.406332+01 | 1486626214.40633 | pgbench_branches_pkey |            16384
 2017-02-09 08:43:34.406332+01 | 1486626214.40633 | pgbench_tellers_pkey  |            73728
 2017-02-09 08:43:34.406332+01 | 1486626214.40633 | pgbench_accounts_pkey |        112336896

 2017-02-09 08:43:35.469516+01 | 1486626215.46952 | pgbench_branches_pkey |            16384
 2017-02-09 08:43:35.469516+01 | 1486626215.46952 | pgbench_tellers_pkey  |            73728
 2017-02-09 08:43:35.469516+01 | 1486626215.46952 | pgbench_accounts_pkey |        112336896

 2017-02-09 08:43:36.532652+01 | 1486626216.53265 | pgbench_branches_pkey |            16384
 2017-02-09 08:43:36.532652+01 | 1486626216.53265 | pgbench_tellers_pkey  |            73728
 2017-02-09 08:43:36.532652+01 | 1486626216.53265 | pgbench_accounts_pkey |        112336896

 2017-02-09 08:43:37.592775+01 | 1486626217.59278 | pgbench_branches_pkey |            16384
 2017-02-09 08:43:37.592775+01 | 1486626217.59278 | pgbench_tellers_pkey  |            73728
 2017-02-09 08:43:37.592775+01 | 1486626217.59278 | pgbench_accounts_pkey |        112336896

 2017-02-09 08:43:38.653106+01 | 1486626218.65311 | pgbench_branches_pkey |            16384
 2017-02-09 08:43:38.653106+01 | 1486626218.65311 | pgbench_tellers_pkey  |            73728
 2017-02-09 08:43:38.653106+01 | 1486626218.65311 | pgbench_accounts_pkey |        112336896

 2017-02-09 08:43:39.712109+01 | 1486626219.71211 | pgbench_branches_pkey |            16384
 2017-02-09 08:43:39.712109+01 | 1486626219.71211 | pgbench_tellers_pkey  |            73728
 2017-02-09 08:43:39.712109+01 | 1486626219.71211 | pgbench_accounts_pkey |        112336896

 2017-02-09 08:43:40.777147+01 | 1486626220.77715 | pgbench_branches_pkey |            16384
 2017-02-09 08:43:40.777147+01 | 1486626220.77715 | pgbench_tellers_pkey  |            73728
 2017-02-09 08:43:40.777147+01 | 1486626220.77715 | pgbench_accounts_pkey |        112336896

 2017-02-09 08:43:41.84247+01 | 1486626221.84247 | pgbench_branches_pkey |            16384
 2017-02-09 08:43:41.84247+01 | 1486626221.84247 | pgbench_tellers_pkey  |            73728
 2017-02-09 08:43:41.84247+01 | 1486626221.84247 | pgbench_accounts_pkey |        112336896

 2017-02-09 08:43:42.903215+01 | 1486626222.90321 | pgbench_branches_pkey |            16384
 2017-02-09 08:43:42.903215+01 | 1486626222.90321 | pgbench_tellers_pkey  |            73728
 2017-02-09 08:43:42.903215+01 | 1486626222.90321 | pgbench_accounts_pkey |        112336896

 2017-02-09 08:43:43.966752+01 | 1486626223.96675 | pgbench_branches_pkey |            16384
 2017-02-09 08:43:43.966752+01 | 1486626223.96675 | pgbench_tellers_pkey  |            73728
 2017-02-09 08:43:43.966752+01 | 1486626223.96675 | pgbench_accounts_pkey |        112336896

 2017-02-09 08:43:45.023909+01 | 1486626225.02391 | pgbench_branches_pkey |            16384
 2017-02-09 08:43:45.023909+01 | 1486626225.02391 | pgbench_tellers_pkey  |            73728
 2017-02-09 08:43:45.023909+01 | 1486626225.02391 | pgbench_accounts_pkey |        112336896

 2017-02-09 08:43:46.08284+01 | 1486626226.08284 | pgbench_branches_pkey |            16384
 2017-02-09 08:43:46.08284+01 | 1486626226.08284 | pgbench_tellers_pkey  |            73728
 2017-02-09 08:43:46.08284+01 | 1486626226.08284 | pgbench_accounts_pkey |        112336896

 2017-02-09 08:43:47.135853+01 | 1486626227.13585 | pgbench_branches_pkey |            16384
 2017-02-09 08:43:47.135853+01 | 1486626227.13585 | pgbench_tellers_pkey  |            73728
 2017-02-09 08:43:47.135853+01 | 1486626227.13585 | pgbench_accounts_pkey |        112336896

 2017-02-09 08:43:48.193665+01 | 1486626228.19367 | pgbench_branches_pkey |            16384
 2017-02-09 08:43:48.193665+01 | 1486626228.19367 | pgbench_tellers_pkey  |            73728
 2017-02-09 08:43:48.193665+01 | 1486626228.19367 | pgbench_accounts_pkey |        112336896

 2017-02-09 08:43:49.25625+01 | 1486626229.25625 | pgbench_branches_pkey |            16384
 2017-02-09 08:43:49.25625+01 | 1486626229.25625 | pgbench_tellers_pkey  |            73728
 2017-02-09 08:43:49.25625+01 | 1486626229.25625 | pgbench_accounts_pkey |        112336896

 2017-02-09 08:43:50.323931+01 | 1486626230.32393 | pgbench_branches_pkey |            16384
 2017-02-09 08:43:50.323931+01 | 1486626230.32393 | pgbench_tellers_pkey  |            73728
 2017-02-09 08:43:50.323931+01 | 1486626230.32393 | pgbench_accounts_pkey |        112336896

 2017-02-09 08:43:51.376977+01 | 1486626231.37698 | pgbench_branches_pkey |            16384
 2017-02-09 08:43:51.376977+01 | 1486626231.37698 | pgbench_tellers_pkey  |            73728
 2017-02-09 08:43:51.376977+01 | 1486626231.37698 | pgbench_accounts_pkey |        112336896

 2017-02-09 08:43:52.447013+01 | 1486626232.44701 | pgbench_branches_pkey |            16384
 2017-02-09 08:43:52.447013+01 | 1486626232.44701 | pgbench_tellers_pkey  |            73728
 2017-02-09 08:43:52.447013+01 | 1486626232.44701 | pgbench_accounts_pkey |        112336896

 2017-02-09 08:43:53.518794+01 | 1486626233.51879 | pgbench_branches_pkey |            16384
 2017-02-09 08:43:53.518794+01 | 1486626233.51879 | pgbench_tellers_pkey  |            73728
 2017-02-09 08:43:53.518794+01 | 1486626233.51879 | pgbench_accounts_pkey |        112336896

 2017-02-09 08:43:54.577739+01 | 1486626234.57774 | pgbench_branches_pkey |            16384
 2017-02-09 08:43:54.577739+01 | 1486626234.57774 | pgbench_tellers_pkey  |            73728
 2017-02-09 08:43:54.577739+01 | 1486626234.57774 | pgbench_accounts_pkey |        112336896

 2017-02-09 08:43:55.641259+01 | 1486626235.64126 | pgbench_branches_pkey |            16384
 2017-02-09 08:43:55.641259+01 | 1486626235.64126 | pgbench_tellers_pkey  |            73728
 2017-02-09 08:43:55.641259+01 | 1486626235.64126 | pgbench_accounts_pkey |        112336896

 2017-02-09 08:43:56.703122+01 | 1486626236.70312 | pgbench_branches_pkey |            16384
 2017-02-09 08:43:56.703122+01 | 1486626236.70312 | pgbench_tellers_pkey  |            73728
 2017-02-09 08:43:56.703122+01 | 1486626236.70312 | pgbench_accounts_pkey |        112336896

 2017-02-09 08:43:57.777306+01 | 1486626237.77731 | pgbench_branches_pkey |            16384
 2017-02-09 08:43:57.777306+01 | 1486626237.77731 | pgbench_tellers_pkey  |            73728
 2017-02-09 08:43:57.777306+01 | 1486626237.77731 | pgbench_accounts_pkey |        112336896

 2017-02-09 08:43:58.842561+01 | 1486626238.84256 | pgbench_branches_pkey |            16384
 2017-02-09 08:43:58.842561+01 | 1486626238.84256 | pgbench_tellers_pkey  |            73728
 2017-02-09 08:43:58.842561+01 | 1486626238.84256 | pgbench_accounts_pkey |        112336896

 2017-02-09 08:43:59.893966+01 | 1486626239.89397 | pgbench_branches_pkey |            16384
 2017-02-09 08:43:59.893966+01 | 1486626239.89397 | pgbench_tellers_pkey  |            73728
 2017-02-09 08:43:59.893966+01 | 1486626239.89397 | pgbench_accounts_pkey |        112336896

 2017-02-09 08:44:00.959067+01 | 1486626240.95907 | pgbench_branches_pkey |            16384
 2017-02-09 08:44:00.959067+01 | 1486626240.95907 | pgbench_tellers_pkey  |            73728
 2017-02-09 08:44:00.959067+01 | 1486626240.95907 | pgbench_accounts_pkey |        112336896

 2017-02-09 08:44:02.026388+01 | 1486626242.02639 | pgbench_branches_pkey |            16384
 2017-02-09 08:44:02.026388+01 | 1486626242.02639 | pgbench_tellers_pkey  |            73728
 2017-02-09 08:44:02.026388+01 | 1486626242.02639 | pgbench_accounts_pkey |        112336896

 2017-02-09 08:44:03.086607+01 | 1486626243.08661 | pgbench_branches_pkey |            16384
 2017-02-09 08:44:03.086607+01 | 1486626243.08661 | pgbench_tellers_pkey  |            73728
 2017-02-09 08:44:03.086607+01 | 1486626243.08661 | pgbench_accounts_pkey |        112336896

 2017-02-09 08:44:04.152028+01 | 1486626244.15203 | pgbench_branches_pkey |            16384
 2017-02-09 08:44:04.152028+01 | 1486626244.15203 | pgbench_tellers_pkey  |            73728
 2017-02-09 08:44:04.152028+01 | 1486626244.15203 | pgbench_accounts_pkey |        112336896

 2017-02-09 08:44:05.224061+01 | 1486626245.22406 | pgbench_branches_pkey |            16384
 2017-02-09 08:44:05.224061+01 | 1486626245.22406 | pgbench_tellers_pkey  |            73728
 2017-02-09 08:44:05.224061+01 | 1486626245.22406 | pgbench_accounts_pkey |        112336896

 2017-02-09 08:44:06.281152+01 | 1486626246.28115 | pgbench_branches_pkey |            16384
 2017-02-09 08:44:06.281152+01 | 1486626246.28115 | pgbench_tellers_pkey  |            73728
 2017-02-09 08:44:06.281152+01 | 1486626246.28115 | pgbench_accounts_pkey |        112336896

 2017-02-09 08:44:07.340428+01 | 1486626247.34043 | pgbench_branches_pkey |            16384
 2017-02-09 08:44:07.340428+01 | 1486626247.34043 | pgbench_tellers_pkey  |            73728
 2017-02-09 08:44:07.340428+01 | 1486626247.34043 | pgbench_accounts_pkey |        112336896

 2017-02-09 08:44:08.405839+01 | 1486626248.40584 | pgbench_branches_pkey |            16384
 2017-02-09 08:44:08.405839+01 | 1486626248.40584 | pgbench_tellers_pkey  |            73728
 2017-02-09 08:44:08.405839+01 | 1486626248.40584 | pgbench_accounts_pkey |        112336896

 2017-02-09 08:44:09.469251+01 | 1486626249.46925 | pgbench_branches_pkey |            16384
 2017-02-09 08:44:09.469251+01 | 1486626249.46925 | pgbench_tellers_pkey  |            73728
 2017-02-09 08:44:09.469251+01 | 1486626249.46925 | pgbench_accounts_pkey |        112336896

 2017-02-09 08:44:10.539815+01 | 1486626250.53981 | pgbench_branches_pkey |            16384
 2017-02-09 08:44:10.539815+01 | 1486626250.53981 | pgbench_tellers_pkey  |            73728
 2017-02-09 08:44:10.539815+01 | 1486626250.53981 | pgbench_accounts_pkey |        112336896

 2017-02-09 08:44:11.604233+01 | 1486626251.60423 | pgbench_branches_pkey |            16384
 2017-02-09 08:44:11.604233+01 | 1486626251.60423 | pgbench_tellers_pkey  |            73728
 2017-02-09 08:44:11.604233+01 | 1486626251.60423 | pgbench_accounts_pkey |        112336896

 2017-02-09 08:44:12.66558+01 | 1486626252.66558 | pgbench_branches_pkey |            16384
 2017-02-09 08:44:12.66558+01 | 1486626252.66558 | pgbench_tellers_pkey  |            73728
 2017-02-09 08:44:12.66558+01 | 1486626252.66558 | pgbench_accounts_pkey |        112336896

 2017-02-09 08:44:13.722731+01 | 1486626253.72273 | pgbench_branches_pkey |            16384
 2017-02-09 08:44:13.722731+01 | 1486626253.72273 | pgbench_tellers_pkey  |            73728
 2017-02-09 08:44:13.722731+01 | 1486626253.72273 | pgbench_accounts_pkey |        112336896

 2017-02-09 08:44:14.785317+01 | 1486626254.78532 | pgbench_branches_pkey |            16384
 2017-02-09 08:44:14.785317+01 | 1486626254.78532 | pgbench_tellers_pkey  |            73728
 2017-02-09 08:44:14.785317+01 | 1486626254.78532 | pgbench_accounts_pkey |        112336896

 2017-02-09 08:44:15.849858+01 | 1486626255.84986 | pgbench_branches_pkey |            16384
 2017-02-09 08:44:15.849858+01 | 1486626255.84986 | pgbench_tellers_pkey  |            73728
 2017-02-09 08:44:15.849858+01 | 1486626255.84986 | pgbench_accounts_pkey |        112336896

 2017-02-09 08:44:16.919973+01 | 1486626256.91997 | pgbench_branches_pkey |            16384
 2017-02-09 08:44:16.919973+01 | 1486626256.91997 | pgbench_tellers_pkey  |            73728
 2017-02-09 08:44:16.919973+01 | 1486626256.91997 | pgbench_accounts_pkey |        112336896

 2017-02-09 08:44:17.983614+01 | 1486626257.98361 | pgbench_branches_pkey |            16384
 2017-02-09 08:44:17.983614+01 | 1486626257.98361 | pgbench_tellers_pkey  |            73728
 2017-02-09 08:44:17.983614+01 | 1486626257.98361 | pgbench_accounts_pkey |        112336896

 2017-02-09 08:44:19.05274+01 | 1486626259.05274 | pgbench_branches_pkey |            16384
 2017-02-09 08:44:19.05274+01 | 1486626259.05274 | pgbench_tellers_pkey  |            73728
 2017-02-09 08:44:19.05274+01 | 1486626259.05274 | pgbench_accounts_pkey |        112336896

 2017-02-09 08:44:20.113079+01 | 1486626260.11308 | pgbench_branches_pkey |            16384
 2017-02-09 08:44:20.113079+01 | 1486626260.11308 | pgbench_tellers_pkey  |            73728
 2017-02-09 08:44:20.113079+01 | 1486626260.11308 | pgbench_accounts_pkey |        112336896

 2017-02-09 08:44:21.183963+01 | 1486626261.18396 | pgbench_branches_pkey |            16384
 2017-02-09 08:44:21.183963+01 | 1486626261.18396 | pgbench_tellers_pkey  |            73728
 2017-02-09 08:44:21.183963+01 | 1486626261.18396 | pgbench_accounts_pkey |        112336896

 2017-02-09 08:44:22.242196+01 | 1486626262.2422 | pgbench_branches_pkey |            16384
 2017-02-09 08:44:22.242196+01 | 1486626262.2422 | pgbench_tellers_pkey  |            73728
 2017-02-09 08:44:22.242196+01 | 1486626262.2422 | pgbench_accounts_pkey |        112336896

 2017-02-09 08:44:23.302619+01 | 1486626263.30262 | pgbench_branches_pkey |            16384
 2017-02-09 08:44:23.302619+01 | 1486626263.30262 | pgbench_tellers_pkey  |            73728
 2017-02-09 08:44:23.302619+01 | 1486626263.30262 | pgbench_accounts_pkey |        112336896

 2017-02-09 08:44:24.367507+01 | 1486626264.36751 | pgbench_branches_pkey |            16384
 2017-02-09 08:44:24.367507+01 | 1486626264.36751 | pgbench_tellers_pkey  |            73728
 2017-02-09 08:44:24.367507+01 | 1486626264.36751 | pgbench_accounts_pkey |        112336896

 2017-02-09 08:44:25.439096+01 | 1486626265.4391 | pgbench_branches_pkey |            16384
 2017-02-09 08:44:25.439096+01 | 1486626265.4391 | pgbench_tellers_pkey  |            73728
 2017-02-09 08:44:25.439096+01 | 1486626265.4391 | pgbench_accounts_pkey |        112336896

 2017-02-09 08:44:26.50777+01 | 1486626266.50777 | pgbench_branches_pkey |            16384
 2017-02-09 08:44:26.50777+01 | 1486626266.50777 | pgbench_tellers_pkey  |            73728
 2017-02-09 08:44:26.50777+01 | 1486626266.50777 | pgbench_accounts_pkey |        112336896

 2017-02-09 08:44:27.568666+01 | 1486626267.56867 | pgbench_branches_pkey |            16384
 2017-02-09 08:44:27.568666+01 | 1486626267.56867 | pgbench_tellers_pkey  |            73728
 2017-02-09 08:44:27.568666+01 | 1486626267.56867 | pgbench_accounts_pkey |        112336896

 2017-02-09 08:44:28.65015+01 | 1486626268.65015 | pgbench_branches_pkey |            16384
 2017-02-09 08:44:28.65015+01 | 1486626268.65015 | pgbench_tellers_pkey  |            73728
 2017-02-09 08:44:28.65015+01 | 1486626268.65015 | pgbench_accounts_pkey |        112336896

 2017-02-09 08:44:29.711865+01 | 1486626269.71186 | pgbench_branches_pkey |            16384
 2017-02-09 08:44:29.711865+01 | 1486626269.71186 | pgbench_tellers_pkey  |            73728
 2017-02-09 08:44:29.711865+01 | 1486626269.71186 | pgbench_accounts_pkey |        112336896

 2017-02-09 08:44:30.777573+01 | 1486626270.77757 | pgbench_branches_pkey |            16384
 2017-02-09 08:44:30.777573+01 | 1486626270.77757 | pgbench_tellers_pkey  |            73728
 2017-02-09 08:44:30.777573+01 | 1486626270.77757 | pgbench_accounts_pkey |        112336896

 2017-02-09 08:44:31.844132+01 | 1486626271.84413 | pgbench_branches_pkey |            16384
 2017-02-09 08:44:31.844132+01 | 1486626271.84413 | pgbench_tellers_pkey  |            73728
 2017-02-09 08:44:31.844132+01 | 1486626271.84413 | pgbench_accounts_pkey |        112336896

 2017-02-09 08:44:32.907309+01 | 1486626272.90731 | pgbench_branches_pkey |            16384
 2017-02-09 08:44:32.907309+01 | 1486626272.90731 | pgbench_tellers_pkey  |            73728
 2017-02-09 08:44:32.907309+01 | 1486626272.90731 | pgbench_accounts_pkey |        112336896

 2017-02-09 08:44:33.973054+01 | 1486626273.97305 | pgbench_branches_pkey |            16384
 2017-02-09 08:44:33.973054+01 | 1486626273.97305 | pgbench_tellers_pkey  |            73728
 2017-02-09 08:44:33.973054+01 | 1486626273.97305 | pgbench_accounts_pkey |        112336896

 2017-02-09 08:44:35.043225+01 | 1486626275.04323 | pgbench_branches_pkey |            16384
 2017-02-09 08:44:35.043225+01 | 1486626275.04323 | pgbench_tellers_pkey  |            73728
 2017-02-09 08:44:35.043225+01 | 1486626275.04323 | pgbench_accounts_pkey |        112336896

 2017-02-09 08:44:36.098771+01 | 1486626276.09877 | pgbench_branches_pkey |            16384
 2017-02-09 08:44:36.098771+01 | 1486626276.09877 | pgbench_tellers_pkey  |            73728
 2017-02-09 08:44:36.098771+01 | 1486626276.09877 | pgbench_accounts_pkey |        112336896

 2017-02-09 08:44:37.161224+01 | 1486626277.16122 | pgbench_branches_pkey |            16384
 2017-02-09 08:44:37.161224+01 | 1486626277.16122 | pgbench_tellers_pkey  |            73728
 2017-02-09 08:44:37.161224+01 | 1486626277.16122 | pgbench_accounts_pkey |        112336896

 2017-02-09 08:44:38.219291+01 | 1486626278.21929 | pgbench_branches_pkey |            16384
 2017-02-09 08:44:38.219291+01 | 1486626278.21929 | pgbench_tellers_pkey  |            73728
 2017-02-09 08:44:38.219291+01 | 1486626278.21929 | pgbench_accounts_pkey |        112336896

 2017-02-09 08:44:39.292136+01 | 1486626279.29214 | pgbench_branches_pkey |            16384
 2017-02-09 08:44:39.292136+01 | 1486626279.29214 | pgbench_tellers_pkey  |            73728
 2017-02-09 08:44:39.292136+01 | 1486626279.29214 | pgbench_accounts_pkey |        112336896

 2017-02-09 08:44:40.375333+01 | 1486626280.37533 | pgbench_branches_pkey |            16384
 2017-02-09 08:44:40.375333+01 | 1486626280.37533 | pgbench_tellers_pkey  |            73728
 2017-02-09 08:44:40.375333+01 | 1486626280.37533 | pgbench_accounts_pkey |        112336896

 2017-02-09 08:44:41.440403+01 | 1486626281.4404 | pgbench_branches_pkey |            16384
 2017-02-09 08:44:41.440403+01 | 1486626281.4404 | pgbench_tellers_pkey  |            73728
 2017-02-09 08:44:41.440403+01 | 1486626281.4404 | pgbench_accounts_pkey |        112336896

 2017-02-09 08:44:42.510932+01 | 1486626282.51093 | pgbench_branches_pkey |            16384
 2017-02-09 08:44:42.510932+01 | 1486626282.51093 | pgbench_tellers_pkey  |            73728
 2017-02-09 08:44:42.510932+01 | 1486626282.51093 | pgbench_accounts_pkey |        112336896

 2017-02-09 08:44:43.574073+01 | 1486626283.57407 | pgbench_branches_pkey |            16384
 2017-02-09 08:44:43.574073+01 | 1486626283.57407 | pgbench_tellers_pkey  |            73728
 2017-02-09 08:44:43.574073+01 | 1486626283.57407 | pgbench_accounts_pkey |        112336896

 2017-02-09 08:44:44.655204+01 | 1486626284.6552 | pgbench_branches_pkey |            16384
 2017-02-09 08:44:44.655204+01 | 1486626284.6552 | pgbench_tellers_pkey  |            73728
 2017-02-09 08:44:44.655204+01 | 1486626284.6552 | pgbench_accounts_pkey |        112336896

 2017-02-09 08:44:45.719121+01 | 1486626285.71912 | pgbench_branches_pkey |            16384
 2017-02-09 08:44:45.719121+01 | 1486626285.71912 | pgbench_tellers_pkey  |            73728
 2017-02-09 08:44:45.719121+01 | 1486626285.71912 | pgbench_accounts_pkey |        112336896

 2017-02-09 08:44:46.781754+01 | 1486626286.78175 | pgbench_branches_pkey |            16384
 2017-02-09 08:44:46.781754+01 | 1486626286.78175 | pgbench_tellers_pkey  |            73728
 2017-02-09 08:44:46.781754+01 | 1486626286.78175 | pgbench_accounts_pkey |        112336896

 2017-02-09 08:44:47.846117+01 | 1486626287.84612 | pgbench_branches_pkey |            16384
 2017-02-09 08:44:47.846117+01 | 1486626287.84612 | pgbench_tellers_pkey  |            73728
 2017-02-09 08:44:47.846117+01 | 1486626287.84612 | pgbench_accounts_pkey |        112336896

 2017-02-09 08:44:48.913659+01 | 1486626288.91366 | pgbench_branches_pkey |            16384
 2017-02-09 08:44:48.913659+01 | 1486626288.91366 | pgbench_tellers_pkey  |            73728
 2017-02-09 08:44:48.913659+01 | 1486626288.91366 | pgbench_accounts_pkey |        112336896

 2017-02-09 08:44:49.97437+01 | 1486626289.97437 | pgbench_branches_pkey |            16384
 2017-02-09 08:44:49.97437+01 | 1486626289.97437 | pgbench_tellers_pkey  |            73728
 2017-02-09 08:44:49.97437+01 | 1486626289.97437 | pgbench_accounts_pkey |        112336896

 2017-02-09 08:44:51.033223+01 | 1486626291.03322 | pgbench_branches_pkey |            16384
 2017-02-09 08:44:51.033223+01 | 1486626291.03322 | pgbench_tellers_pkey  |            73728
 2017-02-09 08:44:51.033223+01 | 1486626291.03322 | pgbench_accounts_pkey |        112336896

 2017-02-09 08:44:52.099382+01 | 1486626292.09938 | pgbench_branches_pkey |            16384
 2017-02-09 08:44:52.099382+01 | 1486626292.09938 | pgbench_tellers_pkey  |            73728
 2017-02-09 08:44:52.099382+01 | 1486626292.09938 | pgbench_accounts_pkey |        112336896

 2017-02-09 08:44:53.164542+01 | 1486626293.16454 | pgbench_branches_pkey |            16384
 2017-02-09 08:44:53.164542+01 | 1486626293.16454 | pgbench_tellers_pkey  |            73728
 2017-02-09 08:44:53.164542+01 | 1486626293.16454 | pgbench_accounts_pkey |        112336896

 2017-02-09 08:44:54.228136+01 | 1486626294.22814 | pgbench_branches_pkey |            16384
 2017-02-09 08:44:54.228136+01 | 1486626294.22814 | pgbench_tellers_pkey  |            73728
 2017-02-09 08:44:54.228136+01 | 1486626294.22814 | pgbench_accounts_pkey |        112336896

 2017-02-09 08:44:55.297525+01 | 1486626295.29752 | pgbench_branches_pkey |            16384
 2017-02-09 08:44:55.297525+01 | 1486626295.29752 | pgbench_tellers_pkey  |            73728
 2017-02-09 08:44:55.297525+01 | 1486626295.29752 | pgbench_accounts_pkey |        112336896

 2017-02-09 08:44:56.365432+01 | 1486626296.36543 | pgbench_branches_pkey |            16384
 2017-02-09 08:44:56.365432+01 | 1486626296.36543 | pgbench_tellers_pkey  |            73728
 2017-02-09 08:44:56.365432+01 | 1486626296.36543 | pgbench_accounts_pkey |        112336896

 2017-02-09 08:44:57.438211+01 | 1486626297.43821 | pgbench_branches_pkey |            16384
 2017-02-09 08:44:57.438211+01 | 1486626297.43821 | pgbench_tellers_pkey  |            73728
 2017-02-09 08:44:57.438211+01 | 1486626297.43821 | pgbench_accounts_pkey |        112336896

 2017-02-09 08:44:58.509256+01 | 1486626298.50926 | pgbench_branches_pkey |            16384
 2017-02-09 08:44:58.509256+01 | 1486626298.50926 | pgbench_tellers_pkey  |            73728
 2017-02-09 08:44:58.509256+01 | 1486626298.50926 | pgbench_accounts_pkey |        112336896

 2017-02-09 08:44:59.577286+01 | 1486626299.57729 | pgbench_branches_pkey |            16384
 2017-02-09 08:44:59.577286+01 | 1486626299.57729 | pgbench_tellers_pkey  |            73728
 2017-02-09 08:44:59.577286+01 | 1486626299.57729 | pgbench_accounts_pkey |        112336896

 2017-02-09 08:45:00.639201+01 | 1486626300.6392 | pgbench_branches_pkey |            16384
 2017-02-09 08:45:00.639201+01 | 1486626300.6392 | pgbench_tellers_pkey  |            73728
 2017-02-09 08:45:00.639201+01 | 1486626300.6392 | pgbench_accounts_pkey |        112336896

 2017-02-09 08:45:01.698566+01 | 1486626301.69857 | pgbench_branches_pkey |            16384
 2017-02-09 08:45:01.698566+01 | 1486626301.69857 | pgbench_tellers_pkey  |            73728
 2017-02-09 08:45:01.698566+01 | 1486626301.69857 | pgbench_accounts_pkey |        112336896

 2017-02-09 08:45:02.754945+01 | 1486626302.75495 | pgbench_branches_pkey |            16384
 2017-02-09 08:45:02.754945+01 | 1486626302.75495 | pgbench_tellers_pkey  |            73728
 2017-02-09 08:45:02.754945+01 | 1486626302.75495 | pgbench_accounts_pkey |        112336896

 2017-02-09 08:45:03.810299+01 | 1486626303.8103 | pgbench_branches_pkey |            16384
 2017-02-09 08:45:03.810299+01 | 1486626303.8103 | pgbench_tellers_pkey  |            73728
 2017-02-09 08:45:03.810299+01 | 1486626303.8103 | pgbench_accounts_pkey |        112336896

 2017-02-09 08:45:04.868744+01 | 1486626304.86874 | pgbench_branches_pkey |            16384
 2017-02-09 08:45:04.868744+01 | 1486626304.86874 | pgbench_tellers_pkey  |            73728
 2017-02-09 08:45:04.868744+01 | 1486626304.86874 | pgbench_accounts_pkey |        112336896

 2017-02-09 08:45:05.931302+01 | 1486626305.9313 | pgbench_branches_pkey |            16384
 2017-02-09 08:45:05.931302+01 | 1486626305.9313 | pgbench_tellers_pkey  |            73728
 2017-02-09 08:45:05.931302+01 | 1486626305.9313 | pgbench_accounts_pkey |        112336896

 2017-02-09 08:45:06.999586+01 | 1486626306.99959 | pgbench_branches_pkey |            16384
 2017-02-09 08:45:06.999586+01 | 1486626306.99959 | pgbench_tellers_pkey  |            73728
 2017-02-09 08:45:06.999586+01 | 1486626306.99959 | pgbench_accounts_pkey |        112336896

 2017-02-09 08:45:08.066171+01 | 1486626308.06617 | pgbench_branches_pkey |            16384
 2017-02-09 08:45:08.066171+01 | 1486626308.06617 | pgbench_tellers_pkey  |            73728
 2017-02-09 08:45:08.066171+01 | 1486626308.06617 | pgbench_accounts_pkey |        112336896

 2017-02-09 08:45:09.126657+01 | 1486626309.12666 | pgbench_branches_pkey |            16384
 2017-02-09 08:45:09.126657+01 | 1486626309.12666 | pgbench_tellers_pkey  |            73728
 2017-02-09 08:45:09.126657+01 | 1486626309.12666 | pgbench_accounts_pkey |        112336896

 2017-02-09 08:45:10.191741+01 | 1486626310.19174 | pgbench_branches_pkey |            16384
 2017-02-09 08:45:10.191741+01 | 1486626310.19174 | pgbench_tellers_pkey  |            73728
 2017-02-09 08:45:10.191741+01 | 1486626310.19174 | pgbench_accounts_pkey |        112336896

 2017-02-09 08:45:11.263611+01 | 1486626311.26361 | pgbench_branches_pkey |            16384
 2017-02-09 08:45:11.263611+01 | 1486626311.26361 | pgbench_tellers_pkey  |            73728
 2017-02-09 08:45:11.263611+01 | 1486626311.26361 | pgbench_accounts_pkey |        112336896

 2017-02-09 08:45:12.320009+01 | 1486626312.32001 | pgbench_branches_pkey |            16384
 2017-02-09 08:45:12.320009+01 | 1486626312.32001 | pgbench_tellers_pkey  |            73728
 2017-02-09 08:45:12.320009+01 | 1486626312.32001 | pgbench_accounts_pkey |        112336896

 2017-02-09 08:45:13.382809+01 | 1486626313.38281 | pgbench_branches_pkey |            16384
 2017-02-09 08:45:13.382809+01 | 1486626313.38281 | pgbench_tellers_pkey  |            73728
 2017-02-09 08:45:13.382809+01 | 1486626313.38281 | pgbench_accounts_pkey |        112336896

 2017-02-09 08:45:14.439384+01 | 1486626314.43938 | pgbench_branches_pkey |            16384
 2017-02-09 08:45:14.439384+01 | 1486626314.43938 | pgbench_tellers_pkey  |            73728
 2017-02-09 08:45:14.439384+01 | 1486626314.43938 | pgbench_accounts_pkey |        112336896

 2017-02-09 08:45:15.512218+01 | 1486626315.51222 | pgbench_branches_pkey |            16384
 2017-02-09 08:45:15.512218+01 | 1486626315.51222 | pgbench_tellers_pkey  |            73728
 2017-02-09 08:45:15.512218+01 | 1486626315.51222 | pgbench_accounts_pkey |        112336896

 2017-02-09 08:45:16.568508+01 | 1486626316.56851 | pgbench_branches_pkey |            16384
 2017-02-09 08:45:16.568508+01 | 1486626316.56851 | pgbench_tellers_pkey  |            73728
 2017-02-09 08:45:16.568508+01 | 1486626316.56851 | pgbench_accounts_pkey |        112336896

 2017-02-09 08:45:17.624964+01 | 1486626317.62496 | pgbench_branches_pkey |            16384
 2017-02-09 08:45:17.624964+01 | 1486626317.62496 | pgbench_tellers_pkey  |            73728
 2017-02-09 08:45:17.624964+01 | 1486626317.62496 | pgbench_accounts_pkey |        112336896

 2017-02-09 08:45:18.694816+01 | 1486626318.69482 | pgbench_branches_pkey |            16384
 2017-02-09 08:45:18.694816+01 | 1486626318.69482 | pgbench_tellers_pkey  |            73728
 2017-02-09 08:45:18.694816+01 | 1486626318.69482 | pgbench_accounts_pkey |        112336896

 2017-02-09 08:45:19.755473+01 | 1486626319.75547 | pgbench_branches_pkey |            16384
 2017-02-09 08:45:19.755473+01 | 1486626319.75547 | pgbench_tellers_pkey  |            73728
 2017-02-09 08:45:19.755473+01 | 1486626319.75547 | pgbench_accounts_pkey |        112336896

 2017-02-09 08:45:20.821274+01 | 1486626320.82127 | pgbench_branches_pkey |            16384
 2017-02-09 08:45:20.821274+01 | 1486626320.82127 | pgbench_tellers_pkey  |            73728
 2017-02-09 08:45:20.821274+01 | 1486626320.82127 | pgbench_accounts_pkey |        112336896

 2017-02-09 08:45:21.887355+01 | 1486626321.88736 | pgbench_branches_pkey |            16384
 2017-02-09 08:45:21.887355+01 | 1486626321.88736 | pgbench_tellers_pkey  |            73728
 2017-02-09 08:45:21.887355+01 | 1486626321.88736 | pgbench_accounts_pkey |        112336896

 2017-02-09 08:45:22.952689+01 | 1486626322.95269 | pgbench_branches_pkey |            16384
 2017-02-09 08:45:22.952689+01 | 1486626322.95269 | pgbench_tellers_pkey  |            73728
 2017-02-09 08:45:22.952689+01 | 1486626322.95269 | pgbench_accounts_pkey |        112336896

 2017-02-09 08:45:24.007388+01 | 1486626324.00739 | pgbench_branches_pkey |            16384
 2017-02-09 08:45:24.007388+01 | 1486626324.00739 | pgbench_tellers_pkey  |            73728
 2017-02-09 08:45:24.007388+01 | 1486626324.00739 | pgbench_accounts_pkey |        112336896

 2017-02-09 08:45:25.077024+01 | 1486626325.07702 | pgbench_branches_pkey |            16384
 2017-02-09 08:45:25.077024+01 | 1486626325.07702 | pgbench_tellers_pkey  |            73728
 2017-02-09 08:45:25.077024+01 | 1486626325.07702 | pgbench_accounts_pkey |        112336896

 2017-02-09 08:45:26.138143+01 | 1486626326.13814 | pgbench_branches_pkey |            16384
 2017-02-09 08:45:26.138143+01 | 1486626326.13814 | pgbench_tellers_pkey  |            73728
 2017-02-09 08:45:26.138143+01 | 1486626326.13814 | pgbench_accounts_pkey |        112336896

 2017-02-09 08:45:27.19826+01 | 1486626327.19826 | pgbench_branches_pkey |            16384
 2017-02-09 08:45:27.19826+01 | 1486626327.19826 | pgbench_tellers_pkey  |            73728
 2017-02-09 08:45:27.19826+01 | 1486626327.19826 | pgbench_accounts_pkey |        112336896

 2017-02-09 08:45:28.267943+01 | 1486626328.26794 | pgbench_branches_pkey |            16384
 2017-02-09 08:45:28.267943+01 | 1486626328.26794 | pgbench_tellers_pkey  |            73728
 2017-02-09 08:45:28.267943+01 | 1486626328.26794 | pgbench_accounts_pkey |        112336896

 2017-02-09 08:45:29.335596+01 | 1486626329.3356 | pgbench_branches_pkey |            16384
 2017-02-09 08:45:29.335596+01 | 1486626329.3356 | pgbench_tellers_pkey  |            73728
 2017-02-09 08:45:29.335596+01 | 1486626329.3356 | pgbench_accounts_pkey |        112336896

 2017-02-09 08:45:30.404848+01 | 1486626330.40485 | pgbench_branches_pkey |            16384
 2017-02-09 08:45:30.404848+01 | 1486626330.40485 | pgbench_tellers_pkey  |            73728
 2017-02-09 08:45:30.404848+01 | 1486626330.40485 | pgbench_accounts_pkey |        112336896

 2017-02-09 08:45:31.477249+01 | 1486626331.47725 | pgbench_branches_pkey |            16384
 2017-02-09 08:45:31.477249+01 | 1486626331.47725 | pgbench_tellers_pkey  |            73728
 2017-02-09 08:45:31.477249+01 | 1486626331.47725 | pgbench_accounts_pkey |        112336896

 2017-02-09 08:45:32.53511+01 | 1486626332.53511 | pgbench_branches_pkey |            16384
 2017-02-09 08:45:32.53511+01 | 1486626332.53511 | pgbench_tellers_pkey  |            73728
 2017-02-09 08:45:32.53511+01 | 1486626332.53511 | pgbench_accounts_pkey |        112336896

 2017-02-09 08:45:33.60166+01 | 1486626333.60166 | pgbench_branches_pkey |            16384
 2017-02-09 08:45:33.60166+01 | 1486626333.60166 | pgbench_tellers_pkey  |            73728
 2017-02-09 08:45:33.60166+01 | 1486626333.60166 | pgbench_accounts_pkey |        112336896

 2017-02-09 08:45:34.669898+01 | 1486626334.6699 | pgbench_branches_pkey |            16384
 2017-02-09 08:45:34.669898+01 | 1486626334.6699 | pgbench_tellers_pkey  |            73728
 2017-02-09 08:45:34.669898+01 | 1486626334.6699 | pgbench_accounts_pkey |        112336896

 2017-02-09 08:45:35.729315+01 | 1486626335.72932 | pgbench_branches_pkey |            16384
 2017-02-09 08:45:35.729315+01 | 1486626335.72932 | pgbench_tellers_pkey  |            73728
 2017-02-09 08:45:35.729315+01 | 1486626335.72932 | pgbench_accounts_pkey |        112336896

 2017-02-09 08:45:36.790012+01 | 1486626336.79001 | pgbench_branches_pkey |            16384
 2017-02-09 08:45:36.790012+01 | 1486626336.79001 | pgbench_tellers_pkey  |            73728
 2017-02-09 08:45:36.790012+01 | 1486626336.79001 | pgbench_accounts_pkey |        112336896

 2017-02-09 08:45:37.856091+01 | 1486626337.85609 | pgbench_branches_pkey |            16384
 2017-02-09 08:45:37.856091+01 | 1486626337.85609 | pgbench_tellers_pkey  |            73728
 2017-02-09 08:45:37.856091+01 | 1486626337.85609 | pgbench_accounts_pkey |        112336896

 2017-02-09 08:45:38.923413+01 | 1486626338.92341 | pgbench_branches_pkey |            16384
 2017-02-09 08:45:38.923413+01 | 1486626338.92341 | pgbench_tellers_pkey  |            73728
 2017-02-09 08:45:38.923413+01 | 1486626338.92341 | pgbench_accounts_pkey |        112336896

 2017-02-09 08:45:39.989346+01 | 1486626339.98935 | pgbench_branches_pkey |            16384
 2017-02-09 08:45:39.989346+01 | 1486626339.98935 | pgbench_tellers_pkey  |            73728
 2017-02-09 08:45:39.989346+01 | 1486626339.98935 | pgbench_accounts_pkey |        112336896

 2017-02-09 08:45:41.056915+01 | 1486626341.05692 | pgbench_branches_pkey |            16384
 2017-02-09 08:45:41.056915+01 | 1486626341.05692 | pgbench_tellers_pkey  |            73728
 2017-02-09 08:45:41.056915+01 | 1486626341.05692 | pgbench_accounts_pkey |        112336896

 2017-02-09 08:45:42.123911+01 | 1486626342.12391 | pgbench_branches_pkey |            16384
 2017-02-09 08:45:42.123911+01 | 1486626342.12391 | pgbench_tellers_pkey  |            73728
 2017-02-09 08:45:42.123911+01 | 1486626342.12391 | pgbench_accounts_pkey |        112336896

 2017-02-09 08:45:43.178071+01 | 1486626343.17807 | pgbench_branches_pkey |            16384
 2017-02-09 08:45:43.178071+01 | 1486626343.17807 | pgbench_tellers_pkey  |            73728
 2017-02-09 08:45:43.178071+01 | 1486626343.17807 | pgbench_accounts_pkey |        112336896

 2017-02-09 08:45:44.230935+01 | 1486626344.23094 | pgbench_branches_pkey |            16384
 2017-02-09 08:45:44.230935+01 | 1486626344.23094 | pgbench_tellers_pkey  |            73728
 2017-02-09 08:45:44.230935+01 | 1486626344.23094 | pgbench_accounts_pkey |        112336896

 2017-02-09 08:45:45.293439+01 | 1486626345.29344 | pgbench_branches_pkey |            16384
 2017-02-09 08:45:45.293439+01 | 1486626345.29344 | pgbench_tellers_pkey  |            73728
 2017-02-09 08:45:45.293439+01 | 1486626345.29344 | pgbench_accounts_pkey |        112336896

 2017-02-09 08:45:46.369445+01 | 1486626346.36945 | pgbench_branches_pkey |            16384
 2017-02-09 08:45:46.369445+01 | 1486626346.36945 | pgbench_tellers_pkey  |            73728
 2017-02-09 08:45:46.369445+01 | 1486626346.36945 | pgbench_accounts_pkey |        112336896

 2017-02-09 08:45:47.418139+01 | 1486626347.41814 | pgbench_branches_pkey |            16384
 2017-02-09 08:45:47.418139+01 | 1486626347.41814 | pgbench_tellers_pkey  |            73728
 2017-02-09 08:45:47.418139+01 | 1486626347.41814 | pgbench_accounts_pkey |        112336896

 2017-02-09 08:45:48.477603+01 | 1486626348.4776 | pgbench_branches_pkey |            16384
 2017-02-09 08:45:48.477603+01 | 1486626348.4776 | pgbench_tellers_pkey  |            73728
 2017-02-09 08:45:48.477603+01 | 1486626348.4776 | pgbench_accounts_pkey |        112336896

 2017-02-09 08:45:49.543668+01 | 1486626349.54367 | pgbench_branches_pkey |            16384
 2017-02-09 08:45:49.543668+01 | 1486626349.54367 | pgbench_tellers_pkey  |            73728
 2017-02-09 08:45:49.543668+01 | 1486626349.54367 | pgbench_accounts_pkey |        112336896

 2017-02-09 08:45:50.605951+01 | 1486626350.60595 | pgbench_branches_pkey |            16384
 2017-02-09 08:45:50.605951+01 | 1486626350.60595 | pgbench_tellers_pkey  |            73728
 2017-02-09 08:45:50.605951+01 | 1486626350.60595 | pgbench_accounts_pkey |        112336896

 2017-02-09 08:45:51.682501+01 | 1486626351.6825 | pgbench_branches_pkey |            16384
 2017-02-09 08:45:51.682501+01 | 1486626351.6825 | pgbench_tellers_pkey  |            73728
 2017-02-09 08:45:51.682501+01 | 1486626351.6825 | pgbench_accounts_pkey |        112336896

 2017-02-09 08:45:52.756554+01 | 1486626352.75655 | pgbench_branches_pkey |            16384
 2017-02-09 08:45:52.756554+01 | 1486626352.75655 | pgbench_tellers_pkey  |            73728
 2017-02-09 08:45:52.756554+01 | 1486626352.75655 | pgbench_accounts_pkey |        112336896

 2017-02-09 08:45:53.846532+01 | 1486626353.84653 | pgbench_branches_pkey |            16384
 2017-02-09 08:45:53.846532+01 | 1486626353.84653 | pgbench_tellers_pkey  |            73728
 2017-02-09 08:45:53.846532+01 | 1486626353.84653 | pgbench_accounts_pkey |        112336896

 2017-02-09 08:45:54.909729+01 | 1486626354.90973 | pgbench_branches_pkey |            16384
 2017-02-09 08:45:54.909729+01 | 1486626354.90973 | pgbench_tellers_pkey  |            73728
 2017-02-09 08:45:54.909729+01 | 1486626354.90973 | pgbench_accounts_pkey |        112336896

 2017-02-09 08:45:55.967357+01 | 1486626355.96736 | pgbench_branches_pkey |            16384
 2017-02-09 08:45:55.967357+01 | 1486626355.96736 | pgbench_tellers_pkey  |            73728
 2017-02-09 08:45:55.967357+01 | 1486626355.96736 | pgbench_accounts_pkey |        112336896

 2017-02-09 08:45:57.034975+01 | 1486626357.03498 | pgbench_branches_pkey |            16384
 2017-02-09 08:45:57.034975+01 | 1486626357.03498 | pgbench_tellers_pkey  |            73728
 2017-02-09 08:45:57.034975+01 | 1486626357.03498 | pgbench_accounts_pkey |        112336896

 2017-02-09 08:45:58.107969+01 | 1486626358.10797 | pgbench_branches_pkey |            16384
 2017-02-09 08:45:58.107969+01 | 1486626358.10797 | pgbench_tellers_pkey  |            73728
 2017-02-09 08:45:58.107969+01 | 1486626358.10797 | pgbench_accounts_pkey |        112336896

 2017-02-09 08:45:59.178805+01 | 1486626359.17881 | pgbench_branches_pkey |            16384
 2017-02-09 08:45:59.178805+01 | 1486626359.17881 | pgbench_tellers_pkey  |            73728
 2017-02-09 08:45:59.178805+01 | 1486626359.17881 | pgbench_accounts_pkey |        112336896

 2017-02-09 08:46:00.255544+01 | 1486626360.25554 | pgbench_branches_pkey |            16384
 2017-02-09 08:46:00.255544+01 | 1486626360.25554 | pgbench_tellers_pkey  |            73728
 2017-02-09 08:46:00.255544+01 | 1486626360.25554 | pgbench_accounts_pkey |        112336896

 2017-02-09 08:46:01.321437+01 | 1486626361.32144 | pgbench_branches_pkey |            16384
 2017-02-09 08:46:01.321437+01 | 1486626361.32144 | pgbench_tellers_pkey  |            73728
 2017-02-09 08:46:01.321437+01 | 1486626361.32144 | pgbench_accounts_pkey |        112336896

 2017-02-09 08:46:02.379396+01 | 1486626362.3794 | pgbench_branches_pkey |            16384
 2017-02-09 08:46:02.379396+01 | 1486626362.3794 | pgbench_tellers_pkey  |            73728
 2017-02-09 08:46:02.379396+01 | 1486626362.3794 | pgbench_accounts_pkey |        112336896

 2017-02-09 08:46:03.434959+01 | 1486626363.43496 | pgbench_branches_pkey |            16384
 2017-02-09 08:46:03.434959+01 | 1486626363.43496 | pgbench_tellers_pkey  |            73728
 2017-02-09 08:46:03.434959+01 | 1486626363.43496 | pgbench_accounts_pkey |        112336896

 2017-02-09 08:46:04.503132+01 | 1486626364.50313 | pgbench_branches_pkey |            16384
 2017-02-09 08:46:04.503132+01 | 1486626364.50313 | pgbench_tellers_pkey  |            73728
 2017-02-09 08:46:04.503132+01 | 1486626364.50313 | pgbench_accounts_pkey |        112336896

 2017-02-09 08:46:05.573447+01 | 1486626365.57345 | pgbench_branches_pkey |            16384
 2017-02-09 08:46:05.573447+01 | 1486626365.57345 | pgbench_tellers_pkey  |            73728
 2017-02-09 08:46:05.573447+01 | 1486626365.57345 | pgbench_accounts_pkey |        112336896

 2017-02-09 08:46:06.636356+01 | 1486626366.63636 | pgbench_branches_pkey |            16384
 2017-02-09 08:46:06.636356+01 | 1486626366.63636 | pgbench_tellers_pkey  |            73728
 2017-02-09 08:46:06.636356+01 | 1486626366.63636 | pgbench_accounts_pkey |        112336896

 2017-02-09 08:46:07.695625+01 | 1486626367.69563 | pgbench_branches_pkey |            16384
 2017-02-09 08:46:07.695625+01 | 1486626367.69563 | pgbench_tellers_pkey  |            73728
 2017-02-09 08:46:07.695625+01 | 1486626367.69563 | pgbench_accounts_pkey |        112336896

 2017-02-09 08:46:08.77261+01 | 1486626368.77261 | pgbench_branches_pkey |            16384
 2017-02-09 08:46:08.77261+01 | 1486626368.77261 | pgbench_tellers_pkey  |            73728
 2017-02-09 08:46:08.77261+01 | 1486626368.77261 | pgbench_accounts_pkey |        112336896

 2017-02-09 08:46:09.843044+01 | 1486626369.84304 | pgbench_branches_pkey |            16384
 2017-02-09 08:46:09.843044+01 | 1486626369.84304 | pgbench_tellers_pkey  |            73728
 2017-02-09 08:46:09.843044+01 | 1486626369.84304 | pgbench_accounts_pkey |        112336896

 2017-02-09 08:46:10.909728+01 | 1486626370.90973 | pgbench_branches_pkey |            16384
 2017-02-09 08:46:10.909728+01 | 1486626370.90973 | pgbench_tellers_pkey  |            73728
 2017-02-09 08:46:10.909728+01 | 1486626370.90973 | pgbench_accounts_pkey |        112336896

 2017-02-09 08:46:11.9791+01 | 1486626371.9791 | pgbench_branches_pkey |            16384
 2017-02-09 08:46:11.9791+01 | 1486626371.9791 | pgbench_tellers_pkey  |            73728
 2017-02-09 08:46:11.9791+01 | 1486626371.9791 | pgbench_accounts_pkey |        112336896

 2017-02-09 08:46:13.0427+01 | 1486626373.0427 | pgbench_branches_pkey |            16384
 2017-02-09 08:46:13.0427+01 | 1486626373.0427 | pgbench_tellers_pkey  |            73728
 2017-02-09 08:46:13.0427+01 | 1486626373.0427 | pgbench_accounts_pkey |        112336896

 2017-02-09 08:46:14.112753+01 | 1486626374.11275 | pgbench_branches_pkey |            16384
 2017-02-09 08:46:14.112753+01 | 1486626374.11275 | pgbench_tellers_pkey  |            73728
 2017-02-09 08:46:14.112753+01 | 1486626374.11275 | pgbench_accounts_pkey |        112336896

 2017-02-09 08:46:15.178031+01 | 1486626375.17803 | pgbench_branches_pkey |            16384
 2017-02-09 08:46:15.178031+01 | 1486626375.17803 | pgbench_tellers_pkey  |            73728
 2017-02-09 08:46:15.178031+01 | 1486626375.17803 | pgbench_accounts_pkey |        112336896

 2017-02-09 08:46:16.233575+01 | 1486626376.23358 | pgbench_branches_pkey |            16384
 2017-02-09 08:46:16.233575+01 | 1486626376.23358 | pgbench_tellers_pkey  |            73728
 2017-02-09 08:46:16.233575+01 | 1486626376.23358 | pgbench_accounts_pkey |        112336896

 2017-02-09 08:46:17.302339+01 | 1486626377.30234 | pgbench_branches_pkey |            16384
 2017-02-09 08:46:17.302339+01 | 1486626377.30234 | pgbench_tellers_pkey  |            73728
 2017-02-09 08:46:17.302339+01 | 1486626377.30234 | pgbench_accounts_pkey |        112336896

 2017-02-09 08:46:18.363933+01 | 1486626378.36393 | pgbench_branches_pkey |            16384
 2017-02-09 08:46:18.363933+01 | 1486626378.36393 | pgbench_tellers_pkey  |            73728
 2017-02-09 08:46:18.363933+01 | 1486626378.36393 | pgbench_accounts_pkey |        112336896

 2017-02-09 08:46:19.429975+01 | 1486626379.42998 | pgbench_branches_pkey |            16384
 2017-02-09 08:46:19.429975+01 | 1486626379.42998 | pgbench_tellers_pkey  |            73728
 2017-02-09 08:46:19.429975+01 | 1486626379.42998 | pgbench_accounts_pkey |        112336896

 2017-02-09 08:46:20.502946+01 | 1486626380.50295 | pgbench_branches_pkey |            16384
 2017-02-09 08:46:20.502946+01 | 1486626380.50295 | pgbench_tellers_pkey  |            73728
 2017-02-09 08:46:20.502946+01 | 1486626380.50295 | pgbench_accounts_pkey |        112336896

 2017-02-09 08:46:21.568607+01 | 1486626381.56861 | pgbench_branches_pkey |            16384
 2017-02-09 08:46:21.568607+01 | 1486626381.56861 | pgbench_tellers_pkey  |            73728
 2017-02-09 08:46:21.568607+01 | 1486626381.56861 | pgbench_accounts_pkey |        112336896

 2017-02-09 08:46:22.630512+01 | 1486626382.63051 | pgbench_branches_pkey |            16384
 2017-02-09 08:46:22.630512+01 | 1486626382.63051 | pgbench_tellers_pkey  |            73728
 2017-02-09 08:46:22.630512+01 | 1486626382.63051 | pgbench_accounts_pkey |        112336896

 2017-02-09 08:46:23.711172+01 | 1486626383.71117 | pgbench_branches_pkey |            16384
 2017-02-09 08:46:23.711172+01 | 1486626383.71117 | pgbench_tellers_pkey  |            73728
 2017-02-09 08:46:23.711172+01 | 1486626383.71117 | pgbench_accounts_pkey |        112336896

 2017-02-09 08:46:24.770636+01 | 1486626384.77064 | pgbench_branches_pkey |            16384
 2017-02-09 08:46:24.770636+01 | 1486626384.77064 | pgbench_tellers_pkey  |            73728
 2017-02-09 08:46:24.770636+01 | 1486626384.77064 | pgbench_accounts_pkey |        112336896

 2017-02-09 08:46:25.834714+01 | 1486626385.83471 | pgbench_branches_pkey |            16384
 2017-02-09 08:46:25.834714+01 | 1486626385.83471 | pgbench_tellers_pkey  |            73728
 2017-02-09 08:46:25.834714+01 | 1486626385.83471 | pgbench_accounts_pkey |        112336896

 2017-02-09 08:46:26.895257+01 | 1486626386.89526 | pgbench_branches_pkey |            16384
 2017-02-09 08:46:26.895257+01 | 1486626386.89526 | pgbench_tellers_pkey  |            73728
 2017-02-09 08:46:26.895257+01 | 1486626386.89526 | pgbench_accounts_pkey |        112336896

 2017-02-09 08:46:27.951926+01 | 1486626387.95193 | pgbench_branches_pkey |            16384
 2017-02-09 08:46:27.951926+01 | 1486626387.95193 | pgbench_tellers_pkey  |            73728
 2017-02-09 08:46:27.951926+01 | 1486626387.95193 | pgbench_accounts_pkey |        112336896

 2017-02-09 08:46:29.011271+01 | 1486626389.01127 | pgbench_branches_pkey |            16384
 2017-02-09 08:46:29.011271+01 | 1486626389.01127 | pgbench_tellers_pkey  |            73728
 2017-02-09 08:46:29.011271+01 | 1486626389.01127 | pgbench_accounts_pkey |        112336896

 2017-02-09 08:46:30.077989+01 | 1486626390.07799 | pgbench_branches_pkey |            16384
 2017-02-09 08:46:30.077989+01 | 1486626390.07799 | pgbench_tellers_pkey  |            73728
 2017-02-09 08:46:30.077989+01 | 1486626390.07799 | pgbench_accounts_pkey |        112336896

 2017-02-09 08:46:31.140242+01 | 1486626391.14024 | pgbench_branches_pkey |            16384
 2017-02-09 08:46:31.140242+01 | 1486626391.14024 | pgbench_tellers_pkey  |            73728
 2017-02-09 08:46:31.140242+01 | 1486626391.14024 | pgbench_accounts_pkey |        112336896

 2017-02-09 08:46:32.202455+01 | 1486626392.20246 | pgbench_branches_pkey |            16384
 2017-02-09 08:46:32.202455+01 | 1486626392.20246 | pgbench_tellers_pkey  |            73728
 2017-02-09 08:46:32.202455+01 | 1486626392.20246 | pgbench_accounts_pkey |        112336896

 2017-02-09 08:46:33.264271+01 | 1486626393.26427 | pgbench_branches_pkey |            16384
 2017-02-09 08:46:33.264271+01 | 1486626393.26427 | pgbench_tellers_pkey  |            73728
 2017-02-09 08:46:33.264271+01 | 1486626393.26427 | pgbench_accounts_pkey |        112336896

 2017-02-09 08:46:34.328573+01 | 1486626394.32857 | pgbench_branches_pkey |            16384
 2017-02-09 08:46:34.328573+01 | 1486626394.32857 | pgbench_tellers_pkey  |            73728
 2017-02-09 08:46:34.328573+01 | 1486626394.32857 | pgbench_accounts_pkey |        112336896

 2017-02-09 08:46:35.397442+01 | 1486626395.39744 | pgbench_branches_pkey |            16384
 2017-02-09 08:46:35.397442+01 | 1486626395.39744 | pgbench_tellers_pkey  |            73728
 2017-02-09 08:46:35.397442+01 | 1486626395.39744 | pgbench_accounts_pkey |        112336896

 2017-02-09 08:46:36.477389+01 | 1486626396.47739 | pgbench_branches_pkey |            16384
 2017-02-09 08:46:36.477389+01 | 1486626396.47739 | pgbench_tellers_pkey  |            73728
 2017-02-09 08:46:36.477389+01 | 1486626396.47739 | pgbench_accounts_pkey |        112336896

 2017-02-09 08:46:37.53634+01 | 1486626397.53634 | pgbench_branches_pkey |            16384
 2017-02-09 08:46:37.53634+01 | 1486626397.53634 | pgbench_tellers_pkey  |            73728
 2017-02-09 08:46:37.53634+01 | 1486626397.53634 | pgbench_accounts_pkey |        112336896

 2017-02-09 08:46:38.602838+01 | 1486626398.60284 | pgbench_branches_pkey |            16384
 2017-02-09 08:46:38.602838+01 | 1486626398.60284 | pgbench_tellers_pkey  |            73728
 2017-02-09 08:46:38.602838+01 | 1486626398.60284 | pgbench_accounts_pkey |        112336896

 2017-02-09 08:46:39.668419+01 | 1486626399.66842 | pgbench_branches_pkey |            16384
 2017-02-09 08:46:39.668419+01 | 1486626399.66842 | pgbench_tellers_pkey  |            73728
 2017-02-09 08:46:39.668419+01 | 1486626399.66842 | pgbench_accounts_pkey |        112336896

 2017-02-09 08:46:40.722858+01 | 1486626400.72286 | pgbench_branches_pkey |            16384
 2017-02-09 08:46:40.722858+01 | 1486626400.72286 | pgbench_tellers_pkey  |            73728
 2017-02-09 08:46:40.722858+01 | 1486626400.72286 | pgbench_accounts_pkey |        112336896

 2017-02-09 08:46:41.786199+01 | 1486626401.7862 | pgbench_branches_pkey |            16384
 2017-02-09 08:46:41.786199+01 | 1486626401.7862 | pgbench_tellers_pkey  |            73728
 2017-02-09 08:46:41.786199+01 | 1486626401.7862 | pgbench_accounts_pkey |        112336896

 2017-02-09 08:46:42.850386+01 | 1486626402.85039 | pgbench_branches_pkey |            16384
 2017-02-09 08:46:42.850386+01 | 1486626402.85039 | pgbench_tellers_pkey  |            73728
 2017-02-09 08:46:42.850386+01 | 1486626402.85039 | pgbench_accounts_pkey |        112336896

 2017-02-09 08:46:43.908674+01 | 1486626403.90867 | pgbench_branches_pkey |            16384
 2017-02-09 08:46:43.908674+01 | 1486626403.90867 | pgbench_tellers_pkey  |            73728
 2017-02-09 08:46:43.908674+01 | 1486626403.90867 | pgbench_accounts_pkey |        112336896

 2017-02-09 08:46:44.986435+01 | 1486626404.98643 | pgbench_branches_pkey |            16384
 2017-02-09 08:46:44.986435+01 | 1486626404.98643 | pgbench_tellers_pkey  |            73728
 2017-02-09 08:46:44.986435+01 | 1486626404.98643 | pgbench_accounts_pkey |        112336896

 2017-02-09 08:46:46.048032+01 | 1486626406.04803 | pgbench_branches_pkey |            16384
 2017-02-09 08:46:46.048032+01 | 1486626406.04803 | pgbench_tellers_pkey  |            73728
 2017-02-09 08:46:46.048032+01 | 1486626406.04803 | pgbench_accounts_pkey |        112336896

 2017-02-09 08:46:47.110137+01 | 1486626407.11014 | pgbench_branches_pkey |            16384
 2017-02-09 08:46:47.110137+01 | 1486626407.11014 | pgbench_tellers_pkey  |            73728
 2017-02-09 08:46:47.110137+01 | 1486626407.11014 | pgbench_accounts_pkey |        112336896

 2017-02-09 08:46:48.179155+01 | 1486626408.17916 | pgbench_branches_pkey |            16384
 2017-02-09 08:46:48.179155+01 | 1486626408.17916 | pgbench_tellers_pkey  |            73728
 2017-02-09 08:46:48.179155+01 | 1486626408.17916 | pgbench_accounts_pkey |        112336896

 2017-02-09 08:46:49.243141+01 | 1486626409.24314 | pgbench_branches_pkey |            16384
 2017-02-09 08:46:49.243141+01 | 1486626409.24314 | pgbench_tellers_pkey  |            73728
 2017-02-09 08:46:49.243141+01 | 1486626409.24314 | pgbench_accounts_pkey |        112336896

 2017-02-09 08:46:50.304805+01 | 1486626410.30481 | pgbench_branches_pkey |            16384
 2017-02-09 08:46:50.304805+01 | 1486626410.30481 | pgbench_tellers_pkey  |            73728
 2017-02-09 08:46:50.304805+01 | 1486626410.30481 | pgbench_accounts_pkey |        112336896

 2017-02-09 08:46:51.386126+01 | 1486626411.38613 | pgbench_branches_pkey |            16384
 2017-02-09 08:46:51.386126+01 | 1486626411.38613 | pgbench_tellers_pkey  |            73728
 2017-02-09 08:46:51.386126+01 | 1486626411.38613 | pgbench_accounts_pkey |        112336896

 2017-02-09 08:46:52.47895+01 | 1486626412.47895 | pgbench_branches_pkey |            16384
 2017-02-09 08:46:52.47895+01 | 1486626412.47895 | pgbench_tellers_pkey  |            73728
 2017-02-09 08:46:52.47895+01 | 1486626412.47895 | pgbench_accounts_pkey |        112336896

 2017-02-09 08:46:53.549343+01 | 1486626413.54934 | pgbench_branches_pkey |            16384
 2017-02-09 08:46:53.549343+01 | 1486626413.54934 | pgbench_tellers_pkey  |            73728
 2017-02-09 08:46:53.549343+01 | 1486626413.54934 | pgbench_accounts_pkey |        112336896

 2017-02-09 08:46:54.613976+01 | 1486626414.61398 | pgbench_branches_pkey |            16384
 2017-02-09 08:46:54.613976+01 | 1486626414.61398 | pgbench_tellers_pkey  |            73728
 2017-02-09 08:46:54.613976+01 | 1486626414.61398 | pgbench_accounts_pkey |        112336896

 2017-02-09 08:46:55.6832+01 | 1486626415.6832 | pgbench_branches_pkey |            16384
 2017-02-09 08:46:55.6832+01 | 1486626415.6832 | pgbench_tellers_pkey  |            73728
 2017-02-09 08:46:55.6832+01 | 1486626415.6832 | pgbench_accounts_pkey |        112336896

 2017-02-09 08:46:56.761111+01 | 1486626416.76111 | pgbench_branches_pkey |            16384
 2017-02-09 08:46:56.761111+01 | 1486626416.76111 | pgbench_tellers_pkey  |            73728
 2017-02-09 08:46:56.761111+01 | 1486626416.76111 | pgbench_accounts_pkey |        112336896

 2017-02-09 08:46:57.829203+01 | 1486626417.8292 | pgbench_branches_pkey |            16384
 2017-02-09 08:46:57.829203+01 | 1486626417.8292 | pgbench_tellers_pkey  |            73728
 2017-02-09 08:46:57.829203+01 | 1486626417.8292 | pgbench_accounts_pkey |        112336896

 2017-02-09 08:46:58.888415+01 | 1486626418.88842 | pgbench_branches_pkey |            16384
 2017-02-09 08:46:58.888415+01 | 1486626418.88842 | pgbench_tellers_pkey  |            73728
 2017-02-09 08:46:58.888415+01 | 1486626418.88842 | pgbench_accounts_pkey |        112336896

 2017-02-09 08:46:59.959657+01 | 1486626419.95966 | pgbench_branches_pkey |            16384
 2017-02-09 08:46:59.959657+01 | 1486626419.95966 | pgbench_tellers_pkey  |            73728
 2017-02-09 08:46:59.959657+01 | 1486626419.95966 | pgbench_accounts_pkey |        112336896

 2017-02-09 08:47:01.037148+01 | 1486626421.03715 | pgbench_branches_pkey |            16384
 2017-02-09 08:47:01.037148+01 | 1486626421.03715 | pgbench_tellers_pkey  |            73728
 2017-02-09 08:47:01.037148+01 | 1486626421.03715 | pgbench_accounts_pkey |        112336896

 2017-02-09 08:47:02.103023+01 | 1486626422.10302 | pgbench_branches_pkey |            16384
 2017-02-09 08:47:02.103023+01 | 1486626422.10302 | pgbench_tellers_pkey  |            73728
 2017-02-09 08:47:02.103023+01 | 1486626422.10302 | pgbench_accounts_pkey |        112336896

 2017-02-09 08:47:03.169799+01 | 1486626423.1698 | pgbench_branches_pkey |            16384
 2017-02-09 08:47:03.169799+01 | 1486626423.1698 | pgbench_tellers_pkey  |            73728
 2017-02-09 08:47:03.169799+01 | 1486626423.1698 | pgbench_accounts_pkey |        112336896

 2017-02-09 08:47:04.233527+01 | 1486626424.23353 | pgbench_branches_pkey |            16384
 2017-02-09 08:47:04.233527+01 | 1486626424.23353 | pgbench_tellers_pkey  |            73728
 2017-02-09 08:47:04.233527+01 | 1486626424.23353 | pgbench_accounts_pkey |        112336896

 2017-02-09 08:47:05.293554+01 | 1486626425.29355 | pgbench_branches_pkey |            16384
 2017-02-09 08:47:05.293554+01 | 1486626425.29355 | pgbench_tellers_pkey  |            73728
 2017-02-09 08:47:05.293554+01 | 1486626425.29355 | pgbench_accounts_pkey |        112336896

 2017-02-09 08:47:06.35413+01 | 1486626426.35413 | pgbench_branches_pkey |            16384
 2017-02-09 08:47:06.35413+01 | 1486626426.35413 | pgbench_tellers_pkey  |            73728
 2017-02-09 08:47:06.35413+01 | 1486626426.35413 | pgbench_accounts_pkey |        112336896

 2017-02-09 08:47:07.424551+01 | 1486626427.42455 | pgbench_branches_pkey |            16384
 2017-02-09 08:47:07.424551+01 | 1486626427.42455 | pgbench_tellers_pkey  |            73728
 2017-02-09 08:47:07.424551+01 | 1486626427.42455 | pgbench_accounts_pkey |        112336896

 2017-02-09 08:47:08.48546+01 | 1486626428.48546 | pgbench_branches_pkey |            16384
 2017-02-09 08:47:08.48546+01 | 1486626428.48546 | pgbench_tellers_pkey  |            73728
 2017-02-09 08:47:08.48546+01 | 1486626428.48546 | pgbench_accounts_pkey |        112336896

 2017-02-09 08:47:09.545943+01 | 1486626429.54594 | pgbench_branches_pkey |            16384
 2017-02-09 08:47:09.545943+01 | 1486626429.54594 | pgbench_tellers_pkey  |            73728
 2017-02-09 08:47:09.545943+01 | 1486626429.54594 | pgbench_accounts_pkey |        112336896

 2017-02-09 08:47:10.616183+01 | 1486626430.61618 | pgbench_branches_pkey |            16384
 2017-02-09 08:47:10.616183+01 | 1486626430.61618 | pgbench_tellers_pkey  |            73728
 2017-02-09 08:47:10.616183+01 | 1486626430.61618 | pgbench_accounts_pkey |        112336896

 2017-02-09 08:47:11.67642+01 | 1486626431.67642 | pgbench_branches_pkey |            16384
 2017-02-09 08:47:11.67642+01 | 1486626431.67642 | pgbench_tellers_pkey  |            73728
 2017-02-09 08:47:11.67642+01 | 1486626431.67642 | pgbench_accounts_pkey |        112336896

 2017-02-09 08:47:12.744264+01 | 1486626432.74426 | pgbench_branches_pkey |            16384
 2017-02-09 08:47:12.744264+01 | 1486626432.74426 | pgbench_tellers_pkey  |            73728
 2017-02-09 08:47:12.744264+01 | 1486626432.74426 | pgbench_accounts_pkey |        112336896

 2017-02-09 08:47:13.803839+01 | 1486626433.80384 | pgbench_branches_pkey |            16384
 2017-02-09 08:47:13.803839+01 | 1486626433.80384 | pgbench_tellers_pkey  |            73728
 2017-02-09 08:47:13.803839+01 | 1486626433.80384 | pgbench_accounts_pkey |        112336896

 2017-02-09 08:47:14.866692+01 | 1486626434.86669 | pgbench_branches_pkey |            16384
 2017-02-09 08:47:14.866692+01 | 1486626434.86669 | pgbench_tellers_pkey  |            73728
 2017-02-09 08:47:14.866692+01 | 1486626434.86669 | pgbench_accounts_pkey |        112336896

 2017-02-09 08:47:15.940882+01 | 1486626435.94088 | pgbench_branches_pkey |            16384
 2017-02-09 08:47:15.940882+01 | 1486626435.94088 | pgbench_tellers_pkey  |            73728
 2017-02-09 08:47:15.940882+01 | 1486626435.94088 | pgbench_accounts_pkey |        112336896

 2017-02-09 08:47:17.002487+01 | 1486626437.00249 | pgbench_branches_pkey |            16384
 2017-02-09 08:47:17.002487+01 | 1486626437.00249 | pgbench_tellers_pkey  |            73728
 2017-02-09 08:47:17.002487+01 | 1486626437.00249 | pgbench_accounts_pkey |        112336896

 2017-02-09 08:47:18.069747+01 | 1486626438.06975 | pgbench_branches_pkey |            16384
 2017-02-09 08:47:18.069747+01 | 1486626438.06975 | pgbench_tellers_pkey  |            73728
 2017-02-09 08:47:18.069747+01 | 1486626438.06975 | pgbench_accounts_pkey |        112336896

 2017-02-09 08:47:19.13433+01 | 1486626439.13433 | pgbench_branches_pkey |            16384
 2017-02-09 08:47:19.13433+01 | 1486626439.13433 | pgbench_tellers_pkey  |            73728
 2017-02-09 08:47:19.13433+01 | 1486626439.13433 | pgbench_accounts_pkey |        112336896

 2017-02-09 08:47:20.195666+01 | 1486626440.19567 | pgbench_branches_pkey |            16384
 2017-02-09 08:47:20.195666+01 | 1486626440.19567 | pgbench_tellers_pkey  |            73728
 2017-02-09 08:47:20.195666+01 | 1486626440.19567 | pgbench_accounts_pkey |        112336896

 2017-02-09 08:47:21.2607+01 | 1486626441.2607 | pgbench_branches_pkey |            16384
 2017-02-09 08:47:21.2607+01 | 1486626441.2607 | pgbench_tellers_pkey  |            73728
 2017-02-09 08:47:21.2607+01 | 1486626441.2607 | pgbench_accounts_pkey |        112336896

 2017-02-09 08:47:22.324523+01 | 1486626442.32452 | pgbench_branches_pkey |            16384
 2017-02-09 08:47:22.324523+01 | 1486626442.32452 | pgbench_tellers_pkey  |            73728
 2017-02-09 08:47:22.324523+01 | 1486626442.32452 | pgbench_accounts_pkey |        112336896

 2017-02-09 08:47:23.395212+01 | 1486626443.39521 | pgbench_branches_pkey |            16384
 2017-02-09 08:47:23.395212+01 | 1486626443.39521 | pgbench_tellers_pkey  |            73728
 2017-02-09 08:47:23.395212+01 | 1486626443.39521 | pgbench_accounts_pkey |        112336896

 2017-02-09 08:47:24.463577+01 | 1486626444.46358 | pgbench_branches_pkey |            16384
 2017-02-09 08:47:24.463577+01 | 1486626444.46358 | pgbench_tellers_pkey  |            73728
 2017-02-09 08:47:24.463577+01 | 1486626444.46358 | pgbench_accounts_pkey |        112336896

 2017-02-09 08:47:25.520974+01 | 1486626445.52097 | pgbench_branches_pkey |            16384
 2017-02-09 08:47:25.520974+01 | 1486626445.52097 | pgbench_tellers_pkey  |            73728
 2017-02-09 08:47:25.520974+01 | 1486626445.52097 | pgbench_accounts_pkey |        112336896

 2017-02-09 08:47:26.585479+01 | 1486626446.58548 | pgbench_branches_pkey |            16384
 2017-02-09 08:47:26.585479+01 | 1486626446.58548 | pgbench_tellers_pkey  |            73728
 2017-02-09 08:47:26.585479+01 | 1486626446.58548 | pgbench_accounts_pkey |        112336896

 2017-02-09 08:47:27.650915+01 | 1486626447.65091 | pgbench_branches_pkey |            16384
 2017-02-09 08:47:27.650915+01 | 1486626447.65091 | pgbench_tellers_pkey  |            73728
 2017-02-09 08:47:27.650915+01 | 1486626447.65091 | pgbench_accounts_pkey |        112336896

 2017-02-09 08:47:28.709547+01 | 1486626448.70955 | pgbench_branches_pkey |            16384
 2017-02-09 08:47:28.709547+01 | 1486626448.70955 | pgbench_tellers_pkey  |            73728
 2017-02-09 08:47:28.709547+01 | 1486626448.70955 | pgbench_accounts_pkey |        112336896

 2017-02-09 08:47:29.773436+01 | 1486626449.77344 | pgbench_branches_pkey |            16384
 2017-02-09 08:47:29.773436+01 | 1486626449.77344 | pgbench_tellers_pkey  |            73728
 2017-02-09 08:47:29.773436+01 | 1486626449.77344 | pgbench_accounts_pkey |        112336896

 2017-02-09 08:47:30.844682+01 | 1486626450.84468 | pgbench_branches_pkey |            16384
 2017-02-09 08:47:30.844682+01 | 1486626450.84468 | pgbench_tellers_pkey  |            73728
 2017-02-09 08:47:30.844682+01 | 1486626450.84468 | pgbench_accounts_pkey |        112336896

 2017-02-09 08:47:31.918984+01 | 1486626451.91898 | pgbench_branches_pkey |            16384
 2017-02-09 08:47:31.918984+01 | 1486626451.91898 | pgbench_tellers_pkey  |            73728
 2017-02-09 08:47:31.918984+01 | 1486626451.91898 | pgbench_accounts_pkey |        112336896

 2017-02-09 08:47:32.97594+01 | 1486626452.97594 | pgbench_branches_pkey |            16384
 2017-02-09 08:47:32.97594+01 | 1486626452.97594 | pgbench_tellers_pkey  |            73728
 2017-02-09 08:47:32.97594+01 | 1486626452.97594 | pgbench_accounts_pkey |        112336896

 2017-02-09 08:47:34.035276+01 | 1486626454.03528 | pgbench_branches_pkey |            16384
 2017-02-09 08:47:34.035276+01 | 1486626454.03528 | pgbench_tellers_pkey  |            73728
 2017-02-09 08:47:34.035276+01 | 1486626454.03528 | pgbench_accounts_pkey |        112336896

 2017-02-09 08:47:35.117385+01 | 1486626455.11738 | pgbench_branches_pkey |            16384
 2017-02-09 08:47:35.117385+01 | 1486626455.11738 | pgbench_tellers_pkey  |            73728
 2017-02-09 08:47:35.117385+01 | 1486626455.11738 | pgbench_accounts_pkey |        112336896

 2017-02-09 08:47:36.177873+01 | 1486626456.17787 | pgbench_branches_pkey |            16384
 2017-02-09 08:47:36.177873+01 | 1486626456.17787 | pgbench_tellers_pkey  |            73728
 2017-02-09 08:47:36.177873+01 | 1486626456.17787 | pgbench_accounts_pkey |        112336896

 2017-02-09 08:47:37.235187+01 | 1486626457.23519 | pgbench_branches_pkey |            16384
 2017-02-09 08:47:37.235187+01 | 1486626457.23519 | pgbench_tellers_pkey  |            73728
 2017-02-09 08:47:37.235187+01 | 1486626457.23519 | pgbench_accounts_pkey |        112336896

 2017-02-09 08:47:38.294367+01 | 1486626458.29437 | pgbench_branches_pkey |            16384
 2017-02-09 08:47:38.294367+01 | 1486626458.29437 | pgbench_tellers_pkey  |            73728
 2017-02-09 08:47:38.294367+01 | 1486626458.29437 | pgbench_accounts_pkey |        112336896

 2017-02-09 08:47:39.350172+01 | 1486626459.35017 | pgbench_branches_pkey |            16384
 2017-02-09 08:47:39.350172+01 | 1486626459.35017 | pgbench_tellers_pkey  |            73728
 2017-02-09 08:47:39.350172+01 | 1486626459.35017 | pgbench_accounts_pkey |        112336896

 2017-02-09 08:47:40.413099+01 | 1486626460.4131 | pgbench_branches_pkey |            16384
 2017-02-09 08:47:40.413099+01 | 1486626460.4131 | pgbench_tellers_pkey  |            73728
 2017-02-09 08:47:40.413099+01 | 1486626460.4131 | pgbench_accounts_pkey |        112336896

 2017-02-09 08:47:41.474947+01 | 1486626461.47495 | pgbench_branches_pkey |            16384
 2017-02-09 08:47:41.474947+01 | 1486626461.47495 | pgbench_tellers_pkey  |            73728
 2017-02-09 08:47:41.474947+01 | 1486626461.47495 | pgbench_accounts_pkey |        112336896

 2017-02-09 08:47:42.543073+01 | 1486626462.54307 | pgbench_branches_pkey |            16384
 2017-02-09 08:47:42.543073+01 | 1486626462.54307 | pgbench_tellers_pkey  |            73728
 2017-02-09 08:47:42.543073+01 | 1486626462.54307 | pgbench_accounts_pkey |        112336896

 2017-02-09 08:47:43.609446+01 | 1486626463.60945 | pgbench_branches_pkey |            16384
 2017-02-09 08:47:43.609446+01 | 1486626463.60945 | pgbench_tellers_pkey  |            73728
 2017-02-09 08:47:43.609446+01 | 1486626463.60945 | pgbench_accounts_pkey |        112336896

 2017-02-09 08:47:44.674962+01 | 1486626464.67496 | pgbench_branches_pkey |            16384
 2017-02-09 08:47:44.674962+01 | 1486626464.67496 | pgbench_tellers_pkey  |            73728
 2017-02-09 08:47:44.674962+01 | 1486626464.67496 | pgbench_accounts_pkey |        112336896

 2017-02-09 08:47:45.751348+01 | 1486626465.75135 | pgbench_branches_pkey |            16384
 2017-02-09 08:47:45.751348+01 | 1486626465.75135 | pgbench_tellers_pkey  |            73728
 2017-02-09 08:47:45.751348+01 | 1486626465.75135 | pgbench_accounts_pkey |        112336896

 2017-02-09 08:47:46.812703+01 | 1486626466.8127 | pgbench_branches_pkey |            16384
 2017-02-09 08:47:46.812703+01 | 1486626466.8127 | pgbench_tellers_pkey  |            73728
 2017-02-09 08:47:46.812703+01 | 1486626466.8127 | pgbench_accounts_pkey |        112336896

 2017-02-09 08:47:47.879101+01 | 1486626467.8791 | pgbench_branches_pkey |            16384
 2017-02-09 08:47:47.879101+01 | 1486626467.8791 | pgbench_tellers_pkey  |            73728
 2017-02-09 08:47:47.879101+01 | 1486626467.8791 | pgbench_accounts_pkey |        112336896

 2017-02-09 08:47:48.937286+01 | 1486626468.93729 | pgbench_branches_pkey |            16384
 2017-02-09 08:47:48.937286+01 | 1486626468.93729 | pgbench_tellers_pkey  |            73728
 2017-02-09 08:47:48.937286+01 | 1486626468.93729 | pgbench_accounts_pkey |        112336896

 2017-02-09 08:47:50.010489+01 | 1486626470.01049 | pgbench_branches_pkey |            16384
 2017-02-09 08:47:50.010489+01 | 1486626470.01049 | pgbench_tellers_pkey  |            73728
 2017-02-09 08:47:50.010489+01 | 1486626470.01049 | pgbench_accounts_pkey |        112336896

 2017-02-09 08:47:51.077002+01 | 1486626471.077 | pgbench_branches_pkey |            16384
 2017-02-09 08:47:51.077002+01 | 1486626471.077 | pgbench_tellers_pkey  |            73728
 2017-02-09 08:47:51.077002+01 | 1486626471.077 | pgbench_accounts_pkey |        112336896

 2017-02-09 08:47:52.156728+01 | 1486626472.15673 | pgbench_branches_pkey |            16384
 2017-02-09 08:47:52.156728+01 | 1486626472.15673 | pgbench_tellers_pkey  |            73728
 2017-02-09 08:47:52.156728+01 | 1486626472.15673 | pgbench_accounts_pkey |        112336896

 2017-02-09 08:47:53.214014+01 | 1486626473.21401 | pgbench_branches_pkey |            16384
 2017-02-09 08:47:53.214014+01 | 1486626473.21401 | pgbench_tellers_pkey  |            73728
 2017-02-09 08:47:53.214014+01 | 1486626473.21401 | pgbench_accounts_pkey |        112336896

 2017-02-09 08:47:54.310105+01 | 1486626474.31011 | pgbench_branches_pkey |            16384
 2017-02-09 08:47:54.310105+01 | 1486626474.31011 | pgbench_tellers_pkey  |            73728
 2017-02-09 08:47:54.310105+01 | 1486626474.31011 | pgbench_accounts_pkey |        112336896

 2017-02-09 08:47:55.370012+01 | 1486626475.37001 | pgbench_branches_pkey |            16384
 2017-02-09 08:47:55.370012+01 | 1486626475.37001 | pgbench_tellers_pkey  |            73728
 2017-02-09 08:47:55.370012+01 | 1486626475.37001 | pgbench_accounts_pkey |        112336896

 2017-02-09 08:47:56.426749+01 | 1486626476.42675 | pgbench_branches_pkey |            16384
 2017-02-09 08:47:56.426749+01 | 1486626476.42675 | pgbench_tellers_pkey  |            73728
 2017-02-09 08:47:56.426749+01 | 1486626476.42675 | pgbench_accounts_pkey |        112336896

 2017-02-09 08:47:57.484015+01 | 1486626477.48401 | pgbench_branches_pkey |            16384
 2017-02-09 08:47:57.484015+01 | 1486626477.48401 | pgbench_tellers_pkey  |            73728
 2017-02-09 08:47:57.484015+01 | 1486626477.48401 | pgbench_accounts_pkey |        112336896

 2017-02-09 08:47:58.547998+01 | 1486626478.548 | pgbench_branches_pkey |            16384
 2017-02-09 08:47:58.547998+01 | 1486626478.548 | pgbench_tellers_pkey  |            73728
 2017-02-09 08:47:58.547998+01 | 1486626478.548 | pgbench_accounts_pkey |        112336896

 2017-02-09 08:47:59.612338+01 | 1486626479.61234 | pgbench_branches_pkey |            16384
 2017-02-09 08:47:59.612338+01 | 1486626479.61234 | pgbench_tellers_pkey  |            73728
 2017-02-09 08:47:59.612338+01 | 1486626479.61234 | pgbench_accounts_pkey |        112336896

 2017-02-09 08:48:00.674363+01 | 1486626480.67436 | pgbench_branches_pkey |            16384
 2017-02-09 08:48:00.674363+01 | 1486626480.67436 | pgbench_tellers_pkey  |            73728
 2017-02-09 08:48:00.674363+01 | 1486626480.67436 | pgbench_accounts_pkey |        112336896

 2017-02-09 08:48:01.735174+01 | 1486626481.73517 | pgbench_branches_pkey |            16384
 2017-02-09 08:48:01.735174+01 | 1486626481.73517 | pgbench_tellers_pkey  |            73728
 2017-02-09 08:48:01.735174+01 | 1486626481.73517 | pgbench_accounts_pkey |        112336896

 2017-02-09 08:48:02.795219+01 | 1486626482.79522 | pgbench_branches_pkey |            16384
 2017-02-09 08:48:02.795219+01 | 1486626482.79522 | pgbench_tellers_pkey  |            73728
 2017-02-09 08:48:02.795219+01 | 1486626482.79522 | pgbench_accounts_pkey |        112336896

 2017-02-09 08:48:03.859718+01 | 1486626483.85972 | pgbench_branches_pkey |            16384
 2017-02-09 08:48:03.859718+01 | 1486626483.85972 | pgbench_tellers_pkey  |            73728
 2017-02-09 08:48:03.859718+01 | 1486626483.85972 | pgbench_accounts_pkey |        112336896

 2017-02-09 08:48:04.920178+01 | 1486626484.92018 | pgbench_branches_pkey |            16384
 2017-02-09 08:48:04.920178+01 | 1486626484.92018 | pgbench_tellers_pkey  |            73728
 2017-02-09 08:48:04.920178+01 | 1486626484.92018 | pgbench_accounts_pkey |        112336896

 2017-02-09 08:48:05.984762+01 | 1486626485.98476 | pgbench_branches_pkey |            16384
 2017-02-09 08:48:05.984762+01 | 1486626485.98476 | pgbench_tellers_pkey  |            73728
 2017-02-09 08:48:05.984762+01 | 1486626485.98476 | pgbench_accounts_pkey |        112336896

 2017-02-09 08:48:07.048423+01 | 1486626487.04842 | pgbench_branches_pkey |            16384
 2017-02-09 08:48:07.048423+01 | 1486626487.04842 | pgbench_tellers_pkey  |            73728
 2017-02-09 08:48:07.048423+01 | 1486626487.04842 | pgbench_accounts_pkey |        112336896

 2017-02-09 08:48:08.102933+01 | 1486626488.10293 | pgbench_branches_pkey |            16384
 2017-02-09 08:48:08.102933+01 | 1486626488.10293 | pgbench_tellers_pkey  |            73728
 2017-02-09 08:48:08.102933+01 | 1486626488.10293 | pgbench_accounts_pkey |        112336896

 2017-02-09 08:48:09.171827+01 | 1486626489.17183 | pgbench_branches_pkey |            16384
 2017-02-09 08:48:09.171827+01 | 1486626489.17183 | pgbench_tellers_pkey  |            73728
 2017-02-09 08:48:09.171827+01 | 1486626489.17183 | pgbench_accounts_pkey |        112336896

 2017-02-09 08:48:10.228922+01 | 1486626490.22892 | pgbench_branches_pkey |            16384
 2017-02-09 08:48:10.228922+01 | 1486626490.22892 | pgbench_tellers_pkey  |            73728
 2017-02-09 08:48:10.228922+01 | 1486626490.22892 | pgbench_accounts_pkey |        112336896

 2017-02-09 08:48:11.285301+01 | 1486626491.2853 | pgbench_branches_pkey |            16384
 2017-02-09 08:48:11.285301+01 | 1486626491.2853 | pgbench_tellers_pkey  |            73728
 2017-02-09 08:48:11.285301+01 | 1486626491.2853 | pgbench_accounts_pkey |        112336896

 2017-02-09 08:48:12.341935+01 | 1486626492.34193 | pgbench_branches_pkey |            16384
 2017-02-09 08:48:12.341935+01 | 1486626492.34193 | pgbench_tellers_pkey  |            73728
 2017-02-09 08:48:12.341935+01 | 1486626492.34193 | pgbench_accounts_pkey |        112336896

 2017-02-09 08:48:13.419475+01 | 1486626493.41948 | pgbench_branches_pkey |            16384
 2017-02-09 08:48:13.419475+01 | 1486626493.41948 | pgbench_tellers_pkey  |            73728
 2017-02-09 08:48:13.419475+01 | 1486626493.41948 | pgbench_accounts_pkey |        112336896

 2017-02-09 08:48:14.4827+01 | 1486626494.4827 | pgbench_branches_pkey |            16384
 2017-02-09 08:48:14.4827+01 | 1486626494.4827 | pgbench_tellers_pkey  |            73728
 2017-02-09 08:48:14.4827+01 | 1486626494.4827 | pgbench_accounts_pkey |        112336896

 2017-02-09 08:48:15.544383+01 | 1486626495.54438 | pgbench_branches_pkey |            16384
 2017-02-09 08:48:15.544383+01 | 1486626495.54438 | pgbench_tellers_pkey  |            73728
 2017-02-09 08:48:15.544383+01 | 1486626495.54438 | pgbench_accounts_pkey |        112336896

 2017-02-09 08:48:16.605272+01 | 1486626496.60527 | pgbench_branches_pkey |            16384
 2017-02-09 08:48:16.605272+01 | 1486626496.60527 | pgbench_tellers_pkey  |            73728
 2017-02-09 08:48:16.605272+01 | 1486626496.60527 | pgbench_accounts_pkey |        112336896

 2017-02-09 08:48:17.672689+01 | 1486626497.67269 | pgbench_branches_pkey |            16384
 2017-02-09 08:48:17.672689+01 | 1486626497.67269 | pgbench_tellers_pkey  |            73728
 2017-02-09 08:48:17.672689+01 | 1486626497.67269 | pgbench_accounts_pkey |        112336896

 2017-02-09 08:48:18.731241+01 | 1486626498.73124 | pgbench_branches_pkey |            16384
 2017-02-09 08:48:18.731241+01 | 1486626498.73124 | pgbench_tellers_pkey  |            73728
 2017-02-09 08:48:18.731241+01 | 1486626498.73124 | pgbench_accounts_pkey |        112336896

 2017-02-09 08:48:19.807865+01 | 1486626499.80786 | pgbench_branches_pkey |            16384
 2017-02-09 08:48:19.807865+01 | 1486626499.80786 | pgbench_tellers_pkey  |            73728
 2017-02-09 08:48:19.807865+01 | 1486626499.80786 | pgbench_accounts_pkey |        112336896

 2017-02-09 08:48:20.88015+01 | 1486626500.88015 | pgbench_branches_pkey |            16384
 2017-02-09 08:48:20.88015+01 | 1486626500.88015 | pgbench_tellers_pkey  |            73728
 2017-02-09 08:48:20.88015+01 | 1486626500.88015 | pgbench_accounts_pkey |        112336896

 2017-02-09 08:48:21.941461+01 | 1486626501.94146 | pgbench_branches_pkey |            16384
 2017-02-09 08:48:21.941461+01 | 1486626501.94146 | pgbench_tellers_pkey  |            73728
 2017-02-09 08:48:21.941461+01 | 1486626501.94146 | pgbench_accounts_pkey |        112336896

 2017-02-09 08:48:23.00704+01 | 1486626503.00704 | pgbench_branches_pkey |            16384
 2017-02-09 08:48:23.00704+01 | 1486626503.00704 | pgbench_tellers_pkey  |            73728
 2017-02-09 08:48:23.00704+01 | 1486626503.00704 | pgbench_accounts_pkey |        112336896

 2017-02-09 08:48:24.063691+01 | 1486626504.06369 | pgbench_branches_pkey |            16384
 2017-02-09 08:48:24.063691+01 | 1486626504.06369 | pgbench_tellers_pkey  |            73728
 2017-02-09 08:48:24.063691+01 | 1486626504.06369 | pgbench_accounts_pkey |        112336896

 2017-02-09 08:48:25.124251+01 | 1486626505.12425 | pgbench_branches_pkey |            16384
 2017-02-09 08:48:25.124251+01 | 1486626505.12425 | pgbench_tellers_pkey  |            73728
 2017-02-09 08:48:25.124251+01 | 1486626505.12425 | pgbench_accounts_pkey |        112336896

 2017-02-09 08:48:26.190798+01 | 1486626506.1908 | pgbench_branches_pkey |            16384
 2017-02-09 08:48:26.190798+01 | 1486626506.1908 | pgbench_tellers_pkey  |            73728
 2017-02-09 08:48:26.190798+01 | 1486626506.1908 | pgbench_accounts_pkey |        112336896

 2017-02-09 08:48:27.266597+01 | 1486626507.2666 | pgbench_branches_pkey |            16384
 2017-02-09 08:48:27.266597+01 | 1486626507.2666 | pgbench_tellers_pkey  |            73728
 2017-02-09 08:48:27.266597+01 | 1486626507.2666 | pgbench_accounts_pkey |        112336896

