 2017-02-08 15:15:23.17438+01 | 1486563323.17438 | 0/27CC4658               |             667698776

 2017-02-08 15:15:24.352408+01 | 1486563324.35241 | 0/283E4F28               |             675172136

 2017-02-08 15:15:25.619717+01 | 1486563325.61972 | 0/28B4ADF8               |             682929656

 2017-02-08 15:15:26.852315+01 | 1486563326.85231 | 0/29200488               |             689964168

 2017-02-08 15:15:28.150691+01 | 1486563328.15069 | 0/2991BD50               |             697417040

 2017-02-08 15:15:29.38993+01 | 1486563329.38993 | 0/29FC7020               |             704409632

 2017-02-08 15:15:30.469868+01 | 1486563330.46987 | 0/2A58E508               |             710468872

 2017-02-08 15:15:31.702679+01 | 1486563331.70268 | 0/2AC45088               |             717508744

 2017-02-08 15:15:32.840954+01 | 1486563332.84095 | 0/2B222FB0               |             723660720

 2017-02-08 15:15:34.047225+01 | 1486563334.04722 | 0/2B880AD8               |             730335960

 2017-02-08 15:15:35.263844+01 | 1486563335.26384 | 0/2BEE8A58               |             737053272

 2017-02-08 15:15:36.427608+01 | 1486563336.42761 | 0/2C4F2358               |             743383896

 2017-02-08 15:15:37.694213+01 | 1486563337.69421 | 0/2CBB9420               |             750490656

 2017-02-08 15:15:38.968802+01 | 1486563338.9688 | 0/2D26E548               |             757523784

 2017-02-08 15:15:40.151274+01 | 1486563340.15127 | 0/2D8972A0               |             763982496

 2017-02-08 15:15:41.402183+01 | 1486563341.40218 | 0/2DF38DF0               |             770936304

 2017-02-08 15:15:42.592146+01 | 1486563342.59215 | 0/2E569818               |             777426968

 2017-02-08 15:15:43.854322+01 | 1486563343.85432 | 0/2EBF56E8               |             784291560

 2017-02-08 15:15:45.046362+01 | 1486563345.04636 | 0/2F227AB8               |             790788792

 2017-02-08 15:15:46.273874+01 | 1486563346.27387 | 0/2F88E2B0               |             797500080

 2017-02-08 15:15:47.502836+01 | 1486563347.50284 | 0/2FF0AFF8               |             804302840

 2017-02-08 15:15:48.733033+01 | 1486563348.73303 | 0/30565E18               |             810966552

 2017-02-08 15:15:49.998397+01 | 1486563349.9984 | 0/30C04250               |             817906256

 2017-02-08 15:15:51.216959+01 | 1486563351.21696 | 0/3124D280               |             824496768

 2017-02-08 15:15:52.345149+01 | 1486563352.34515 | 0/3183EC90               |             830729360

 2017-02-08 15:15:53.603653+01 | 1486563353.60365 | 0/31EE87A0               |             837715872

 2017-02-08 15:15:54.7517+01 | 1486563354.7517 | 0/324A7540               |             843740480

 2017-02-08 15:15:55.997689+01 | 1486563355.99769 | 0/32B2F090               |             850587792

 2017-02-08 15:15:57.270784+01 | 1486563357.27078 | 0/331CDB80               |             857529216

 2017-02-08 15:15:58.49356+01 | 1486563358.49356 | 0/3380D6C8               |             864081608

 2017-02-08 15:15:59.635674+01 | 1486563359.63567 | 0/33DFA350               |             870294352

 2017-02-08 15:16:00.888025+01 | 1486563360.88803 | 0/344612B8               |             877007544

 2017-02-08 15:16:02.090881+01 | 1486563362.09088 | 0/34AA9758               |             883595096

 2017-02-08 15:16:03.327896+01 | 1486563363.3279 | 0/350FAB60               |             890219360

 2017-02-08 15:16:04.615376+01 | 1486563364.61538 | 0/357D3608               |             897398280

 2017-02-08 15:16:05.820602+01 | 1486563365.8206 | 0/35E184E8               |             903972072

 2017-02-08 15:16:07.037868+01 | 1486563367.03787 | 0/3644ABE0               |             910470112

 2017-02-08 15:16:08.273903+01 | 1486563368.2739 | 0/36AC0CF0               |             917245168

 2017-02-08 15:16:09.439019+01 | 1486563369.43902 | 0/370A5AC8               |             923425480

 2017-02-08 15:16:10.72384+01 | 1486563370.72384 | 0/37749DD8               |             930389464

 2017-02-08 15:16:11.833584+01 | 1486563371.83358 | 0/37D1AF88               |             936488840

 2017-02-08 15:16:13.125357+01 | 1486563373.12536 | 0/383D81D0               |             943555024

 2017-02-08 15:16:14.279147+01 | 1486563374.27915 | 0/389CF058               |             949809240

 2017-02-08 15:16:15.466983+01 | 1486563375.46698 | 0/38FEBF48               |             956219208

 2017-02-08 15:16:16.555178+01 | 1486563376.55518 | 0/39573BB8               |             962018232

 2017-02-08 15:16:17.761245+01 | 1486563377.76125 | 0/39BC4D00               |             968641792

 2017-02-08 15:16:19.015815+01 | 1486563379.01582 | 0/3A230218               |             975372824

 2017-02-08 15:16:20.200285+01 | 1486563380.20028 | 0/3A85EB50               |             981855056

 2017-02-08 15:16:21.439393+01 | 1486563381.43939 | 0/3AEE1060               |             988680288

 2017-02-08 15:16:22.583475+01 | 1486563382.58348 | 0/3B4B0398               |             994771864

 2017-02-08 15:16:23.749587+01 | 1486563383.74959 | 0/3BAC1A28               |            1001134632

 2017-02-08 15:16:25.057056+01 | 1486563385.05706 | 0/3C157188               |            1008038280

 2017-02-08 15:16:26.244433+01 | 1486563386.24443 | 0/3C782D98               |            1014508952

 2017-02-08 15:16:27.511298+01 | 1486563387.5113 | 0/3CE24ED8               |            1021464280

 2017-02-08 15:16:28.6728+01 | 1486563388.6728 | 0/3D4063B8               |            1027630008

 2017-02-08 15:16:29.845991+01 | 1486563389.84599 | 0/3DA108F8               |            1033963768

 2017-02-08 15:16:31.033219+01 | 1486563391.03322 | 0/3E01AEE0               |            1040297696

 2017-02-08 15:16:32.317792+01 | 1486563392.31779 | 0/3E6D0290               |            1047331472

 2017-02-08 15:16:33.519109+01 | 1486563393.51911 | 0/3ED09038               |            1053855800

 2017-02-08 15:16:34.759137+01 | 1486563394.75914 | 0/3F34E1E0               |            1060430304

 2017-02-08 15:16:35.940148+01 | 1486563395.94015 | 0/3F8F14B8               |            1066341560

 2017-02-08 15:16:37.142579+01 | 1486563397.14258 | 0/3FF18060               |            1072791648

 2017-02-08 15:16:38.344556+01 | 1486563398.34456 | 0/4053ADA8               |            1079225768

 2017-02-08 15:16:39.640016+01 | 1486563399.64002 | 0/40C01D08               |            1086332168

 2017-02-08 15:16:40.862242+01 | 1486563400.86224 | 0/41216908               |            1092708616

 2017-02-08 15:16:42.073457+01 | 1486563402.07346 | 0/41858A60               |            1099270752

 2017-02-08 15:16:43.20982+01 | 1486563403.20982 | 0/41E1F6B8               |            1105327800

 2017-02-08 15:16:44.431869+01 | 1486563404.43187 | 0/424FCDB0               |            1112526256

 2017-02-08 15:16:45.61175+01 | 1486563405.61175 | 0/42C65F38               |            1120296760

 2017-02-08 15:16:46.815927+01 | 1486563406.81593 | 0/4330ED88               |            1127280008

 2017-02-08 15:16:47.999129+01 | 1486563407.99913 | 0/439A9268               |            1134203496

 2017-02-08 15:16:49.211015+01 | 1486563409.21101 | 0/4404CFC8               |            1141166024

 2017-02-08 15:16:50.407795+01 | 1486563410.40779 | 0/44716C88               |            1148284040

 2017-02-08 15:16:51.694343+01 | 1486563411.69434 | 0/44E5A238               |            1155899960

 2017-02-08 15:16:52.870208+01 | 1486563412.87021 | 0/45671A10               |            1164384784

 2017-02-08 15:16:54.132678+01 | 1486563414.13268 | 0/45F60560               |            1173751136

 2017-02-08 15:16:55.286033+01 | 1486563415.28603 | 0/466894B0               |            1181258928

 2017-02-08 15:16:56.436418+01 | 1486563416.43642 | 0/46DFF580               |            1189082496

 2017-02-08 15:16:57.674554+01 | 1486563417.67455 | 0/4753ACC8               |            1196666056

 2017-02-08 15:16:58.864551+01 | 1486563418.86455 | 0/47C14128               |            1203847464

 2017-02-08 15:17:00.065688+01 | 1486563420.06569 | 0/482DDA08               |            1210964488

 2017-02-08 15:17:01.274183+01 | 1486563421.27418 | 0/489BD5F8               |            1218172408

 2017-02-08 15:17:02.520235+01 | 1486563422.52024 | 0/490ABF30               |            1225441072

 2017-02-08 15:17:03.695936+01 | 1486563423.69594 | 0/49765110               |            1232490768

 2017-02-08 15:17:04.938358+01 | 1486563424.93836 | 0/49E86160               |            1239966048

 2017-02-08 15:17:06.175344+01 | 1486563426.17534 | 0/4A598700               |            1247381248

 2017-02-08 15:17:07.293567+01 | 1486563427.29357 | 0/4ABDE2B0               |            1253958320

 2017-02-08 15:17:08.526345+01 | 1486563428.52635 | 0/4B2D0130               |            1261240624

 2017-02-08 15:17:09.71345+01 | 1486563429.71345 | 0/4B994128               |            1268334888

 2017-02-08 15:17:10.917808+01 | 1486563430.91781 | 0/4C04F0C8               |            1275392200

 2017-02-08 15:17:12.134256+01 | 1486563432.13426 | 0/4C745C60               |            1282699336

 2017-02-08 15:17:13.3793+01 | 1486563433.3793 | 0/4CE463D8               |            1290036184

 2017-02-08 15:17:14.602928+01 | 1486563434.60293 | 0/4D515A88               |            1297177224

 2017-02-08 15:17:15.778694+01 | 1486563435.77869 | 0/4DBCA290               |            1304208016

 2017-02-08 15:17:16.956456+01 | 1486563436.95646 | 0/4E256058               |            1311072344

 2017-02-08 15:17:18.186153+01 | 1486563438.18615 | 0/4E9488E0               |            1318357216

 2017-02-08 15:17:19.277454+01 | 1486563439.27745 | 0/4EF77B70               |            1324841840

 2017-02-08 15:17:20.403361+01 | 1486563440.40336 | 0/4F5BA338               |            1331405624

 2017-02-08 15:17:21.656185+01 | 1486563441.65618 | 0/4FCC6F70               |            1338797936

 2017-02-08 15:17:22.802331+01 | 1486563442.80233 | 0/5032E9A0               |            1345513888

 2017-02-08 15:17:24.055714+01 | 1486563444.05571 | 0/50A6F530               |            1353119024

 2017-02-08 15:17:25.24133+01 | 1486563445.24133 | 0/510EB7E0               |            1359919072

 2017-02-08 15:17:26.424148+01 | 1486563446.42415 | 0/5175B470               |            1366668400

 2017-02-08 15:17:27.574789+01 | 1486563447.57479 | 0/51DF5A70               |            1373592176

 2017-02-08 15:17:28.802975+01 | 1486563448.80297 | 0/524CD578               |            1380767096

 2017-02-08 15:17:30.034556+01 | 1486563450.03456 | 0/52BD77F8               |            1388148728

 2017-02-08 15:17:31.240522+01 | 1486563451.24052 | 0/532A4E68               |            1395281512

 2017-02-08 15:17:32.431868+01 | 1486563452.43187 | 0/5396C328               |            1402389288

 2017-02-08 15:17:33.567011+01 | 1486563453.56701 | 0/53FCB8B8               |            1409071288

 2017-02-08 15:17:34.723593+01 | 1486563454.72359 | 0/546484A0               |            1415873696

 2017-02-08 15:17:35.962378+01 | 1486563455.96238 | 0/54D51390               |            1423250320

 2017-02-08 15:17:37.163714+01 | 1486563457.16371 | 0/554112B8               |            1430327992

 2017-02-08 15:17:38.374586+01 | 1486563458.37459 | 0/55AD1608               |            1437406728

 2017-02-08 15:17:39.598516+01 | 1486563459.59852 | 0/561974C0               |            1444508864

 2017-02-08 15:17:40.826314+01 | 1486563460.82631 | 0/5687A988               |            1451731336

 2017-02-08 15:17:42.07578+01 | 1486563462.07578 | 0/56FA0080               |            1459224704

 2017-02-08 15:17:43.188998+01 | 1486563463.189 | 0/575E5810               |            1465800720

 2017-02-08 15:17:44.377491+01 | 1486563464.37749 | 0/57CF4738               |            1473201976

 2017-02-08 15:17:45.585658+01 | 1486563465.58566 | 0/584AD7D0               |            1481299920

 2017-02-08 15:17:46.727243+01 | 1486563466.72724 | 0/58B578F8               |            1488287992

 2017-02-08 15:17:47.851374+01 | 1486563467.85137 | 0/5916EB00               |            1494674176

 2017-02-08 15:17:49.062534+01 | 1486563469.06253 | 0/598160D0               |            1501651152

 2017-02-08 15:17:50.23383+01 | 1486563470.23383 | 0/59EA34F0               |            1508521200

 2017-02-08 15:17:51.425145+01 | 1486563471.42514 | 0/5A537400               |            1515418624

 2017-02-08 15:17:52.618533+01 | 1486563472.61853 | 0/5AC34138               |            1522745656

 2017-02-08 15:17:53.791774+01 | 1486563473.79177 | 0/5B44D1A0               |            1531236768

 2017-02-08 15:17:54.940266+01 | 1486563474.94027 | 0/5BA7C778               |            1537722232

 2017-02-08 15:17:56.145647+01 | 1486563476.14565 | 0/5C146E98               |            1544842904

 2017-02-08 15:17:57.40994+01 | 1486563477.40994 | 0/5C81F0E8               |            1552019688

 2017-02-08 15:17:58.590952+01 | 1486563478.59095 | 0/5CE90090               |            1558773904

 2017-02-08 15:17:59.854786+01 | 1486563479.85479 | 0/5D552430               |            1565860912

 2017-02-08 15:18:01.07167+01 | 1486563481.07167 | 0/5DBEF018               |            1572794392

 2017-02-08 15:18:02.309843+01 | 1486563482.30984 | 0/5E28D068               |            1579733096

 2017-02-08 15:18:03.478413+01 | 1486563483.47841 | 0/5E9004D8               |            1586496728

 2017-02-08 15:18:04.712143+01 | 1486563484.71214 | 0/5EFA4C50               |            1593461840

 2017-02-08 15:18:05.840051+01 | 1486563485.84005 | 0/5F5A9F50               |            1599774544

 2017-02-08 15:18:07.085734+01 | 1486563487.08573 | 0/5FC884F8               |            1606976760

 2017-02-08 15:18:08.268414+01 | 1486563488.26841 | 0/602E9430               |            1613665328

 2017-02-08 15:18:09.503357+01 | 1486563489.50336 | 0/60994810               |            1620658192

 2017-02-08 15:18:10.676232+01 | 1486563490.67623 | 0/60FF03F0               |            1627325424

 2017-02-08 15:18:11.748186+01 | 1486563491.74819 | 0/615ACE88               |            1633341064

 2017-02-08 15:18:12.928068+01 | 1486563492.92807 | 0/61C0FA70               |            1640036976

 2017-02-08 15:18:14.141683+01 | 1486563494.14168 | 0/6229B468               |            1646900328

 2017-02-08 15:18:15.370391+01 | 1486563495.37039 | 0/6296F850               |            1654061136

 2017-02-08 15:18:16.594118+01 | 1486563496.59412 | 0/62FFFED8               |            1660944088

 2017-02-08 15:18:17.665629+01 | 1486563497.66563 | 0/635C3400               |            1666987008

 2017-02-08 15:18:18.863466+01 | 1486563498.86347 | 0/63C40F48               |            1673793352

 2017-02-08 15:18:20.079004+01 | 1486563500.079 | 0/642CF3A0               |            1680667552

 2017-02-08 15:18:21.253983+01 | 1486563501.25398 | 0/64939A60               |            1687394912

 2017-02-08 15:18:22.478709+01 | 1486563502.47871 | 0/64FDB1C8               |            1694347720

 2017-02-08 15:18:23.57542+01 | 1486563503.57542 | 0/655C1830               |            1700534320

 2017-02-08 15:18:24.720785+01 | 1486563504.72078 | 0/65BF9CA8               |            1707056296

 2017-02-08 15:18:25.923809+01 | 1486563505.92381 | 0/6624C318               |            1713685272

 2017-02-08 15:18:27.110546+01 | 1486563507.11055 | 0/668CBA48               |            1720498760

 2017-02-08 15:18:28.334491+01 | 1486563508.33449 | 0/66F75470               |            1727485040

 2017-02-08 15:18:29.51246+01 | 1486563509.51246 | 0/675C1EF8               |            1734090488

 2017-02-08 15:18:30.674128+01 | 1486563510.67413 | 0/67C1B958               |            1740749144

 2017-02-08 15:18:31.930673+01 | 1486563511.93067 | 0/682F4800               |            1747929088

 2017-02-08 15:18:33.190372+01 | 1486563513.19037 | 0/689E9220               |            1755222560

 2017-02-08 15:18:34.47599+01 | 1486563514.47599 | 0/690CACE8               |            1762438376

 2017-02-08 15:18:35.642304+01 | 1486563515.6423 | 0/69717588               |            1769043336

 2017-02-08 15:18:36.787814+01 | 1486563516.78781 | 0/69D590A0               |            1775603872

 2017-02-08 15:18:37.943072+01 | 1486563517.94307 | 0/6A3862A0               |            1782080160

 2017-02-08 15:18:39.144382+01 | 1486563519.14438 | 0/6AA1A2C0               |            1788977856

 2017-02-08 15:18:40.314008+01 | 1486563520.31401 | 0/6B0639C8               |            1795570120

 2017-02-08 15:18:41.467866+01 | 1486563521.46787 | 0/6B6A3858               |            1802123352

 2017-02-08 15:18:42.696589+01 | 1486563522.69659 | 0/6BD4F0C8               |            1809117384

 2017-02-08 15:18:43.858974+01 | 1486563523.85897 | 0/6C375998               |            1815566744

 2017-02-08 15:18:44.972235+01 | 1486563524.97223 | 0/6C9B14C8               |            1822102728

 2017-02-08 15:18:46.12321+01 | 1486563526.12321 | 0/6CFFFE70               |            1828716144

 2017-02-08 15:18:47.260397+01 | 1486563527.2604 | 0/6D63FEF0               |            1835269872

 2017-02-08 15:18:48.354879+01 | 1486563528.35488 | 0/6DC586B8               |            1841661624

 2017-02-08 15:18:49.527419+01 | 1486563529.52742 | 0/6E33C348               |            1848886088

 2017-02-08 15:18:50.717322+01 | 1486563530.71732 | 0/6EB4C770               |            1857341296

 2017-02-08 15:18:51.894498+01 | 1486563531.8945 | 0/6F249390               |            1864668048

 2017-02-08 15:18:53.089268+01 | 1486563533.08927 | 0/6F8E6F80               |            1871605632

 2017-02-08 15:18:54.245645+01 | 1486563534.24565 | 0/6FF41D48               |            1878269256

 2017-02-08 15:18:55.413412+01 | 1486563535.41341 | 0/705C20F0               |            1885085936

 2017-02-08 15:18:56.624369+01 | 1486563536.62437 | 0/70D0B678               |            1892726392

 2017-02-08 15:18:57.843815+01 | 1486563537.84382 | 0/7146A4A0               |            1900455072

 2017-02-08 15:18:58.98695+01 | 1486563538.98695 | 0/71AF47B0               |            1907312560

 2017-02-08 15:19:00.173903+01 | 1486563540.1739 | 0/721CCD48               |            1914490184

 2017-02-08 15:19:01.45039+01 | 1486563541.45039 | 0/728FE540               |            1922032960

 2017-02-08 15:19:02.67536+01 | 1486563542.67536 | 0/72FFFF60               |            1929379680

 2017-02-08 15:19:03.813891+01 | 1486563543.81389 | 0/7365CCF8               |            1936051448

 2017-02-08 15:19:04.95568+01 | 1486563544.95568 | 0/73CC6678               |            1942775416

 2017-02-08 15:19:06.158886+01 | 1486563546.15889 | 0/7435F0F0               |            1949692144

 2017-02-08 15:19:07.33892+01 | 1486563547.33892 | 0/749F9420               |            1956615200

 2017-02-08 15:19:08.561768+01 | 1486563548.56177 | 0/750C7188               |            1963749768

 2017-02-08 15:19:09.772467+01 | 1486563549.77247 | 0/75784A28               |            1970817576

 2017-02-08 15:19:10.959513+01 | 1486563550.95951 | 0/75E238E8               |            1977759976

 2017-02-08 15:19:12.146107+01 | 1486563552.14611 | 0/76495400               |            1984517120

 2017-02-08 15:19:13.378076+01 | 1486563553.37808 | 0/76B90998               |            1991838104

 2017-02-08 15:19:14.637443+01 | 1486563554.63744 | 0/7728DB20               |            1999166240

 2017-02-08 15:19:15.859821+01 | 1486563555.85982 | 0/7798CF80               |            2006503296

 2017-02-08 15:19:17.07414+01 | 1486563557.07414 | 0/78052AD0               |            2013604560

 2017-02-08 15:19:18.220637+01 | 1486563558.22064 | 0/786CB7A8               |            2020390824

 2017-02-08 15:19:19.506492+01 | 1486563559.50649 | 0/78E17E28               |            2028043816

 2017-02-08 15:19:20.673976+01 | 1486563560.67398 | 0/794849F0               |            2034780656

 2017-02-08 15:19:21.903751+01 | 1486563561.90375 | 0/79B711D8               |            2042040792

 2017-02-08 15:19:23.093127+01 | 1486563563.09313 | 0/7A1E9AF8               |            2048826104

 2017-02-08 15:19:24.319442+01 | 1486563564.31944 | 0/7A8D3670               |            2056074864

 2017-02-08 15:19:25.453979+01 | 1486563565.45398 | 0/7AF43878               |            2062825592

 2017-02-08 15:19:26.616796+01 | 1486563566.6168 | 0/7B5C6840               |            2069653568

 2017-02-08 15:19:27.82467+01 | 1486563567.82467 | 0/7BC82500               |            2076714240

 2017-02-08 15:19:28.955221+01 | 1486563568.95522 | 0/7C2AA108               |            2083168520

 2017-02-08 15:19:30.097782+01 | 1486563570.09778 | 0/7C8F24A0               |            2089755808

 2017-02-08 15:19:31.342822+01 | 1486563571.34282 | 0/7CFF53E0               |            2097107936

 2017-02-08 15:19:32.510623+01 | 1486563572.51062 | 0/7D693838               |            2104047672

 2017-02-08 15:19:33.684899+01 | 1486563573.6849 | 0/7DD36590               |            2111006096

 2017-02-08 15:19:34.841459+01 | 1486563574.84146 | 0/7E37AD30               |            2117578032

 2017-02-08 15:19:35.945546+01 | 1486563575.94555 | 0/7E9B3480               |            2124100736

 2017-02-08 15:19:37.086581+01 | 1486563577.08658 | 0/7EFFFE90               |            2130706064

 2017-02-08 15:19:38.33792+01 | 1486563578.33792 | 0/7F70E4E0               |            2138105056

 2017-02-08 15:19:39.518843+01 | 1486563579.51884 | 0/7FDCAA30               |            2145167920

 2017-02-08 15:19:40.743138+01 | 1486563580.74314 | 0/80491838               |            2152273976

 2017-02-08 15:19:41.920738+01 | 1486563581.92074 | 0/80B3C570               |            2159265136

 2017-02-08 15:19:43.172117+01 | 1486563583.17212 | 0/812350A0               |            2166575264

 2017-02-08 15:19:44.379306+01 | 1486563584.37931 | 0/819161D0               |            2173788624

 2017-02-08 15:19:45.58917+01 | 1486563585.58917 | 0/81FF7788               |            2181003144

 2017-02-08 15:19:46.678193+01 | 1486563586.67819 | 0/82615E70               |            2187419248

 2017-02-08 15:19:47.952469+01 | 1486563587.95247 | 0/82D496C0               |            2194970304

 2017-02-08 15:19:49.117798+01 | 1486563589.1178 | 0/833E5E78               |            2201902712

 2017-02-08 15:19:50.292775+01 | 1486563590.29277 | 0/83B99350               |            2209977168

 2017-02-08 15:19:51.484542+01 | 1486563591.48454 | 0/84312A08               |            2217814536

 2017-02-08 15:19:52.681826+01 | 1486563592.68183 | 0/849DE7C8               |            2224941000

 2017-02-08 15:19:53.914461+01 | 1486563593.91446 | 0/850ADFC0               |            2232082368

 2017-02-08 15:19:55.047488+01 | 1486563595.04749 | 0/85701DF8               |            2238717432

 2017-02-08 15:19:56.250824+01 | 1486563596.25082 | 0/85DB7D40               |            2245754176

 2017-02-08 15:19:57.440731+01 | 1486563597.44073 | 0/864AE518               |            2253055256

 2017-02-08 15:19:58.65469+01 | 1486563598.65469 | 0/86CA0660               |            2261386848

 2017-02-08 15:19:59.883431+01 | 1486563599.88343 | 0/8737FAF0               |            2268592880

 2017-02-08 15:20:01.086496+01 | 1486563601.0865 | 0/87A9E100               |            2276057344

 2017-02-08 15:20:02.352457+01 | 1486563602.35246 | 0/88199780               |            2283378560

 2017-02-08 15:20:03.537544+01 | 1486563603.53754 | 0/888609C8               |            2290485704

 2017-02-08 15:20:04.732048+01 | 1486563604.73205 | 0/88F15848               |            2297518152

 2017-02-08 15:20:05.899981+01 | 1486563605.89998 | 0/89564968               |            2304133480

 2017-02-08 15:20:07.111245+01 | 1486563607.11124 | 0/89C40078               |            2311323768

 2017-02-08 15:20:08.356341+01 | 1486563608.35634 | 0/8A324668               |            2318550632

 2017-02-08 15:20:09.592718+01 | 1486563609.59272 | 0/8AA053B0               |            2325762992

 2017-02-08 15:20:10.756424+01 | 1486563610.75642 | 0/8B080588               |            2332558728

 2017-02-08 15:20:11.826288+01 | 1486563611.82629 | 0/8B69A990               |            2338957712

 2017-02-08 15:20:13.034395+01 | 1486563613.03439 | 0/8BD7B110               |            2346168592

 2017-02-08 15:20:14.231167+01 | 1486563614.23117 | 0/8C414CF8               |            2353089784

 2017-02-08 15:20:15.448472+01 | 1486563615.44847 | 0/8CAFAEF0               |            2360323824

 2017-02-08 15:20:16.619079+01 | 1486563616.61908 | 0/8D1643A0               |            2367046560

 2017-02-08 15:20:17.854654+01 | 1486563617.85465 | 0/8D838530               |            2374206768

 2017-02-08 15:20:19.061223+01 | 1486563619.06122 | 0/8DEF6D88               |            2381278600

 2017-02-08 15:20:20.265455+01 | 1486563620.26546 | 0/8E5A78F0               |            2388293872

 2017-02-08 15:20:21.456986+01 | 1486563621.45699 | 0/8EC6B3E0               |            2395386848

 2017-02-08 15:20:22.62965+01 | 1486563622.62965 | 0/8F2DB0D0               |            2402136272

 2017-02-08 15:20:23.892474+01 | 1486563623.89247 | 0/8F9F67C8               |            2409588680

 2017-02-08 15:20:25.13851+01 | 1486563625.13851 | 0/900E37D0               |            2416850896

 2017-02-08 15:20:26.364779+01 | 1486563626.36478 | 0/907CA0A0               |            2424086688

 2017-02-08 15:20:27.618632+01 | 1486563627.61863 | 0/90EE10D8               |            2431520984

 2017-02-08 15:20:28.770073+01 | 1486563628.77007 | 0/9152FB08               |            2438134536

 2017-02-08 15:20:29.904114+01 | 1486563629.90411 | 0/91B91ED8               |            2444828376

 2017-02-08 15:20:31.018623+01 | 1486563631.01862 | 0/921B1B70               |            2451250032

 2017-02-08 15:20:32.219867+01 | 1486563632.21987 | 0/9288A1C0               |            2458427840

 2017-02-08 15:20:33.42642+01 | 1486563633.42642 | 0/92F489D0               |            2465499600

 2017-02-08 15:20:34.584518+01 | 1486563634.58452 | 0/935B78C0               |            2472245440

 2017-02-08 15:20:35.812417+01 | 1486563635.81242 | 0/93C77AC8               |            2479323848

 2017-02-08 15:20:37.094122+01 | 1486563637.09412 | 0/9438DB18               |            2486754072

 2017-02-08 15:20:38.325468+01 | 1486563638.32547 | 0/94A7D270               |            2494026352

 2017-02-08 15:20:39.588106+01 | 1486563639.58811 | 0/9516E2E8               |            2501305064

 2017-02-08 15:20:40.887745+01 | 1486563640.88774 | 0/958C2F68               |            2508992360

 2017-02-08 15:20:42.03771+01 | 1486563642.03771 | 0/95F288D8               |            2515699928

 2017-02-08 15:20:43.211943+01 | 1486563643.21194 | 0/965A4890               |            2522499216

 2017-02-08 15:20:44.495199+01 | 1486563644.4952 | 0/96CFAD20               |            2530192672

 2017-02-08 15:20:45.670816+01 | 1486563645.67082 | 0/9738D5B8               |            2537084344

 2017-02-08 15:20:46.857264+01 | 1486563646.85726 | 0/97A29FB0               |            2544017328

 2017-02-08 15:20:48.083999+01 | 1486563648.084 | 0/980F14D0               |            2551125200

 2017-02-08 15:20:49.345716+01 | 1486563649.34572 | 0/98863F58               |            2558934872

 2017-02-08 15:20:50.619724+01 | 1486563650.61972 | 0/990A6150               |            2567594320

 2017-02-08 15:20:51.809593+01 | 1486563651.80959 | 0/99817D70               |            2575400304

 2017-02-08 15:20:53.023636+01 | 1486563653.02364 | 0/99EB7A90               |            2582346384

 2017-02-08 15:20:54.239592+01 | 1486563654.23959 | 0/9A547748               |            2589226824

 2017-02-08 15:20:55.431801+01 | 1486563655.4318 | 0/9ABE0958               |            2596145496

 2017-02-08 15:20:56.640641+01 | 1486563656.64064 | 0/9B3CB858               |            2604447832

 2017-02-08 15:20:57.824731+01 | 1486563657.82473 | 0/9BA6DBB0               |            2611403696

 2017-02-08 15:20:59.054513+01 | 1486563659.05451 | 0/9C1D5F88               |            2619170696

 2017-02-08 15:21:00.191852+01 | 1486563660.19185 | 0/9C7F3F80               |            2625585024

 2017-02-08 15:21:01.402146+01 | 1486563661.40215 | 0/9CECCA98               |            2632764056

 2017-02-08 15:21:02.630415+01 | 1486563662.63041 | 0/9D59AB38               |            2639899448

 2017-02-08 15:21:03.851467+01 | 1486563663.85147 | 0/9DC6F938               |            2647062840

 2017-02-08 15:21:04.993197+01 | 1486563664.9932 | 0/9E2C1180               |            2653688192

 2017-02-08 15:21:06.130758+01 | 1486563666.13076 | 0/9E9166B8               |            2660329144

 2017-02-08 15:21:07.242204+01 | 1486563667.2422 | 0/9EF0E120               |            2666586400

 2017-02-08 15:21:08.442779+01 | 1486563668.44278 | 0/9F5BC9A0               |            2673592736

 2017-02-08 15:21:09.581272+01 | 1486563669.58127 | 0/9FC40E68               |            2680426088

 2017-02-08 15:21:10.72759+01 | 1486563670.72759 | 0/A0297778               |            2687072120

 2017-02-08 15:21:11.98101+01 | 1486563671.98101 | 0/A09C7498               |            2694608024

 2017-02-08 15:21:13.208058+01 | 1486563673.20806 | 0/A10803D8               |            2701657048

 2017-02-08 15:21:14.377844+01 | 1486563674.37784 | 0/A1717500               |            2708567296

 2017-02-08 15:21:15.550868+01 | 1486563675.55087 | 0/A1DB4318               |            2715501336

 2017-02-08 15:21:16.779777+01 | 1486563676.77978 | 0/A247F250               |            2722624080

 2017-02-08 15:21:18.020448+01 | 1486563678.02045 | 0/A2B8CE88               |            2730020488

 2017-02-08 15:21:19.232657+01 | 1486563679.23266 | 0/A32461A0               |            2737070496

 2017-02-08 15:21:20.392944+01 | 1486563680.39294 | 0/A38C1E38               |            2743868984

 2017-02-08 15:21:21.668278+01 | 1486563681.66828 | 0/A3FFFCE8               |            2751462632

 2017-02-08 15:21:22.854344+01 | 1486563682.85434 | 0/A469ADE0               |            2758389216

 2017-02-08 15:21:24.055392+01 | 1486563684.05539 | 0/A4D734C8               |            2765567176

 2017-02-08 15:21:25.171676+01 | 1486563685.17168 | 0/A539E4A0               |            2772034720

 2017-02-08 15:21:26.376902+01 | 1486563686.3769 | 0/A5A48528               |            2779022632

 2017-02-08 15:21:27.528015+01 | 1486563687.52801 | 0/A60A60E0               |            2785698016

 2017-02-08 15:21:28.685279+01 | 1486563688.68528 | 0/A67419E8               |            2792626664

 2017-02-08 15:21:29.910824+01 | 1486563689.91082 | 0/A6E44800               |            2799978496

 2017-02-08 15:21:31.206354+01 | 1486563691.20635 | 0/A758DEE8               |            2807619304

 2017-02-08 15:21:32.41796+01 | 1486563692.41796 | 0/A7C59338               |            2814743352

 2017-02-08 15:21:33.580741+01 | 1486563693.58074 | 0/A82B3038               |            2821402680

 2017-02-08 15:21:34.779884+01 | 1486563694.77988 | 0/A8973AD8               |            2828483288

 2017-02-08 15:21:35.956049+01 | 1486563695.95605 | 0/A8F9C260               |            2834940512

 2017-02-08 15:21:37.111269+01 | 1486563697.11127 | 0/A95E2ED8               |            2841521880

 2017-02-08 15:21:38.311035+01 | 1486563698.31103 | 0/A9C9B188               |            2848567688

 2017-02-08 15:21:39.530066+01 | 1486563699.53007 | 0/AA32A440               |            2855445568

 2017-02-08 15:21:40.799064+01 | 1486563700.79906 | 0/AAA55218               |            2862961176

 2017-02-08 15:21:42.074216+01 | 1486563702.07422 | 0/AB13DBC8               |            2870205384

 2017-02-08 15:21:43.227387+01 | 1486563703.22739 | 0/AB7A4FF0               |            2876919792

 2017-02-08 15:21:44.419333+01 | 1486563704.41933 | 0/ABE6AD58               |            2884021592

 2017-02-08 15:21:45.600623+01 | 1486563705.60062 | 0/AC4FFE98               |            2890923672

 2017-02-08 15:21:46.79248+01 | 1486563706.79248 | 0/ACBCDB20               |            2898058016

 2017-02-08 15:21:48.033243+01 | 1486563708.03324 | 0/AD2B8EC0               |            2905312960

 2017-02-08 15:21:49.223594+01 | 1486563709.22359 | 0/AD989CE0               |            2912460000

 2017-02-08 15:21:50.429428+01 | 1486563710.42943 | 0/AE164EF0               |            2920697584

 2017-02-08 15:21:51.623151+01 | 1486563711.62315 | 0/AE8E1108               |            2928548360

 2017-02-08 15:21:52.793883+01 | 1486563712.79388 | 0/AEF5DBD0               |            2935348176

 2017-02-08 15:21:53.944054+01 | 1486563713.94405 | 0/AF56E9C8               |            2941708744

 2017-02-08 15:21:55.1978+01 | 1486563715.1978 | 0/AFC36F00               |            2948822024

 2017-02-08 15:21:56.418195+01 | 1486563716.4182 | 0/B02E0A98               |            2955807384

 2017-02-08 15:21:57.630668+01 | 1486563717.63067 | 0/B0B21968               |            2964461928

 2017-02-08 15:21:58.794189+01 | 1486563718.79419 | 0/B113ADD8               |            2970856920

 2017-02-08 15:21:59.993156+01 | 1486563719.99316 | 0/B1831D70               |            2978159984

 2017-02-08 15:22:01.232189+01 | 1486563721.23219 | 0/B1EBB4D0               |            2985014480

 2017-02-08 15:22:02.383325+01 | 1486563722.38333 | 0/B24E8CC0               |            2991492288

 2017-02-08 15:22:03.589439+01 | 1486563723.58944 | 0/B2B71410               |            2998342672

 2017-02-08 15:22:04.762819+01 | 1486563724.76282 | 0/B31BE490               |            3004949648

 2017-02-08 15:22:05.958279+01 | 1486563725.95828 | 0/B381F120               |            3011637536

 2017-02-08 15:22:07.198573+01 | 1486563727.19857 | 0/B3EF3C50               |            3018800208

 2017-02-08 15:22:08.332055+01 | 1486563728.33206 | 0/B44E8CF0               |            3025046768

 2017-02-08 15:22:09.450899+01 | 1486563729.4509 | 0/B4AF1D90               |            3031375248

 2017-02-08 15:22:10.674991+01 | 1486563730.67499 | 0/B517DAC0               |            3038239424

 2017-02-08 15:22:11.871738+01 | 1486563731.87174 | 0/B57F2A30               |            3045009968

 2017-02-08 15:22:13.107225+01 | 1486563733.10722 | 0/B5EA1DC8               |            3052019144

 2017-02-08 15:22:14.303948+01 | 1486563734.30395 | 0/B64F1208               |            3058635272

 2017-02-08 15:22:15.417871+01 | 1486563735.41787 | 0/B6AEEFD0               |            3064917968

 2017-02-08 15:22:16.620662+01 | 1486563736.62066 | 0/B7156550               |            3071632720

 2017-02-08 15:22:17.782101+01 | 1486563737.7821 | 0/B77BEBE0               |            3078351840

 2017-02-08 15:22:18.988124+01 | 1486563738.98812 | 0/B7E41558               |            3085178200

 2017-02-08 15:22:20.149372+01 | 1486563740.14937 | 0/B8460B58               |            3091598168

 2017-02-08 15:22:21.339779+01 | 1486563741.33978 | 0/B8B00938               |            3098544440

 2017-02-08 15:22:22.540101+01 | 1486563742.5401 | 0/B9169100               |            3105263872

 2017-02-08 15:22:23.729644+01 | 1486563743.72964 | 0/B97F5258               |            3112129112

 2017-02-08 15:22:24.938576+01 | 1486563744.93858 | 0/B9E87B30               |            3119020848

 2017-02-08 15:22:26.144703+01 | 1486563746.1447 | 0/BA504A80               |            3125824128

 2017-02-08 15:22:27.357249+01 | 1486563747.35725 | 0/BABAF318               |            3132814104

 2017-02-08 15:22:28.627967+01 | 1486563748.62797 | 0/BB27FAA8               |            3139959464

 2017-02-08 15:22:29.782225+01 | 1486563749.78222 | 0/BB8BBB88               |            3146496904

 2017-02-08 15:22:30.926242+01 | 1486563750.92624 | 0/BBEF9AD0               |            3153042128

 2017-02-08 15:22:32.123141+01 | 1486563752.12314 | 0/BC55D2E8               |            3159741160

 2017-02-08 15:22:33.316717+01 | 1486563753.31672 | 0/BCBD93A0               |            3166540704

 2017-02-08 15:22:34.527567+01 | 1486563754.52757 | 0/BD23FE10               |            3173254392

 2017-02-08 15:22:35.723755+01 | 1486563755.72375 | 0/BD8A7CC8               |            3179969736

 2017-02-08 15:22:36.938307+01 | 1486563756.93831 | 0/BDF48B50               |            3186920272

 2017-02-08 15:22:38.111134+01 | 1486563758.11113 | 0/BE57F288               |            3193434760

 2017-02-08 15:22:39.213698+01 | 1486563759.2137 | 0/BEB72A60               |            3199674976

 2017-02-08 15:22:40.485358+01 | 1486563760.48536 | 0/BF23E250               |            3206799952

 2017-02-08 15:22:41.729515+01 | 1486563761.72952 | 0/BF8FEDA0               |            3213880736

 2017-02-08 15:22:42.872588+01 | 1486563762.87259 | 0/BFF1EF50               |            3220303696

 2017-02-08 15:22:44.066734+01 | 1486563764.06673 | 0/C056E190               |            3226919312

 2017-02-08 15:22:45.348563+01 | 1486563765.34856 | 0/C0C8DA18               |            3234388504

 2017-02-08 15:22:46.48802+01 | 1486563766.48802 | 0/C12BE1E8               |            3240878568

 2017-02-08 15:22:47.738728+01 | 1486563767.73873 | 0/C19BF310               |            3248222992

 2017-02-08 15:22:48.935291+01 | 1486563768.93529 | 0/C2045A58               |            3255065176

 2017-02-08 15:22:50.180217+01 | 1486563770.18022 | 0/C28355F0               |            3263387120

 2017-02-08 15:22:51.417798+01 | 1486563771.4178 | 0/C3062480               |            3271959680

 2017-02-08 15:22:52.62251+01 | 1486563772.62251 | 0/C3725F98               |            3279052696

 2017-02-08 15:22:53.796411+01 | 1486563773.79641 | 0/C3D6BDC0               |            3285630400

 2017-02-08 15:22:55.04078+01 | 1486563775.04078 | 0/C4431E18               |            3292732952

 2017-02-08 15:22:56.156388+01 | 1486563776.15639 | 0/C4B11D90               |            3299941776

 2017-02-08 15:22:57.352263+01 | 1486563777.35226 | 0/C52090A0               |            3307245728

 2017-02-08 15:22:58.677987+01 | 1486563778.67799 | 0/C5A0FA10               |            3315661328

 2017-02-08 15:22:59.874029+01 | 1486563779.87403 | 0/C607D800               |            3322402816

 2017-02-08 15:23:01.073204+01 | 1486563781.0732 | 0/C673D518               |            3329479960

 2017-02-08 15:23:02.274121+01 | 1486563782.27412 | 0/C6E13078               |            3336646776

 2017-02-08 15:23:03.533623+01 | 1486563783.53362 | 0/C7524E38               |            3344059960

 2017-02-08 15:23:04.725466+01 | 1486563784.72547 | 0/C7BE2310               |            3351126800

 2017-02-08 15:23:05.85166+01 | 1486563785.85166 | 0/C81FFFB8               |            3357540280

 2017-02-08 15:23:06.997877+01 | 1486563786.99788 | 0/C8850CE0               |            3364162784

 2017-02-08 15:23:08.179742+01 | 1486563788.17974 | 0/C8EEEB40               |            3371100992

 2017-02-08 15:23:09.285956+01 | 1486563789.28596 | 0/C94EFE50               |            3377397328

 2017-02-08 15:23:10.503117+01 | 1486563790.50312 | 0/C9BCBED8               |            3384590040

 2017-02-08 15:23:11.707091+01 | 1486563791.70709 | 0/CA27BB50               |            3391601488

 2017-02-08 15:23:12.953944+01 | 1486563792.95394 | 0/CA973D40               |            3398909248

 2017-02-08 15:23:14.134289+01 | 1486563794.13429 | 0/CAFFF4C8               |            3405771976

 2017-02-08 15:23:15.241258+01 | 1486563795.24126 | 0/CB60FC10               |            3412130832

 2017-02-08 15:23:16.410436+01 | 1486563796.41044 | 0/CBCAE2F0               |            3419071216

 2017-02-08 15:23:17.608869+01 | 1486563797.60887 | 0/CC31B5F0               |            3425809904

 2017-02-08 15:23:18.807219+01 | 1486563798.80722 | 0/CC9C8E58               |            3432812120

 2017-02-08 15:23:19.981919+01 | 1486563799.98192 | 0/CD027208               |            3439489544

 2017-02-08 15:23:21.17521+01 | 1486563801.17521 | 0/CD6CDAC8               |            3446463176

 2017-02-08 15:23:22.357953+01 | 1486563802.35795 | 0/CDD6EAB0               |            3453414064

 2017-02-08 15:23:23.565496+01 | 1486563803.5655 | 0/CE3EAED0               |            3460214480

 2017-02-08 15:23:24.78213+01 | 1486563804.78213 | 0/CEAAC820               |            3467298848

 2017-02-08 15:23:26.010803+01 | 1486563806.0108 | 0/CF167DE8               |            3474357736

 2017-02-08 15:23:27.235368+01 | 1486563807.23537 | 0/CF849830               |            3481573424

 2017-02-08 15:23:28.479324+01 | 1486563808.47932 | 0/CFF331E8               |            3488821736

 2017-02-08 15:23:29.622178+01 | 1486563809.62218 | 0/D057D718               |            3495417624

 2017-02-08 15:23:30.835693+01 | 1486563810.83569 | 0/D0C2DF78               |            3502432120

 2017-02-08 15:23:31.962118+01 | 1486563811.96212 | 0/D1249F78               |            3508838264

 2017-02-08 15:23:33.158774+01 | 1486563813.15877 | 0/D18E7910               |            3515775248

 2017-02-08 15:23:34.318166+01 | 1486563814.31817 | 0/D1F5A690               |            3522537104

 2017-02-08 15:23:35.457555+01 | 1486563815.45756 | 0/D25919A8               |            3529054632

 2017-02-08 15:23:36.581285+01 | 1486563816.58128 | 0/D2BC8C88               |            3535572104

 2017-02-08 15:23:37.826191+01 | 1486563817.82619 | 0/D3272A60               |            3542559328

 2017-02-08 15:23:39.054541+01 | 1486563819.05454 | 0/D393E380               |            3549684608

 2017-02-08 15:23:40.261983+01 | 1486563820.26198 | 0/D3FE42D0               |            3556655824

 2017-02-08 15:23:41.412042+01 | 1486563821.41204 | 0/D4639E98               |            3563298456

 2017-02-08 15:23:42.635838+01 | 1486563822.63584 | 0/D4D0E408               |            3570459656

 2017-02-08 15:23:43.884491+01 | 1486563823.88449 | 0/D5400C00               |            3577744384

 2017-02-08 15:23:45.084161+01 | 1486563825.08416 | 0/D5A9C3A8               |            3584672680

 2017-02-08 15:23:46.255086+01 | 1486563826.25509 | 0/D60FBE30               |            3591355952

 2017-02-08 15:23:47.407279+01 | 1486563827.40728 | 0/D6788360               |            3598222176

 2017-02-08 15:23:48.587648+01 | 1486563828.58765 | 0/D6E483B0               |            3605300144

 2017-02-08 15:23:49.728431+01 | 1486563829.72843 | 0/D74FE350               |            3612336976

 2017-02-08 15:23:50.858642+01 | 1486563830.85864 | 0/D7C45260               |            3619967584

 2017-02-08 15:23:52.053101+01 | 1486563832.0531 | 0/D8366F20               |            3627446048

 2017-02-08 15:23:53.323325+01 | 1486563833.32332 | 0/D8A75EF0               |            3634847472

 2017-02-08 15:23:54.606534+01 | 1486563834.60653 | 0/D916A6C8               |            3642140360

 2017-02-08 15:23:55.853626+01 | 1486563835.85363 | 0/D98317C8               |            3649247176

 2017-02-08 15:23:57.075682+01 | 1486563837.07568 | 0/D9F3FA80               |            3656645248

 2017-02-08 15:23:58.240995+01 | 1486563838.24099 | 0/DA6EB098               |            3664687256

 2017-02-08 15:23:59.41873+01 | 1486563839.41873 | 0/DAD639B0               |            3671472560

 2017-02-08 15:24:00.528754+01 | 1486563840.52875 | 0/DB3B3188               |            3678089608

 2017-02-08 15:24:01.745436+01 | 1486563841.74544 | 0/DBA358B0               |            3684915376

 2017-02-08 15:24:03.050132+01 | 1486563843.05013 | 0/DC1207F0               |            3692169200

 2017-02-08 15:24:04.202741+01 | 1486563844.20274 | 0/DC734AE8               |            3698543336

 2017-02-08 15:24:05.361261+01 | 1486563845.36126 | 0/DCD740F0               |            3705094384

 2017-02-08 15:24:06.580772+01 | 1486563846.58077 | 0/DD3EEF00               |            3711889152

 2017-02-08 15:24:07.820572+01 | 1486563847.82057 | 0/DDA95660               |            3718862432

 2017-02-08 15:24:09.040405+01 | 1486563849.04041 | 0/DE10A2D0               |            3725632208

 2017-02-08 15:24:10.26286+01 | 1486563850.26286 | 0/DE797E38               |            3732504120

 2017-02-08 15:24:11.442554+01 | 1486563851.44255 | 0/DEDD6CA0               |            3739053216

 2017-02-08 15:24:12.618774+01 | 1486563852.61877 | 0/DF3FC7A0               |            3745499040

 2017-02-08 15:24:13.814309+01 | 1486563853.81431 | 0/DFA45D50               |            3752090960

 2017-02-08 15:24:14.982701+01 | 1486563854.9827 | 0/E0065BC8               |            3758513096

 2017-02-08 15:24:16.250009+01 | 1486563856.25001 | 0/E07249D8               |            3765586392

 2017-02-08 15:24:17.512117+01 | 1486563857.51212 | 0/E0DFAE88               |            3772755592

 2017-02-08 15:24:18.649211+01 | 1486563858.64921 | 0/E13EC5C8               |            3778987464

 2017-02-08 15:24:19.807118+01 | 1486563859.80712 | 0/E1A144D8               |            3785442520

 2017-02-08 15:24:21.004844+01 | 1486563861.00484 | 0/E2066BC0               |            3792071616

 2017-02-08 15:24:22.235209+01 | 1486563862.23521 | 0/E271E4A8               |            3799114920

 2017-02-08 15:24:23.453812+01 | 1486563863.45381 | 0/E2D90FF8               |            3805876216

 2017-02-08 15:24:24.618461+01 | 1486563864.61846 | 0/E339FE70               |            3812228720

 2017-02-08 15:24:25.847897+01 | 1486563865.8479 | 0/E3A35ED8               |            3819134680

 2017-02-08 15:24:27.055399+01 | 1486563867.0554 | 0/E40941E0               |            3825811936

 2017-02-08 15:24:28.21935+01 | 1486563868.21935 | 0/E46E7258               |            3832443480

 2017-02-08 15:24:29.406763+01 | 1486563869.40676 | 0/E4D4D270               |            3839152752

 2017-02-08 15:24:30.641534+01 | 1486563870.64153 | 0/E53C5C18               |            3845938200

 2017-02-08 15:24:31.895261+01 | 1486563871.89526 | 0/E5A7E2D8               |            3852985048

 2017-02-08 15:24:33.078971+01 | 1486563873.07897 | 0/E60AC918               |            3859466520

 2017-02-08 15:24:34.225954+01 | 1486563874.22595 | 0/E66B7678               |            3865802360

 2017-02-08 15:24:35.477694+01 | 1486563875.47769 | 0/E6D72980               |            3872860544

 2017-02-08 15:24:36.707904+01 | 1486563876.7079 | 0/E73EA448               |            3879642184

 2017-02-08 15:24:37.943311+01 | 1486563877.94331 | 0/E7A5A1A8               |            3886391720

 2017-02-08 15:24:39.156236+01 | 1486563879.15624 | 0/E80D35B8               |            3893179832

 2017-02-08 15:24:40.363921+01 | 1486563880.36392 | 0/E874B8C0               |            3899963584

 2017-02-08 15:24:41.566218+01 | 1486563881.56622 | 0/E8DB9340               |            3906704192

 2017-02-08 15:24:42.780556+01 | 1486563882.78056 | 0/E941DB40               |            3913407296

 2017-02-08 15:24:43.998765+01 | 1486563883.99876 | 0/E9A95308               |            3920188168

 2017-02-08 15:24:45.195508+01 | 1486563885.19551 | 0/EA118420               |            3927016480

 2017-02-08 15:24:46.418592+01 | 1486563886.41859 | 0/EA7D3CE8               |            3934076136

 2017-02-08 15:24:47.600655+01 | 1486563887.60066 | 0/EAE66668               |            3940968040

 2017-02-08 15:24:48.805576+01 | 1486563888.80558 | 0/EB4FFDA8               |            3947888040

 2017-02-08 15:24:50.000548+01 | 1486563890.00055 | 0/EBC50BA0               |            3955559328

 2017-02-08 15:24:51.211651+01 | 1486563891.21165 | 0/EC442BF0               |            3963890672

 2017-02-08 15:24:52.325249+01 | 1486563892.32525 | 0/ECA82438               |            3970442296

 2017-02-08 15:24:53.584304+01 | 1486563893.5843 | 0/ED128308               |            3977413384

 2017-02-08 15:24:54.754097+01 | 1486563894.7541 | 0/ED7A4A60               |            3984214624

 2017-02-08 15:24:55.98775+01 | 1486563895.98775 | 0/EDF4BB00               |            3992238848

 2017-02-08 15:24:57.108871+01 | 1486563897.10887 | 0/EE5B9278               |            3998978680

 2017-02-08 15:24:58.352899+01 | 1486563898.3529 | 0/EED2CDA8               |            4006792616

 2017-02-08 15:24:59.541073+01 | 1486563899.54107 | 0/EF3C00D8               |            4013687000

 2017-02-08 15:25:00.814272+01 | 1486563900.81427 | 0/EFB07860               |            4021319776

 2017-02-08 15:25:02.001625+01 | 1486563902.00163 | 0/F0199E48               |            4028210760

 2017-02-08 15:25:03.247855+01 | 1486563903.24785 | 0/F088B118               |            4035490072

 2017-02-08 15:25:04.393196+01 | 1486563904.3932 | 0/F0EEF630               |            4042192432

 2017-02-08 15:25:05.542101+01 | 1486563905.5421 | 0/F15497B8               |            4048852920

 2017-02-08 15:25:06.70888+01 | 1486563906.70888 | 0/F1BCE900               |            4055689472

 2017-02-08 15:25:07.909034+01 | 1486563907.90903 | 0/F2286890               |            4062734480

 2017-02-08 15:25:09.061686+01 | 1486563909.06169 | 0/F28FD040               |            4069511232

 2017-02-08 15:25:10.331065+01 | 1486563910.33106 | 0/F2FFFDB8               |            4076862904

 2017-02-08 15:25:11.538206+01 | 1486563911.53821 | 0/F36D1EA0               |            4084014752

 2017-02-08 15:25:12.706396+01 | 1486563912.7064 | 0/F3D679F0               |            4090919408

 2017-02-08 15:25:13.886795+01 | 1486563913.8868 | 0/F43F5300               |            4097790720

 2017-02-08 15:25:15.028548+01 | 1486563915.02855 | 0/F4A5FE80               |            4104519296

 2017-02-08 15:25:16.207143+01 | 1486563916.20714 | 0/F50E6E38               |            4111363640

 2017-02-08 15:25:17.380525+01 | 1486563917.38053 | 0/F5766FB0               |            4118179760

 2017-02-08 15:25:18.550721+01 | 1486563918.55072 | 0/F5E08300               |            4125131520

 2017-02-08 15:25:19.820973+01 | 1486563919.82097 | 0/F651CDB0               |            4132556208

 2017-02-08 15:25:20.945708+01 | 1486563920.94571 | 0/F6B7CF50               |            4139241296

 2017-02-08 15:25:22.105413+01 | 1486563922.10541 | 0/F71D78C0               |            4145903808

 2017-02-08 15:25:23.19987+01 | 1486563923.19987 | 0/F774B3F8               |            4151620600

