 2017-02-10 17:07:17.201594+01 | 1486742837.20159 |                 0 |              12 |                  5998 |                  953 |             964910 |         62786 |              490 |          567834 |                     0 |        419114 | 2017-02-10 16:11:58.713433+01

 2017-02-10 17:07:18.254581+01 | 1486742838.25458 |                 0 |              12 |                  5998 |                  953 |             964910 |         62786 |              490 |          567834 |                     0 |        419166 | 2017-02-10 16:11:58.713433+01

 2017-02-10 17:07:19.303132+01 | 1486742839.30313 |                 0 |              12 |                  5998 |                  953 |             964910 |         62786 |              490 |          567834 |                     0 |        419215 | 2017-02-10 16:11:58.713433+01

 2017-02-10 17:07:20.353619+01 | 1486742840.35362 |                 0 |              12 |                  5998 |                  953 |             964910 |         62786 |              490 |          567834 |                     0 |        419264 | 2017-02-10 16:11:58.713433+01

 2017-02-10 17:07:21.404628+01 | 1486742841.40463 |                 0 |              12 |                  5998 |                  953 |             964910 |         62786 |              490 |          567834 |                     0 |        419318 | 2017-02-10 16:11:58.713433+01

 2017-02-10 17:07:22.453323+01 | 1486742842.45332 |                 0 |              12 |                  5998 |                  953 |             964910 |         62786 |              490 |          567834 |                     0 |        419380 | 2017-02-10 16:11:58.713433+01

 2017-02-10 17:07:23.505671+01 | 1486742843.50567 |                 0 |              12 |                  5998 |                  953 |             964910 |         62786 |              490 |          567834 |                     0 |        419435 | 2017-02-10 16:11:58.713433+01

 2017-02-10 17:07:24.55754+01 | 1486742844.55754 |                 0 |              12 |                  5998 |                  953 |             964910 |         62786 |              490 |          567834 |                     0 |        419487 | 2017-02-10 16:11:58.713433+01

 2017-02-10 17:07:25.610499+01 | 1486742845.6105 |                 0 |              12 |                  5998 |                  953 |             964910 |         62786 |              490 |          567834 |                     0 |        419543 | 2017-02-10 16:11:58.713433+01

 2017-02-10 17:07:26.66369+01 | 1486742846.66369 |                 0 |              12 |                  5998 |                  953 |             964910 |         62786 |              490 |          567834 |                     0 |        419608 | 2017-02-10 16:11:58.713433+01

 2017-02-10 17:07:27.715171+01 | 1486742847.71517 |                 0 |              12 |                  5998 |                  953 |             964910 |         62786 |              490 |          567834 |                     0 |        419663 | 2017-02-10 16:11:58.713433+01

 2017-02-10 17:07:28.768322+01 | 1486742848.76832 |                 0 |              12 |                  5998 |                  953 |             964910 |         62786 |              490 |          567834 |                     0 |        419724 | 2017-02-10 16:11:58.713433+01

 2017-02-10 17:07:29.820249+01 | 1486742849.82025 |                 0 |              12 |                  5998 |                  953 |             964910 |         62786 |              490 |          567834 |                     0 |        419778 | 2017-02-10 16:11:58.713433+01

 2017-02-10 17:07:30.870874+01 | 1486742850.87087 |                 0 |              12 |                  5998 |                  953 |             964910 |         62786 |              490 |          567834 |                     0 |        419843 | 2017-02-10 16:11:58.713433+01

 2017-02-10 17:07:31.923925+01 | 1486742851.92392 |                 0 |              12 |                  5998 |                  953 |             964910 |         62786 |              490 |          567834 |                     0 |        419892 | 2017-02-10 16:11:58.713433+01

 2017-02-10 17:07:32.976157+01 | 1486742852.97616 |                 0 |              12 |                  5998 |                  953 |             964910 |         62786 |              490 |          567834 |                     0 |        419946 | 2017-02-10 16:11:58.713433+01

 2017-02-10 17:07:34.029158+01 | 1486742854.02916 |                 0 |              12 |                  5998 |                  953 |             964910 |         62786 |              490 |          567834 |                     0 |        420000 | 2017-02-10 16:11:58.713433+01

 2017-02-10 17:07:35.080885+01 | 1486742855.08088 |                 0 |              12 |                  5998 |                  953 |             964910 |         62786 |              490 |          567834 |                     0 |        420065 | 2017-02-10 16:11:58.713433+01

 2017-02-10 17:07:36.130196+01 | 1486742856.1302 |                 0 |              12 |                  5998 |                  953 |             964910 |         62786 |              490 |          567834 |                     0 |        420114 | 2017-02-10 16:11:58.713433+01

 2017-02-10 17:07:37.180135+01 | 1486742857.18014 |                 0 |              12 |                  5998 |                  953 |             964910 |         62786 |              490 |          567834 |                     0 |        420166 | 2017-02-10 16:11:58.713433+01

 2017-02-10 17:07:38.231884+01 | 1486742858.23188 |                 0 |              12 |                  5998 |                  953 |             964910 |         62786 |              490 |          567834 |                     0 |        420218 | 2017-02-10 16:11:58.713433+01

 2017-02-10 17:07:39.284224+01 | 1486742859.28422 |                 0 |              12 |                  5998 |                  953 |             964910 |         62786 |              490 |          567834 |                     0 |        420284 | 2017-02-10 16:11:58.713433+01

 2017-02-10 17:07:40.333013+01 | 1486742860.33301 |                 0 |              12 |                  5998 |                  953 |             964910 |         62786 |              490 |          567834 |                     0 |        420336 | 2017-02-10 16:11:58.713433+01

 2017-02-10 17:07:41.382846+01 | 1486742861.38285 |                 0 |              12 |                  5998 |                  953 |             964910 |         62786 |              490 |          567834 |                     0 |        420385 | 2017-02-10 16:11:58.713433+01

 2017-02-10 17:07:42.43455+01 | 1486742862.43455 |                 0 |              12 |                  5998 |                  953 |             964910 |         62786 |              490 |          567834 |                     0 |        420440 | 2017-02-10 16:11:58.713433+01

 2017-02-10 17:07:43.487974+01 | 1486742863.48797 |                 0 |              12 |                  5998 |                  953 |             964910 |         62786 |              490 |          567834 |                     0 |        420504 | 2017-02-10 16:11:58.713433+01

 2017-02-10 17:07:44.538152+01 | 1486742864.53815 |                 0 |              12 |                  5998 |                  953 |             964910 |         62786 |              490 |          567834 |                     0 |        420568 | 2017-02-10 16:11:58.713433+01

 2017-02-10 17:07:45.590032+01 | 1486742865.59003 |                 0 |              12 |                  5998 |                  953 |             964910 |         62786 |              490 |          567834 |                     0 |        420640 | 2017-02-10 16:11:58.713433+01

 2017-02-10 17:07:46.640269+01 | 1486742866.64027 |                 0 |              12 |                  5998 |                  953 |             964910 |         62786 |              490 |          567834 |                     0 |        420692 | 2017-02-10 16:11:58.713433+01

 2017-02-10 17:07:47.691792+01 | 1486742867.69179 |                 0 |              12 |                  5998 |                  953 |             964910 |         62786 |              490 |          567834 |                     0 |        420755 | 2017-02-10 16:11:58.713433+01

 2017-02-10 17:07:48.745065+01 | 1486742868.74506 |                 0 |              12 |                  5998 |                  953 |             964910 |         62786 |              490 |          567834 |                     0 |        420807 | 2017-02-10 16:11:58.713433+01

 2017-02-10 17:07:49.796275+01 | 1486742869.79627 |                 0 |              12 |                  5998 |                  953 |             964910 |         62786 |              490 |          567834 |                     0 |        420855 | 2017-02-10 16:11:58.713433+01

 2017-02-10 17:07:50.846677+01 | 1486742870.84668 |                 0 |              12 |                  5998 |                  953 |             964910 |         62786 |              490 |          567834 |                     0 |        420907 | 2017-02-10 16:11:58.713433+01

 2017-02-10 17:07:51.885099+01 | 1486742871.8851 |                 0 |              12 |                  5998 |                  953 |             964910 |         62786 |              490 |          567834 |                     0 |        420959 | 2017-02-10 16:11:58.713433+01

 2017-02-10 17:07:52.937508+01 | 1486742872.93751 |                 0 |              12 |                  5998 |                  953 |             964910 |         62786 |              490 |          567834 |                     0 |        421046 | 2017-02-10 16:11:58.713433+01

 2017-02-10 17:07:53.988056+01 | 1486742873.98806 |                 0 |              12 |                  5998 |                  953 |             964910 |         62786 |              490 |          567834 |                     0 |        421095 | 2017-02-10 16:11:58.713433+01

 2017-02-10 17:07:55.036247+01 | 1486742875.03625 |                 0 |              12 |                  5998 |                  953 |             964910 |         62786 |              490 |          567834 |                     0 |        421140 | 2017-02-10 16:11:58.713433+01

 2017-02-10 17:07:56.083648+01 | 1486742876.08365 |                 0 |              12 |                  5998 |                  953 |             964910 |         62786 |              490 |          567834 |                     0 |        421215 | 2017-02-10 16:11:58.713433+01

 2017-02-10 17:07:57.134383+01 | 1486742877.13438 |                 0 |              12 |                  5998 |                  953 |             964910 |         62786 |              490 |          567834 |                     0 |        421264 | 2017-02-10 16:11:58.713433+01

 2017-02-10 17:07:58.18506+01 | 1486742878.18506 |                 0 |              12 |                  5998 |                  953 |             964910 |         62786 |              490 |          567834 |                     0 |        421321 | 2017-02-10 16:11:58.713433+01

 2017-02-10 17:07:59.234763+01 | 1486742879.23476 |                 0 |              12 |                  5998 |                  953 |             964910 |         62786 |              490 |          567834 |                     0 |        421384 | 2017-02-10 16:11:58.713433+01

 2017-02-10 17:08:00.284692+01 | 1486742880.28469 |                 0 |              12 |                  5998 |                  953 |             964910 |         62786 |              490 |          567834 |                     0 |        421433 | 2017-02-10 16:11:58.713433+01

 2017-02-10 17:08:01.336208+01 | 1486742881.33621 |                 0 |              12 |                  5998 |                  953 |             964910 |         62786 |              490 |          567834 |                     0 |        421518 | 2017-02-10 16:11:58.713433+01

 2017-02-10 17:08:02.387658+01 | 1486742882.38766 |                 0 |              12 |                  5998 |                  953 |             964910 |         62786 |              490 |          567834 |                     0 |        421568 | 2017-02-10 16:11:58.713433+01

 2017-02-10 17:08:03.441298+01 | 1486742883.4413 |                 0 |              12 |                  5998 |                  953 |             964910 |         62786 |              490 |          567834 |                     0 |        421616 | 2017-02-10 16:11:58.713433+01

 2017-02-10 17:08:04.492797+01 | 1486742884.4928 |                 0 |              12 |                  5998 |                  953 |             964910 |         62786 |              490 |          567834 |                     0 |        421672 | 2017-02-10 16:11:58.713433+01

 2017-02-10 17:08:05.54332+01 | 1486742885.54332 |                 0 |              12 |                  5998 |                  953 |             964910 |         62786 |              490 |          567834 |                     0 |        421727 | 2017-02-10 16:11:58.713433+01

 2017-02-10 17:08:06.594444+01 | 1486742886.59444 |                 0 |              12 |                  5998 |                  953 |             964910 |         62786 |              490 |          567834 |                     0 |        421795 | 2017-02-10 16:11:58.713433+01

 2017-02-10 17:08:07.64504+01 | 1486742887.64504 |                 0 |              12 |                  5998 |                  953 |             964910 |         62786 |              490 |          567834 |                     0 |        421866 | 2017-02-10 16:11:58.713433+01

 2017-02-10 17:08:08.69403+01 | 1486742888.69403 |                 0 |              12 |                  5998 |                  953 |             964910 |         62786 |              490 |          567834 |                     0 |        421913 | 2017-02-10 16:11:58.713433+01

 2017-02-10 17:08:09.743061+01 | 1486742889.74306 |                 0 |              12 |                  5998 |                  953 |             964910 |         62786 |              490 |          567834 |                     0 |        421989 | 2017-02-10 16:11:58.713433+01

 2017-02-10 17:08:10.794692+01 | 1486742890.79469 |                 0 |              12 |                  5998 |                  953 |             964910 |         62786 |              490 |          567834 |                     0 |        422013 | 2017-02-10 16:11:58.713433+01

 2017-02-10 17:08:11.844295+01 | 1486742891.8443 |                 0 |              12 |                  5998 |                  953 |             964910 |         62786 |              490 |          567834 |                     0 |        422083 | 2017-02-10 16:11:58.713433+01

 2017-02-10 17:08:12.896438+01 | 1486742892.89644 |                 0 |              12 |                  5998 |                  953 |             964910 |         62786 |              490 |          567834 |                     0 |        422138 | 2017-02-10 16:11:58.713433+01

 2017-02-10 17:08:13.950248+01 | 1486742893.95025 |                 0 |              12 |                  5998 |                  953 |             964910 |         62786 |              490 |          567834 |                     0 |        422192 | 2017-02-10 16:11:58.713433+01

 2017-02-10 17:08:15.001653+01 | 1486742895.00165 |                 0 |              12 |                  5998 |                  953 |             964910 |         62786 |              490 |          567834 |                     0 |        422255 | 2017-02-10 16:11:58.713433+01

 2017-02-10 17:08:16.054335+01 | 1486742896.05434 |                 0 |              12 |                  5998 |                  953 |             964910 |         62786 |              490 |          567834 |                     0 |        422312 | 2017-02-10 16:11:58.713433+01

 2017-02-10 17:08:17.10531+01 | 1486742897.10531 |                 0 |              12 |                  5998 |                  953 |             964910 |         62786 |              490 |          567834 |                     0 |        422368 | 2017-02-10 16:11:58.713433+01

 2017-02-10 17:08:18.152972+01 | 1486742898.15297 |                 0 |              12 |                  5998 |                  953 |             964910 |         62786 |              490 |          567834 |                     0 |        422422 | 2017-02-10 16:11:58.713433+01

 2017-02-10 17:08:19.206296+01 | 1486742899.2063 |                 0 |              12 |                  5998 |                  953 |             964910 |         62786 |              490 |          567834 |                     0 |        422488 | 2017-02-10 16:11:58.713433+01

 2017-02-10 17:08:20.2559+01 | 1486742900.2559 |                 0 |              12 |                  5998 |                  953 |             964910 |         62786 |              490 |          567834 |                     0 |        422543 | 2017-02-10 16:11:58.713433+01

 2017-02-10 17:08:21.30766+01 | 1486742901.30766 |                 0 |              12 |                  5998 |                  953 |             964910 |         62786 |              490 |          567834 |                     0 |        422598 | 2017-02-10 16:11:58.713433+01

 2017-02-10 17:08:22.359357+01 | 1486742902.35936 |                 0 |              12 |                  5998 |                  953 |             964910 |         62786 |              490 |          567834 |                     0 |        422654 | 2017-02-10 16:11:58.713433+01

 2017-02-10 17:08:23.412979+01 | 1486742903.41298 |                 0 |              12 |                  5998 |                  953 |             964910 |         62786 |              490 |          567834 |                     0 |        422721 | 2017-02-10 16:11:58.713433+01

 2017-02-10 17:08:24.46328+01 | 1486742904.46328 |                 0 |              12 |                  5998 |                  953 |             964910 |         62786 |              490 |          567834 |                     0 |        422779 | 2017-02-10 16:11:58.713433+01

 2017-02-10 17:08:25.513656+01 | 1486742905.51366 |                 0 |              12 |                  5998 |                  953 |             964910 |         62786 |              490 |          567834 |                     0 |        422831 | 2017-02-10 16:11:58.713433+01

 2017-02-10 17:08:26.564547+01 | 1486742906.56455 |                 0 |              12 |                  5998 |                  953 |             964910 |         62786 |              490 |          567834 |                     0 |        422886 | 2017-02-10 16:11:58.713433+01

 2017-02-10 17:08:27.61496+01 | 1486742907.61496 |                 0 |              12 |                  5998 |                  953 |             964910 |         62786 |              490 |          567834 |                     0 |        422952 | 2017-02-10 16:11:58.713433+01

 2017-02-10 17:08:28.667152+01 | 1486742908.66715 |                 0 |              12 |                  5998 |                  953 |             964910 |         62786 |              490 |          567834 |                     0 |        423020 | 2017-02-10 16:11:58.713433+01

 2017-02-10 17:08:29.719868+01 | 1486742909.71987 |                 0 |              12 |                  5998 |                  953 |             964910 |         62786 |              490 |          567834 |                     0 |        423069 | 2017-02-10 16:11:58.713433+01

 2017-02-10 17:08:30.758832+01 | 1486742910.75883 |                 0 |              12 |                  5998 |                  953 |             964910 |         62786 |              490 |          567834 |                     0 |        423094 | 2017-02-10 16:11:58.713433+01

 2017-02-10 17:08:31.808999+01 | 1486742911.809 |                 0 |              12 |                  5998 |                  953 |             964910 |         62786 |              490 |          567834 |                     0 |        423200 | 2017-02-10 16:11:58.713433+01

 2017-02-10 17:08:32.861694+01 | 1486742912.86169 |                 0 |              12 |                  5998 |                  953 |             964910 |         62786 |              490 |          567834 |                     0 |        423249 | 2017-02-10 16:11:58.713433+01

 2017-02-10 17:08:33.910256+01 | 1486742913.91026 |                 0 |              12 |                  5998 |                  953 |             964910 |         62786 |              490 |          567834 |                     0 |        423298 | 2017-02-10 16:11:58.713433+01

 2017-02-10 17:08:34.959101+01 | 1486742914.9591 |                 0 |              12 |                  5998 |                  953 |             964910 |         62786 |              490 |          567834 |                     0 |        423353 | 2017-02-10 16:11:58.713433+01

 2017-02-10 17:08:36.007905+01 | 1486742916.00791 |                 0 |              12 |                  5998 |                  953 |             964910 |         62786 |              490 |          567834 |                     0 |        423431 | 2017-02-10 16:11:58.713433+01

 2017-02-10 17:08:37.05866+01 | 1486742917.05866 |                 0 |              12 |                  5998 |                  953 |             964910 |         62786 |              490 |          567834 |                     0 |        423473 | 2017-02-10 16:11:58.713433+01

 2017-02-10 17:08:38.110569+01 | 1486742918.11057 |                 0 |              12 |                  5998 |                  953 |             964910 |         62786 |              490 |          567834 |                     0 |        423530 | 2017-02-10 16:11:58.713433+01

 2017-02-10 17:08:39.161989+01 | 1486742919.16199 |                 0 |              12 |                  5998 |                  953 |             964910 |         62786 |              490 |          567834 |                     0 |        423585 | 2017-02-10 16:11:58.713433+01

 2017-02-10 17:08:40.210366+01 | 1486742920.21037 |                 0 |              12 |                  5998 |                  953 |             964910 |         62786 |              490 |          567834 |                     0 |        423652 | 2017-02-10 16:11:58.713433+01

 2017-02-10 17:08:41.260105+01 | 1486742921.2601 |                 0 |              12 |                  5998 |                  953 |             964910 |         62786 |              490 |          567834 |                     0 |        423708 | 2017-02-10 16:11:58.713433+01

 2017-02-10 17:08:42.31451+01 | 1486742922.31451 |                 0 |              12 |                  5998 |                  953 |             964910 |         62786 |              490 |          567834 |                     0 |        423764 | 2017-02-10 16:11:58.713433+01

 2017-02-10 17:08:43.365744+01 | 1486742923.36574 |                 0 |              12 |                  5998 |                  953 |             964910 |         62786 |              490 |          567834 |                     0 |        423821 | 2017-02-10 16:11:58.713433+01

 2017-02-10 17:08:44.417414+01 | 1486742924.41741 |                 0 |              12 |                  5998 |                  953 |             964910 |         62786 |              490 |          567834 |                     0 |        423887 | 2017-02-10 16:11:58.713433+01

 2017-02-10 17:08:45.469508+01 | 1486742925.46951 |                 0 |              12 |                  5998 |                  953 |             964910 |         62786 |              490 |          567834 |                     0 |        423943 | 2017-02-10 16:11:58.713433+01

 2017-02-10 17:08:46.520718+01 | 1486742926.52072 |                 0 |              12 |                  5998 |                  953 |             964910 |         62786 |              490 |          567834 |                     0 |        423998 | 2017-02-10 16:11:58.713433+01

 2017-02-10 17:08:47.572525+01 | 1486742927.57253 |                 0 |              12 |                  5998 |                  953 |             964910 |         62786 |              490 |          567834 |                     0 |        424058 | 2017-02-10 16:11:58.713433+01

 2017-02-10 17:08:48.623382+01 | 1486742928.62338 |                 0 |              12 |                  5998 |                  953 |             964910 |         62786 |              490 |          567834 |                     0 |        424123 | 2017-02-10 16:11:58.713433+01

 2017-02-10 17:08:49.672376+01 | 1486742929.67238 |                 0 |              12 |                  5998 |                  953 |             964910 |         62786 |              490 |          567834 |                     0 |        424183 | 2017-02-10 16:11:58.713433+01

 2017-02-10 17:08:50.721998+01 | 1486742930.722 |                 0 |              12 |                  5998 |                  953 |             964910 |         62786 |              490 |          567834 |                     0 |        424235 | 2017-02-10 16:11:58.713433+01

 2017-02-10 17:08:51.772141+01 | 1486742931.77214 |                 0 |              12 |                  5998 |                  953 |             964910 |         62786 |              490 |          567834 |                     0 |        424293 | 2017-02-10 16:11:58.713433+01

 2017-02-10 17:08:52.82116+01 | 1486742932.82116 |                 0 |              12 |                  5998 |                  953 |             964910 |         62786 |              490 |          567834 |                     0 |        424358 | 2017-02-10 16:11:58.713433+01

 2017-02-10 17:08:53.869701+01 | 1486742933.8697 |                 0 |              12 |                  5998 |                  953 |             964910 |         62786 |              490 |          567834 |                     0 |        424417 | 2017-02-10 16:11:58.713433+01

 2017-02-10 17:08:54.921729+01 | 1486742934.92173 |                 0 |              12 |                  5998 |                  953 |             964910 |         62786 |              490 |          567834 |                     0 |        424471 | 2017-02-10 16:11:58.713433+01

 2017-02-10 17:08:55.970321+01 | 1486742935.97032 |                 0 |              12 |                  5998 |                  953 |             964910 |         62786 |              490 |          567834 |                     0 |        424544 | 2017-02-10 16:11:58.713433+01

 2017-02-10 17:08:57.020639+01 | 1486742937.02064 |                 0 |              12 |                  5998 |                  953 |             964910 |         62786 |              490 |          567834 |                     0 |        424592 | 2017-02-10 16:11:58.713433+01

 2017-02-10 17:08:58.070096+01 | 1486742938.0701 |                 0 |              12 |                  5998 |                  953 |             964910 |         62786 |              490 |          567834 |                     0 |        424650 | 2017-02-10 16:11:58.713433+01

 2017-02-10 17:08:59.124198+01 | 1486742939.1242 |                 0 |              12 |                  5998 |                  953 |             964910 |         62786 |              490 |          567834 |                     0 |        424708 | 2017-02-10 16:11:58.713433+01

 2017-02-10 17:09:00.17518+01 | 1486742940.17518 |                 0 |              12 |                  5998 |                  953 |             964910 |         62786 |              490 |          567834 |                     0 |        424764 | 2017-02-10 16:11:58.713433+01

 2017-02-10 17:09:01.228118+01 | 1486742941.22812 |                 0 |              12 |                  5998 |                  953 |             964910 |         62786 |              490 |          567834 |                     0 |        424829 | 2017-02-10 16:11:58.713433+01

 2017-02-10 17:09:02.277772+01 | 1486742942.27777 |                 0 |              12 |                  5998 |                  953 |             964910 |         62786 |              490 |          567834 |                     0 |        424884 | 2017-02-10 16:11:58.713433+01

 2017-02-10 17:09:03.330891+01 | 1486742943.33089 |                 0 |              12 |                  5998 |                  953 |             964910 |         62786 |              490 |          567834 |                     0 |        424941 | 2017-02-10 16:11:58.713433+01

 2017-02-10 17:09:04.381392+01 | 1486742944.38139 |                 0 |              12 |                  5998 |                  953 |             964910 |         62786 |              490 |          567834 |                     0 |        424997 | 2017-02-10 16:11:58.713433+01

 2017-02-10 17:09:05.432585+01 | 1486742945.43259 |                 0 |              12 |                  5998 |                  953 |             964910 |         62786 |              490 |          567834 |                     0 |        425064 | 2017-02-10 16:11:58.713433+01

 2017-02-10 17:09:06.48385+01 | 1486742946.48385 |                 0 |              12 |                  5998 |                  953 |             964910 |         62786 |              490 |          567834 |                     0 |        425119 | 2017-02-10 16:11:58.713433+01

 2017-02-10 17:09:07.534572+01 | 1486742947.53457 |                 0 |              12 |                  5998 |                  953 |             964910 |         62786 |              490 |          567834 |                     0 |        425189 | 2017-02-10 16:11:58.713433+01

 2017-02-10 17:09:08.585132+01 | 1486742948.58513 |                 0 |              12 |                  5998 |                  953 |             964910 |         62786 |              490 |          567834 |                     0 |        425229 | 2017-02-10 16:11:58.713433+01

 2017-02-10 17:09:09.636275+01 | 1486742949.63628 |                 0 |              12 |                  5998 |                  953 |             964910 |         62786 |              490 |          567834 |                     0 |        425295 | 2017-02-10 16:11:58.713433+01

 2017-02-10 17:09:10.687486+01 | 1486742950.68749 |                 0 |              12 |                  5998 |                  953 |             964910 |         62786 |              490 |          567834 |                     0 |        425351 | 2017-02-10 16:11:58.713433+01

 2017-02-10 17:09:11.734883+01 | 1486742951.73488 |                 0 |              12 |                  5998 |                  953 |             964910 |         62786 |              490 |          567834 |                     0 |        425406 | 2017-02-10 16:11:58.713433+01

 2017-02-10 17:09:12.786624+01 | 1486742952.78662 |                 0 |              12 |                  5998 |                  953 |             964910 |         62786 |              490 |          567834 |                     0 |        425462 | 2017-02-10 16:11:58.713433+01

 2017-02-10 17:09:13.838248+01 | 1486742953.83825 |                 0 |              12 |                  5998 |                  953 |             964910 |         62786 |              490 |          567834 |                     0 |        425527 | 2017-02-10 16:11:58.713433+01

 2017-02-10 17:09:14.889575+01 | 1486742954.88958 |                 0 |              12 |                  5998 |                  953 |             964910 |         62786 |              490 |          567834 |                     0 |        425590 | 2017-02-10 16:11:58.713433+01

 2017-02-10 17:09:15.941053+01 | 1486742955.94105 |                 0 |              12 |                  5998 |                  953 |             964910 |         62786 |              490 |          567834 |                     0 |        425638 | 2017-02-10 16:11:58.713433+01

 2017-02-10 17:09:16.990234+01 | 1486742956.99023 |                 0 |              12 |                  5998 |                  953 |             964910 |         62786 |              490 |          567834 |                     0 |        425693 | 2017-02-10 16:11:58.713433+01

 2017-02-10 17:09:18.040299+01 | 1486742958.0403 |                 0 |              12 |                  5998 |                  953 |             964910 |         62786 |              490 |          567834 |                     0 |        425760 | 2017-02-10 16:11:58.713433+01

 2017-02-10 17:09:19.092804+01 | 1486742959.0928 |                 0 |              12 |                  5998 |                  953 |             964910 |         62786 |              490 |          567834 |                     0 |        425813 | 2017-02-10 16:11:58.713433+01

 2017-02-10 17:09:20.142479+01 | 1486742960.14248 |                 0 |              12 |                  5998 |                  953 |             964910 |         62786 |              490 |          567834 |                     0 |        425870 | 2017-02-10 16:11:58.713433+01

 2017-02-10 17:09:21.190939+01 | 1486742961.19094 |                 0 |              12 |                  5998 |                  953 |             964910 |         62786 |              490 |          567834 |                     0 |        425925 | 2017-02-10 16:11:58.713433+01

 2017-02-10 17:09:22.243514+01 | 1486742962.24351 |                 0 |              12 |                  5998 |                  953 |             964910 |         62786 |              490 |          567834 |                     0 |        425990 | 2017-02-10 16:11:58.713433+01

 2017-02-10 17:09:23.295823+01 | 1486742963.29582 |                 0 |              12 |                  5998 |                  953 |             964910 |         62786 |              490 |          567834 |                     0 |        426045 | 2017-02-10 16:11:58.713433+01

 2017-02-10 17:09:24.344848+01 | 1486742964.34485 |                 0 |              12 |                  5998 |                  953 |             964910 |         62786 |              490 |          567834 |                     0 |        426121 | 2017-02-10 16:11:58.713433+01

 2017-02-10 17:09:25.396505+01 | 1486742965.39651 |                 0 |              12 |                  5998 |                  953 |             964910 |         62786 |              490 |          567834 |                     0 |        426175 | 2017-02-10 16:11:58.713433+01

 2017-02-10 17:09:26.446464+01 | 1486742966.44646 |                 0 |              12 |                  5998 |                  953 |             964910 |         62786 |              490 |          567834 |                     0 |        426229 | 2017-02-10 16:11:58.713433+01

 2017-02-10 17:09:27.496798+01 | 1486742967.4968 |                 0 |              12 |                  5998 |                  953 |             964910 |         62786 |              490 |          567834 |                     0 |        426268 | 2017-02-10 16:11:58.713433+01

 2017-02-10 17:09:28.548789+01 | 1486742968.54879 |                 0 |              12 |                  5998 |                  953 |             964910 |         62786 |              490 |          567834 |                     0 |        426332 | 2017-02-10 16:11:58.713433+01

 2017-02-10 17:09:29.599875+01 | 1486742969.59987 |                 0 |              12 |                  5998 |                  953 |             964910 |         62786 |              490 |          567834 |                     0 |        426390 | 2017-02-10 16:11:58.713433+01

 2017-02-10 17:09:30.639354+01 | 1486742970.63935 |                 0 |              12 |                  5998 |                  953 |             964910 |         62786 |              490 |          567834 |                     0 |        426432 | 2017-02-10 16:11:58.713433+01

 2017-02-10 17:09:31.689204+01 | 1486742971.6892 |                 0 |              12 |                  5998 |                  953 |             964910 |         62786 |              490 |          567834 |                     0 |        426493 | 2017-02-10 16:11:58.713433+01

 2017-02-10 17:09:32.748233+01 | 1486742972.74823 |                 0 |              12 |                  5998 |                  953 |             964910 |         62786 |              490 |          567834 |                     0 |        426552 | 2017-02-10 16:11:58.713433+01

 2017-02-10 17:09:33.801815+01 | 1486742973.80182 |                 0 |              12 |                  5998 |                  953 |             964910 |         62786 |              490 |          567834 |                     0 |        426638 | 2017-02-10 16:11:58.713433+01

 2017-02-10 17:09:34.855605+01 | 1486742974.8556 |                 0 |              12 |                  5998 |                  953 |             964910 |         62786 |              490 |          567834 |                     0 |        426690 | 2017-02-10 16:11:58.713433+01

 2017-02-10 17:09:35.912847+01 | 1486742975.91285 |                 0 |              12 |                  5998 |                  953 |             964910 |         62786 |              490 |          567834 |                     0 |        426742 | 2017-02-10 16:11:58.713433+01

 2017-02-10 17:09:36.960112+01 | 1486742976.96011 |                 0 |              12 |                  5998 |                  953 |             964910 |         62786 |              490 |          567834 |                     0 |        426806 | 2017-02-10 16:11:58.713433+01

 2017-02-10 17:09:38.010864+01 | 1486742978.01086 |                 0 |              12 |                  5998 |                  953 |             964910 |         62786 |              490 |          567834 |                     0 |        426863 | 2017-02-10 16:11:58.713433+01

 2017-02-10 17:09:39.060417+01 | 1486742979.06042 |                 0 |              12 |                  5998 |                  953 |             964910 |         62786 |              490 |          567834 |                     0 |        426920 | 2017-02-10 16:11:58.713433+01

 2017-02-10 17:09:40.114015+01 | 1486742980.11402 |                 0 |              12 |                  5998 |                  953 |             964910 |         62786 |              490 |          567834 |                     0 |        426975 | 2017-02-10 16:11:58.713433+01

 2017-02-10 17:09:41.165768+01 | 1486742981.16577 |                 0 |              12 |                  5998 |                  953 |             964910 |         62786 |              490 |          567834 |                     0 |        427043 | 2017-02-10 16:11:58.713433+01

 2017-02-10 17:09:42.217919+01 | 1486742982.21792 |                 0 |              12 |                  5998 |                  953 |             964910 |         62786 |              490 |          567834 |                     0 |        427096 | 2017-02-10 16:11:58.713433+01

 2017-02-10 17:09:43.26725+01 | 1486742983.26725 |                 0 |              12 |                  5998 |                  953 |             964910 |         62786 |              490 |          567834 |                     0 |        427152 | 2017-02-10 16:11:58.713433+01

 2017-02-10 17:09:44.320976+01 | 1486742984.32098 |                 0 |              12 |                  5998 |                  953 |             964910 |         62786 |              490 |          567834 |                     0 |        427207 | 2017-02-10 16:11:58.713433+01

 2017-02-10 17:09:45.372572+01 | 1486742985.37257 |                 0 |              12 |                  5998 |                  953 |             964910 |         62786 |              490 |          567834 |                     0 |        427274 | 2017-02-10 16:11:58.713433+01

 2017-02-10 17:09:46.423779+01 | 1486742986.42378 |                 0 |              12 |                  5998 |                  953 |             964910 |         62786 |              490 |          567834 |                     0 |        427330 | 2017-02-10 16:11:58.713433+01

 2017-02-10 17:09:47.477308+01 | 1486742987.47731 |                 0 |              12 |                  5998 |                  953 |             964910 |         62786 |              490 |          567834 |                     0 |        427386 | 2017-02-10 16:11:58.713433+01

 2017-02-10 17:09:48.528954+01 | 1486742988.52895 |                 0 |              12 |                  5998 |                  953 |             964910 |         62786 |              490 |          567834 |                     0 |        427443 | 2017-02-10 16:11:58.713433+01

 2017-02-10 17:09:49.578366+01 | 1486742989.57837 |                 0 |              12 |                  5998 |                  953 |             964910 |         62786 |              490 |          567834 |                     0 |        427513 | 2017-02-10 16:11:58.713433+01

 2017-02-10 17:09:50.631296+01 | 1486742990.6313 |                 0 |              12 |                  5998 |                  953 |             964910 |         62786 |              490 |          567834 |                     0 |        427571 | 2017-02-10 16:11:58.713433+01

 2017-02-10 17:09:51.684403+01 | 1486742991.6844 |                 0 |              12 |                  5998 |                  953 |             964910 |         62786 |              490 |          567834 |                     0 |        427627 | 2017-02-10 16:11:58.713433+01

 2017-02-10 17:09:52.734593+01 | 1486742992.73459 |                 0 |              12 |                  5998 |                  953 |             964910 |         62786 |              490 |          567834 |                     0 |        427683 | 2017-02-10 16:11:58.713433+01

 2017-02-10 17:09:53.790553+01 | 1486742993.79055 |                 0 |              12 |                  5998 |                  953 |             964910 |         62786 |              490 |          567834 |                     0 |        427748 | 2017-02-10 16:11:58.713433+01

 2017-02-10 17:09:54.842947+01 | 1486742994.84295 |                 0 |              12 |                  5998 |                  953 |             964910 |         62786 |              490 |          567834 |                     0 |        427803 | 2017-02-10 16:11:58.713433+01

 2017-02-10 17:09:55.894545+01 | 1486742995.89455 |                 0 |              12 |                  5998 |                  953 |             964910 |         62786 |              490 |          567834 |                     0 |        427858 | 2017-02-10 16:11:58.713433+01

 2017-02-10 17:09:56.944735+01 | 1486742996.94474 |                 0 |              12 |                  5998 |                  953 |             964910 |         62786 |              490 |          567834 |                     0 |        427915 | 2017-02-10 16:11:58.713433+01

 2017-02-10 17:09:57.99266+01 | 1486742997.99266 |                 0 |              12 |                  5998 |                  953 |             964910 |         62786 |              490 |          567834 |                     0 |        427978 | 2017-02-10 16:11:58.713433+01

 2017-02-10 17:09:59.045791+01 | 1486742999.04579 |                 0 |              12 |                  5998 |                  953 |             964910 |         62786 |              490 |          567834 |                     0 |        428033 | 2017-02-10 16:11:58.713433+01

 2017-02-10 17:10:00.095792+01 | 1486743000.09579 |                 0 |              12 |                  5998 |                  953 |             964910 |         62786 |              490 |          567834 |                     0 |        428089 | 2017-02-10 16:11:58.713433+01

 2017-02-10 17:10:01.146143+01 | 1486743001.14614 |                 0 |              12 |                  5998 |                  953 |             964910 |         62786 |              490 |          567834 |                     0 |        428148 | 2017-02-10 16:11:58.713433+01

 2017-02-10 17:10:02.200089+01 | 1486743002.20009 |                 0 |              12 |                  5998 |                  953 |             964910 |         62786 |              490 |          567834 |                     0 |        428213 | 2017-02-10 16:11:58.713433+01

 2017-02-10 17:10:03.248696+01 | 1486743003.2487 |                 0 |              12 |                  5998 |                  953 |             964910 |         62786 |              490 |          567834 |                     0 |        428268 | 2017-02-10 16:11:58.713433+01

 2017-02-10 17:10:04.299277+01 | 1486743004.29928 |                 0 |              12 |                  5998 |                  953 |             964910 |         62786 |              490 |          567834 |                     0 |        428322 | 2017-02-10 16:11:58.713433+01

 2017-02-10 17:10:05.349495+01 | 1486743005.34949 |                 0 |              12 |                  5998 |                  953 |             964910 |         62786 |              490 |          567834 |                     0 |        428378 | 2017-02-10 16:11:58.713433+01

 2017-02-10 17:10:06.401022+01 | 1486743006.40102 |                 0 |              12 |                  5998 |                  953 |             964910 |         62786 |              490 |          567834 |                     0 |        428446 | 2017-02-10 16:11:58.713433+01

 2017-02-10 17:10:07.452504+01 | 1486743007.4525 |                 0 |              12 |                  5998 |                  953 |             964910 |         62786 |              490 |          567834 |                     0 |        428501 | 2017-02-10 16:11:58.713433+01

 2017-02-10 17:10:08.507023+01 | 1486743008.50702 |                 0 |              12 |                  5998 |                  953 |             964910 |         62786 |              490 |          567834 |                     0 |        428557 | 2017-02-10 16:11:58.713433+01

 2017-02-10 17:10:09.557618+01 | 1486743009.55762 |                 0 |              12 |                  5998 |                  953 |             964910 |         62786 |              490 |          567834 |                     0 |        428614 | 2017-02-10 16:11:58.713433+01

 2017-02-10 17:10:10.608659+01 | 1486743010.60866 |                 0 |              12 |                  5998 |                  953 |             964910 |         62786 |              490 |          567834 |                     0 |        428682 | 2017-02-10 16:11:58.713433+01

 2017-02-10 17:10:11.657985+01 | 1486743011.65798 |                 0 |              12 |                  5998 |                  953 |             964910 |         62786 |              490 |          567834 |                     0 |        428737 | 2017-02-10 16:11:58.713433+01

 2017-02-10 17:10:12.711328+01 | 1486743012.71133 |                 0 |              12 |                  5998 |                  953 |             964910 |         62786 |              490 |          567834 |                     0 |        428795 | 2017-02-10 16:11:58.713433+01

 2017-02-10 17:10:13.763727+01 | 1486743013.76373 |                 0 |              12 |                  5998 |                  953 |             964910 |         62786 |              490 |          567834 |                     0 |        428849 | 2017-02-10 16:11:58.713433+01

 2017-02-10 17:10:14.816343+01 | 1486743014.81634 |                 0 |              12 |                  5998 |                  953 |             964910 |         62786 |              490 |          567834 |                     0 |        428916 | 2017-02-10 16:11:58.713433+01

 2017-02-10 17:10:15.868154+01 | 1486743015.86815 |                 0 |              12 |                  5998 |                  953 |             964910 |         62786 |              490 |          567834 |                     0 |        428972 | 2017-02-10 16:11:58.713433+01

 2017-02-10 17:10:16.918851+01 | 1486743016.91885 |                 0 |              12 |                  5998 |                  953 |             964910 |         62786 |              490 |          567834 |                     0 |        429029 | 2017-02-10 16:11:58.713433+01

 2017-02-10 17:10:17.972245+01 | 1486743017.97224 |                 0 |              12 |                  5998 |                  953 |             964910 |         62786 |              490 |          567834 |                     0 |        429086 | 2017-02-10 16:11:58.713433+01

 2017-02-10 17:10:19.024387+01 | 1486743019.02439 |                 0 |              12 |                  5998 |                  953 |             964910 |         62786 |              490 |          567834 |                     0 |        429154 | 2017-02-10 16:11:58.713433+01

 2017-02-10 17:10:20.079485+01 | 1486743020.07948 |                 0 |              12 |                  5998 |                  953 |             964910 |         62786 |              490 |          567834 |                     0 |        429225 | 2017-02-10 16:11:58.713433+01

 2017-02-10 17:10:21.129595+01 | 1486743021.1296 |                 0 |              12 |                  5998 |                  953 |             964910 |         62786 |              490 |          567834 |                     0 |        429284 | 2017-02-10 16:11:58.713433+01

 2017-02-10 17:10:22.179322+01 | 1486743022.17932 |                 0 |              12 |                  5998 |                  953 |             964910 |         62786 |              490 |          567834 |                     0 |        429334 | 2017-02-10 16:11:58.713433+01

 2017-02-10 17:10:23.229956+01 | 1486743023.22996 |                 0 |              12 |                  5998 |                  953 |             964910 |         62786 |              490 |          567834 |                     0 |        429390 | 2017-02-10 16:11:58.713433+01

 2017-02-10 17:10:24.281474+01 | 1486743024.28147 |                 0 |              12 |                  5998 |                  953 |             964910 |         62786 |              490 |          567834 |                     0 |        429447 | 2017-02-10 16:11:58.713433+01

 2017-02-10 17:10:25.3327+01 | 1486743025.3327 |                 0 |              12 |                  5998 |                  953 |             964910 |         62786 |              490 |          567834 |                     0 |        429503 | 2017-02-10 16:11:58.713433+01

 2017-02-10 17:10:26.384092+01 | 1486743026.38409 |                 0 |              12 |                  5998 |                  953 |             964910 |         62786 |              490 |          567834 |                     0 |        429556 | 2017-02-10 16:11:58.713433+01

 2017-02-10 17:10:27.434486+01 | 1486743027.43449 |                 0 |              12 |                  5998 |                  953 |             964910 |         62786 |              490 |          567834 |                     0 |        429624 | 2017-02-10 16:11:58.713433+01

 2017-02-10 17:10:28.486188+01 | 1486743028.48619 |                 0 |              12 |                  5998 |                  953 |             964910 |         62786 |              490 |          567834 |                     0 |        429680 | 2017-02-10 16:11:58.713433+01

 2017-02-10 17:10:29.536529+01 | 1486743029.53653 |                 0 |              12 |                  5998 |                  953 |             964910 |         62786 |              490 |          567834 |                     0 |        429736 | 2017-02-10 16:11:58.713433+01

 2017-02-10 17:10:30.581661+01 | 1486743030.58166 |                 0 |              12 |                  5998 |                  953 |             964910 |         62786 |              490 |          567834 |                     0 |        429780 | 2017-02-10 16:11:58.713433+01

 2017-02-10 17:10:31.633472+01 | 1486743031.63347 |                 0 |              12 |                  5998 |                  953 |             964910 |         62786 |              490 |          567834 |                     0 |        429878 | 2017-02-10 16:11:58.713433+01

 2017-02-10 17:10:32.687138+01 | 1486743032.68714 |                 0 |              12 |                  5998 |                  953 |             964910 |         62786 |              490 |          567834 |                     0 |        429917 | 2017-02-10 16:11:58.713433+01

 2017-02-10 17:10:33.741033+01 | 1486743033.74103 |                 0 |              12 |                  5998 |                  953 |             964910 |         62786 |              490 |          567834 |                     0 |        429971 | 2017-02-10 16:11:58.713433+01

 2017-02-10 17:10:34.789793+01 | 1486743034.78979 |                 0 |              12 |                  5998 |                  953 |             964910 |         62786 |              490 |          567834 |                     0 |        430031 | 2017-02-10 16:11:58.713433+01

 2017-02-10 17:10:35.840756+01 | 1486743035.84076 |                 0 |              12 |                  5998 |                  953 |             964910 |         62786 |              490 |          567834 |                     0 |        430116 | 2017-02-10 16:11:58.713433+01

 2017-02-10 17:10:36.892945+01 | 1486743036.89295 |                 0 |              12 |                  5998 |                  953 |             964910 |         62786 |              490 |          567834 |                     0 |        430185 | 2017-02-10 16:11:58.713433+01

 2017-02-10 17:10:37.943574+01 | 1486743037.94357 |                 0 |              12 |                  5998 |                  953 |             964910 |         62786 |              490 |          567834 |                     0 |        430208 | 2017-02-10 16:11:58.713433+01

 2017-02-10 17:10:38.995948+01 | 1486743038.99595 |                 0 |              12 |                  5998 |                  953 |             964910 |         62786 |              490 |          567834 |                     0 |        430290 | 2017-02-10 16:11:58.713433+01

 2017-02-10 17:10:40.050478+01 | 1486743040.05048 |                 0 |              12 |                  5998 |                  953 |             964910 |         62786 |              490 |          567834 |                     0 |        430333 | 2017-02-10 16:11:58.713433+01

 2017-02-10 17:10:41.099378+01 | 1486743041.09938 |                 0 |              12 |                  5998 |                  953 |             964910 |         62786 |              490 |          567834 |                     0 |        430387 | 2017-02-10 16:11:58.713433+01

 2017-02-10 17:10:42.1493+01 | 1486743042.1493 |                 0 |              12 |                  5998 |                  953 |             964910 |         62786 |              490 |          567834 |                     0 |        430445 | 2017-02-10 16:11:58.713433+01

 2017-02-10 17:10:43.201281+01 | 1486743043.20128 |                 0 |              12 |                  5998 |                  953 |             964910 |         62786 |              490 |          567834 |                     0 |        430502 | 2017-02-10 16:11:58.713433+01

 2017-02-10 17:10:44.250656+01 | 1486743044.25066 |                 0 |              12 |                  5998 |                  953 |             964910 |         62786 |              490 |          567834 |                     0 |        430572 | 2017-02-10 16:11:58.713433+01

 2017-02-10 17:10:45.299163+01 | 1486743045.29916 |                 0 |              12 |                  5998 |                  953 |             964910 |         62786 |              490 |          567834 |                     0 |        430630 | 2017-02-10 16:11:58.713433+01

 2017-02-10 17:10:46.352526+01 | 1486743046.35253 |                 0 |              12 |                  5998 |                  953 |             964910 |         62786 |              490 |          567834 |                     0 |        430684 | 2017-02-10 16:11:58.713433+01

 2017-02-10 17:10:47.401899+01 | 1486743047.4019 |                 0 |              12 |                  5998 |                  953 |             964910 |         62786 |              490 |          567834 |                     0 |        430737 | 2017-02-10 16:11:58.713433+01

 2017-02-10 17:10:48.455795+01 | 1486743048.4558 |                 0 |              12 |                  5998 |                  953 |             964910 |         62786 |              490 |          567834 |                     0 |        430804 | 2017-02-10 16:11:58.713433+01

 2017-02-10 17:10:49.508078+01 | 1486743049.50808 |                 0 |              12 |                  5998 |                  953 |             964910 |         62786 |              490 |          567834 |                     0 |        430862 | 2017-02-10 16:11:58.713433+01

 2017-02-10 17:10:50.557047+01 | 1486743050.55705 |                 0 |              12 |                  5998 |                  953 |             964910 |         62786 |              490 |          567834 |                     0 |        430929 | 2017-02-10 16:11:58.713433+01

 2017-02-10 17:10:51.605922+01 | 1486743051.60592 |                 0 |              12 |                  5998 |                  953 |             964910 |         62786 |              490 |          567834 |                     0 |        430977 | 2017-02-10 16:11:58.713433+01

 2017-02-10 17:10:52.658475+01 | 1486743052.65847 |                 0 |              12 |                  5998 |                  953 |             964910 |         62786 |              490 |          567834 |                     0 |        431047 | 2017-02-10 16:11:58.713433+01

 2017-02-10 17:10:53.707763+01 | 1486743053.70776 |                 0 |              12 |                  5998 |                  953 |             964910 |         62786 |              490 |          567834 |                     0 |        431103 | 2017-02-10 16:11:58.713433+01

 2017-02-10 17:10:54.757156+01 | 1486743054.75716 |                 0 |              12 |                  5998 |                  953 |             964910 |         62786 |              490 |          567834 |                     0 |        431159 | 2017-02-10 16:11:58.713433+01

 2017-02-10 17:10:55.810223+01 | 1486743055.81022 |                 0 |              12 |                  5998 |                  953 |             964910 |         62786 |              490 |          567834 |                     0 |        431213 | 2017-02-10 16:11:58.713433+01

 2017-02-10 17:10:56.859961+01 | 1486743056.85996 |                 0 |              12 |                  5998 |                  953 |             964910 |         62786 |              490 |          567834 |                     0 |        431279 | 2017-02-10 16:11:58.713433+01

 2017-02-10 17:10:57.908243+01 | 1486743057.90824 |                 0 |              12 |                  5998 |                  953 |             964910 |         62786 |              490 |          567834 |                     0 |        431332 | 2017-02-10 16:11:58.713433+01

 2017-02-10 17:10:58.957278+01 | 1486743058.95728 |                 0 |              12 |                  5998 |                  953 |             964910 |         62786 |              490 |          567834 |                     0 |        431400 | 2017-02-10 16:11:58.713433+01

 2017-02-10 17:11:00.006738+01 | 1486743060.00674 |                 0 |              12 |                  5998 |                  953 |             964910 |         62786 |              490 |          567834 |                     0 |        431449 | 2017-02-10 16:11:58.713433+01

 2017-02-10 17:11:01.057002+01 | 1486743061.057 |                 0 |              12 |                  5998 |                  953 |             964910 |         62786 |              490 |          567834 |                     0 |        431524 | 2017-02-10 16:11:58.713433+01

 2017-02-10 17:11:02.107683+01 | 1486743062.10768 |                 0 |              12 |                  5998 |                  953 |             964910 |         62786 |              490 |          567834 |                     0 |        431574 | 2017-02-10 16:11:58.713433+01

 2017-02-10 17:11:03.161016+01 | 1486743063.16102 |                 0 |              12 |                  5998 |                  953 |             964910 |         62786 |              490 |          567834 |                     0 |        431649 | 2017-02-10 16:11:58.713433+01

 2017-02-10 17:11:04.212499+01 | 1486743064.2125 |                 0 |              12 |                  5998 |                  953 |             964910 |         62786 |              490 |          567834 |                     0 |        431715 | 2017-02-10 16:11:58.713433+01

 2017-02-10 17:11:05.263089+01 | 1486743065.26309 |                 0 |              12 |                  5998 |                  953 |             964910 |         62786 |              490 |          567834 |                     0 |        431742 | 2017-02-10 16:11:58.713433+01

 2017-02-10 17:11:06.315424+01 | 1486743066.31542 |                 0 |              12 |                  5998 |                  953 |             964910 |         62786 |              490 |          567834 |                     0 |        431802 | 2017-02-10 16:11:58.713433+01

 2017-02-10 17:11:07.367386+01 | 1486743067.36739 |                 0 |              12 |                  5998 |                  953 |             964910 |         62786 |              490 |          567834 |                     0 |        431867 | 2017-02-10 16:11:58.713433+01

 2017-02-10 17:11:08.416354+01 | 1486743068.41635 |                 0 |              12 |                  5998 |                  953 |             964910 |         62786 |              490 |          567834 |                     0 |        431922 | 2017-02-10 16:11:58.713433+01

 2017-02-10 17:11:09.46457+01 | 1486743069.46457 |                 0 |              12 |                  5998 |                  953 |             964910 |         62786 |              490 |          567834 |                     0 |        431974 | 2017-02-10 16:11:58.713433+01

 2017-02-10 17:11:10.516877+01 | 1486743070.51688 |                 0 |              12 |                  5998 |                  953 |             964910 |         62786 |              490 |          567834 |                     0 |        432026 | 2017-02-10 16:11:58.713433+01

 2017-02-10 17:11:11.569572+01 | 1486743071.56957 |                 0 |              12 |                  5998 |                  953 |             964910 |         62786 |              490 |          567834 |                     0 |        432092 | 2017-02-10 16:11:58.713433+01

 2017-02-10 17:11:12.621123+01 | 1486743072.62112 |                 0 |              12 |                  5998 |                  953 |             964910 |         62786 |              490 |          567834 |                     0 |        432148 | 2017-02-10 16:11:58.713433+01

 2017-02-10 17:11:13.675435+01 | 1486743073.67544 |                 0 |              12 |                  5998 |                  953 |             964910 |         62786 |              490 |          567834 |                     0 |        432215 | 2017-02-10 16:11:58.713433+01

 2017-02-10 17:11:14.728447+01 | 1486743074.72845 |                 0 |              12 |                  5998 |                  953 |             964910 |         62786 |              490 |          567834 |                     0 |        432259 | 2017-02-10 16:11:58.713433+01

 2017-02-10 17:11:15.778918+01 | 1486743075.77892 |                 0 |              12 |                  5998 |                  953 |             964910 |         62786 |              490 |          567834 |                     0 |        432328 | 2017-02-10 16:11:58.713433+01

 2017-02-10 17:11:16.829845+01 | 1486743076.82984 |                 0 |              12 |                  5998 |                  953 |             964910 |         62786 |              490 |          567834 |                     0 |        432384 | 2017-02-10 16:11:58.713433+01

 2017-02-10 17:11:17.881651+01 | 1486743077.88165 |                 0 |              12 |                  5998 |                  953 |             964910 |         62786 |              490 |          567834 |                     0 |        432439 | 2017-02-10 16:11:58.713433+01

 2017-02-10 17:11:18.933805+01 | 1486743078.9338 |                 0 |              12 |                  5998 |                  953 |             964910 |         62786 |              490 |          567834 |                     0 |        432496 | 2017-02-10 16:11:58.713433+01

 2017-02-10 17:11:19.983365+01 | 1486743079.98337 |                 0 |              12 |                  5998 |                  953 |             964910 |         62786 |              490 |          567834 |                     0 |        432560 | 2017-02-10 16:11:58.713433+01

 2017-02-10 17:11:21.034847+01 | 1486743081.03485 |                 0 |              12 |                  5998 |                  953 |             964910 |         62786 |              490 |          567834 |                     0 |        432627 | 2017-02-10 16:11:58.713433+01

 2017-02-10 17:11:22.086624+01 | 1486743082.08662 |                 0 |              12 |                  5998 |                  953 |             964910 |         62786 |              490 |          567834 |                     0 |        432688 | 2017-02-10 16:11:58.713433+01

 2017-02-10 17:11:23.137376+01 | 1486743083.13738 |                 0 |              12 |                  5998 |                  953 |             964910 |         62786 |              490 |          567834 |                     0 |        432723 | 2017-02-10 16:11:58.713433+01

 2017-02-10 17:11:24.190712+01 | 1486743084.19071 |                 0 |              12 |                  5998 |                  953 |             964910 |         62786 |              490 |          567834 |                     0 |        432778 | 2017-02-10 16:11:58.713433+01

 2017-02-10 17:11:25.240594+01 | 1486743085.24059 |                 0 |              12 |                  5998 |                  953 |             964910 |         62786 |              490 |          567834 |                     0 |        432843 | 2017-02-10 16:11:58.713433+01

 2017-02-10 17:11:26.297666+01 | 1486743086.29767 |                 0 |              12 |                  5998 |                  953 |             964910 |         62786 |              490 |          567834 |                     0 |        432898 | 2017-02-10 16:11:58.713433+01

 2017-02-10 17:11:27.35161+01 | 1486743087.35161 |                 0 |              12 |                  5998 |                  953 |             964910 |         62786 |              490 |          567834 |                     0 |        432952 | 2017-02-10 16:11:58.713433+01

 2017-02-10 17:11:28.403228+01 | 1486743088.40323 |                 0 |              12 |                  5998 |                  953 |             964910 |         62786 |              490 |          567834 |                     0 |        433007 | 2017-02-10 16:11:58.713433+01

 2017-02-10 17:11:29.455789+01 | 1486743089.45579 |                 0 |              12 |                  5998 |                  953 |             964910 |         62786 |              490 |          567834 |                     0 |        433072 | 2017-02-10 16:11:58.713433+01

 2017-02-10 17:11:30.496687+01 | 1486743090.49669 |                 0 |              12 |                  5998 |                  953 |             964910 |         62786 |              490 |          567834 |                     0 |        433115 | 2017-02-10 16:11:58.713433+01

 2017-02-10 17:11:31.549871+01 | 1486743091.54987 |                 0 |              12 |                  5998 |                  953 |             964910 |         62786 |              490 |          567834 |                     0 |        433176 | 2017-02-10 16:11:58.713433+01

 2017-02-10 17:11:32.605404+01 | 1486743092.6054 |                 0 |              12 |                  5998 |                  953 |             964910 |         62786 |              490 |          567834 |                     0 |        433227 | 2017-02-10 16:11:58.713433+01

 2017-02-10 17:11:33.656964+01 | 1486743093.65696 |                 0 |              12 |                  5998 |                  953 |             964910 |         62786 |              490 |          567834 |                     0 |        433324 | 2017-02-10 16:11:58.713433+01

 2017-02-10 17:11:34.708879+01 | 1486743094.70888 |                 0 |              12 |                  5998 |                  953 |             964910 |         62786 |              490 |          567834 |                     0 |        433377 | 2017-02-10 16:11:58.713433+01

 2017-02-10 17:11:35.766292+01 | 1486743095.76629 |                 0 |              12 |                  5998 |                  953 |             964910 |         62786 |              490 |          567834 |                     0 |        433428 | 2017-02-10 16:11:58.713433+01

 2017-02-10 17:11:36.832606+01 | 1486743096.83261 |                 0 |              12 |                  5998 |                  953 |             964910 |         62786 |              490 |          567834 |                     0 |        433463 | 2017-02-10 16:11:58.713433+01

 2017-02-10 17:11:37.885289+01 | 1486743097.88529 |                 0 |              12 |                  5998 |                  953 |             964910 |         62786 |              490 |          567834 |                     0 |        433548 | 2017-02-10 16:11:58.713433+01

 2017-02-10 17:11:38.937385+01 | 1486743098.93739 |                 0 |              12 |                  5998 |                  953 |             964910 |         62786 |              490 |          567834 |                     0 |        433642 | 2017-02-10 16:11:58.713433+01

 2017-02-10 17:11:39.989156+01 | 1486743099.98916 |                 0 |              12 |                  5998 |                  953 |             964910 |         62786 |              490 |          567834 |                     0 |        433659 | 2017-02-10 16:11:58.713433+01

 2017-02-10 17:11:41.037334+01 | 1486743101.03733 |                 0 |              12 |                  5998 |                  953 |             964910 |         62786 |              490 |          567834 |                     0 |        433715 | 2017-02-10 16:11:58.713433+01

 2017-02-10 17:11:42.087938+01 | 1486743102.08794 |                 0 |              12 |                  5998 |                  953 |             964910 |         62786 |              490 |          567834 |                     0 |        433783 | 2017-02-10 16:11:58.713433+01

 2017-02-10 17:11:43.135633+01 | 1486743103.13563 |                 0 |              12 |                  5998 |                  953 |             964910 |         62786 |              490 |          567834 |                     0 |        433839 | 2017-02-10 16:11:58.713433+01

 2017-02-10 17:11:44.185441+01 | 1486743104.18544 |                 0 |              12 |                  5998 |                  953 |             964910 |         62786 |              490 |          567834 |                     0 |        433891 | 2017-02-10 16:11:58.713433+01

 2017-02-10 17:11:45.239952+01 | 1486743105.23995 |                 0 |              12 |                  5998 |                  953 |             964910 |         62786 |              490 |          567834 |                     0 |        433946 | 2017-02-10 16:11:58.713433+01

 2017-02-10 17:11:46.292989+01 | 1486743106.29299 |                 0 |              12 |                  5998 |                  953 |             964910 |         62786 |              490 |          567834 |                     0 |        434015 | 2017-02-10 16:11:58.713433+01

 2017-02-10 17:11:47.342733+01 | 1486743107.34273 |                 0 |              12 |                  5998 |                  953 |             964910 |         62786 |              490 |          567834 |                     0 |        434071 | 2017-02-10 16:11:58.713433+01

 2017-02-10 17:11:48.391526+01 | 1486743108.39153 |                 0 |              12 |                  5998 |                  953 |             964910 |         62786 |              490 |          567834 |                     0 |        434129 | 2017-02-10 16:11:58.713433+01

 2017-02-10 17:11:49.439896+01 | 1486743109.4399 |                 0 |              12 |                  5998 |                  953 |             964910 |         62786 |              490 |          567834 |                     0 |        434184 | 2017-02-10 16:11:58.713433+01

 2017-02-10 17:11:50.489355+01 | 1486743110.48936 |                 0 |              12 |                  5998 |                  953 |             964910 |         62786 |              490 |          567834 |                     0 |        434252 | 2017-02-10 16:11:58.713433+01

 2017-02-10 17:11:51.539494+01 | 1486743111.53949 |                 0 |              12 |                  5998 |                  953 |             964910 |         62786 |              490 |          567834 |                     0 |        434306 | 2017-02-10 16:11:58.713433+01

 2017-02-10 17:11:52.590243+01 | 1486743112.59024 |                 0 |              12 |                  5998 |                  953 |             964910 |         62786 |              490 |          567834 |                     0 |        434361 | 2017-02-10 16:11:58.713433+01

 2017-02-10 17:11:53.63984+01 | 1486743113.63984 |                 0 |              12 |                  5998 |                  953 |             964910 |         62786 |              490 |          567834 |                     0 |        434419 | 2017-02-10 16:11:58.713433+01

 2017-02-10 17:11:54.690321+01 | 1486743114.69032 |                 0 |              12 |                  5998 |                  953 |             964910 |         62786 |              490 |          567834 |                     0 |        434486 | 2017-02-10 16:11:58.713433+01

 2017-02-10 17:11:55.743051+01 | 1486743115.74305 |                 0 |              12 |                  5998 |                  953 |             964910 |         62786 |              490 |          567834 |                     0 |        434541 | 2017-02-10 16:11:58.713433+01

 2017-02-10 17:11:56.793441+01 | 1486743116.79344 |                 0 |              12 |                  5998 |                  953 |             964910 |         62786 |              490 |          567834 |                     0 |        434596 | 2017-02-10 16:11:58.713433+01

 2017-02-10 17:11:57.845011+01 | 1486743117.84501 |                 0 |              12 |                  5998 |                  953 |             964910 |         62786 |              490 |          567834 |                     0 |        434651 | 2017-02-10 16:11:58.713433+01

 2017-02-10 17:11:58.892892+01 | 1486743118.89289 |                 0 |              12 |                  5998 |                  953 |             964910 |         62786 |              490 |          567834 |                     0 |        434718 | 2017-02-10 16:11:58.713433+01

 2017-02-10 17:11:59.941746+01 | 1486743119.94175 |                 0 |              12 |                  5998 |                  953 |             964910 |         62786 |              490 |          567834 |                     0 |        434774 | 2017-02-10 16:11:58.713433+01

 2017-02-10 17:12:00.994349+01 | 1486743120.99435 |                 0 |              12 |                  5998 |                  953 |             964910 |         62786 |              490 |          567834 |                     0 |        434831 | 2017-02-10 16:11:58.713433+01

 2017-02-10 17:12:02.044399+01 | 1486743122.0444 |                 0 |              12 |                  5998 |                  953 |             964910 |         62786 |              490 |          567834 |                     0 |        434886 | 2017-02-10 16:11:58.713433+01

 2017-02-10 17:12:03.093352+01 | 1486743123.09335 |                 0 |              12 |                  5998 |                  953 |             964910 |         62786 |              490 |          567834 |                     0 |        434942 | 2017-02-10 16:11:58.713433+01

 2017-02-10 17:12:04.14189+01 | 1486743124.14189 |                 0 |              12 |                  5998 |                  953 |             964910 |         62786 |              490 |          567834 |                     0 |        435013 | 2017-02-10 16:11:58.713433+01

 2017-02-10 17:12:05.192347+01 | 1486743125.19235 |                 0 |              12 |                  5998 |                  953 |             964910 |         62786 |              490 |          567834 |                     0 |        435069 | 2017-02-10 16:11:58.713433+01

 2017-02-10 17:12:06.246251+01 | 1486743126.24625 |                 0 |              12 |                  5998 |                  953 |             964910 |         62786 |              490 |          567834 |                     0 |        435124 | 2017-02-10 16:11:58.713433+01

 2017-02-10 17:12:07.301384+01 | 1486743127.30138 |                 0 |              12 |                  5998 |                  953 |             964910 |         62786 |              490 |          567834 |                     0 |        435179 | 2017-02-10 16:11:58.713433+01

 2017-02-10 17:12:08.350935+01 | 1486743128.35093 |                 0 |              12 |                  5998 |                  953 |             964910 |         62786 |              490 |          567834 |                     0 |        435244 | 2017-02-10 16:11:58.713433+01

 2017-02-10 17:12:09.40065+01 | 1486743129.40065 |                 0 |              12 |                  5998 |                  953 |             964910 |         62786 |              490 |          567834 |                     0 |        435298 | 2017-02-10 16:11:58.713433+01

 2017-02-10 17:12:10.451912+01 | 1486743130.45191 |                 0 |              12 |                  5998 |                  953 |             964910 |         62786 |              490 |          567834 |                     0 |        435352 | 2017-02-10 16:11:58.713433+01

 2017-02-10 17:12:11.502865+01 | 1486743131.50287 |                 0 |              12 |                  5998 |                  953 |             964910 |         62786 |              490 |          567834 |                     0 |        435405 | 2017-02-10 16:11:58.713433+01

 2017-02-10 17:12:12.552855+01 | 1486743132.55286 |                 0 |              12 |                  5998 |                  953 |             964910 |         62786 |              490 |          567834 |                     0 |        435472 | 2017-02-10 16:11:58.713433+01

 2017-02-10 17:12:13.607828+01 | 1486743133.60783 |                 0 |              12 |                  5998 |                  953 |             964910 |         62786 |              490 |          567834 |                     0 |        435532 | 2017-02-10 16:11:58.713433+01

 2017-02-10 17:12:14.660399+01 | 1486743134.6604 |                 0 |              12 |                  5998 |                  953 |             964910 |         62786 |              490 |          567834 |                     0 |        435587 | 2017-02-10 16:11:58.713433+01

 2017-02-10 17:12:15.711298+01 | 1486743135.7113 |                 0 |              12 |                  5998 |                  953 |             964910 |         62786 |              490 |          567834 |                     0 |        435653 | 2017-02-10 16:11:58.713433+01

 2017-02-10 17:12:16.76154+01 | 1486743136.76154 |                 0 |              12 |                  5998 |                  953 |             964910 |         62786 |              490 |          567834 |                     0 |        435710 | 2017-02-10 16:11:58.713433+01

