 2017-02-09 07:57:45.192382+01 | 1486623465.19238 | pgbench_branches_pkey |           737280
 2017-02-09 07:57:45.192382+01 | 1486623465.19238 | pgbench_tellers_pkey  |          2170880
 2017-02-09 07:57:45.192382+01 | 1486623465.19238 | pgbench_accounts_pkey |        673882112

 2017-02-09 07:57:46.24655+01 | 1486623466.24655 | pgbench_branches_pkey |           737280
 2017-02-09 07:57:46.24655+01 | 1486623466.24655 | pgbench_tellers_pkey  |          2170880
 2017-02-09 07:57:46.24655+01 | 1486623466.24655 | pgbench_accounts_pkey |        673882112

 2017-02-09 07:57:47.297919+01 | 1486623467.29792 | pgbench_branches_pkey |           737280
 2017-02-09 07:57:47.297919+01 | 1486623467.29792 | pgbench_tellers_pkey  |          2170880
 2017-02-09 07:57:47.297919+01 | 1486623467.29792 | pgbench_accounts_pkey |        673882112

 2017-02-09 07:57:48.355446+01 | 1486623468.35545 | pgbench_branches_pkey |           737280
 2017-02-09 07:57:48.355446+01 | 1486623468.35545 | pgbench_tellers_pkey  |          2170880
 2017-02-09 07:57:48.355446+01 | 1486623468.35545 | pgbench_accounts_pkey |        673882112

 2017-02-09 07:57:49.413058+01 | 1486623469.41306 | pgbench_branches_pkey |           737280
 2017-02-09 07:57:49.413058+01 | 1486623469.41306 | pgbench_tellers_pkey  |          2170880
 2017-02-09 07:57:49.413058+01 | 1486623469.41306 | pgbench_accounts_pkey |        673882112

 2017-02-09 07:57:50.476074+01 | 1486623470.47607 | pgbench_branches_pkey |           737280
 2017-02-09 07:57:50.476074+01 | 1486623470.47607 | pgbench_tellers_pkey  |          2170880
 2017-02-09 07:57:50.476074+01 | 1486623470.47607 | pgbench_accounts_pkey |        673882112

 2017-02-09 07:57:51.53356+01 | 1486623471.53356 | pgbench_branches_pkey |           737280
 2017-02-09 07:57:51.53356+01 | 1486623471.53356 | pgbench_tellers_pkey  |          2170880
 2017-02-09 07:57:51.53356+01 | 1486623471.53356 | pgbench_accounts_pkey |        673882112

 2017-02-09 07:57:52.589933+01 | 1486623472.58993 | pgbench_branches_pkey |           737280
 2017-02-09 07:57:52.589933+01 | 1486623472.58993 | pgbench_tellers_pkey  |          2170880
 2017-02-09 07:57:52.589933+01 | 1486623472.58993 | pgbench_accounts_pkey |        673882112

 2017-02-09 07:57:53.644123+01 | 1486623473.64412 | pgbench_branches_pkey |           737280
 2017-02-09 07:57:53.644123+01 | 1486623473.64412 | pgbench_tellers_pkey  |          2170880
 2017-02-09 07:57:53.644123+01 | 1486623473.64412 | pgbench_accounts_pkey |        673882112

 2017-02-09 07:57:54.702411+01 | 1486623474.70241 | pgbench_branches_pkey |           737280
 2017-02-09 07:57:54.702411+01 | 1486623474.70241 | pgbench_tellers_pkey  |          2170880
 2017-02-09 07:57:54.702411+01 | 1486623474.70241 | pgbench_accounts_pkey |        673882112

 2017-02-09 07:57:55.756352+01 | 1486623475.75635 | pgbench_branches_pkey |           737280
 2017-02-09 07:57:55.756352+01 | 1486623475.75635 | pgbench_tellers_pkey  |          2170880
 2017-02-09 07:57:55.756352+01 | 1486623475.75635 | pgbench_accounts_pkey |        673882112

 2017-02-09 07:57:56.81535+01 | 1486623476.81535 | pgbench_branches_pkey |           737280
 2017-02-09 07:57:56.81535+01 | 1486623476.81535 | pgbench_tellers_pkey  |          2170880
 2017-02-09 07:57:56.81535+01 | 1486623476.81535 | pgbench_accounts_pkey |        673882112

 2017-02-09 07:57:57.873957+01 | 1486623477.87396 | pgbench_branches_pkey |           737280
 2017-02-09 07:57:57.873957+01 | 1486623477.87396 | pgbench_tellers_pkey  |          2170880
 2017-02-09 07:57:57.873957+01 | 1486623477.87396 | pgbench_accounts_pkey |        673882112

 2017-02-09 07:57:58.930948+01 | 1486623478.93095 | pgbench_branches_pkey |           737280
 2017-02-09 07:57:58.930948+01 | 1486623478.93095 | pgbench_tellers_pkey  |          2170880
 2017-02-09 07:57:58.930948+01 | 1486623478.93095 | pgbench_accounts_pkey |        673882112

 2017-02-09 07:57:59.984026+01 | 1486623479.98403 | pgbench_branches_pkey |           737280
 2017-02-09 07:57:59.984026+01 | 1486623479.98403 | pgbench_tellers_pkey  |          2170880
 2017-02-09 07:57:59.984026+01 | 1486623479.98403 | pgbench_accounts_pkey |        673882112

 2017-02-09 07:58:01.04024+01 | 1486623481.04024 | pgbench_branches_pkey |           737280
 2017-02-09 07:58:01.04024+01 | 1486623481.04024 | pgbench_tellers_pkey  |          2170880
 2017-02-09 07:58:01.04024+01 | 1486623481.04024 | pgbench_accounts_pkey |        673882112

 2017-02-09 07:58:02.09431+01 | 1486623482.09431 | pgbench_branches_pkey |           737280
 2017-02-09 07:58:02.09431+01 | 1486623482.09431 | pgbench_tellers_pkey  |          2170880
 2017-02-09 07:58:02.09431+01 | 1486623482.09431 | pgbench_accounts_pkey |        673882112

 2017-02-09 07:58:03.152612+01 | 1486623483.15261 | pgbench_branches_pkey |           737280
 2017-02-09 07:58:03.152612+01 | 1486623483.15261 | pgbench_tellers_pkey  |          2170880
 2017-02-09 07:58:03.152612+01 | 1486623483.15261 | pgbench_accounts_pkey |        673882112

 2017-02-09 07:58:04.211247+01 | 1486623484.21125 | pgbench_branches_pkey |           737280
 2017-02-09 07:58:04.211247+01 | 1486623484.21125 | pgbench_tellers_pkey  |          2170880
 2017-02-09 07:58:04.211247+01 | 1486623484.21125 | pgbench_accounts_pkey |        673882112

 2017-02-09 07:58:05.27367+01 | 1486623485.27367 | pgbench_branches_pkey |           737280
 2017-02-09 07:58:05.27367+01 | 1486623485.27367 | pgbench_tellers_pkey  |          2170880
 2017-02-09 07:58:05.27367+01 | 1486623485.27367 | pgbench_accounts_pkey |        673882112

 2017-02-09 07:58:06.33671+01 | 1486623486.33671 | pgbench_branches_pkey |           737280
 2017-02-09 07:58:06.33671+01 | 1486623486.33671 | pgbench_tellers_pkey  |          2170880
 2017-02-09 07:58:06.33671+01 | 1486623486.33671 | pgbench_accounts_pkey |        673882112

 2017-02-09 07:58:07.397125+01 | 1486623487.39713 | pgbench_branches_pkey |           737280
 2017-02-09 07:58:07.397125+01 | 1486623487.39713 | pgbench_tellers_pkey  |          2170880
 2017-02-09 07:58:07.397125+01 | 1486623487.39713 | pgbench_accounts_pkey |        673882112

 2017-02-09 07:58:08.451385+01 | 1486623488.45139 | pgbench_branches_pkey |           737280
 2017-02-09 07:58:08.451385+01 | 1486623488.45139 | pgbench_tellers_pkey  |          2170880
 2017-02-09 07:58:08.451385+01 | 1486623488.45139 | pgbench_accounts_pkey |        673882112

 2017-02-09 07:58:09.513882+01 | 1486623489.51388 | pgbench_branches_pkey |           737280
 2017-02-09 07:58:09.513882+01 | 1486623489.51388 | pgbench_tellers_pkey  |          2170880
 2017-02-09 07:58:09.513882+01 | 1486623489.51388 | pgbench_accounts_pkey |        673882112

 2017-02-09 07:58:10.575739+01 | 1486623490.57574 | pgbench_branches_pkey |           737280
 2017-02-09 07:58:10.575739+01 | 1486623490.57574 | pgbench_tellers_pkey  |          2170880
 2017-02-09 07:58:10.575739+01 | 1486623490.57574 | pgbench_accounts_pkey |        673882112

 2017-02-09 07:58:11.637209+01 | 1486623491.63721 | pgbench_branches_pkey |           737280
 2017-02-09 07:58:11.637209+01 | 1486623491.63721 | pgbench_tellers_pkey  |          2170880
 2017-02-09 07:58:11.637209+01 | 1486623491.63721 | pgbench_accounts_pkey |        673882112

 2017-02-09 07:58:12.699838+01 | 1486623492.69984 | pgbench_branches_pkey |           737280
 2017-02-09 07:58:12.699838+01 | 1486623492.69984 | pgbench_tellers_pkey  |          2170880
 2017-02-09 07:58:12.699838+01 | 1486623492.69984 | pgbench_accounts_pkey |        673882112

 2017-02-09 07:58:13.756812+01 | 1486623493.75681 | pgbench_branches_pkey |           737280
 2017-02-09 07:58:13.756812+01 | 1486623493.75681 | pgbench_tellers_pkey  |          2170880
 2017-02-09 07:58:13.756812+01 | 1486623493.75681 | pgbench_accounts_pkey |        673882112

 2017-02-09 07:58:14.814461+01 | 1486623494.81446 | pgbench_branches_pkey |           737280
 2017-02-09 07:58:14.814461+01 | 1486623494.81446 | pgbench_tellers_pkey  |          2170880
 2017-02-09 07:58:14.814461+01 | 1486623494.81446 | pgbench_accounts_pkey |        673882112

 2017-02-09 07:58:15.871605+01 | 1486623495.8716 | pgbench_branches_pkey |           737280
 2017-02-09 07:58:15.871605+01 | 1486623495.8716 | pgbench_tellers_pkey  |          2170880
 2017-02-09 07:58:15.871605+01 | 1486623495.8716 | pgbench_accounts_pkey |        673882112

 2017-02-09 07:58:16.930979+01 | 1486623496.93098 | pgbench_branches_pkey |           737280
 2017-02-09 07:58:16.930979+01 | 1486623496.93098 | pgbench_tellers_pkey  |          2170880
 2017-02-09 07:58:16.930979+01 | 1486623496.93098 | pgbench_accounts_pkey |        673882112

 2017-02-09 07:58:17.987084+01 | 1486623497.98708 | pgbench_branches_pkey |           737280
 2017-02-09 07:58:17.987084+01 | 1486623497.98708 | pgbench_tellers_pkey  |          2170880
 2017-02-09 07:58:17.987084+01 | 1486623497.98708 | pgbench_accounts_pkey |        673882112

 2017-02-09 07:58:19.04812+01 | 1486623499.04812 | pgbench_branches_pkey |           737280
 2017-02-09 07:58:19.04812+01 | 1486623499.04812 | pgbench_tellers_pkey  |          2170880
 2017-02-09 07:58:19.04812+01 | 1486623499.04812 | pgbench_accounts_pkey |        673882112

 2017-02-09 07:58:20.110753+01 | 1486623500.11075 | pgbench_branches_pkey |           737280
 2017-02-09 07:58:20.110753+01 | 1486623500.11075 | pgbench_tellers_pkey  |          2170880
 2017-02-09 07:58:20.110753+01 | 1486623500.11075 | pgbench_accounts_pkey |        673882112

 2017-02-09 07:58:21.170299+01 | 1486623501.1703 | pgbench_branches_pkey |           737280
 2017-02-09 07:58:21.170299+01 | 1486623501.1703 | pgbench_tellers_pkey  |          2170880
 2017-02-09 07:58:21.170299+01 | 1486623501.1703 | pgbench_accounts_pkey |        673882112

 2017-02-09 07:58:22.222178+01 | 1486623502.22218 | pgbench_branches_pkey |           737280
 2017-02-09 07:58:22.222178+01 | 1486623502.22218 | pgbench_tellers_pkey  |          2170880
 2017-02-09 07:58:22.222178+01 | 1486623502.22218 | pgbench_accounts_pkey |        673882112

 2017-02-09 07:58:23.27469+01 | 1486623503.27469 | pgbench_branches_pkey |           737280
 2017-02-09 07:58:23.27469+01 | 1486623503.27469 | pgbench_tellers_pkey  |          2170880
 2017-02-09 07:58:23.27469+01 | 1486623503.27469 | pgbench_accounts_pkey |        673882112

 2017-02-09 07:58:24.333925+01 | 1486623504.33393 | pgbench_branches_pkey |           737280
 2017-02-09 07:58:24.333925+01 | 1486623504.33393 | pgbench_tellers_pkey  |          2170880
 2017-02-09 07:58:24.333925+01 | 1486623504.33393 | pgbench_accounts_pkey |        673882112

 2017-02-09 07:58:25.394211+01 | 1486623505.39421 | pgbench_branches_pkey |           737280
 2017-02-09 07:58:25.394211+01 | 1486623505.39421 | pgbench_tellers_pkey  |          2170880
 2017-02-09 07:58:25.394211+01 | 1486623505.39421 | pgbench_accounts_pkey |        673882112

 2017-02-09 07:58:26.446722+01 | 1486623506.44672 | pgbench_branches_pkey |           737280
 2017-02-09 07:58:26.446722+01 | 1486623506.44672 | pgbench_tellers_pkey  |          2170880
 2017-02-09 07:58:26.446722+01 | 1486623506.44672 | pgbench_accounts_pkey |        673882112

 2017-02-09 07:58:27.501983+01 | 1486623507.50198 | pgbench_branches_pkey |           737280
 2017-02-09 07:58:27.501983+01 | 1486623507.50198 | pgbench_tellers_pkey  |          2170880
 2017-02-09 07:58:27.501983+01 | 1486623507.50198 | pgbench_accounts_pkey |        673882112

 2017-02-09 07:58:28.563352+01 | 1486623508.56335 | pgbench_branches_pkey |           737280
 2017-02-09 07:58:28.563352+01 | 1486623508.56335 | pgbench_tellers_pkey  |          2170880
 2017-02-09 07:58:28.563352+01 | 1486623508.56335 | pgbench_accounts_pkey |        673882112

 2017-02-09 07:58:29.623892+01 | 1486623509.62389 | pgbench_branches_pkey |           737280
 2017-02-09 07:58:29.623892+01 | 1486623509.62389 | pgbench_tellers_pkey  |          2170880
 2017-02-09 07:58:29.623892+01 | 1486623509.62389 | pgbench_accounts_pkey |        673882112

 2017-02-09 07:58:30.684469+01 | 1486623510.68447 | pgbench_branches_pkey |           737280
 2017-02-09 07:58:30.684469+01 | 1486623510.68447 | pgbench_tellers_pkey  |          2170880
 2017-02-09 07:58:30.684469+01 | 1486623510.68447 | pgbench_accounts_pkey |        673882112

 2017-02-09 07:58:31.743759+01 | 1486623511.74376 | pgbench_branches_pkey |           737280
 2017-02-09 07:58:31.743759+01 | 1486623511.74376 | pgbench_tellers_pkey  |          2170880
 2017-02-09 07:58:31.743759+01 | 1486623511.74376 | pgbench_accounts_pkey |        673882112

 2017-02-09 07:58:32.80871+01 | 1486623512.80871 | pgbench_branches_pkey |           737280
 2017-02-09 07:58:32.80871+01 | 1486623512.80871 | pgbench_tellers_pkey  |          2170880
 2017-02-09 07:58:32.80871+01 | 1486623512.80871 | pgbench_accounts_pkey |        673882112

 2017-02-09 07:58:33.873893+01 | 1486623513.87389 | pgbench_branches_pkey |           737280
 2017-02-09 07:58:33.873893+01 | 1486623513.87389 | pgbench_tellers_pkey  |          2170880
 2017-02-09 07:58:33.873893+01 | 1486623513.87389 | pgbench_accounts_pkey |        673882112

 2017-02-09 07:58:34.93358+01 | 1486623514.93358 | pgbench_branches_pkey |           737280
 2017-02-09 07:58:34.93358+01 | 1486623514.93358 | pgbench_tellers_pkey  |          2170880
 2017-02-09 07:58:34.93358+01 | 1486623514.93358 | pgbench_accounts_pkey |        673882112

 2017-02-09 07:58:35.994839+01 | 1486623515.99484 | pgbench_branches_pkey |           737280
 2017-02-09 07:58:35.994839+01 | 1486623515.99484 | pgbench_tellers_pkey  |          2170880
 2017-02-09 07:58:35.994839+01 | 1486623515.99484 | pgbench_accounts_pkey |        673882112

 2017-02-09 07:58:37.054744+01 | 1486623517.05474 | pgbench_branches_pkey |           737280
 2017-02-09 07:58:37.054744+01 | 1486623517.05474 | pgbench_tellers_pkey  |          2170880
 2017-02-09 07:58:37.054744+01 | 1486623517.05474 | pgbench_accounts_pkey |        673882112

 2017-02-09 07:58:38.114739+01 | 1486623518.11474 | pgbench_branches_pkey |           737280
 2017-02-09 07:58:38.114739+01 | 1486623518.11474 | pgbench_tellers_pkey  |          2170880
 2017-02-09 07:58:38.114739+01 | 1486623518.11474 | pgbench_accounts_pkey |        673882112

 2017-02-09 07:58:39.178109+01 | 1486623519.17811 | pgbench_branches_pkey |           737280
 2017-02-09 07:58:39.178109+01 | 1486623519.17811 | pgbench_tellers_pkey  |          2170880
 2017-02-09 07:58:39.178109+01 | 1486623519.17811 | pgbench_accounts_pkey |        673882112

 2017-02-09 07:58:40.247417+01 | 1486623520.24742 | pgbench_branches_pkey |           737280
 2017-02-09 07:58:40.247417+01 | 1486623520.24742 | pgbench_tellers_pkey  |          2170880
 2017-02-09 07:58:40.247417+01 | 1486623520.24742 | pgbench_accounts_pkey |        673882112

 2017-02-09 07:58:41.317093+01 | 1486623521.31709 | pgbench_branches_pkey |           737280
 2017-02-09 07:58:41.317093+01 | 1486623521.31709 | pgbench_tellers_pkey  |          2170880
 2017-02-09 07:58:41.317093+01 | 1486623521.31709 | pgbench_accounts_pkey |        673882112

 2017-02-09 07:58:42.381967+01 | 1486623522.38197 | pgbench_branches_pkey |           737280
 2017-02-09 07:58:42.381967+01 | 1486623522.38197 | pgbench_tellers_pkey  |          2170880
 2017-02-09 07:58:42.381967+01 | 1486623522.38197 | pgbench_accounts_pkey |        673882112

 2017-02-09 07:58:43.439936+01 | 1486623523.43994 | pgbench_branches_pkey |           737280
 2017-02-09 07:58:43.439936+01 | 1486623523.43994 | pgbench_tellers_pkey  |          2170880
 2017-02-09 07:58:43.439936+01 | 1486623523.43994 | pgbench_accounts_pkey |        673882112

 2017-02-09 07:58:44.496014+01 | 1486623524.49601 | pgbench_branches_pkey |           737280
 2017-02-09 07:58:44.496014+01 | 1486623524.49601 | pgbench_tellers_pkey  |          2170880
 2017-02-09 07:58:44.496014+01 | 1486623524.49601 | pgbench_accounts_pkey |        673882112

 2017-02-09 07:58:45.553065+01 | 1486623525.55307 | pgbench_branches_pkey |           737280
 2017-02-09 07:58:45.553065+01 | 1486623525.55307 | pgbench_tellers_pkey  |          2170880
 2017-02-09 07:58:45.553065+01 | 1486623525.55307 | pgbench_accounts_pkey |        673882112

 2017-02-09 07:58:46.608528+01 | 1486623526.60853 | pgbench_branches_pkey |           737280
 2017-02-09 07:58:46.608528+01 | 1486623526.60853 | pgbench_tellers_pkey  |          2170880
 2017-02-09 07:58:46.608528+01 | 1486623526.60853 | pgbench_accounts_pkey |        673882112

 2017-02-09 07:58:47.672174+01 | 1486623527.67217 | pgbench_branches_pkey |           737280
 2017-02-09 07:58:47.672174+01 | 1486623527.67217 | pgbench_tellers_pkey  |          2170880
 2017-02-09 07:58:47.672174+01 | 1486623527.67217 | pgbench_accounts_pkey |        673882112

 2017-02-09 07:58:48.73797+01 | 1486623528.73797 | pgbench_branches_pkey |           737280
 2017-02-09 07:58:48.73797+01 | 1486623528.73797 | pgbench_tellers_pkey  |          2170880
 2017-02-09 07:58:48.73797+01 | 1486623528.73797 | pgbench_accounts_pkey |        673882112

 2017-02-09 07:58:49.796811+01 | 1486623529.79681 | pgbench_branches_pkey |           737280
 2017-02-09 07:58:49.796811+01 | 1486623529.79681 | pgbench_tellers_pkey  |          2170880
 2017-02-09 07:58:49.796811+01 | 1486623529.79681 | pgbench_accounts_pkey |        673882112

 2017-02-09 07:58:50.863472+01 | 1486623530.86347 | pgbench_branches_pkey |           737280
 2017-02-09 07:58:50.863472+01 | 1486623530.86347 | pgbench_tellers_pkey  |          2170880
 2017-02-09 07:58:50.863472+01 | 1486623530.86347 | pgbench_accounts_pkey |        673882112

 2017-02-09 07:58:51.924392+01 | 1486623531.92439 | pgbench_branches_pkey |           737280
 2017-02-09 07:58:51.924392+01 | 1486623531.92439 | pgbench_tellers_pkey  |          2170880
 2017-02-09 07:58:51.924392+01 | 1486623531.92439 | pgbench_accounts_pkey |        673882112

 2017-02-09 07:58:52.983627+01 | 1486623532.98363 | pgbench_branches_pkey |           737280
 2017-02-09 07:58:52.983627+01 | 1486623532.98363 | pgbench_tellers_pkey  |          2170880
 2017-02-09 07:58:52.983627+01 | 1486623532.98363 | pgbench_accounts_pkey |        673882112

 2017-02-09 07:58:54.042812+01 | 1486623534.04281 | pgbench_branches_pkey |           737280
 2017-02-09 07:58:54.042812+01 | 1486623534.04281 | pgbench_tellers_pkey  |          2170880
 2017-02-09 07:58:54.042812+01 | 1486623534.04281 | pgbench_accounts_pkey |        673882112

 2017-02-09 07:58:55.099991+01 | 1486623535.09999 | pgbench_branches_pkey |           737280
 2017-02-09 07:58:55.099991+01 | 1486623535.09999 | pgbench_tellers_pkey  |          2170880
 2017-02-09 07:58:55.099991+01 | 1486623535.09999 | pgbench_accounts_pkey |        673882112

 2017-02-09 07:58:56.153986+01 | 1486623536.15399 | pgbench_branches_pkey |           737280
 2017-02-09 07:58:56.153986+01 | 1486623536.15399 | pgbench_tellers_pkey  |          2170880
 2017-02-09 07:58:56.153986+01 | 1486623536.15399 | pgbench_accounts_pkey |        673882112

 2017-02-09 07:58:57.220846+01 | 1486623537.22085 | pgbench_branches_pkey |           737280
 2017-02-09 07:58:57.220846+01 | 1486623537.22085 | pgbench_tellers_pkey  |          2170880
 2017-02-09 07:58:57.220846+01 | 1486623537.22085 | pgbench_accounts_pkey |        673882112

 2017-02-09 07:58:58.276332+01 | 1486623538.27633 | pgbench_branches_pkey |           737280
 2017-02-09 07:58:58.276332+01 | 1486623538.27633 | pgbench_tellers_pkey  |          2170880
 2017-02-09 07:58:58.276332+01 | 1486623538.27633 | pgbench_accounts_pkey |        673882112

 2017-02-09 07:58:59.33467+01 | 1486623539.33467 | pgbench_branches_pkey |           737280
 2017-02-09 07:58:59.33467+01 | 1486623539.33467 | pgbench_tellers_pkey  |          2170880
 2017-02-09 07:58:59.33467+01 | 1486623539.33467 | pgbench_accounts_pkey |        673882112

 2017-02-09 07:59:00.395383+01 | 1486623540.39538 | pgbench_branches_pkey |           737280
 2017-02-09 07:59:00.395383+01 | 1486623540.39538 | pgbench_tellers_pkey  |          2170880
 2017-02-09 07:59:00.395383+01 | 1486623540.39538 | pgbench_accounts_pkey |        673882112

 2017-02-09 07:59:01.457922+01 | 1486623541.45792 | pgbench_branches_pkey |           737280
 2017-02-09 07:59:01.457922+01 | 1486623541.45792 | pgbench_tellers_pkey  |          2170880
 2017-02-09 07:59:01.457922+01 | 1486623541.45792 | pgbench_accounts_pkey |        673882112

 2017-02-09 07:59:02.515309+01 | 1486623542.51531 | pgbench_branches_pkey |           737280
 2017-02-09 07:59:02.515309+01 | 1486623542.51531 | pgbench_tellers_pkey  |          2170880
 2017-02-09 07:59:02.515309+01 | 1486623542.51531 | pgbench_accounts_pkey |        673882112

 2017-02-09 07:59:03.568125+01 | 1486623543.56813 | pgbench_branches_pkey |           737280
 2017-02-09 07:59:03.568125+01 | 1486623543.56813 | pgbench_tellers_pkey  |          2170880
 2017-02-09 07:59:03.568125+01 | 1486623543.56813 | pgbench_accounts_pkey |        673882112

 2017-02-09 07:59:04.639733+01 | 1486623544.63973 | pgbench_branches_pkey |           737280
 2017-02-09 07:59:04.639733+01 | 1486623544.63973 | pgbench_tellers_pkey  |          2170880
 2017-02-09 07:59:04.639733+01 | 1486623544.63973 | pgbench_accounts_pkey |        673882112

 2017-02-09 07:59:05.70476+01 | 1486623545.70476 | pgbench_branches_pkey |           737280
 2017-02-09 07:59:05.70476+01 | 1486623545.70476 | pgbench_tellers_pkey  |          2170880
 2017-02-09 07:59:05.70476+01 | 1486623545.70476 | pgbench_accounts_pkey |        673882112

 2017-02-09 07:59:06.763416+01 | 1486623546.76342 | pgbench_branches_pkey |           737280
 2017-02-09 07:59:06.763416+01 | 1486623546.76342 | pgbench_tellers_pkey  |          2170880
 2017-02-09 07:59:06.763416+01 | 1486623546.76342 | pgbench_accounts_pkey |        673882112

 2017-02-09 07:59:07.825295+01 | 1486623547.82529 | pgbench_branches_pkey |           737280
 2017-02-09 07:59:07.825295+01 | 1486623547.82529 | pgbench_tellers_pkey  |          2170880
 2017-02-09 07:59:07.825295+01 | 1486623547.82529 | pgbench_accounts_pkey |        673882112

 2017-02-09 07:59:08.883444+01 | 1486623548.88344 | pgbench_branches_pkey |           737280
 2017-02-09 07:59:08.883444+01 | 1486623548.88344 | pgbench_tellers_pkey  |          2170880
 2017-02-09 07:59:08.883444+01 | 1486623548.88344 | pgbench_accounts_pkey |        673882112

 2017-02-09 07:59:09.948548+01 | 1486623549.94855 | pgbench_branches_pkey |           737280
 2017-02-09 07:59:09.948548+01 | 1486623549.94855 | pgbench_tellers_pkey  |          2170880
 2017-02-09 07:59:09.948548+01 | 1486623549.94855 | pgbench_accounts_pkey |        673882112

 2017-02-09 07:59:11.007015+01 | 1486623551.00701 | pgbench_branches_pkey |           737280
 2017-02-09 07:59:11.007015+01 | 1486623551.00701 | pgbench_tellers_pkey  |          2170880
 2017-02-09 07:59:11.007015+01 | 1486623551.00701 | pgbench_accounts_pkey |        673882112

 2017-02-09 07:59:12.06977+01 | 1486623552.06977 | pgbench_branches_pkey |           737280
 2017-02-09 07:59:12.06977+01 | 1486623552.06977 | pgbench_tellers_pkey  |          2170880
 2017-02-09 07:59:12.06977+01 | 1486623552.06977 | pgbench_accounts_pkey |        673882112

 2017-02-09 07:59:13.1329+01 | 1486623553.1329 | pgbench_branches_pkey |           737280
 2017-02-09 07:59:13.1329+01 | 1486623553.1329 | pgbench_tellers_pkey  |          2170880
 2017-02-09 07:59:13.1329+01 | 1486623553.1329 | pgbench_accounts_pkey |        673882112

 2017-02-09 07:59:14.191858+01 | 1486623554.19186 | pgbench_branches_pkey |           737280
 2017-02-09 07:59:14.191858+01 | 1486623554.19186 | pgbench_tellers_pkey  |          2170880
 2017-02-09 07:59:14.191858+01 | 1486623554.19186 | pgbench_accounts_pkey |        673882112

 2017-02-09 07:59:15.248548+01 | 1486623555.24855 | pgbench_branches_pkey |           737280
 2017-02-09 07:59:15.248548+01 | 1486623555.24855 | pgbench_tellers_pkey  |          2170880
 2017-02-09 07:59:15.248548+01 | 1486623555.24855 | pgbench_accounts_pkey |        673882112

 2017-02-09 07:59:16.302301+01 | 1486623556.3023 | pgbench_branches_pkey |           737280
 2017-02-09 07:59:16.302301+01 | 1486623556.3023 | pgbench_tellers_pkey  |          2170880
 2017-02-09 07:59:16.302301+01 | 1486623556.3023 | pgbench_accounts_pkey |        673882112

 2017-02-09 07:59:17.365516+01 | 1486623557.36552 | pgbench_branches_pkey |           737280
 2017-02-09 07:59:17.365516+01 | 1486623557.36552 | pgbench_tellers_pkey  |          2170880
 2017-02-09 07:59:17.365516+01 | 1486623557.36552 | pgbench_accounts_pkey |        673882112

 2017-02-09 07:59:18.426261+01 | 1486623558.42626 | pgbench_branches_pkey |           737280
 2017-02-09 07:59:18.426261+01 | 1486623558.42626 | pgbench_tellers_pkey  |          2170880
 2017-02-09 07:59:18.426261+01 | 1486623558.42626 | pgbench_accounts_pkey |        673882112

 2017-02-09 07:59:19.483503+01 | 1486623559.4835 | pgbench_branches_pkey |           737280
 2017-02-09 07:59:19.483503+01 | 1486623559.4835 | pgbench_tellers_pkey  |          2170880
 2017-02-09 07:59:19.483503+01 | 1486623559.4835 | pgbench_accounts_pkey |        673882112

 2017-02-09 07:59:20.540413+01 | 1486623560.54041 | pgbench_branches_pkey |           737280
 2017-02-09 07:59:20.540413+01 | 1486623560.54041 | pgbench_tellers_pkey  |          2170880
 2017-02-09 07:59:20.540413+01 | 1486623560.54041 | pgbench_accounts_pkey |        673882112

 2017-02-09 07:59:21.596414+01 | 1486623561.59641 | pgbench_branches_pkey |           737280
 2017-02-09 07:59:21.596414+01 | 1486623561.59641 | pgbench_tellers_pkey  |          2170880
 2017-02-09 07:59:21.596414+01 | 1486623561.59641 | pgbench_accounts_pkey |        673882112

 2017-02-09 07:59:22.664831+01 | 1486623562.66483 | pgbench_branches_pkey |           737280
 2017-02-09 07:59:22.664831+01 | 1486623562.66483 | pgbench_tellers_pkey  |          2170880
 2017-02-09 07:59:22.664831+01 | 1486623562.66483 | pgbench_accounts_pkey |        673882112

 2017-02-09 07:59:23.727325+01 | 1486623563.72732 | pgbench_branches_pkey |           737280
 2017-02-09 07:59:23.727325+01 | 1486623563.72732 | pgbench_tellers_pkey  |          2170880
 2017-02-09 07:59:23.727325+01 | 1486623563.72732 | pgbench_accounts_pkey |        673882112

 2017-02-09 07:59:24.781292+01 | 1486623564.78129 | pgbench_branches_pkey |           737280
 2017-02-09 07:59:24.781292+01 | 1486623564.78129 | pgbench_tellers_pkey  |          2170880
 2017-02-09 07:59:24.781292+01 | 1486623564.78129 | pgbench_accounts_pkey |        673882112

 2017-02-09 07:59:25.84375+01 | 1486623565.84375 | pgbench_branches_pkey |           737280
 2017-02-09 07:59:25.84375+01 | 1486623565.84375 | pgbench_tellers_pkey  |          2170880
 2017-02-09 07:59:25.84375+01 | 1486623565.84375 | pgbench_accounts_pkey |        673882112

 2017-02-09 07:59:26.904136+01 | 1486623566.90414 | pgbench_branches_pkey |           737280
 2017-02-09 07:59:26.904136+01 | 1486623566.90414 | pgbench_tellers_pkey  |          2170880
 2017-02-09 07:59:26.904136+01 | 1486623566.90414 | pgbench_accounts_pkey |        673882112

 2017-02-09 07:59:27.965115+01 | 1486623567.96512 | pgbench_branches_pkey |           737280
 2017-02-09 07:59:27.965115+01 | 1486623567.96512 | pgbench_tellers_pkey  |          2170880
 2017-02-09 07:59:27.965115+01 | 1486623567.96512 | pgbench_accounts_pkey |        673882112

 2017-02-09 07:59:29.024607+01 | 1486623569.02461 | pgbench_branches_pkey |           737280
 2017-02-09 07:59:29.024607+01 | 1486623569.02461 | pgbench_tellers_pkey  |          2170880
 2017-02-09 07:59:29.024607+01 | 1486623569.02461 | pgbench_accounts_pkey |        673882112

 2017-02-09 07:59:30.082222+01 | 1486623570.08222 | pgbench_branches_pkey |           737280
 2017-02-09 07:59:30.082222+01 | 1486623570.08222 | pgbench_tellers_pkey  |          2170880
 2017-02-09 07:59:30.082222+01 | 1486623570.08222 | pgbench_accounts_pkey |        673882112

 2017-02-09 07:59:31.136642+01 | 1486623571.13664 | pgbench_branches_pkey |           737280
 2017-02-09 07:59:31.136642+01 | 1486623571.13664 | pgbench_tellers_pkey  |          2170880
 2017-02-09 07:59:31.136642+01 | 1486623571.13664 | pgbench_accounts_pkey |        673882112

 2017-02-09 07:59:32.192088+01 | 1486623572.19209 | pgbench_branches_pkey |           737280
 2017-02-09 07:59:32.192088+01 | 1486623572.19209 | pgbench_tellers_pkey  |          2170880
 2017-02-09 07:59:32.192088+01 | 1486623572.19209 | pgbench_accounts_pkey |        673882112

 2017-02-09 07:59:33.249497+01 | 1486623573.2495 | pgbench_branches_pkey |           737280
 2017-02-09 07:59:33.249497+01 | 1486623573.2495 | pgbench_tellers_pkey  |          2170880
 2017-02-09 07:59:33.249497+01 | 1486623573.2495 | pgbench_accounts_pkey |        673882112

 2017-02-09 07:59:34.30975+01 | 1486623574.30975 | pgbench_branches_pkey |           737280
 2017-02-09 07:59:34.30975+01 | 1486623574.30975 | pgbench_tellers_pkey  |          2170880
 2017-02-09 07:59:34.30975+01 | 1486623574.30975 | pgbench_accounts_pkey |        673882112

 2017-02-09 07:59:35.368354+01 | 1486623575.36835 | pgbench_branches_pkey |           737280
 2017-02-09 07:59:35.368354+01 | 1486623575.36835 | pgbench_tellers_pkey  |          2170880
 2017-02-09 07:59:35.368354+01 | 1486623575.36835 | pgbench_accounts_pkey |        673882112

 2017-02-09 07:59:36.427355+01 | 1486623576.42736 | pgbench_branches_pkey |           737280
 2017-02-09 07:59:36.427355+01 | 1486623576.42736 | pgbench_tellers_pkey  |          2170880
 2017-02-09 07:59:36.427355+01 | 1486623576.42736 | pgbench_accounts_pkey |        673882112

 2017-02-09 07:59:37.494062+01 | 1486623577.49406 | pgbench_branches_pkey |           737280
 2017-02-09 07:59:37.494062+01 | 1486623577.49406 | pgbench_tellers_pkey  |          2170880
 2017-02-09 07:59:37.494062+01 | 1486623577.49406 | pgbench_accounts_pkey |        673882112

 2017-02-09 07:59:38.548171+01 | 1486623578.54817 | pgbench_branches_pkey |           737280
 2017-02-09 07:59:38.548171+01 | 1486623578.54817 | pgbench_tellers_pkey  |          2170880
 2017-02-09 07:59:38.548171+01 | 1486623578.54817 | pgbench_accounts_pkey |        673882112

 2017-02-09 07:59:39.610712+01 | 1486623579.61071 | pgbench_branches_pkey |           737280
 2017-02-09 07:59:39.610712+01 | 1486623579.61071 | pgbench_tellers_pkey  |          2170880
 2017-02-09 07:59:39.610712+01 | 1486623579.61071 | pgbench_accounts_pkey |        673882112

 2017-02-09 07:59:40.662778+01 | 1486623580.66278 | pgbench_branches_pkey |           737280
 2017-02-09 07:59:40.662778+01 | 1486623580.66278 | pgbench_tellers_pkey  |          2170880
 2017-02-09 07:59:40.662778+01 | 1486623580.66278 | pgbench_accounts_pkey |        673882112

 2017-02-09 07:59:41.720261+01 | 1486623581.72026 | pgbench_branches_pkey |           737280
 2017-02-09 07:59:41.720261+01 | 1486623581.72026 | pgbench_tellers_pkey  |          2170880
 2017-02-09 07:59:41.720261+01 | 1486623581.72026 | pgbench_accounts_pkey |        673882112

 2017-02-09 07:59:42.774767+01 | 1486623582.77477 | pgbench_branches_pkey |           737280
 2017-02-09 07:59:42.774767+01 | 1486623582.77477 | pgbench_tellers_pkey  |          2170880
 2017-02-09 07:59:42.774767+01 | 1486623582.77477 | pgbench_accounts_pkey |        673882112

 2017-02-09 07:59:43.83886+01 | 1486623583.83886 | pgbench_branches_pkey |           737280
 2017-02-09 07:59:43.83886+01 | 1486623583.83886 | pgbench_tellers_pkey  |          2170880
 2017-02-09 07:59:43.83886+01 | 1486623583.83886 | pgbench_accounts_pkey |        673882112

 2017-02-09 07:59:44.902581+01 | 1486623584.90258 | pgbench_branches_pkey |           737280
 2017-02-09 07:59:44.902581+01 | 1486623584.90258 | pgbench_tellers_pkey  |          2170880
 2017-02-09 07:59:44.902581+01 | 1486623584.90258 | pgbench_accounts_pkey |        673882112

 2017-02-09 07:59:45.965065+01 | 1486623585.96507 | pgbench_branches_pkey |           737280
 2017-02-09 07:59:45.965065+01 | 1486623585.96507 | pgbench_tellers_pkey  |          2170880
 2017-02-09 07:59:45.965065+01 | 1486623585.96507 | pgbench_accounts_pkey |        673882112

 2017-02-09 07:59:47.03247+01 | 1486623587.03247 | pgbench_branches_pkey |           737280
 2017-02-09 07:59:47.03247+01 | 1486623587.03247 | pgbench_tellers_pkey  |          2170880
 2017-02-09 07:59:47.03247+01 | 1486623587.03247 | pgbench_accounts_pkey |        673882112

 2017-02-09 07:59:48.09044+01 | 1486623588.09044 | pgbench_branches_pkey |           737280
 2017-02-09 07:59:48.09044+01 | 1486623588.09044 | pgbench_tellers_pkey  |          2170880
 2017-02-09 07:59:48.09044+01 | 1486623588.09044 | pgbench_accounts_pkey |        673882112

 2017-02-09 07:59:49.154969+01 | 1486623589.15497 | pgbench_branches_pkey |           737280
 2017-02-09 07:59:49.154969+01 | 1486623589.15497 | pgbench_tellers_pkey  |          2170880
 2017-02-09 07:59:49.154969+01 | 1486623589.15497 | pgbench_accounts_pkey |        673882112

 2017-02-09 07:59:50.209027+01 | 1486623590.20903 | pgbench_branches_pkey |           737280
 2017-02-09 07:59:50.209027+01 | 1486623590.20903 | pgbench_tellers_pkey  |          2170880
 2017-02-09 07:59:50.209027+01 | 1486623590.20903 | pgbench_accounts_pkey |        673882112

 2017-02-09 07:59:51.271542+01 | 1486623591.27154 | pgbench_branches_pkey |           737280
 2017-02-09 07:59:51.271542+01 | 1486623591.27154 | pgbench_tellers_pkey  |          2170880
 2017-02-09 07:59:51.271542+01 | 1486623591.27154 | pgbench_accounts_pkey |        673882112

 2017-02-09 07:59:52.336248+01 | 1486623592.33625 | pgbench_branches_pkey |           737280
 2017-02-09 07:59:52.336248+01 | 1486623592.33625 | pgbench_tellers_pkey  |          2170880
 2017-02-09 07:59:52.336248+01 | 1486623592.33625 | pgbench_accounts_pkey |        673882112

 2017-02-09 07:59:53.394271+01 | 1486623593.39427 | pgbench_branches_pkey |           737280
 2017-02-09 07:59:53.394271+01 | 1486623593.39427 | pgbench_tellers_pkey  |          2170880
 2017-02-09 07:59:53.394271+01 | 1486623593.39427 | pgbench_accounts_pkey |        673882112

 2017-02-09 07:59:54.454583+01 | 1486623594.45458 | pgbench_branches_pkey |           737280
 2017-02-09 07:59:54.454583+01 | 1486623594.45458 | pgbench_tellers_pkey  |          2170880
 2017-02-09 07:59:54.454583+01 | 1486623594.45458 | pgbench_accounts_pkey |        673882112

 2017-02-09 07:59:55.520807+01 | 1486623595.52081 | pgbench_branches_pkey |           737280
 2017-02-09 07:59:55.520807+01 | 1486623595.52081 | pgbench_tellers_pkey  |          2170880
 2017-02-09 07:59:55.520807+01 | 1486623595.52081 | pgbench_accounts_pkey |        673882112

 2017-02-09 07:59:56.575311+01 | 1486623596.57531 | pgbench_branches_pkey |           737280
 2017-02-09 07:59:56.575311+01 | 1486623596.57531 | pgbench_tellers_pkey  |          2170880
 2017-02-09 07:59:56.575311+01 | 1486623596.57531 | pgbench_accounts_pkey |        673882112

 2017-02-09 07:59:57.631083+01 | 1486623597.63108 | pgbench_branches_pkey |           737280
 2017-02-09 07:59:57.631083+01 | 1486623597.63108 | pgbench_tellers_pkey  |          2170880
 2017-02-09 07:59:57.631083+01 | 1486623597.63108 | pgbench_accounts_pkey |        673882112

 2017-02-09 07:59:58.691681+01 | 1486623598.69168 | pgbench_branches_pkey |           737280
 2017-02-09 07:59:58.691681+01 | 1486623598.69168 | pgbench_tellers_pkey  |          2170880
 2017-02-09 07:59:58.691681+01 | 1486623598.69168 | pgbench_accounts_pkey |        673882112

 2017-02-09 07:59:59.750829+01 | 1486623599.75083 | pgbench_branches_pkey |           737280
 2017-02-09 07:59:59.750829+01 | 1486623599.75083 | pgbench_tellers_pkey  |          2170880
 2017-02-09 07:59:59.750829+01 | 1486623599.75083 | pgbench_accounts_pkey |        673882112

 2017-02-09 08:00:00.810284+01 | 1486623600.81028 | pgbench_branches_pkey |           737280
 2017-02-09 08:00:00.810284+01 | 1486623600.81028 | pgbench_tellers_pkey  |          2170880
 2017-02-09 08:00:00.810284+01 | 1486623600.81028 | pgbench_accounts_pkey |        673882112

 2017-02-09 08:00:01.875715+01 | 1486623601.87572 | pgbench_branches_pkey |           737280
 2017-02-09 08:00:01.875715+01 | 1486623601.87572 | pgbench_tellers_pkey  |          2170880
 2017-02-09 08:00:01.875715+01 | 1486623601.87572 | pgbench_accounts_pkey |        673882112

 2017-02-09 08:00:02.937695+01 | 1486623602.9377 | pgbench_branches_pkey |           737280
 2017-02-09 08:00:02.937695+01 | 1486623602.9377 | pgbench_tellers_pkey  |          2170880
 2017-02-09 08:00:02.937695+01 | 1486623602.9377 | pgbench_accounts_pkey |        673882112

 2017-02-09 08:00:04.003659+01 | 1486623604.00366 | pgbench_branches_pkey |           737280
 2017-02-09 08:00:04.003659+01 | 1486623604.00366 | pgbench_tellers_pkey  |          2170880
 2017-02-09 08:00:04.003659+01 | 1486623604.00366 | pgbench_accounts_pkey |        673882112

 2017-02-09 08:00:05.063276+01 | 1486623605.06328 | pgbench_branches_pkey |           737280
 2017-02-09 08:00:05.063276+01 | 1486623605.06328 | pgbench_tellers_pkey  |          2170880
 2017-02-09 08:00:05.063276+01 | 1486623605.06328 | pgbench_accounts_pkey |        673882112

 2017-02-09 08:00:06.123347+01 | 1486623606.12335 | pgbench_branches_pkey |           737280
 2017-02-09 08:00:06.123347+01 | 1486623606.12335 | pgbench_tellers_pkey  |          2170880
 2017-02-09 08:00:06.123347+01 | 1486623606.12335 | pgbench_accounts_pkey |        673882112

 2017-02-09 08:00:07.177914+01 | 1486623607.17791 | pgbench_branches_pkey |           737280
 2017-02-09 08:00:07.177914+01 | 1486623607.17791 | pgbench_tellers_pkey  |          2170880
 2017-02-09 08:00:07.177914+01 | 1486623607.17791 | pgbench_accounts_pkey |        673882112

 2017-02-09 08:00:08.230784+01 | 1486623608.23078 | pgbench_branches_pkey |           737280
 2017-02-09 08:00:08.230784+01 | 1486623608.23078 | pgbench_tellers_pkey  |          2170880
 2017-02-09 08:00:08.230784+01 | 1486623608.23078 | pgbench_accounts_pkey |        673882112

 2017-02-09 08:00:09.288609+01 | 1486623609.28861 | pgbench_branches_pkey |           737280
 2017-02-09 08:00:09.288609+01 | 1486623609.28861 | pgbench_tellers_pkey  |          2170880
 2017-02-09 08:00:09.288609+01 | 1486623609.28861 | pgbench_accounts_pkey |        673882112

 2017-02-09 08:00:10.350671+01 | 1486623610.35067 | pgbench_branches_pkey |           737280
 2017-02-09 08:00:10.350671+01 | 1486623610.35067 | pgbench_tellers_pkey  |          2170880
 2017-02-09 08:00:10.350671+01 | 1486623610.35067 | pgbench_accounts_pkey |        673882112

 2017-02-09 08:00:11.413729+01 | 1486623611.41373 | pgbench_branches_pkey |           737280
 2017-02-09 08:00:11.413729+01 | 1486623611.41373 | pgbench_tellers_pkey  |          2170880
 2017-02-09 08:00:11.413729+01 | 1486623611.41373 | pgbench_accounts_pkey |        673882112

 2017-02-09 08:00:12.474316+01 | 1486623612.47432 | pgbench_branches_pkey |           737280
 2017-02-09 08:00:12.474316+01 | 1486623612.47432 | pgbench_tellers_pkey  |          2170880
 2017-02-09 08:00:12.474316+01 | 1486623612.47432 | pgbench_accounts_pkey |        673882112

 2017-02-09 08:00:13.528488+01 | 1486623613.52849 | pgbench_branches_pkey |           737280
 2017-02-09 08:00:13.528488+01 | 1486623613.52849 | pgbench_tellers_pkey  |          2170880
 2017-02-09 08:00:13.528488+01 | 1486623613.52849 | pgbench_accounts_pkey |        673882112

 2017-02-09 08:00:14.588099+01 | 1486623614.5881 | pgbench_branches_pkey |           737280
 2017-02-09 08:00:14.588099+01 | 1486623614.5881 | pgbench_tellers_pkey  |          2170880
 2017-02-09 08:00:14.588099+01 | 1486623614.5881 | pgbench_accounts_pkey |        673882112

 2017-02-09 08:00:15.640565+01 | 1486623615.64056 | pgbench_branches_pkey |           737280
 2017-02-09 08:00:15.640565+01 | 1486623615.64056 | pgbench_tellers_pkey  |          2170880
 2017-02-09 08:00:15.640565+01 | 1486623615.64056 | pgbench_accounts_pkey |        673882112

 2017-02-09 08:00:16.698008+01 | 1486623616.69801 | pgbench_branches_pkey |           737280
 2017-02-09 08:00:16.698008+01 | 1486623616.69801 | pgbench_tellers_pkey  |          2170880
 2017-02-09 08:00:16.698008+01 | 1486623616.69801 | pgbench_accounts_pkey |        673882112

 2017-02-09 08:00:17.758116+01 | 1486623617.75812 | pgbench_branches_pkey |           737280
 2017-02-09 08:00:17.758116+01 | 1486623617.75812 | pgbench_tellers_pkey  |          2170880
 2017-02-09 08:00:17.758116+01 | 1486623617.75812 | pgbench_accounts_pkey |        673882112

 2017-02-09 08:00:18.817913+01 | 1486623618.81791 | pgbench_branches_pkey |           737280
 2017-02-09 08:00:18.817913+01 | 1486623618.81791 | pgbench_tellers_pkey  |          2170880
 2017-02-09 08:00:18.817913+01 | 1486623618.81791 | pgbench_accounts_pkey |        673882112

 2017-02-09 08:00:19.876514+01 | 1486623619.87651 | pgbench_branches_pkey |           737280
 2017-02-09 08:00:19.876514+01 | 1486623619.87651 | pgbench_tellers_pkey  |          2170880
 2017-02-09 08:00:19.876514+01 | 1486623619.87651 | pgbench_accounts_pkey |        673882112

 2017-02-09 08:00:20.940553+01 | 1486623620.94055 | pgbench_branches_pkey |           737280
 2017-02-09 08:00:20.940553+01 | 1486623620.94055 | pgbench_tellers_pkey  |          2170880
 2017-02-09 08:00:20.940553+01 | 1486623620.94055 | pgbench_accounts_pkey |        673882112

 2017-02-09 08:00:22.006325+01 | 1486623622.00633 | pgbench_branches_pkey |           737280
 2017-02-09 08:00:22.006325+01 | 1486623622.00633 | pgbench_tellers_pkey  |          2170880
 2017-02-09 08:00:22.006325+01 | 1486623622.00633 | pgbench_accounts_pkey |        673882112

 2017-02-09 08:00:23.07867+01 | 1486623623.07867 | pgbench_branches_pkey |           737280
 2017-02-09 08:00:23.07867+01 | 1486623623.07867 | pgbench_tellers_pkey  |          2170880
 2017-02-09 08:00:23.07867+01 | 1486623623.07867 | pgbench_accounts_pkey |        673882112

 2017-02-09 08:00:24.144564+01 | 1486623624.14456 | pgbench_branches_pkey |           737280
 2017-02-09 08:00:24.144564+01 | 1486623624.14456 | pgbench_tellers_pkey  |          2170880
 2017-02-09 08:00:24.144564+01 | 1486623624.14456 | pgbench_accounts_pkey |        673882112

 2017-02-09 08:00:25.218817+01 | 1486623625.21882 | pgbench_branches_pkey |           737280
 2017-02-09 08:00:25.218817+01 | 1486623625.21882 | pgbench_tellers_pkey  |          2170880
 2017-02-09 08:00:25.218817+01 | 1486623625.21882 | pgbench_accounts_pkey |        673882112

 2017-02-09 08:00:26.279254+01 | 1486623626.27925 | pgbench_branches_pkey |           737280
 2017-02-09 08:00:26.279254+01 | 1486623626.27925 | pgbench_tellers_pkey  |          2170880
 2017-02-09 08:00:26.279254+01 | 1486623626.27925 | pgbench_accounts_pkey |        673882112

 2017-02-09 08:00:27.345511+01 | 1486623627.34551 | pgbench_branches_pkey |           737280
 2017-02-09 08:00:27.345511+01 | 1486623627.34551 | pgbench_tellers_pkey  |          2170880
 2017-02-09 08:00:27.345511+01 | 1486623627.34551 | pgbench_accounts_pkey |        673882112

 2017-02-09 08:00:28.404206+01 | 1486623628.40421 | pgbench_branches_pkey |           737280
 2017-02-09 08:00:28.404206+01 | 1486623628.40421 | pgbench_tellers_pkey  |          2170880
 2017-02-09 08:00:28.404206+01 | 1486623628.40421 | pgbench_accounts_pkey |        673882112

 2017-02-09 08:00:29.463729+01 | 1486623629.46373 | pgbench_branches_pkey |           737280
 2017-02-09 08:00:29.463729+01 | 1486623629.46373 | pgbench_tellers_pkey  |          2170880
 2017-02-09 08:00:29.463729+01 | 1486623629.46373 | pgbench_accounts_pkey |        673882112

 2017-02-09 08:00:30.533931+01 | 1486623630.53393 | pgbench_branches_pkey |           737280
 2017-02-09 08:00:30.533931+01 | 1486623630.53393 | pgbench_tellers_pkey  |          2170880
 2017-02-09 08:00:30.533931+01 | 1486623630.53393 | pgbench_accounts_pkey |        673882112

 2017-02-09 08:00:31.606799+01 | 1486623631.6068 | pgbench_branches_pkey |           737280
 2017-02-09 08:00:31.606799+01 | 1486623631.6068 | pgbench_tellers_pkey  |          2170880
 2017-02-09 08:00:31.606799+01 | 1486623631.6068 | pgbench_accounts_pkey |        673882112

 2017-02-09 08:00:32.677067+01 | 1486623632.67707 | pgbench_branches_pkey |           737280
 2017-02-09 08:00:32.677067+01 | 1486623632.67707 | pgbench_tellers_pkey  |          2170880
 2017-02-09 08:00:32.677067+01 | 1486623632.67707 | pgbench_accounts_pkey |        673882112

 2017-02-09 08:00:33.748283+01 | 1486623633.74828 | pgbench_branches_pkey |           737280
 2017-02-09 08:00:33.748283+01 | 1486623633.74828 | pgbench_tellers_pkey  |          2170880
 2017-02-09 08:00:33.748283+01 | 1486623633.74828 | pgbench_accounts_pkey |        673882112

 2017-02-09 08:00:34.810218+01 | 1486623634.81022 | pgbench_branches_pkey |           737280
 2017-02-09 08:00:34.810218+01 | 1486623634.81022 | pgbench_tellers_pkey  |          2170880
 2017-02-09 08:00:34.810218+01 | 1486623634.81022 | pgbench_accounts_pkey |        673882112

 2017-02-09 08:00:35.875386+01 | 1486623635.87539 | pgbench_branches_pkey |           737280
 2017-02-09 08:00:35.875386+01 | 1486623635.87539 | pgbench_tellers_pkey  |          2170880
 2017-02-09 08:00:35.875386+01 | 1486623635.87539 | pgbench_accounts_pkey |        673882112

 2017-02-09 08:00:36.934275+01 | 1486623636.93427 | pgbench_branches_pkey |           737280
 2017-02-09 08:00:36.934275+01 | 1486623636.93427 | pgbench_tellers_pkey  |          2170880
 2017-02-09 08:00:36.934275+01 | 1486623636.93427 | pgbench_accounts_pkey |        673882112

 2017-02-09 08:00:37.990477+01 | 1486623637.99048 | pgbench_branches_pkey |           737280
 2017-02-09 08:00:37.990477+01 | 1486623637.99048 | pgbench_tellers_pkey  |          2170880
 2017-02-09 08:00:37.990477+01 | 1486623637.99048 | pgbench_accounts_pkey |        673882112

 2017-02-09 08:00:39.047836+01 | 1486623639.04784 | pgbench_branches_pkey |           737280
 2017-02-09 08:00:39.047836+01 | 1486623639.04784 | pgbench_tellers_pkey  |          2170880
 2017-02-09 08:00:39.047836+01 | 1486623639.04784 | pgbench_accounts_pkey |        673882112

 2017-02-09 08:00:40.114859+01 | 1486623640.11486 | pgbench_branches_pkey |           737280
 2017-02-09 08:00:40.114859+01 | 1486623640.11486 | pgbench_tellers_pkey  |          2170880
 2017-02-09 08:00:40.114859+01 | 1486623640.11486 | pgbench_accounts_pkey |        673882112

 2017-02-09 08:00:41.183823+01 | 1486623641.18382 | pgbench_branches_pkey |           737280
 2017-02-09 08:00:41.183823+01 | 1486623641.18382 | pgbench_tellers_pkey  |          2170880
 2017-02-09 08:00:41.183823+01 | 1486623641.18382 | pgbench_accounts_pkey |        673882112

 2017-02-09 08:00:42.250258+01 | 1486623642.25026 | pgbench_branches_pkey |           737280
 2017-02-09 08:00:42.250258+01 | 1486623642.25026 | pgbench_tellers_pkey  |          2170880
 2017-02-09 08:00:42.250258+01 | 1486623642.25026 | pgbench_accounts_pkey |        673882112

 2017-02-09 08:00:43.312226+01 | 1486623643.31223 | pgbench_branches_pkey |           737280
 2017-02-09 08:00:43.312226+01 | 1486623643.31223 | pgbench_tellers_pkey  |          2170880
 2017-02-09 08:00:43.312226+01 | 1486623643.31223 | pgbench_accounts_pkey |        673882112

 2017-02-09 08:00:44.380479+01 | 1486623644.38048 | pgbench_branches_pkey |           737280
 2017-02-09 08:00:44.380479+01 | 1486623644.38048 | pgbench_tellers_pkey  |          2170880
 2017-02-09 08:00:44.380479+01 | 1486623644.38048 | pgbench_accounts_pkey |        673882112

 2017-02-09 08:00:45.439025+01 | 1486623645.43902 | pgbench_branches_pkey |           737280
 2017-02-09 08:00:45.439025+01 | 1486623645.43902 | pgbench_tellers_pkey  |          2170880
 2017-02-09 08:00:45.439025+01 | 1486623645.43902 | pgbench_accounts_pkey |        673882112

 2017-02-09 08:00:46.514524+01 | 1486623646.51452 | pgbench_branches_pkey |           737280
 2017-02-09 08:00:46.514524+01 | 1486623646.51452 | pgbench_tellers_pkey  |          2170880
 2017-02-09 08:00:46.514524+01 | 1486623646.51452 | pgbench_accounts_pkey |        673882112

 2017-02-09 08:00:47.572059+01 | 1486623647.57206 | pgbench_branches_pkey |           737280
 2017-02-09 08:00:47.572059+01 | 1486623647.57206 | pgbench_tellers_pkey  |          2170880
 2017-02-09 08:00:47.572059+01 | 1486623647.57206 | pgbench_accounts_pkey |        673882112

 2017-02-09 08:00:48.636509+01 | 1486623648.63651 | pgbench_branches_pkey |           737280
 2017-02-09 08:00:48.636509+01 | 1486623648.63651 | pgbench_tellers_pkey  |          2170880
 2017-02-09 08:00:48.636509+01 | 1486623648.63651 | pgbench_accounts_pkey |        673882112

 2017-02-09 08:00:49.699507+01 | 1486623649.69951 | pgbench_branches_pkey |           737280
 2017-02-09 08:00:49.699507+01 | 1486623649.69951 | pgbench_tellers_pkey  |          2170880
 2017-02-09 08:00:49.699507+01 | 1486623649.69951 | pgbench_accounts_pkey |        673882112

 2017-02-09 08:00:50.763723+01 | 1486623650.76372 | pgbench_branches_pkey |           737280
 2017-02-09 08:00:50.763723+01 | 1486623650.76372 | pgbench_tellers_pkey  |          2170880
 2017-02-09 08:00:50.763723+01 | 1486623650.76372 | pgbench_accounts_pkey |        673882112

 2017-02-09 08:00:51.827621+01 | 1486623651.82762 | pgbench_branches_pkey |           737280
 2017-02-09 08:00:51.827621+01 | 1486623651.82762 | pgbench_tellers_pkey  |          2170880
 2017-02-09 08:00:51.827621+01 | 1486623651.82762 | pgbench_accounts_pkey |        673882112

 2017-02-09 08:00:52.88996+01 | 1486623652.88996 | pgbench_branches_pkey |           737280
 2017-02-09 08:00:52.88996+01 | 1486623652.88996 | pgbench_tellers_pkey  |          2170880
 2017-02-09 08:00:52.88996+01 | 1486623652.88996 | pgbench_accounts_pkey |        673882112

 2017-02-09 08:00:53.964976+01 | 1486623653.96498 | pgbench_branches_pkey |           737280
 2017-02-09 08:00:53.964976+01 | 1486623653.96498 | pgbench_tellers_pkey  |          2170880
 2017-02-09 08:00:53.964976+01 | 1486623653.96498 | pgbench_accounts_pkey |        673882112

 2017-02-09 08:00:55.028855+01 | 1486623655.02886 | pgbench_branches_pkey |           737280
 2017-02-09 08:00:55.028855+01 | 1486623655.02886 | pgbench_tellers_pkey  |          2170880
 2017-02-09 08:00:55.028855+01 | 1486623655.02886 | pgbench_accounts_pkey |        673882112

 2017-02-09 08:00:56.092701+01 | 1486623656.0927 | pgbench_branches_pkey |           737280
 2017-02-09 08:00:56.092701+01 | 1486623656.0927 | pgbench_tellers_pkey  |          2170880
 2017-02-09 08:00:56.092701+01 | 1486623656.0927 | pgbench_accounts_pkey |        673882112

 2017-02-09 08:00:57.147156+01 | 1486623657.14716 | pgbench_branches_pkey |           737280
 2017-02-09 08:00:57.147156+01 | 1486623657.14716 | pgbench_tellers_pkey  |          2170880
 2017-02-09 08:00:57.147156+01 | 1486623657.14716 | pgbench_accounts_pkey |        673882112

 2017-02-09 08:00:58.207062+01 | 1486623658.20706 | pgbench_branches_pkey |           737280
 2017-02-09 08:00:58.207062+01 | 1486623658.20706 | pgbench_tellers_pkey  |          2170880
 2017-02-09 08:00:58.207062+01 | 1486623658.20706 | pgbench_accounts_pkey |        673882112

 2017-02-09 08:00:59.268182+01 | 1486623659.26818 | pgbench_branches_pkey |           737280
 2017-02-09 08:00:59.268182+01 | 1486623659.26818 | pgbench_tellers_pkey  |          2170880
 2017-02-09 08:00:59.268182+01 | 1486623659.26818 | pgbench_accounts_pkey |        673882112

 2017-02-09 08:01:00.330838+01 | 1486623660.33084 | pgbench_branches_pkey |           737280
 2017-02-09 08:01:00.330838+01 | 1486623660.33084 | pgbench_tellers_pkey  |          2170880
 2017-02-09 08:01:00.330838+01 | 1486623660.33084 | pgbench_accounts_pkey |        673882112

 2017-02-09 08:01:01.388952+01 | 1486623661.38895 | pgbench_branches_pkey |           737280
 2017-02-09 08:01:01.388952+01 | 1486623661.38895 | pgbench_tellers_pkey  |          2170880
 2017-02-09 08:01:01.388952+01 | 1486623661.38895 | pgbench_accounts_pkey |        673882112

 2017-02-09 08:01:02.447041+01 | 1486623662.44704 | pgbench_branches_pkey |           737280
 2017-02-09 08:01:02.447041+01 | 1486623662.44704 | pgbench_tellers_pkey  |          2170880
 2017-02-09 08:01:02.447041+01 | 1486623662.44704 | pgbench_accounts_pkey |        673882112

 2017-02-09 08:01:03.510435+01 | 1486623663.51044 | pgbench_branches_pkey |           737280
 2017-02-09 08:01:03.510435+01 | 1486623663.51044 | pgbench_tellers_pkey  |          2170880
 2017-02-09 08:01:03.510435+01 | 1486623663.51044 | pgbench_accounts_pkey |        673882112

 2017-02-09 08:01:04.567733+01 | 1486623664.56773 | pgbench_branches_pkey |           737280
 2017-02-09 08:01:04.567733+01 | 1486623664.56773 | pgbench_tellers_pkey  |          2170880
 2017-02-09 08:01:04.567733+01 | 1486623664.56773 | pgbench_accounts_pkey |        673882112

 2017-02-09 08:01:05.63437+01 | 1486623665.63437 | pgbench_branches_pkey |           737280
 2017-02-09 08:01:05.63437+01 | 1486623665.63437 | pgbench_tellers_pkey  |          2170880
 2017-02-09 08:01:05.63437+01 | 1486623665.63437 | pgbench_accounts_pkey |        673882112

 2017-02-09 08:01:06.703245+01 | 1486623666.70324 | pgbench_branches_pkey |           737280
 2017-02-09 08:01:06.703245+01 | 1486623666.70324 | pgbench_tellers_pkey  |          2170880
 2017-02-09 08:01:06.703245+01 | 1486623666.70324 | pgbench_accounts_pkey |        673882112

 2017-02-09 08:01:07.757107+01 | 1486623667.75711 | pgbench_branches_pkey |           737280
 2017-02-09 08:01:07.757107+01 | 1486623667.75711 | pgbench_tellers_pkey  |          2170880
 2017-02-09 08:01:07.757107+01 | 1486623667.75711 | pgbench_accounts_pkey |        673882112

 2017-02-09 08:01:08.812994+01 | 1486623668.81299 | pgbench_branches_pkey |           737280
 2017-02-09 08:01:08.812994+01 | 1486623668.81299 | pgbench_tellers_pkey  |          2170880
 2017-02-09 08:01:08.812994+01 | 1486623668.81299 | pgbench_accounts_pkey |        673882112

 2017-02-09 08:01:09.876652+01 | 1486623669.87665 | pgbench_branches_pkey |           737280
 2017-02-09 08:01:09.876652+01 | 1486623669.87665 | pgbench_tellers_pkey  |          2170880
 2017-02-09 08:01:09.876652+01 | 1486623669.87665 | pgbench_accounts_pkey |        673882112

 2017-02-09 08:01:10.938988+01 | 1486623670.93899 | pgbench_branches_pkey |           737280
 2017-02-09 08:01:10.938988+01 | 1486623670.93899 | pgbench_tellers_pkey  |          2170880
 2017-02-09 08:01:10.938988+01 | 1486623670.93899 | pgbench_accounts_pkey |        673882112

 2017-02-09 08:01:11.999451+01 | 1486623671.99945 | pgbench_branches_pkey |           737280
 2017-02-09 08:01:11.999451+01 | 1486623671.99945 | pgbench_tellers_pkey  |          2170880
 2017-02-09 08:01:11.999451+01 | 1486623671.99945 | pgbench_accounts_pkey |        673882112

 2017-02-09 08:01:13.059507+01 | 1486623673.05951 | pgbench_branches_pkey |           737280
 2017-02-09 08:01:13.059507+01 | 1486623673.05951 | pgbench_tellers_pkey  |          2170880
 2017-02-09 08:01:13.059507+01 | 1486623673.05951 | pgbench_accounts_pkey |        673882112

 2017-02-09 08:01:14.133321+01 | 1486623674.13332 | pgbench_branches_pkey |           737280
 2017-02-09 08:01:14.133321+01 | 1486623674.13332 | pgbench_tellers_pkey  |          2170880
 2017-02-09 08:01:14.133321+01 | 1486623674.13332 | pgbench_accounts_pkey |        673882112

 2017-02-09 08:01:15.197441+01 | 1486623675.19744 | pgbench_branches_pkey |           737280
 2017-02-09 08:01:15.197441+01 | 1486623675.19744 | pgbench_tellers_pkey  |          2170880
 2017-02-09 08:01:15.197441+01 | 1486623675.19744 | pgbench_accounts_pkey |        673882112

 2017-02-09 08:01:16.245084+01 | 1486623676.24508 | pgbench_branches_pkey |           737280
 2017-02-09 08:01:16.245084+01 | 1486623676.24508 | pgbench_tellers_pkey  |          2170880
 2017-02-09 08:01:16.245084+01 | 1486623676.24508 | pgbench_accounts_pkey |        673882112

 2017-02-09 08:01:17.320112+01 | 1486623677.32011 | pgbench_branches_pkey |           737280
 2017-02-09 08:01:17.320112+01 | 1486623677.32011 | pgbench_tellers_pkey  |          2170880
 2017-02-09 08:01:17.320112+01 | 1486623677.32011 | pgbench_accounts_pkey |        673882112

 2017-02-09 08:01:18.397103+01 | 1486623678.3971 | pgbench_branches_pkey |           737280
 2017-02-09 08:01:18.397103+01 | 1486623678.3971 | pgbench_tellers_pkey  |          2170880
 2017-02-09 08:01:18.397103+01 | 1486623678.3971 | pgbench_accounts_pkey |        673882112

 2017-02-09 08:01:19.456617+01 | 1486623679.45662 | pgbench_branches_pkey |           737280
 2017-02-09 08:01:19.456617+01 | 1486623679.45662 | pgbench_tellers_pkey  |          2170880
 2017-02-09 08:01:19.456617+01 | 1486623679.45662 | pgbench_accounts_pkey |        673882112

 2017-02-09 08:01:20.514493+01 | 1486623680.51449 | pgbench_branches_pkey |           737280
 2017-02-09 08:01:20.514493+01 | 1486623680.51449 | pgbench_tellers_pkey  |          2170880
 2017-02-09 08:01:20.514493+01 | 1486623680.51449 | pgbench_accounts_pkey |        673882112

 2017-02-09 08:01:21.570454+01 | 1486623681.57045 | pgbench_branches_pkey |           737280
 2017-02-09 08:01:21.570454+01 | 1486623681.57045 | pgbench_tellers_pkey  |          2170880
 2017-02-09 08:01:21.570454+01 | 1486623681.57045 | pgbench_accounts_pkey |        673882112

 2017-02-09 08:01:22.631318+01 | 1486623682.63132 | pgbench_branches_pkey |           737280
 2017-02-09 08:01:22.631318+01 | 1486623682.63132 | pgbench_tellers_pkey  |          2170880
 2017-02-09 08:01:22.631318+01 | 1486623682.63132 | pgbench_accounts_pkey |        673882112

 2017-02-09 08:01:23.68986+01 | 1486623683.68986 | pgbench_branches_pkey |           737280
 2017-02-09 08:01:23.68986+01 | 1486623683.68986 | pgbench_tellers_pkey  |          2170880
 2017-02-09 08:01:23.68986+01 | 1486623683.68986 | pgbench_accounts_pkey |        673882112

 2017-02-09 08:01:24.745353+01 | 1486623684.74535 | pgbench_branches_pkey |           737280
 2017-02-09 08:01:24.745353+01 | 1486623684.74535 | pgbench_tellers_pkey  |          2170880
 2017-02-09 08:01:24.745353+01 | 1486623684.74535 | pgbench_accounts_pkey |        673882112

 2017-02-09 08:01:25.806967+01 | 1486623685.80697 | pgbench_branches_pkey |           737280
 2017-02-09 08:01:25.806967+01 | 1486623685.80697 | pgbench_tellers_pkey  |          2170880
 2017-02-09 08:01:25.806967+01 | 1486623685.80697 | pgbench_accounts_pkey |        673882112

 2017-02-09 08:01:26.869773+01 | 1486623686.86977 | pgbench_branches_pkey |           737280
 2017-02-09 08:01:26.869773+01 | 1486623686.86977 | pgbench_tellers_pkey  |          2170880
 2017-02-09 08:01:26.869773+01 | 1486623686.86977 | pgbench_accounts_pkey |        673882112

 2017-02-09 08:01:27.930556+01 | 1486623687.93056 | pgbench_branches_pkey |           737280
 2017-02-09 08:01:27.930556+01 | 1486623687.93056 | pgbench_tellers_pkey  |          2170880
 2017-02-09 08:01:27.930556+01 | 1486623687.93056 | pgbench_accounts_pkey |        673882112

 2017-02-09 08:01:28.993446+01 | 1486623688.99345 | pgbench_branches_pkey |           737280
 2017-02-09 08:01:28.993446+01 | 1486623688.99345 | pgbench_tellers_pkey  |          2170880
 2017-02-09 08:01:28.993446+01 | 1486623688.99345 | pgbench_accounts_pkey |        673882112

 2017-02-09 08:01:30.054993+01 | 1486623690.05499 | pgbench_branches_pkey |           737280
 2017-02-09 08:01:30.054993+01 | 1486623690.05499 | pgbench_tellers_pkey  |          2170880
 2017-02-09 08:01:30.054993+01 | 1486623690.05499 | pgbench_accounts_pkey |        673882112

 2017-02-09 08:01:31.108453+01 | 1486623691.10845 | pgbench_branches_pkey |           737280
 2017-02-09 08:01:31.108453+01 | 1486623691.10845 | pgbench_tellers_pkey  |          2170880
 2017-02-09 08:01:31.108453+01 | 1486623691.10845 | pgbench_accounts_pkey |        673882112

 2017-02-09 08:01:32.174644+01 | 1486623692.17464 | pgbench_branches_pkey |           737280
 2017-02-09 08:01:32.174644+01 | 1486623692.17464 | pgbench_tellers_pkey  |          2170880
 2017-02-09 08:01:32.174644+01 | 1486623692.17464 | pgbench_accounts_pkey |        673882112

 2017-02-09 08:01:33.242325+01 | 1486623693.24233 | pgbench_branches_pkey |           737280
 2017-02-09 08:01:33.242325+01 | 1486623693.24233 | pgbench_tellers_pkey  |          2170880
 2017-02-09 08:01:33.242325+01 | 1486623693.24233 | pgbench_accounts_pkey |        673882112

 2017-02-09 08:01:34.314261+01 | 1486623694.31426 | pgbench_branches_pkey |           737280
 2017-02-09 08:01:34.314261+01 | 1486623694.31426 | pgbench_tellers_pkey  |          2170880
 2017-02-09 08:01:34.314261+01 | 1486623694.31426 | pgbench_accounts_pkey |        673882112

 2017-02-09 08:01:35.377205+01 | 1486623695.3772 | pgbench_branches_pkey |           737280
 2017-02-09 08:01:35.377205+01 | 1486623695.3772 | pgbench_tellers_pkey  |          2170880
 2017-02-09 08:01:35.377205+01 | 1486623695.3772 | pgbench_accounts_pkey |        673882112

 2017-02-09 08:01:36.437568+01 | 1486623696.43757 | pgbench_branches_pkey |           737280
 2017-02-09 08:01:36.437568+01 | 1486623696.43757 | pgbench_tellers_pkey  |          2170880
 2017-02-09 08:01:36.437568+01 | 1486623696.43757 | pgbench_accounts_pkey |        673882112

 2017-02-09 08:01:37.494891+01 | 1486623697.49489 | pgbench_branches_pkey |           737280
 2017-02-09 08:01:37.494891+01 | 1486623697.49489 | pgbench_tellers_pkey  |          2170880
 2017-02-09 08:01:37.494891+01 | 1486623697.49489 | pgbench_accounts_pkey |        673882112

 2017-02-09 08:01:38.552201+01 | 1486623698.5522 | pgbench_branches_pkey |           737280
 2017-02-09 08:01:38.552201+01 | 1486623698.5522 | pgbench_tellers_pkey  |          2170880
 2017-02-09 08:01:38.552201+01 | 1486623698.5522 | pgbench_accounts_pkey |        673882112

 2017-02-09 08:01:39.611608+01 | 1486623699.61161 | pgbench_branches_pkey |           737280
 2017-02-09 08:01:39.611608+01 | 1486623699.61161 | pgbench_tellers_pkey  |          2170880
 2017-02-09 08:01:39.611608+01 | 1486623699.61161 | pgbench_accounts_pkey |        673882112

 2017-02-09 08:01:40.673056+01 | 1486623700.67306 | pgbench_branches_pkey |           737280
 2017-02-09 08:01:40.673056+01 | 1486623700.67306 | pgbench_tellers_pkey  |          2170880
 2017-02-09 08:01:40.673056+01 | 1486623700.67306 | pgbench_accounts_pkey |        673882112

 2017-02-09 08:01:41.745557+01 | 1486623701.74556 | pgbench_branches_pkey |           737280
 2017-02-09 08:01:41.745557+01 | 1486623701.74556 | pgbench_tellers_pkey  |          2170880
 2017-02-09 08:01:41.745557+01 | 1486623701.74556 | pgbench_accounts_pkey |        673882112

 2017-02-09 08:01:42.80052+01 | 1486623702.80052 | pgbench_branches_pkey |           737280
 2017-02-09 08:01:42.80052+01 | 1486623702.80052 | pgbench_tellers_pkey  |          2170880
 2017-02-09 08:01:42.80052+01 | 1486623702.80052 | pgbench_accounts_pkey |        673882112

 2017-02-09 08:01:43.85724+01 | 1486623703.85724 | pgbench_branches_pkey |           737280
 2017-02-09 08:01:43.85724+01 | 1486623703.85724 | pgbench_tellers_pkey  |          2170880
 2017-02-09 08:01:43.85724+01 | 1486623703.85724 | pgbench_accounts_pkey |        673882112

 2017-02-09 08:01:44.921539+01 | 1486623704.92154 | pgbench_branches_pkey |           737280
 2017-02-09 08:01:44.921539+01 | 1486623704.92154 | pgbench_tellers_pkey  |          2170880
 2017-02-09 08:01:44.921539+01 | 1486623704.92154 | pgbench_accounts_pkey |        673882112

 2017-02-09 08:01:45.9758+01 | 1486623705.9758 | pgbench_branches_pkey |           737280
 2017-02-09 08:01:45.9758+01 | 1486623705.9758 | pgbench_tellers_pkey  |          2170880
 2017-02-09 08:01:45.9758+01 | 1486623705.9758 | pgbench_accounts_pkey |        673882112

 2017-02-09 08:01:47.043765+01 | 1486623707.04377 | pgbench_branches_pkey |           737280
 2017-02-09 08:01:47.043765+01 | 1486623707.04377 | pgbench_tellers_pkey  |          2170880
 2017-02-09 08:01:47.043765+01 | 1486623707.04377 | pgbench_accounts_pkey |        673882112

 2017-02-09 08:01:48.10506+01 | 1486623708.10506 | pgbench_branches_pkey |           737280
 2017-02-09 08:01:48.10506+01 | 1486623708.10506 | pgbench_tellers_pkey  |          2170880
 2017-02-09 08:01:48.10506+01 | 1486623708.10506 | pgbench_accounts_pkey |        673882112

 2017-02-09 08:01:49.172793+01 | 1486623709.17279 | pgbench_branches_pkey |           737280
 2017-02-09 08:01:49.172793+01 | 1486623709.17279 | pgbench_tellers_pkey  |          2170880
 2017-02-09 08:01:49.172793+01 | 1486623709.17279 | pgbench_accounts_pkey |        673882112

 2017-02-09 08:01:50.233476+01 | 1486623710.23348 | pgbench_branches_pkey |           737280
 2017-02-09 08:01:50.233476+01 | 1486623710.23348 | pgbench_tellers_pkey  |          2170880
 2017-02-09 08:01:50.233476+01 | 1486623710.23348 | pgbench_accounts_pkey |        673882112

 2017-02-09 08:01:51.302534+01 | 1486623711.30253 | pgbench_branches_pkey |           737280
 2017-02-09 08:01:51.302534+01 | 1486623711.30253 | pgbench_tellers_pkey  |          2170880
 2017-02-09 08:01:51.302534+01 | 1486623711.30253 | pgbench_accounts_pkey |        673882112

 2017-02-09 08:01:52.363348+01 | 1486623712.36335 | pgbench_branches_pkey |           737280
 2017-02-09 08:01:52.363348+01 | 1486623712.36335 | pgbench_tellers_pkey  |          2170880
 2017-02-09 08:01:52.363348+01 | 1486623712.36335 | pgbench_accounts_pkey |        673882112

 2017-02-09 08:01:53.424788+01 | 1486623713.42479 | pgbench_branches_pkey |           737280
 2017-02-09 08:01:53.424788+01 | 1486623713.42479 | pgbench_tellers_pkey  |          2170880
 2017-02-09 08:01:53.424788+01 | 1486623713.42479 | pgbench_accounts_pkey |        673882112

 2017-02-09 08:01:54.48415+01 | 1486623714.48415 | pgbench_branches_pkey |           737280
 2017-02-09 08:01:54.48415+01 | 1486623714.48415 | pgbench_tellers_pkey  |          2170880
 2017-02-09 08:01:54.48415+01 | 1486623714.48415 | pgbench_accounts_pkey |        673882112

 2017-02-09 08:01:55.551664+01 | 1486623715.55166 | pgbench_branches_pkey |           737280
 2017-02-09 08:01:55.551664+01 | 1486623715.55166 | pgbench_tellers_pkey  |          2170880
 2017-02-09 08:01:55.551664+01 | 1486623715.55166 | pgbench_accounts_pkey |        673882112

 2017-02-09 08:01:56.604654+01 | 1486623716.60465 | pgbench_branches_pkey |           737280
 2017-02-09 08:01:56.604654+01 | 1486623716.60465 | pgbench_tellers_pkey  |          2170880
 2017-02-09 08:01:56.604654+01 | 1486623716.60465 | pgbench_accounts_pkey |        673882112

 2017-02-09 08:01:57.662714+01 | 1486623717.66271 | pgbench_branches_pkey |           737280
 2017-02-09 08:01:57.662714+01 | 1486623717.66271 | pgbench_tellers_pkey  |          2170880
 2017-02-09 08:01:57.662714+01 | 1486623717.66271 | pgbench_accounts_pkey |        673882112

 2017-02-09 08:01:58.725714+01 | 1486623718.72571 | pgbench_branches_pkey |           737280
 2017-02-09 08:01:58.725714+01 | 1486623718.72571 | pgbench_tellers_pkey  |          2170880
 2017-02-09 08:01:58.725714+01 | 1486623718.72571 | pgbench_accounts_pkey |        673882112

 2017-02-09 08:01:59.783802+01 | 1486623719.7838 | pgbench_branches_pkey |           737280
 2017-02-09 08:01:59.783802+01 | 1486623719.7838 | pgbench_tellers_pkey  |          2170880
 2017-02-09 08:01:59.783802+01 | 1486623719.7838 | pgbench_accounts_pkey |        673882112

 2017-02-09 08:02:00.848237+01 | 1486623720.84824 | pgbench_branches_pkey |           737280
 2017-02-09 08:02:00.848237+01 | 1486623720.84824 | pgbench_tellers_pkey  |          2170880
 2017-02-09 08:02:00.848237+01 | 1486623720.84824 | pgbench_accounts_pkey |        673882112

 2017-02-09 08:02:01.910831+01 | 1486623721.91083 | pgbench_branches_pkey |           737280
 2017-02-09 08:02:01.910831+01 | 1486623721.91083 | pgbench_tellers_pkey  |          2170880
 2017-02-09 08:02:01.910831+01 | 1486623721.91083 | pgbench_accounts_pkey |        673882112

 2017-02-09 08:02:02.979108+01 | 1486623722.97911 | pgbench_branches_pkey |           737280
 2017-02-09 08:02:02.979108+01 | 1486623722.97911 | pgbench_tellers_pkey  |          2170880
 2017-02-09 08:02:02.979108+01 | 1486623722.97911 | pgbench_accounts_pkey |        673882112

 2017-02-09 08:02:04.049584+01 | 1486623724.04958 | pgbench_branches_pkey |           737280
 2017-02-09 08:02:04.049584+01 | 1486623724.04958 | pgbench_tellers_pkey  |          2170880
 2017-02-09 08:02:04.049584+01 | 1486623724.04958 | pgbench_accounts_pkey |        673882112

 2017-02-09 08:02:05.111317+01 | 1486623725.11132 | pgbench_branches_pkey |           737280
 2017-02-09 08:02:05.111317+01 | 1486623725.11132 | pgbench_tellers_pkey  |          2170880
 2017-02-09 08:02:05.111317+01 | 1486623725.11132 | pgbench_accounts_pkey |        673882112

 2017-02-09 08:02:06.17419+01 | 1486623726.17419 | pgbench_branches_pkey |           737280
 2017-02-09 08:02:06.17419+01 | 1486623726.17419 | pgbench_tellers_pkey  |          2170880
 2017-02-09 08:02:06.17419+01 | 1486623726.17419 | pgbench_accounts_pkey |        673882112

 2017-02-09 08:02:07.232603+01 | 1486623727.2326 | pgbench_branches_pkey |           737280
 2017-02-09 08:02:07.232603+01 | 1486623727.2326 | pgbench_tellers_pkey  |          2170880
 2017-02-09 08:02:07.232603+01 | 1486623727.2326 | pgbench_accounts_pkey |        673882112

 2017-02-09 08:02:08.288626+01 | 1486623728.28863 | pgbench_branches_pkey |           737280
 2017-02-09 08:02:08.288626+01 | 1486623728.28863 | pgbench_tellers_pkey  |          2170880
 2017-02-09 08:02:08.288626+01 | 1486623728.28863 | pgbench_accounts_pkey |        673882112

 2017-02-09 08:02:09.346894+01 | 1486623729.34689 | pgbench_branches_pkey |           737280
 2017-02-09 08:02:09.346894+01 | 1486623729.34689 | pgbench_tellers_pkey  |          2170880
 2017-02-09 08:02:09.346894+01 | 1486623729.34689 | pgbench_accounts_pkey |        673882112

 2017-02-09 08:02:10.409899+01 | 1486623730.4099 | pgbench_branches_pkey |           737280
 2017-02-09 08:02:10.409899+01 | 1486623730.4099 | pgbench_tellers_pkey  |          2170880
 2017-02-09 08:02:10.409899+01 | 1486623730.4099 | pgbench_accounts_pkey |        673882112

 2017-02-09 08:02:11.466843+01 | 1486623731.46684 | pgbench_branches_pkey |           737280
 2017-02-09 08:02:11.466843+01 | 1486623731.46684 | pgbench_tellers_pkey  |          2170880
 2017-02-09 08:02:11.466843+01 | 1486623731.46684 | pgbench_accounts_pkey |        673882112

 2017-02-09 08:02:12.524981+01 | 1486623732.52498 | pgbench_branches_pkey |           737280
 2017-02-09 08:02:12.524981+01 | 1486623732.52498 | pgbench_tellers_pkey  |          2170880
 2017-02-09 08:02:12.524981+01 | 1486623732.52498 | pgbench_accounts_pkey |        673882112

 2017-02-09 08:02:13.595298+01 | 1486623733.5953 | pgbench_branches_pkey |           737280
 2017-02-09 08:02:13.595298+01 | 1486623733.5953 | pgbench_tellers_pkey  |          2170880
 2017-02-09 08:02:13.595298+01 | 1486623733.5953 | pgbench_accounts_pkey |        673882112

 2017-02-09 08:02:14.656996+01 | 1486623734.657 | pgbench_branches_pkey |           737280
 2017-02-09 08:02:14.656996+01 | 1486623734.657 | pgbench_tellers_pkey  |          2170880
 2017-02-09 08:02:14.656996+01 | 1486623734.657 | pgbench_accounts_pkey |        673882112

 2017-02-09 08:02:15.71409+01 | 1486623735.71409 | pgbench_branches_pkey |           737280
 2017-02-09 08:02:15.71409+01 | 1486623735.71409 | pgbench_tellers_pkey  |          2170880
 2017-02-09 08:02:15.71409+01 | 1486623735.71409 | pgbench_accounts_pkey |        673882112

 2017-02-09 08:02:16.766933+01 | 1486623736.76693 | pgbench_branches_pkey |           737280
 2017-02-09 08:02:16.766933+01 | 1486623736.76693 | pgbench_tellers_pkey  |          2170880
 2017-02-09 08:02:16.766933+01 | 1486623736.76693 | pgbench_accounts_pkey |        673882112

 2017-02-09 08:02:17.831262+01 | 1486623737.83126 | pgbench_branches_pkey |           737280
 2017-02-09 08:02:17.831262+01 | 1486623737.83126 | pgbench_tellers_pkey  |          2170880
 2017-02-09 08:02:17.831262+01 | 1486623737.83126 | pgbench_accounts_pkey |        673882112

 2017-02-09 08:02:18.897921+01 | 1486623738.89792 | pgbench_branches_pkey |           737280
 2017-02-09 08:02:18.897921+01 | 1486623738.89792 | pgbench_tellers_pkey  |          2170880
 2017-02-09 08:02:18.897921+01 | 1486623738.89792 | pgbench_accounts_pkey |        673882112

 2017-02-09 08:02:19.970077+01 | 1486623739.97008 | pgbench_branches_pkey |           737280
 2017-02-09 08:02:19.970077+01 | 1486623739.97008 | pgbench_tellers_pkey  |          2170880
 2017-02-09 08:02:19.970077+01 | 1486623739.97008 | pgbench_accounts_pkey |        673882112

 2017-02-09 08:02:21.043506+01 | 1486623741.04351 | pgbench_branches_pkey |           737280
 2017-02-09 08:02:21.043506+01 | 1486623741.04351 | pgbench_tellers_pkey  |          2170880
 2017-02-09 08:02:21.043506+01 | 1486623741.04351 | pgbench_accounts_pkey |        673882112

 2017-02-09 08:02:22.117109+01 | 1486623742.11711 | pgbench_branches_pkey |           737280
 2017-02-09 08:02:22.117109+01 | 1486623742.11711 | pgbench_tellers_pkey  |          2170880
 2017-02-09 08:02:22.117109+01 | 1486623742.11711 | pgbench_accounts_pkey |        673882112

 2017-02-09 08:02:23.184496+01 | 1486623743.1845 | pgbench_branches_pkey |           737280
 2017-02-09 08:02:23.184496+01 | 1486623743.1845 | pgbench_tellers_pkey  |          2170880
 2017-02-09 08:02:23.184496+01 | 1486623743.1845 | pgbench_accounts_pkey |        673882112

 2017-02-09 08:02:24.242129+01 | 1486623744.24213 | pgbench_branches_pkey |           737280
 2017-02-09 08:02:24.242129+01 | 1486623744.24213 | pgbench_tellers_pkey  |          2170880
 2017-02-09 08:02:24.242129+01 | 1486623744.24213 | pgbench_accounts_pkey |        673882112

 2017-02-09 08:02:25.3159+01 | 1486623745.3159 | pgbench_branches_pkey |           737280
 2017-02-09 08:02:25.3159+01 | 1486623745.3159 | pgbench_tellers_pkey  |          2170880
 2017-02-09 08:02:25.3159+01 | 1486623745.3159 | pgbench_accounts_pkey |        673882112

 2017-02-09 08:02:26.376992+01 | 1486623746.37699 | pgbench_branches_pkey |           737280
 2017-02-09 08:02:26.376992+01 | 1486623746.37699 | pgbench_tellers_pkey  |          2170880
 2017-02-09 08:02:26.376992+01 | 1486623746.37699 | pgbench_accounts_pkey |        673882112

 2017-02-09 08:02:27.4406+01 | 1486623747.4406 | pgbench_branches_pkey |           737280
 2017-02-09 08:02:27.4406+01 | 1486623747.4406 | pgbench_tellers_pkey  |          2170880
 2017-02-09 08:02:27.4406+01 | 1486623747.4406 | pgbench_accounts_pkey |        673882112

 2017-02-09 08:02:28.497947+01 | 1486623748.49795 | pgbench_branches_pkey |           737280
 2017-02-09 08:02:28.497947+01 | 1486623748.49795 | pgbench_tellers_pkey  |          2170880
 2017-02-09 08:02:28.497947+01 | 1486623748.49795 | pgbench_accounts_pkey |        673882112

 2017-02-09 08:02:29.559309+01 | 1486623749.55931 | pgbench_branches_pkey |           737280
 2017-02-09 08:02:29.559309+01 | 1486623749.55931 | pgbench_tellers_pkey  |          2170880
 2017-02-09 08:02:29.559309+01 | 1486623749.55931 | pgbench_accounts_pkey |        673882112

 2017-02-09 08:02:30.616286+01 | 1486623750.61629 | pgbench_branches_pkey |           737280
 2017-02-09 08:02:30.616286+01 | 1486623750.61629 | pgbench_tellers_pkey  |          2170880
 2017-02-09 08:02:30.616286+01 | 1486623750.61629 | pgbench_accounts_pkey |        673882112

 2017-02-09 08:02:31.667593+01 | 1486623751.66759 | pgbench_branches_pkey |           737280
 2017-02-09 08:02:31.667593+01 | 1486623751.66759 | pgbench_tellers_pkey  |          2170880
 2017-02-09 08:02:31.667593+01 | 1486623751.66759 | pgbench_accounts_pkey |        673882112

 2017-02-09 08:02:32.725165+01 | 1486623752.72516 | pgbench_branches_pkey |           737280
 2017-02-09 08:02:32.725165+01 | 1486623752.72516 | pgbench_tellers_pkey  |          2170880
 2017-02-09 08:02:32.725165+01 | 1486623752.72516 | pgbench_accounts_pkey |        673882112

 2017-02-09 08:02:33.782374+01 | 1486623753.78237 | pgbench_branches_pkey |           737280
 2017-02-09 08:02:33.782374+01 | 1486623753.78237 | pgbench_tellers_pkey  |          2170880
 2017-02-09 08:02:33.782374+01 | 1486623753.78237 | pgbench_accounts_pkey |        673882112

 2017-02-09 08:02:34.843123+01 | 1486623754.84312 | pgbench_branches_pkey |           737280
 2017-02-09 08:02:34.843123+01 | 1486623754.84312 | pgbench_tellers_pkey  |          2170880
 2017-02-09 08:02:34.843123+01 | 1486623754.84312 | pgbench_accounts_pkey |        673882112

 2017-02-09 08:02:35.901358+01 | 1486623755.90136 | pgbench_branches_pkey |           737280
 2017-02-09 08:02:35.901358+01 | 1486623755.90136 | pgbench_tellers_pkey  |          2170880
 2017-02-09 08:02:35.901358+01 | 1486623755.90136 | pgbench_accounts_pkey |        673882112

 2017-02-09 08:02:36.964376+01 | 1486623756.96438 | pgbench_branches_pkey |           737280
 2017-02-09 08:02:36.964376+01 | 1486623756.96438 | pgbench_tellers_pkey  |          2170880
 2017-02-09 08:02:36.964376+01 | 1486623756.96438 | pgbench_accounts_pkey |        673882112

 2017-02-09 08:02:38.034401+01 | 1486623758.0344 | pgbench_branches_pkey |           737280
 2017-02-09 08:02:38.034401+01 | 1486623758.0344 | pgbench_tellers_pkey  |          2170880
 2017-02-09 08:02:38.034401+01 | 1486623758.0344 | pgbench_accounts_pkey |        673882112

 2017-02-09 08:02:39.095811+01 | 1486623759.09581 | pgbench_branches_pkey |           737280
 2017-02-09 08:02:39.095811+01 | 1486623759.09581 | pgbench_tellers_pkey  |          2170880
 2017-02-09 08:02:39.095811+01 | 1486623759.09581 | pgbench_accounts_pkey |        673882112

 2017-02-09 08:02:40.171689+01 | 1486623760.17169 | pgbench_branches_pkey |           737280
 2017-02-09 08:02:40.171689+01 | 1486623760.17169 | pgbench_tellers_pkey  |          2170880
 2017-02-09 08:02:40.171689+01 | 1486623760.17169 | pgbench_accounts_pkey |        673882112

 2017-02-09 08:02:41.22551+01 | 1486623761.22551 | pgbench_branches_pkey |           737280
 2017-02-09 08:02:41.22551+01 | 1486623761.22551 | pgbench_tellers_pkey  |          2170880
 2017-02-09 08:02:41.22551+01 | 1486623761.22551 | pgbench_accounts_pkey |        673882112

 2017-02-09 08:02:42.287613+01 | 1486623762.28761 | pgbench_branches_pkey |           737280
 2017-02-09 08:02:42.287613+01 | 1486623762.28761 | pgbench_tellers_pkey  |          2170880
 2017-02-09 08:02:42.287613+01 | 1486623762.28761 | pgbench_accounts_pkey |        673882112

 2017-02-09 08:02:43.351623+01 | 1486623763.35162 | pgbench_branches_pkey |           737280
 2017-02-09 08:02:43.351623+01 | 1486623763.35162 | pgbench_tellers_pkey  |          2170880
 2017-02-09 08:02:43.351623+01 | 1486623763.35162 | pgbench_accounts_pkey |        673882112

 2017-02-09 08:02:44.421603+01 | 1486623764.4216 | pgbench_branches_pkey |           737280
 2017-02-09 08:02:44.421603+01 | 1486623764.4216 | pgbench_tellers_pkey  |          2170880
 2017-02-09 08:02:44.421603+01 | 1486623764.4216 | pgbench_accounts_pkey |        673882112

