 2017-02-08 06:17:24.215317+01 | 1486531044.21532 | pgbench_branches_pkey |            16384
 2017-02-08 06:17:24.215317+01 | 1486531044.21532 | pgbench_tellers_pkey  |            90112
 2017-02-08 06:17:24.215317+01 | 1486531044.21532 | pgbench_accounts_pkey |        673882112

 2017-02-08 06:17:25.580759+01 | 1486531045.58076 | pgbench_branches_pkey |            16384
 2017-02-08 06:17:25.580759+01 | 1486531045.58076 | pgbench_tellers_pkey  |            90112
 2017-02-08 06:17:25.580759+01 | 1486531045.58076 | pgbench_accounts_pkey |        673882112

 2017-02-08 06:17:26.96671+01 | 1486531046.96671 | pgbench_branches_pkey |            16384
 2017-02-08 06:17:26.96671+01 | 1486531046.96671 | pgbench_tellers_pkey  |            90112
 2017-02-08 06:17:26.96671+01 | 1486531046.96671 | pgbench_accounts_pkey |        673882112

 2017-02-08 06:17:28.41424+01 | 1486531048.41424 | pgbench_branches_pkey |            16384
 2017-02-08 06:17:28.41424+01 | 1486531048.41424 | pgbench_tellers_pkey  |            90112
 2017-02-08 06:17:28.41424+01 | 1486531048.41424 | pgbench_accounts_pkey |        673882112

 2017-02-08 06:17:29.801655+01 | 1486531049.80166 | pgbench_branches_pkey |            16384
 2017-02-08 06:17:29.801655+01 | 1486531049.80166 | pgbench_tellers_pkey  |            90112
 2017-02-08 06:17:29.801655+01 | 1486531049.80166 | pgbench_accounts_pkey |        673882112

 2017-02-08 06:17:31.161445+01 | 1486531051.16144 | pgbench_branches_pkey |            16384
 2017-02-08 06:17:31.161445+01 | 1486531051.16144 | pgbench_tellers_pkey  |            90112
 2017-02-08 06:17:31.161445+01 | 1486531051.16144 | pgbench_accounts_pkey |        673882112

 2017-02-08 06:17:32.530092+01 | 1486531052.53009 | pgbench_branches_pkey |            16384
 2017-02-08 06:17:32.530092+01 | 1486531052.53009 | pgbench_tellers_pkey  |            90112
 2017-02-08 06:17:32.530092+01 | 1486531052.53009 | pgbench_accounts_pkey |        673882112

 2017-02-08 06:17:33.918447+01 | 1486531053.91845 | pgbench_branches_pkey |            16384
 2017-02-08 06:17:33.918447+01 | 1486531053.91845 | pgbench_tellers_pkey  |            90112
 2017-02-08 06:17:33.918447+01 | 1486531053.91845 | pgbench_accounts_pkey |        673882112

 2017-02-08 06:17:35.262706+01 | 1486531055.26271 | pgbench_branches_pkey |            16384
 2017-02-08 06:17:35.262706+01 | 1486531055.26271 | pgbench_tellers_pkey  |            90112
 2017-02-08 06:17:35.262706+01 | 1486531055.26271 | pgbench_accounts_pkey |        673882112

 2017-02-08 06:17:36.62685+01 | 1486531056.62685 | pgbench_branches_pkey |            16384
 2017-02-08 06:17:36.62685+01 | 1486531056.62685 | pgbench_tellers_pkey  |            90112
 2017-02-08 06:17:36.62685+01 | 1486531056.62685 | pgbench_accounts_pkey |        673882112

 2017-02-08 06:17:37.958471+01 | 1486531057.95847 | pgbench_branches_pkey |            16384
 2017-02-08 06:17:37.958471+01 | 1486531057.95847 | pgbench_tellers_pkey  |            90112
 2017-02-08 06:17:37.958471+01 | 1486531057.95847 | pgbench_accounts_pkey |        673882112

 2017-02-08 06:17:39.297198+01 | 1486531059.2972 | pgbench_branches_pkey |            16384
 2017-02-08 06:17:39.297198+01 | 1486531059.2972 | pgbench_tellers_pkey  |            90112
 2017-02-08 06:17:39.297198+01 | 1486531059.2972 | pgbench_accounts_pkey |        673882112

 2017-02-08 06:17:40.647856+01 | 1486531060.64786 | pgbench_branches_pkey |            16384
 2017-02-08 06:17:40.647856+01 | 1486531060.64786 | pgbench_tellers_pkey  |            90112
 2017-02-08 06:17:40.647856+01 | 1486531060.64786 | pgbench_accounts_pkey |        673882112

 2017-02-08 06:17:42.028182+01 | 1486531062.02818 | pgbench_branches_pkey |            16384
 2017-02-08 06:17:42.028182+01 | 1486531062.02818 | pgbench_tellers_pkey  |            90112
 2017-02-08 06:17:42.028182+01 | 1486531062.02818 | pgbench_accounts_pkey |        673882112

 2017-02-08 06:17:43.41065+01 | 1486531063.41065 | pgbench_branches_pkey |            16384
 2017-02-08 06:17:43.41065+01 | 1486531063.41065 | pgbench_tellers_pkey  |            90112
 2017-02-08 06:17:43.41065+01 | 1486531063.41065 | pgbench_accounts_pkey |        673882112

 2017-02-08 06:17:44.801044+01 | 1486531064.80104 | pgbench_branches_pkey |            16384
 2017-02-08 06:17:44.801044+01 | 1486531064.80104 | pgbench_tellers_pkey  |            90112
 2017-02-08 06:17:44.801044+01 | 1486531064.80104 | pgbench_accounts_pkey |        673882112

 2017-02-08 06:17:46.175912+01 | 1486531066.17591 | pgbench_branches_pkey |            16384
 2017-02-08 06:17:46.175912+01 | 1486531066.17591 | pgbench_tellers_pkey  |            90112
 2017-02-08 06:17:46.175912+01 | 1486531066.17591 | pgbench_accounts_pkey |        673882112

 2017-02-08 06:17:47.492077+01 | 1486531067.49208 | pgbench_branches_pkey |            16384
 2017-02-08 06:17:47.492077+01 | 1486531067.49208 | pgbench_tellers_pkey  |            90112
 2017-02-08 06:17:47.492077+01 | 1486531067.49208 | pgbench_accounts_pkey |        673882112

 2017-02-08 06:17:48.838804+01 | 1486531068.8388 | pgbench_branches_pkey |            16384
 2017-02-08 06:17:48.838804+01 | 1486531068.8388 | pgbench_tellers_pkey  |            90112
 2017-02-08 06:17:48.838804+01 | 1486531068.8388 | pgbench_accounts_pkey |        673882112

 2017-02-08 06:17:50.184715+01 | 1486531070.18472 | pgbench_branches_pkey |            16384
 2017-02-08 06:17:50.184715+01 | 1486531070.18472 | pgbench_tellers_pkey  |            90112
 2017-02-08 06:17:50.184715+01 | 1486531070.18472 | pgbench_accounts_pkey |        673882112

 2017-02-08 06:17:51.498383+01 | 1486531071.49838 | pgbench_branches_pkey |            16384
 2017-02-08 06:17:51.498383+01 | 1486531071.49838 | pgbench_tellers_pkey  |            90112
 2017-02-08 06:17:51.498383+01 | 1486531071.49838 | pgbench_accounts_pkey |        673882112

 2017-02-08 06:17:52.831091+01 | 1486531072.83109 | pgbench_branches_pkey |            16384
 2017-02-08 06:17:52.831091+01 | 1486531072.83109 | pgbench_tellers_pkey  |            90112
 2017-02-08 06:17:52.831091+01 | 1486531072.83109 | pgbench_accounts_pkey |        673882112

 2017-02-08 06:17:54.197679+01 | 1486531074.19768 | pgbench_branches_pkey |            16384
 2017-02-08 06:17:54.197679+01 | 1486531074.19768 | pgbench_tellers_pkey  |            90112
 2017-02-08 06:17:54.197679+01 | 1486531074.19768 | pgbench_accounts_pkey |        673882112

 2017-02-08 06:17:55.626079+01 | 1486531075.62608 | pgbench_branches_pkey |            16384
 2017-02-08 06:17:55.626079+01 | 1486531075.62608 | pgbench_tellers_pkey  |            90112
 2017-02-08 06:17:55.626079+01 | 1486531075.62608 | pgbench_accounts_pkey |        673882112

 2017-02-08 06:17:57.032977+01 | 1486531077.03298 | pgbench_branches_pkey |            16384
 2017-02-08 06:17:57.032977+01 | 1486531077.03298 | pgbench_tellers_pkey  |            90112
 2017-02-08 06:17:57.032977+01 | 1486531077.03298 | pgbench_accounts_pkey |        673882112

 2017-02-08 06:17:58.436281+01 | 1486531078.43628 | pgbench_branches_pkey |            16384
 2017-02-08 06:17:58.436281+01 | 1486531078.43628 | pgbench_tellers_pkey  |            90112
 2017-02-08 06:17:58.436281+01 | 1486531078.43628 | pgbench_accounts_pkey |        673882112

 2017-02-08 06:17:59.796962+01 | 1486531079.79696 | pgbench_branches_pkey |            16384
 2017-02-08 06:17:59.796962+01 | 1486531079.79696 | pgbench_tellers_pkey  |            90112
 2017-02-08 06:17:59.796962+01 | 1486531079.79696 | pgbench_accounts_pkey |        673882112

 2017-02-08 06:18:01.153152+01 | 1486531081.15315 | pgbench_branches_pkey |            16384
 2017-02-08 06:18:01.153152+01 | 1486531081.15315 | pgbench_tellers_pkey  |            90112
 2017-02-08 06:18:01.153152+01 | 1486531081.15315 | pgbench_accounts_pkey |        673882112

 2017-02-08 06:18:02.522206+01 | 1486531082.52221 | pgbench_branches_pkey |            16384
 2017-02-08 06:18:02.522206+01 | 1486531082.52221 | pgbench_tellers_pkey  |            90112
 2017-02-08 06:18:02.522206+01 | 1486531082.52221 | pgbench_accounts_pkey |        673882112

 2017-02-08 06:18:03.849395+01 | 1486531083.8494 | pgbench_branches_pkey |            16384
 2017-02-08 06:18:03.849395+01 | 1486531083.8494 | pgbench_tellers_pkey  |            90112
 2017-02-08 06:18:03.849395+01 | 1486531083.8494 | pgbench_accounts_pkey |        673882112

 2017-02-08 06:18:05.247937+01 | 1486531085.24794 | pgbench_branches_pkey |            16384
 2017-02-08 06:18:05.247937+01 | 1486531085.24794 | pgbench_tellers_pkey  |            90112
 2017-02-08 06:18:05.247937+01 | 1486531085.24794 | pgbench_accounts_pkey |        673882112

 2017-02-08 06:18:06.615677+01 | 1486531086.61568 | pgbench_branches_pkey |            16384
 2017-02-08 06:18:06.615677+01 | 1486531086.61568 | pgbench_tellers_pkey  |            90112
 2017-02-08 06:18:06.615677+01 | 1486531086.61568 | pgbench_accounts_pkey |        673882112

 2017-02-08 06:18:07.99857+01 | 1486531087.99857 | pgbench_branches_pkey |            16384
 2017-02-08 06:18:07.99857+01 | 1486531087.99857 | pgbench_tellers_pkey  |            90112
 2017-02-08 06:18:07.99857+01 | 1486531087.99857 | pgbench_accounts_pkey |        673882112

 2017-02-08 06:18:09.364954+01 | 1486531089.36495 | pgbench_branches_pkey |            16384
 2017-02-08 06:18:09.364954+01 | 1486531089.36495 | pgbench_tellers_pkey  |            90112
 2017-02-08 06:18:09.364954+01 | 1486531089.36495 | pgbench_accounts_pkey |        673882112

 2017-02-08 06:18:10.700871+01 | 1486531090.70087 | pgbench_branches_pkey |            16384
 2017-02-08 06:18:10.700871+01 | 1486531090.70087 | pgbench_tellers_pkey  |            90112
 2017-02-08 06:18:10.700871+01 | 1486531090.70087 | pgbench_accounts_pkey |        673882112

 2017-02-08 06:18:12.106197+01 | 1486531092.1062 | pgbench_branches_pkey |            16384
 2017-02-08 06:18:12.106197+01 | 1486531092.1062 | pgbench_tellers_pkey  |            90112
 2017-02-08 06:18:12.106197+01 | 1486531092.1062 | pgbench_accounts_pkey |        673882112

 2017-02-08 06:18:13.497733+01 | 1486531093.49773 | pgbench_branches_pkey |            16384
 2017-02-08 06:18:13.497733+01 | 1486531093.49773 | pgbench_tellers_pkey  |            90112
 2017-02-08 06:18:13.497733+01 | 1486531093.49773 | pgbench_accounts_pkey |        673882112

 2017-02-08 06:18:14.849149+01 | 1486531094.84915 | pgbench_branches_pkey |            16384
 2017-02-08 06:18:14.849149+01 | 1486531094.84915 | pgbench_tellers_pkey  |            90112
 2017-02-08 06:18:14.849149+01 | 1486531094.84915 | pgbench_accounts_pkey |        673882112

 2017-02-08 06:18:16.188461+01 | 1486531096.18846 | pgbench_branches_pkey |            16384
 2017-02-08 06:18:16.188461+01 | 1486531096.18846 | pgbench_tellers_pkey  |            90112
 2017-02-08 06:18:16.188461+01 | 1486531096.18846 | pgbench_accounts_pkey |        673882112

 2017-02-08 06:18:17.52629+01 | 1486531097.52629 | pgbench_branches_pkey |            16384
 2017-02-08 06:18:17.52629+01 | 1486531097.52629 | pgbench_tellers_pkey  |            90112
 2017-02-08 06:18:17.52629+01 | 1486531097.52629 | pgbench_accounts_pkey |        673882112

 2017-02-08 06:18:18.871756+01 | 1486531098.87176 | pgbench_branches_pkey |            16384
 2017-02-08 06:18:18.871756+01 | 1486531098.87176 | pgbench_tellers_pkey  |            90112
 2017-02-08 06:18:18.871756+01 | 1486531098.87176 | pgbench_accounts_pkey |        673882112

 2017-02-08 06:18:20.250181+01 | 1486531100.25018 | pgbench_branches_pkey |            16384
 2017-02-08 06:18:20.250181+01 | 1486531100.25018 | pgbench_tellers_pkey  |            90112
 2017-02-08 06:18:20.250181+01 | 1486531100.25018 | pgbench_accounts_pkey |        673882112

 2017-02-08 06:18:21.640973+01 | 1486531101.64097 | pgbench_branches_pkey |            16384
 2017-02-08 06:18:21.640973+01 | 1486531101.64097 | pgbench_tellers_pkey  |            90112
 2017-02-08 06:18:21.640973+01 | 1486531101.64097 | pgbench_accounts_pkey |        673882112

 2017-02-08 06:18:22.985962+01 | 1486531102.98596 | pgbench_branches_pkey |            16384
 2017-02-08 06:18:22.985962+01 | 1486531102.98596 | pgbench_tellers_pkey  |            90112
 2017-02-08 06:18:22.985962+01 | 1486531102.98596 | pgbench_accounts_pkey |        673882112

 2017-02-08 06:18:24.393433+01 | 1486531104.39343 | pgbench_branches_pkey |            16384
 2017-02-08 06:18:24.393433+01 | 1486531104.39343 | pgbench_tellers_pkey  |            90112
 2017-02-08 06:18:24.393433+01 | 1486531104.39343 | pgbench_accounts_pkey |        673882112

 2017-02-08 06:18:25.76523+01 | 1486531105.76523 | pgbench_branches_pkey |            16384
 2017-02-08 06:18:25.76523+01 | 1486531105.76523 | pgbench_tellers_pkey  |            90112
 2017-02-08 06:18:25.76523+01 | 1486531105.76523 | pgbench_accounts_pkey |        673882112

 2017-02-08 06:18:27.121872+01 | 1486531107.12187 | pgbench_branches_pkey |            16384
 2017-02-08 06:18:27.121872+01 | 1486531107.12187 | pgbench_tellers_pkey  |            90112
 2017-02-08 06:18:27.121872+01 | 1486531107.12187 | pgbench_accounts_pkey |        673882112

 2017-02-08 06:18:28.483126+01 | 1486531108.48313 | pgbench_branches_pkey |            16384
 2017-02-08 06:18:28.483126+01 | 1486531108.48313 | pgbench_tellers_pkey  |            90112
 2017-02-08 06:18:28.483126+01 | 1486531108.48313 | pgbench_accounts_pkey |        673882112

 2017-02-08 06:18:29.866276+01 | 1486531109.86628 | pgbench_branches_pkey |            16384
 2017-02-08 06:18:29.866276+01 | 1486531109.86628 | pgbench_tellers_pkey  |            90112
 2017-02-08 06:18:29.866276+01 | 1486531109.86628 | pgbench_accounts_pkey |        673882112

 2017-02-08 06:18:31.258096+01 | 1486531111.2581 | pgbench_branches_pkey |            16384
 2017-02-08 06:18:31.258096+01 | 1486531111.2581 | pgbench_tellers_pkey  |            90112
 2017-02-08 06:18:31.258096+01 | 1486531111.2581 | pgbench_accounts_pkey |        673882112

 2017-02-08 06:18:32.651837+01 | 1486531112.65184 | pgbench_branches_pkey |            16384
 2017-02-08 06:18:32.651837+01 | 1486531112.65184 | pgbench_tellers_pkey  |            90112
 2017-02-08 06:18:32.651837+01 | 1486531112.65184 | pgbench_accounts_pkey |        673882112

 2017-02-08 06:18:34.043673+01 | 1486531114.04367 | pgbench_branches_pkey |            16384
 2017-02-08 06:18:34.043673+01 | 1486531114.04367 | pgbench_tellers_pkey  |            90112
 2017-02-08 06:18:34.043673+01 | 1486531114.04367 | pgbench_accounts_pkey |        673882112

 2017-02-08 06:18:35.448944+01 | 1486531115.44894 | pgbench_branches_pkey |            16384
 2017-02-08 06:18:35.448944+01 | 1486531115.44894 | pgbench_tellers_pkey  |            90112
 2017-02-08 06:18:35.448944+01 | 1486531115.44894 | pgbench_accounts_pkey |        673882112

 2017-02-08 06:18:36.789045+01 | 1486531116.78905 | pgbench_branches_pkey |            16384
 2017-02-08 06:18:36.789045+01 | 1486531116.78905 | pgbench_tellers_pkey  |            90112
 2017-02-08 06:18:36.789045+01 | 1486531116.78905 | pgbench_accounts_pkey |        673882112

 2017-02-08 06:18:38.210349+01 | 1486531118.21035 | pgbench_branches_pkey |            16384
 2017-02-08 06:18:38.210349+01 | 1486531118.21035 | pgbench_tellers_pkey  |            90112
 2017-02-08 06:18:38.210349+01 | 1486531118.21035 | pgbench_accounts_pkey |        673882112

 2017-02-08 06:18:39.611864+01 | 1486531119.61186 | pgbench_branches_pkey |            16384
 2017-02-08 06:18:39.611864+01 | 1486531119.61186 | pgbench_tellers_pkey  |            90112
 2017-02-08 06:18:39.611864+01 | 1486531119.61186 | pgbench_accounts_pkey |        673882112

 2017-02-08 06:18:40.940229+01 | 1486531120.94023 | pgbench_branches_pkey |            16384
 2017-02-08 06:18:40.940229+01 | 1486531120.94023 | pgbench_tellers_pkey  |            90112
 2017-02-08 06:18:40.940229+01 | 1486531120.94023 | pgbench_accounts_pkey |        673882112

 2017-02-08 06:18:42.266401+01 | 1486531122.2664 | pgbench_branches_pkey |            16384
 2017-02-08 06:18:42.266401+01 | 1486531122.2664 | pgbench_tellers_pkey  |            90112
 2017-02-08 06:18:42.266401+01 | 1486531122.2664 | pgbench_accounts_pkey |        673882112

 2017-02-08 06:18:43.641117+01 | 1486531123.64112 | pgbench_branches_pkey |            16384
 2017-02-08 06:18:43.641117+01 | 1486531123.64112 | pgbench_tellers_pkey  |            90112
 2017-02-08 06:18:43.641117+01 | 1486531123.64112 | pgbench_accounts_pkey |        673882112

 2017-02-08 06:18:44.958678+01 | 1486531124.95868 | pgbench_branches_pkey |            16384
 2017-02-08 06:18:44.958678+01 | 1486531124.95868 | pgbench_tellers_pkey  |            90112
 2017-02-08 06:18:44.958678+01 | 1486531124.95868 | pgbench_accounts_pkey |        673882112

 2017-02-08 06:18:46.298806+01 | 1486531126.29881 | pgbench_branches_pkey |            16384
 2017-02-08 06:18:46.298806+01 | 1486531126.29881 | pgbench_tellers_pkey  |            90112
 2017-02-08 06:18:46.298806+01 | 1486531126.29881 | pgbench_accounts_pkey |        673882112

 2017-02-08 06:18:47.61579+01 | 1486531127.61579 | pgbench_branches_pkey |            16384
 2017-02-08 06:18:47.61579+01 | 1486531127.61579 | pgbench_tellers_pkey  |            90112
 2017-02-08 06:18:47.61579+01 | 1486531127.61579 | pgbench_accounts_pkey |        673882112

 2017-02-08 06:18:48.93474+01 | 1486531128.93474 | pgbench_branches_pkey |            16384
 2017-02-08 06:18:48.93474+01 | 1486531128.93474 | pgbench_tellers_pkey  |            90112
 2017-02-08 06:18:48.93474+01 | 1486531128.93474 | pgbench_accounts_pkey |        673882112

 2017-02-08 06:18:50.297162+01 | 1486531130.29716 | pgbench_branches_pkey |            16384
 2017-02-08 06:18:50.297162+01 | 1486531130.29716 | pgbench_tellers_pkey  |            90112
 2017-02-08 06:18:50.297162+01 | 1486531130.29716 | pgbench_accounts_pkey |        673882112

 2017-02-08 06:18:51.663127+01 | 1486531131.66313 | pgbench_branches_pkey |            16384
 2017-02-08 06:18:51.663127+01 | 1486531131.66313 | pgbench_tellers_pkey  |            90112
 2017-02-08 06:18:51.663127+01 | 1486531131.66313 | pgbench_accounts_pkey |        673882112

 2017-02-08 06:18:52.988205+01 | 1486531132.9882 | pgbench_branches_pkey |            16384
 2017-02-08 06:18:52.988205+01 | 1486531132.9882 | pgbench_tellers_pkey  |            90112
 2017-02-08 06:18:52.988205+01 | 1486531132.9882 | pgbench_accounts_pkey |        673882112

 2017-02-08 06:18:54.394641+01 | 1486531134.39464 | pgbench_branches_pkey |            16384
 2017-02-08 06:18:54.394641+01 | 1486531134.39464 | pgbench_tellers_pkey  |            90112
 2017-02-08 06:18:54.394641+01 | 1486531134.39464 | pgbench_accounts_pkey |        673882112

 2017-02-08 06:18:55.678356+01 | 1486531135.67836 | pgbench_branches_pkey |            16384
 2017-02-08 06:18:55.678356+01 | 1486531135.67836 | pgbench_tellers_pkey  |            90112
 2017-02-08 06:18:55.678356+01 | 1486531135.67836 | pgbench_accounts_pkey |        673882112

 2017-02-08 06:18:57.019253+01 | 1486531137.01925 | pgbench_branches_pkey |            16384
 2017-02-08 06:18:57.019253+01 | 1486531137.01925 | pgbench_tellers_pkey  |            90112
 2017-02-08 06:18:57.019253+01 | 1486531137.01925 | pgbench_accounts_pkey |        673882112

 2017-02-08 06:18:58.359862+01 | 1486531138.35986 | pgbench_branches_pkey |            16384
 2017-02-08 06:18:58.359862+01 | 1486531138.35986 | pgbench_tellers_pkey  |            90112
 2017-02-08 06:18:58.359862+01 | 1486531138.35986 | pgbench_accounts_pkey |        673882112

 2017-02-08 06:18:59.712436+01 | 1486531139.71244 | pgbench_branches_pkey |            16384
 2017-02-08 06:18:59.712436+01 | 1486531139.71244 | pgbench_tellers_pkey  |            90112
 2017-02-08 06:18:59.712436+01 | 1486531139.71244 | pgbench_accounts_pkey |        673882112

 2017-02-08 06:19:01.102519+01 | 1486531141.10252 | pgbench_branches_pkey |            16384
 2017-02-08 06:19:01.102519+01 | 1486531141.10252 | pgbench_tellers_pkey  |            90112
 2017-02-08 06:19:01.102519+01 | 1486531141.10252 | pgbench_accounts_pkey |        673882112

 2017-02-08 06:19:02.492918+01 | 1486531142.49292 | pgbench_branches_pkey |            16384
 2017-02-08 06:19:02.492918+01 | 1486531142.49292 | pgbench_tellers_pkey  |            90112
 2017-02-08 06:19:02.492918+01 | 1486531142.49292 | pgbench_accounts_pkey |        673882112

 2017-02-08 06:19:03.788297+01 | 1486531143.7883 | pgbench_branches_pkey |            16384
 2017-02-08 06:19:03.788297+01 | 1486531143.7883 | pgbench_tellers_pkey  |            90112
 2017-02-08 06:19:03.788297+01 | 1486531143.7883 | pgbench_accounts_pkey |        673882112

 2017-02-08 06:19:05.2118+01 | 1486531145.2118 | pgbench_branches_pkey |            16384
 2017-02-08 06:19:05.2118+01 | 1486531145.2118 | pgbench_tellers_pkey  |            90112
 2017-02-08 06:19:05.2118+01 | 1486531145.2118 | pgbench_accounts_pkey |        673882112

 2017-02-08 06:19:06.556176+01 | 1486531146.55618 | pgbench_branches_pkey |            16384
 2017-02-08 06:19:06.556176+01 | 1486531146.55618 | pgbench_tellers_pkey  |            90112
 2017-02-08 06:19:06.556176+01 | 1486531146.55618 | pgbench_accounts_pkey |        673882112

 2017-02-08 06:19:07.922971+01 | 1486531147.92297 | pgbench_branches_pkey |            16384
 2017-02-08 06:19:07.922971+01 | 1486531147.92297 | pgbench_tellers_pkey  |            90112
 2017-02-08 06:19:07.922971+01 | 1486531147.92297 | pgbench_accounts_pkey |        673882112

 2017-02-08 06:19:09.27129+01 | 1486531149.27129 | pgbench_branches_pkey |            16384
 2017-02-08 06:19:09.27129+01 | 1486531149.27129 | pgbench_tellers_pkey  |            90112
 2017-02-08 06:19:09.27129+01 | 1486531149.27129 | pgbench_accounts_pkey |        673882112

 2017-02-08 06:19:10.666499+01 | 1486531150.6665 | pgbench_branches_pkey |            16384
 2017-02-08 06:19:10.666499+01 | 1486531150.6665 | pgbench_tellers_pkey  |            90112
 2017-02-08 06:19:10.666499+01 | 1486531150.6665 | pgbench_accounts_pkey |        673882112

 2017-02-08 06:19:12.035529+01 | 1486531152.03553 | pgbench_branches_pkey |            16384
 2017-02-08 06:19:12.035529+01 | 1486531152.03553 | pgbench_tellers_pkey  |            90112
 2017-02-08 06:19:12.035529+01 | 1486531152.03553 | pgbench_accounts_pkey |        673882112

 2017-02-08 06:19:13.364051+01 | 1486531153.36405 | pgbench_branches_pkey |            16384
 2017-02-08 06:19:13.364051+01 | 1486531153.36405 | pgbench_tellers_pkey  |            90112
 2017-02-08 06:19:13.364051+01 | 1486531153.36405 | pgbench_accounts_pkey |        673882112

 2017-02-08 06:19:14.723513+01 | 1486531154.72351 | pgbench_branches_pkey |            16384
 2017-02-08 06:19:14.723513+01 | 1486531154.72351 | pgbench_tellers_pkey  |            90112
 2017-02-08 06:19:14.723513+01 | 1486531154.72351 | pgbench_accounts_pkey |        673882112

 2017-02-08 06:19:16.073851+01 | 1486531156.07385 | pgbench_branches_pkey |            16384
 2017-02-08 06:19:16.073851+01 | 1486531156.07385 | pgbench_tellers_pkey  |            90112
 2017-02-08 06:19:16.073851+01 | 1486531156.07385 | pgbench_accounts_pkey |        673882112

 2017-02-08 06:19:17.402639+01 | 1486531157.40264 | pgbench_branches_pkey |            16384
 2017-02-08 06:19:17.402639+01 | 1486531157.40264 | pgbench_tellers_pkey  |            90112
 2017-02-08 06:19:17.402639+01 | 1486531157.40264 | pgbench_accounts_pkey |        673882112

 2017-02-08 06:19:18.753588+01 | 1486531158.75359 | pgbench_branches_pkey |            16384
 2017-02-08 06:19:18.753588+01 | 1486531158.75359 | pgbench_tellers_pkey  |            90112
 2017-02-08 06:19:18.753588+01 | 1486531158.75359 | pgbench_accounts_pkey |        673882112

 2017-02-08 06:19:20.163025+01 | 1486531160.16302 | pgbench_branches_pkey |            16384
 2017-02-08 06:19:20.163025+01 | 1486531160.16302 | pgbench_tellers_pkey  |            90112
 2017-02-08 06:19:20.163025+01 | 1486531160.16302 | pgbench_accounts_pkey |        673882112

 2017-02-08 06:19:21.489529+01 | 1486531161.48953 | pgbench_branches_pkey |            16384
 2017-02-08 06:19:21.489529+01 | 1486531161.48953 | pgbench_tellers_pkey  |            90112
 2017-02-08 06:19:21.489529+01 | 1486531161.48953 | pgbench_accounts_pkey |        673882112

 2017-02-08 06:19:22.844349+01 | 1486531162.84435 | pgbench_branches_pkey |            16384
 2017-02-08 06:19:22.844349+01 | 1486531162.84435 | pgbench_tellers_pkey  |            90112
 2017-02-08 06:19:22.844349+01 | 1486531162.84435 | pgbench_accounts_pkey |        673882112

 2017-02-08 06:19:24.181925+01 | 1486531164.18193 | pgbench_branches_pkey |            16384
 2017-02-08 06:19:24.181925+01 | 1486531164.18193 | pgbench_tellers_pkey  |            90112
 2017-02-08 06:19:24.181925+01 | 1486531164.18193 | pgbench_accounts_pkey |        673882112

 2017-02-08 06:19:25.547297+01 | 1486531165.5473 | pgbench_branches_pkey |            16384
 2017-02-08 06:19:25.547297+01 | 1486531165.5473 | pgbench_tellers_pkey  |            90112
 2017-02-08 06:19:25.547297+01 | 1486531165.5473 | pgbench_accounts_pkey |        673882112

 2017-02-08 06:19:26.917877+01 | 1486531166.91788 | pgbench_branches_pkey |            16384
 2017-02-08 06:19:26.917877+01 | 1486531166.91788 | pgbench_tellers_pkey  |            90112
 2017-02-08 06:19:26.917877+01 | 1486531166.91788 | pgbench_accounts_pkey |        673882112

 2017-02-08 06:19:28.246372+01 | 1486531168.24637 | pgbench_branches_pkey |            16384
 2017-02-08 06:19:28.246372+01 | 1486531168.24637 | pgbench_tellers_pkey  |            90112
 2017-02-08 06:19:28.246372+01 | 1486531168.24637 | pgbench_accounts_pkey |        673882112

 2017-02-08 06:19:29.60881+01 | 1486531169.60881 | pgbench_branches_pkey |            16384
 2017-02-08 06:19:29.60881+01 | 1486531169.60881 | pgbench_tellers_pkey  |            90112
 2017-02-08 06:19:29.60881+01 | 1486531169.60881 | pgbench_accounts_pkey |        673882112

 2017-02-08 06:19:30.961607+01 | 1486531170.96161 | pgbench_branches_pkey |            16384
 2017-02-08 06:19:30.961607+01 | 1486531170.96161 | pgbench_tellers_pkey  |            90112
 2017-02-08 06:19:30.961607+01 | 1486531170.96161 | pgbench_accounts_pkey |        673882112

 2017-02-08 06:19:32.337313+01 | 1486531172.33731 | pgbench_branches_pkey |            16384
 2017-02-08 06:19:32.337313+01 | 1486531172.33731 | pgbench_tellers_pkey  |            90112
 2017-02-08 06:19:32.337313+01 | 1486531172.33731 | pgbench_accounts_pkey |        673882112

 2017-02-08 06:19:33.752902+01 | 1486531173.7529 | pgbench_branches_pkey |            16384
 2017-02-08 06:19:33.752902+01 | 1486531173.7529 | pgbench_tellers_pkey  |            90112
 2017-02-08 06:19:33.752902+01 | 1486531173.7529 | pgbench_accounts_pkey |        673882112

 2017-02-08 06:19:35.144741+01 | 1486531175.14474 | pgbench_branches_pkey |            16384
 2017-02-08 06:19:35.144741+01 | 1486531175.14474 | pgbench_tellers_pkey  |            90112
 2017-02-08 06:19:35.144741+01 | 1486531175.14474 | pgbench_accounts_pkey |        673882112

 2017-02-08 06:19:36.562525+01 | 1486531176.56253 | pgbench_branches_pkey |            16384
 2017-02-08 06:19:36.562525+01 | 1486531176.56253 | pgbench_tellers_pkey  |            90112
 2017-02-08 06:19:36.562525+01 | 1486531176.56253 | pgbench_accounts_pkey |        673882112

 2017-02-08 06:19:37.976712+01 | 1486531177.97671 | pgbench_branches_pkey |            16384
 2017-02-08 06:19:37.976712+01 | 1486531177.97671 | pgbench_tellers_pkey  |            90112
 2017-02-08 06:19:37.976712+01 | 1486531177.97671 | pgbench_accounts_pkey |        673882112

 2017-02-08 06:19:39.367738+01 | 1486531179.36774 | pgbench_branches_pkey |            16384
 2017-02-08 06:19:39.367738+01 | 1486531179.36774 | pgbench_tellers_pkey  |            90112
 2017-02-08 06:19:39.367738+01 | 1486531179.36774 | pgbench_accounts_pkey |        673882112

 2017-02-08 06:19:40.744671+01 | 1486531180.74467 | pgbench_branches_pkey |            16384
 2017-02-08 06:19:40.744671+01 | 1486531180.74467 | pgbench_tellers_pkey  |            90112
 2017-02-08 06:19:40.744671+01 | 1486531180.74467 | pgbench_accounts_pkey |        673882112

 2017-02-08 06:19:42.119057+01 | 1486531182.11906 | pgbench_branches_pkey |            16384
 2017-02-08 06:19:42.119057+01 | 1486531182.11906 | pgbench_tellers_pkey  |            90112
 2017-02-08 06:19:42.119057+01 | 1486531182.11906 | pgbench_accounts_pkey |        673882112

 2017-02-08 06:19:43.509425+01 | 1486531183.50942 | pgbench_branches_pkey |            16384
 2017-02-08 06:19:43.509425+01 | 1486531183.50942 | pgbench_tellers_pkey  |            90112
 2017-02-08 06:19:43.509425+01 | 1486531183.50942 | pgbench_accounts_pkey |        673882112

 2017-02-08 06:19:44.888+01 | 1486531184.888 | pgbench_branches_pkey |            16384
 2017-02-08 06:19:44.888+01 | 1486531184.888 | pgbench_tellers_pkey  |            90112
 2017-02-08 06:19:44.888+01 | 1486531184.888 | pgbench_accounts_pkey |        673882112

 2017-02-08 06:19:46.264395+01 | 1486531186.26439 | pgbench_branches_pkey |            16384
 2017-02-08 06:19:46.264395+01 | 1486531186.26439 | pgbench_tellers_pkey  |            90112
 2017-02-08 06:19:46.264395+01 | 1486531186.26439 | pgbench_accounts_pkey |        673882112

 2017-02-08 06:19:47.5861+01 | 1486531187.5861 | pgbench_branches_pkey |            16384
 2017-02-08 06:19:47.5861+01 | 1486531187.5861 | pgbench_tellers_pkey  |            90112
 2017-02-08 06:19:47.5861+01 | 1486531187.5861 | pgbench_accounts_pkey |        673882112

 2017-02-08 06:19:48.978007+01 | 1486531188.97801 | pgbench_branches_pkey |            16384
 2017-02-08 06:19:48.978007+01 | 1486531188.97801 | pgbench_tellers_pkey  |            90112
 2017-02-08 06:19:48.978007+01 | 1486531188.97801 | pgbench_accounts_pkey |        673882112

 2017-02-08 06:19:50.349513+01 | 1486531190.34951 | pgbench_branches_pkey |            16384
 2017-02-08 06:19:50.349513+01 | 1486531190.34951 | pgbench_tellers_pkey  |            90112
 2017-02-08 06:19:50.349513+01 | 1486531190.34951 | pgbench_accounts_pkey |        673882112

 2017-02-08 06:19:51.729769+01 | 1486531191.72977 | pgbench_branches_pkey |            16384
 2017-02-08 06:19:51.729769+01 | 1486531191.72977 | pgbench_tellers_pkey  |            90112
 2017-02-08 06:19:51.729769+01 | 1486531191.72977 | pgbench_accounts_pkey |        673882112

 2017-02-08 06:19:53.097351+01 | 1486531193.09735 | pgbench_branches_pkey |            16384
 2017-02-08 06:19:53.097351+01 | 1486531193.09735 | pgbench_tellers_pkey  |            90112
 2017-02-08 06:19:53.097351+01 | 1486531193.09735 | pgbench_accounts_pkey |        673882112

 2017-02-08 06:19:54.473884+01 | 1486531194.47388 | pgbench_branches_pkey |            16384
 2017-02-08 06:19:54.473884+01 | 1486531194.47388 | pgbench_tellers_pkey  |            90112
 2017-02-08 06:19:54.473884+01 | 1486531194.47388 | pgbench_accounts_pkey |        673882112

 2017-02-08 06:19:55.768984+01 | 1486531195.76898 | pgbench_branches_pkey |            16384
 2017-02-08 06:19:55.768984+01 | 1486531195.76898 | pgbench_tellers_pkey  |            90112
 2017-02-08 06:19:55.768984+01 | 1486531195.76898 | pgbench_accounts_pkey |        673882112

 2017-02-08 06:19:57.158882+01 | 1486531197.15888 | pgbench_branches_pkey |            16384
 2017-02-08 06:19:57.158882+01 | 1486531197.15888 | pgbench_tellers_pkey  |            90112
 2017-02-08 06:19:57.158882+01 | 1486531197.15888 | pgbench_accounts_pkey |        673882112

 2017-02-08 06:19:58.512072+01 | 1486531198.51207 | pgbench_branches_pkey |            16384
 2017-02-08 06:19:58.512072+01 | 1486531198.51207 | pgbench_tellers_pkey  |            90112
 2017-02-08 06:19:58.512072+01 | 1486531198.51207 | pgbench_accounts_pkey |        673882112

 2017-02-08 06:19:59.851833+01 | 1486531199.85183 | pgbench_branches_pkey |            16384
 2017-02-08 06:19:59.851833+01 | 1486531199.85183 | pgbench_tellers_pkey  |            90112
 2017-02-08 06:19:59.851833+01 | 1486531199.85183 | pgbench_accounts_pkey |        673882112

 2017-02-08 06:20:01.190724+01 | 1486531201.19072 | pgbench_branches_pkey |            16384
 2017-02-08 06:20:01.190724+01 | 1486531201.19072 | pgbench_tellers_pkey  |            90112
 2017-02-08 06:20:01.190724+01 | 1486531201.19072 | pgbench_accounts_pkey |        673882112

 2017-02-08 06:20:02.53861+01 | 1486531202.53861 | pgbench_branches_pkey |            16384
 2017-02-08 06:20:02.53861+01 | 1486531202.53861 | pgbench_tellers_pkey  |            90112
 2017-02-08 06:20:02.53861+01 | 1486531202.53861 | pgbench_accounts_pkey |        673882112

 2017-02-08 06:20:03.908304+01 | 1486531203.9083 | pgbench_branches_pkey |            16384
 2017-02-08 06:20:03.908304+01 | 1486531203.9083 | pgbench_tellers_pkey  |            90112
 2017-02-08 06:20:03.908304+01 | 1486531203.9083 | pgbench_accounts_pkey |        673882112

 2017-02-08 06:20:05.294341+01 | 1486531205.29434 | pgbench_branches_pkey |            16384
 2017-02-08 06:20:05.294341+01 | 1486531205.29434 | pgbench_tellers_pkey  |            90112
 2017-02-08 06:20:05.294341+01 | 1486531205.29434 | pgbench_accounts_pkey |        673882112

 2017-02-08 06:20:06.623563+01 | 1486531206.62356 | pgbench_branches_pkey |            16384
 2017-02-08 06:20:06.623563+01 | 1486531206.62356 | pgbench_tellers_pkey  |            90112
 2017-02-08 06:20:06.623563+01 | 1486531206.62356 | pgbench_accounts_pkey |        673882112

 2017-02-08 06:20:07.976889+01 | 1486531207.97689 | pgbench_branches_pkey |            16384
 2017-02-08 06:20:07.976889+01 | 1486531207.97689 | pgbench_tellers_pkey  |            90112
 2017-02-08 06:20:07.976889+01 | 1486531207.97689 | pgbench_accounts_pkey |        673882112

 2017-02-08 06:20:09.312975+01 | 1486531209.31297 | pgbench_branches_pkey |            16384
 2017-02-08 06:20:09.312975+01 | 1486531209.31297 | pgbench_tellers_pkey  |            90112
 2017-02-08 06:20:09.312975+01 | 1486531209.31297 | pgbench_accounts_pkey |        673882112

 2017-02-08 06:20:10.612565+01 | 1486531210.61257 | pgbench_branches_pkey |            16384
 2017-02-08 06:20:10.612565+01 | 1486531210.61257 | pgbench_tellers_pkey  |            90112
 2017-02-08 06:20:10.612565+01 | 1486531210.61257 | pgbench_accounts_pkey |        673882112

 2017-02-08 06:20:11.945123+01 | 1486531211.94512 | pgbench_branches_pkey |            16384
 2017-02-08 06:20:11.945123+01 | 1486531211.94512 | pgbench_tellers_pkey  |            90112
 2017-02-08 06:20:11.945123+01 | 1486531211.94512 | pgbench_accounts_pkey |        673882112

 2017-02-08 06:20:13.302386+01 | 1486531213.30239 | pgbench_branches_pkey |            16384
 2017-02-08 06:20:13.302386+01 | 1486531213.30239 | pgbench_tellers_pkey  |            90112
 2017-02-08 06:20:13.302386+01 | 1486531213.30239 | pgbench_accounts_pkey |        673882112

 2017-02-08 06:20:14.695215+01 | 1486531214.69521 | pgbench_branches_pkey |            16384
 2017-02-08 06:20:14.695215+01 | 1486531214.69521 | pgbench_tellers_pkey  |            90112
 2017-02-08 06:20:14.695215+01 | 1486531214.69521 | pgbench_accounts_pkey |        673882112

 2017-02-08 06:20:16.07327+01 | 1486531216.07327 | pgbench_branches_pkey |            16384
 2017-02-08 06:20:16.07327+01 | 1486531216.07327 | pgbench_tellers_pkey  |            90112
 2017-02-08 06:20:16.07327+01 | 1486531216.07327 | pgbench_accounts_pkey |        673882112

 2017-02-08 06:20:17.433724+01 | 1486531217.43372 | pgbench_branches_pkey |            16384
 2017-02-08 06:20:17.433724+01 | 1486531217.43372 | pgbench_tellers_pkey  |            90112
 2017-02-08 06:20:17.433724+01 | 1486531217.43372 | pgbench_accounts_pkey |        673882112

 2017-02-08 06:20:18.825174+01 | 1486531218.82517 | pgbench_branches_pkey |            16384
 2017-02-08 06:20:18.825174+01 | 1486531218.82517 | pgbench_tellers_pkey  |            90112
 2017-02-08 06:20:18.825174+01 | 1486531218.82517 | pgbench_accounts_pkey |        673882112

 2017-02-08 06:20:20.222352+01 | 1486531220.22235 | pgbench_branches_pkey |            16384
 2017-02-08 06:20:20.222352+01 | 1486531220.22235 | pgbench_tellers_pkey  |            90112
 2017-02-08 06:20:20.222352+01 | 1486531220.22235 | pgbench_accounts_pkey |        673882112

 2017-02-08 06:20:21.549372+01 | 1486531221.54937 | pgbench_branches_pkey |            16384
 2017-02-08 06:20:21.549372+01 | 1486531221.54937 | pgbench_tellers_pkey  |            90112
 2017-02-08 06:20:21.549372+01 | 1486531221.54937 | pgbench_accounts_pkey |        673882112

 2017-02-08 06:20:22.906019+01 | 1486531222.90602 | pgbench_branches_pkey |            16384
 2017-02-08 06:20:22.906019+01 | 1486531222.90602 | pgbench_tellers_pkey  |            90112
 2017-02-08 06:20:22.906019+01 | 1486531222.90602 | pgbench_accounts_pkey |        673882112

 2017-02-08 06:20:24.300594+01 | 1486531224.30059 | pgbench_branches_pkey |            16384
 2017-02-08 06:20:24.300594+01 | 1486531224.30059 | pgbench_tellers_pkey  |            90112
 2017-02-08 06:20:24.300594+01 | 1486531224.30059 | pgbench_accounts_pkey |        673882112

 2017-02-08 06:20:25.64061+01 | 1486531225.64061 | pgbench_branches_pkey |            16384
 2017-02-08 06:20:25.64061+01 | 1486531225.64061 | pgbench_tellers_pkey  |            90112
 2017-02-08 06:20:25.64061+01 | 1486531225.64061 | pgbench_accounts_pkey |        673882112

 2017-02-08 06:20:27.034804+01 | 1486531227.0348 | pgbench_branches_pkey |            16384
 2017-02-08 06:20:27.034804+01 | 1486531227.0348 | pgbench_tellers_pkey  |            90112
 2017-02-08 06:20:27.034804+01 | 1486531227.0348 | pgbench_accounts_pkey |        673882112

 2017-02-08 06:20:28.413524+01 | 1486531228.41352 | pgbench_branches_pkey |            16384
 2017-02-08 06:20:28.413524+01 | 1486531228.41352 | pgbench_tellers_pkey  |            90112
 2017-02-08 06:20:28.413524+01 | 1486531228.41352 | pgbench_accounts_pkey |        673882112

 2017-02-08 06:20:29.787993+01 | 1486531229.78799 | pgbench_branches_pkey |            16384
 2017-02-08 06:20:29.787993+01 | 1486531229.78799 | pgbench_tellers_pkey  |            90112
 2017-02-08 06:20:29.787993+01 | 1486531229.78799 | pgbench_accounts_pkey |        673882112

 2017-02-08 06:20:31.136858+01 | 1486531231.13686 | pgbench_branches_pkey |            16384
 2017-02-08 06:20:31.136858+01 | 1486531231.13686 | pgbench_tellers_pkey  |            90112
 2017-02-08 06:20:31.136858+01 | 1486531231.13686 | pgbench_accounts_pkey |        673882112

 2017-02-08 06:20:32.51449+01 | 1486531232.51449 | pgbench_branches_pkey |            16384
 2017-02-08 06:20:32.51449+01 | 1486531232.51449 | pgbench_tellers_pkey  |            90112
 2017-02-08 06:20:32.51449+01 | 1486531232.51449 | pgbench_accounts_pkey |        673882112

 2017-02-08 06:20:33.772373+01 | 1486531233.77237 | pgbench_branches_pkey |            16384
 2017-02-08 06:20:33.772373+01 | 1486531233.77237 | pgbench_tellers_pkey  |            90112
 2017-02-08 06:20:33.772373+01 | 1486531233.77237 | pgbench_accounts_pkey |        673882112

 2017-02-08 06:20:35.141513+01 | 1486531235.14151 | pgbench_branches_pkey |            16384
 2017-02-08 06:20:35.141513+01 | 1486531235.14151 | pgbench_tellers_pkey  |            90112
 2017-02-08 06:20:35.141513+01 | 1486531235.14151 | pgbench_accounts_pkey |        673882112

 2017-02-08 06:20:36.447226+01 | 1486531236.44723 | pgbench_branches_pkey |            16384
 2017-02-08 06:20:36.447226+01 | 1486531236.44723 | pgbench_tellers_pkey  |            90112
 2017-02-08 06:20:36.447226+01 | 1486531236.44723 | pgbench_accounts_pkey |        673882112

 2017-02-08 06:20:37.756941+01 | 1486531237.75694 | pgbench_branches_pkey |            16384
 2017-02-08 06:20:37.756941+01 | 1486531237.75694 | pgbench_tellers_pkey  |            90112
 2017-02-08 06:20:37.756941+01 | 1486531237.75694 | pgbench_accounts_pkey |        673882112

 2017-02-08 06:20:39.117013+01 | 1486531239.11701 | pgbench_branches_pkey |            16384
 2017-02-08 06:20:39.117013+01 | 1486531239.11701 | pgbench_tellers_pkey  |            90112
 2017-02-08 06:20:39.117013+01 | 1486531239.11701 | pgbench_accounts_pkey |        673882112

 2017-02-08 06:20:40.443309+01 | 1486531240.44331 | pgbench_branches_pkey |            16384
 2017-02-08 06:20:40.443309+01 | 1486531240.44331 | pgbench_tellers_pkey  |            90112
 2017-02-08 06:20:40.443309+01 | 1486531240.44331 | pgbench_accounts_pkey |        673882112

 2017-02-08 06:20:41.816076+01 | 1486531241.81608 | pgbench_branches_pkey |            16384
 2017-02-08 06:20:41.816076+01 | 1486531241.81608 | pgbench_tellers_pkey  |            90112
 2017-02-08 06:20:41.816076+01 | 1486531241.81608 | pgbench_accounts_pkey |        673882112

 2017-02-08 06:20:43.178529+01 | 1486531243.17853 | pgbench_branches_pkey |            16384
 2017-02-08 06:20:43.178529+01 | 1486531243.17853 | pgbench_tellers_pkey  |            90112
 2017-02-08 06:20:43.178529+01 | 1486531243.17853 | pgbench_accounts_pkey |        673882112

 2017-02-08 06:20:44.559317+01 | 1486531244.55932 | pgbench_branches_pkey |            16384
 2017-02-08 06:20:44.559317+01 | 1486531244.55932 | pgbench_tellers_pkey  |            90112
 2017-02-08 06:20:44.559317+01 | 1486531244.55932 | pgbench_accounts_pkey |        673882112

 2017-02-08 06:20:45.953196+01 | 1486531245.9532 | pgbench_branches_pkey |            16384
 2017-02-08 06:20:45.953196+01 | 1486531245.9532 | pgbench_tellers_pkey  |            90112
 2017-02-08 06:20:45.953196+01 | 1486531245.9532 | pgbench_accounts_pkey |        673882112

 2017-02-08 06:20:47.312407+01 | 1486531247.31241 | pgbench_branches_pkey |            16384
 2017-02-08 06:20:47.312407+01 | 1486531247.31241 | pgbench_tellers_pkey  |            90112
 2017-02-08 06:20:47.312407+01 | 1486531247.31241 | pgbench_accounts_pkey |        673882112

 2017-02-08 06:20:48.635083+01 | 1486531248.63508 | pgbench_branches_pkey |            16384
 2017-02-08 06:20:48.635083+01 | 1486531248.63508 | pgbench_tellers_pkey  |            90112
 2017-02-08 06:20:48.635083+01 | 1486531248.63508 | pgbench_accounts_pkey |        673882112

 2017-02-08 06:20:49.994711+01 | 1486531249.99471 | pgbench_branches_pkey |            16384
 2017-02-08 06:20:49.994711+01 | 1486531249.99471 | pgbench_tellers_pkey  |            90112
 2017-02-08 06:20:49.994711+01 | 1486531249.99471 | pgbench_accounts_pkey |        673882112

 2017-02-08 06:20:51.364894+01 | 1486531251.36489 | pgbench_branches_pkey |            16384
 2017-02-08 06:20:51.364894+01 | 1486531251.36489 | pgbench_tellers_pkey  |            90112
 2017-02-08 06:20:51.364894+01 | 1486531251.36489 | pgbench_accounts_pkey |        673882112

 2017-02-08 06:20:52.767218+01 | 1486531252.76722 | pgbench_branches_pkey |            16384
 2017-02-08 06:20:52.767218+01 | 1486531252.76722 | pgbench_tellers_pkey  |            90112
 2017-02-08 06:20:52.767218+01 | 1486531252.76722 | pgbench_accounts_pkey |        673882112

 2017-02-08 06:20:54.154666+01 | 1486531254.15467 | pgbench_branches_pkey |            16384
 2017-02-08 06:20:54.154666+01 | 1486531254.15467 | pgbench_tellers_pkey  |            90112
 2017-02-08 06:20:54.154666+01 | 1486531254.15467 | pgbench_accounts_pkey |        673882112

 2017-02-08 06:20:55.509609+01 | 1486531255.50961 | pgbench_branches_pkey |            16384
 2017-02-08 06:20:55.509609+01 | 1486531255.50961 | pgbench_tellers_pkey  |            90112
 2017-02-08 06:20:55.509609+01 | 1486531255.50961 | pgbench_accounts_pkey |        673882112

 2017-02-08 06:20:56.88503+01 | 1486531256.88503 | pgbench_branches_pkey |            16384
 2017-02-08 06:20:56.88503+01 | 1486531256.88503 | pgbench_tellers_pkey  |            90112
 2017-02-08 06:20:56.88503+01 | 1486531256.88503 | pgbench_accounts_pkey |        673882112

 2017-02-08 06:20:58.185798+01 | 1486531258.1858 | pgbench_branches_pkey |            16384
 2017-02-08 06:20:58.185798+01 | 1486531258.1858 | pgbench_tellers_pkey  |            90112
 2017-02-08 06:20:58.185798+01 | 1486531258.1858 | pgbench_accounts_pkey |        673882112

 2017-02-08 06:20:59.597175+01 | 1486531259.59717 | pgbench_branches_pkey |            16384
 2017-02-08 06:20:59.597175+01 | 1486531259.59717 | pgbench_tellers_pkey  |            90112
 2017-02-08 06:20:59.597175+01 | 1486531259.59717 | pgbench_accounts_pkey |        673882112

 2017-02-08 06:21:00.952584+01 | 1486531260.95258 | pgbench_branches_pkey |            16384
 2017-02-08 06:21:00.952584+01 | 1486531260.95258 | pgbench_tellers_pkey  |            90112
 2017-02-08 06:21:00.952584+01 | 1486531260.95258 | pgbench_accounts_pkey |        673882112

 2017-02-08 06:21:02.343574+01 | 1486531262.34357 | pgbench_branches_pkey |            16384
 2017-02-08 06:21:02.343574+01 | 1486531262.34357 | pgbench_tellers_pkey  |            90112
 2017-02-08 06:21:02.343574+01 | 1486531262.34357 | pgbench_accounts_pkey |        673882112

 2017-02-08 06:21:03.737747+01 | 1486531263.73775 | pgbench_branches_pkey |            16384
 2017-02-08 06:21:03.737747+01 | 1486531263.73775 | pgbench_tellers_pkey  |            90112
 2017-02-08 06:21:03.737747+01 | 1486531263.73775 | pgbench_accounts_pkey |        673882112

 2017-02-08 06:21:05.074896+01 | 1486531265.0749 | pgbench_branches_pkey |            16384
 2017-02-08 06:21:05.074896+01 | 1486531265.0749 | pgbench_tellers_pkey  |            90112
 2017-02-08 06:21:05.074896+01 | 1486531265.0749 | pgbench_accounts_pkey |        673882112

 2017-02-08 06:21:06.439719+01 | 1486531266.43972 | pgbench_branches_pkey |            16384
 2017-02-08 06:21:06.439719+01 | 1486531266.43972 | pgbench_tellers_pkey  |            90112
 2017-02-08 06:21:06.439719+01 | 1486531266.43972 | pgbench_accounts_pkey |        673882112

 2017-02-08 06:21:07.770241+01 | 1486531267.77024 | pgbench_branches_pkey |            16384
 2017-02-08 06:21:07.770241+01 | 1486531267.77024 | pgbench_tellers_pkey  |            90112
 2017-02-08 06:21:07.770241+01 | 1486531267.77024 | pgbench_accounts_pkey |        673882112

 2017-02-08 06:21:09.124963+01 | 1486531269.12496 | pgbench_branches_pkey |            16384
 2017-02-08 06:21:09.124963+01 | 1486531269.12496 | pgbench_tellers_pkey  |            90112
 2017-02-08 06:21:09.124963+01 | 1486531269.12496 | pgbench_accounts_pkey |        673882112

 2017-02-08 06:21:10.492276+01 | 1486531270.49228 | pgbench_branches_pkey |            16384
 2017-02-08 06:21:10.492276+01 | 1486531270.49228 | pgbench_tellers_pkey  |            90112
 2017-02-08 06:21:10.492276+01 | 1486531270.49228 | pgbench_accounts_pkey |        673882112

 2017-02-08 06:21:11.924457+01 | 1486531271.92446 | pgbench_branches_pkey |            16384
 2017-02-08 06:21:11.924457+01 | 1486531271.92446 | pgbench_tellers_pkey  |            90112
 2017-02-08 06:21:11.924457+01 | 1486531271.92446 | pgbench_accounts_pkey |        673882112

 2017-02-08 06:21:13.24954+01 | 1486531273.24954 | pgbench_branches_pkey |            16384
 2017-02-08 06:21:13.24954+01 | 1486531273.24954 | pgbench_tellers_pkey  |            90112
 2017-02-08 06:21:13.24954+01 | 1486531273.24954 | pgbench_accounts_pkey |        673882112

 2017-02-08 06:21:14.56735+01 | 1486531274.56735 | pgbench_branches_pkey |            16384
 2017-02-08 06:21:14.56735+01 | 1486531274.56735 | pgbench_tellers_pkey  |            90112
 2017-02-08 06:21:14.56735+01 | 1486531274.56735 | pgbench_accounts_pkey |        673882112

 2017-02-08 06:21:15.974402+01 | 1486531275.9744 | pgbench_branches_pkey |            16384
 2017-02-08 06:21:15.974402+01 | 1486531275.9744 | pgbench_tellers_pkey  |            90112
 2017-02-08 06:21:15.974402+01 | 1486531275.9744 | pgbench_accounts_pkey |        673882112

 2017-02-08 06:21:17.363269+01 | 1486531277.36327 | pgbench_branches_pkey |            16384
 2017-02-08 06:21:17.363269+01 | 1486531277.36327 | pgbench_tellers_pkey  |            90112
 2017-02-08 06:21:17.363269+01 | 1486531277.36327 | pgbench_accounts_pkey |        673882112

 2017-02-08 06:21:18.722552+01 | 1486531278.72255 | pgbench_branches_pkey |            16384
 2017-02-08 06:21:18.722552+01 | 1486531278.72255 | pgbench_tellers_pkey  |            90112
 2017-02-08 06:21:18.722552+01 | 1486531278.72255 | pgbench_accounts_pkey |        673882112

 2017-02-08 06:21:20.06771+01 | 1486531280.06771 | pgbench_branches_pkey |            16384
 2017-02-08 06:21:20.06771+01 | 1486531280.06771 | pgbench_tellers_pkey  |            90112
 2017-02-08 06:21:20.06771+01 | 1486531280.06771 | pgbench_accounts_pkey |        673882112

 2017-02-08 06:21:21.451929+01 | 1486531281.45193 | pgbench_branches_pkey |            16384
 2017-02-08 06:21:21.451929+01 | 1486531281.45193 | pgbench_tellers_pkey  |            90112
 2017-02-08 06:21:21.451929+01 | 1486531281.45193 | pgbench_accounts_pkey |        673882112

 2017-02-08 06:21:22.800281+01 | 1486531282.80028 | pgbench_branches_pkey |            16384
 2017-02-08 06:21:22.800281+01 | 1486531282.80028 | pgbench_tellers_pkey  |            90112
 2017-02-08 06:21:22.800281+01 | 1486531282.80028 | pgbench_accounts_pkey |        673882112

 2017-02-08 06:21:24.133198+01 | 1486531284.1332 | pgbench_branches_pkey |            16384
 2017-02-08 06:21:24.133198+01 | 1486531284.1332 | pgbench_tellers_pkey  |            90112
 2017-02-08 06:21:24.133198+01 | 1486531284.1332 | pgbench_accounts_pkey |        673882112

 2017-02-08 06:21:25.442235+01 | 1486531285.44223 | pgbench_branches_pkey |            16384
 2017-02-08 06:21:25.442235+01 | 1486531285.44223 | pgbench_tellers_pkey  |            90112
 2017-02-08 06:21:25.442235+01 | 1486531285.44223 | pgbench_accounts_pkey |        673882112

 2017-02-08 06:21:26.795222+01 | 1486531286.79522 | pgbench_branches_pkey |            16384
 2017-02-08 06:21:26.795222+01 | 1486531286.79522 | pgbench_tellers_pkey  |            90112
 2017-02-08 06:21:26.795222+01 | 1486531286.79522 | pgbench_accounts_pkey |        673882112

 2017-02-08 06:21:28.127692+01 | 1486531288.12769 | pgbench_branches_pkey |            16384
 2017-02-08 06:21:28.127692+01 | 1486531288.12769 | pgbench_tellers_pkey  |            90112
 2017-02-08 06:21:28.127692+01 | 1486531288.12769 | pgbench_accounts_pkey |        673882112

 2017-02-08 06:21:29.476262+01 | 1486531289.47626 | pgbench_branches_pkey |            16384
 2017-02-08 06:21:29.476262+01 | 1486531289.47626 | pgbench_tellers_pkey  |            90112
 2017-02-08 06:21:29.476262+01 | 1486531289.47626 | pgbench_accounts_pkey |        673882112

 2017-02-08 06:21:30.856852+01 | 1486531290.85685 | pgbench_branches_pkey |            16384
 2017-02-08 06:21:30.856852+01 | 1486531290.85685 | pgbench_tellers_pkey  |            90112
 2017-02-08 06:21:30.856852+01 | 1486531290.85685 | pgbench_accounts_pkey |        673882112

 2017-02-08 06:21:32.207695+01 | 1486531292.2077 | pgbench_branches_pkey |            16384
 2017-02-08 06:21:32.207695+01 | 1486531292.2077 | pgbench_tellers_pkey  |            90112
 2017-02-08 06:21:32.207695+01 | 1486531292.2077 | pgbench_accounts_pkey |        673882112

 2017-02-08 06:21:33.520848+01 | 1486531293.52085 | pgbench_branches_pkey |            16384
 2017-02-08 06:21:33.520848+01 | 1486531293.52085 | pgbench_tellers_pkey  |            90112
 2017-02-08 06:21:33.520848+01 | 1486531293.52085 | pgbench_accounts_pkey |        673882112

 2017-02-08 06:21:34.829134+01 | 1486531294.82913 | pgbench_branches_pkey |            16384
 2017-02-08 06:21:34.829134+01 | 1486531294.82913 | pgbench_tellers_pkey  |            90112
 2017-02-08 06:21:34.829134+01 | 1486531294.82913 | pgbench_accounts_pkey |        673882112

 2017-02-08 06:21:36.199686+01 | 1486531296.19969 | pgbench_branches_pkey |            16384
 2017-02-08 06:21:36.199686+01 | 1486531296.19969 | pgbench_tellers_pkey  |            90112
 2017-02-08 06:21:36.199686+01 | 1486531296.19969 | pgbench_accounts_pkey |        673882112

 2017-02-08 06:21:37.564504+01 | 1486531297.5645 | pgbench_branches_pkey |            16384
 2017-02-08 06:21:37.564504+01 | 1486531297.5645 | pgbench_tellers_pkey  |            90112
 2017-02-08 06:21:37.564504+01 | 1486531297.5645 | pgbench_accounts_pkey |        673882112

 2017-02-08 06:21:38.924054+01 | 1486531298.92405 | pgbench_branches_pkey |            16384
 2017-02-08 06:21:38.924054+01 | 1486531298.92405 | pgbench_tellers_pkey  |            90112
 2017-02-08 06:21:38.924054+01 | 1486531298.92405 | pgbench_accounts_pkey |        673882112

 2017-02-08 06:21:40.294206+01 | 1486531300.29421 | pgbench_branches_pkey |            16384
 2017-02-08 06:21:40.294206+01 | 1486531300.29421 | pgbench_tellers_pkey  |            90112
 2017-02-08 06:21:40.294206+01 | 1486531300.29421 | pgbench_accounts_pkey |        673882112

 2017-02-08 06:21:41.665364+01 | 1486531301.66536 | pgbench_branches_pkey |            16384
 2017-02-08 06:21:41.665364+01 | 1486531301.66536 | pgbench_tellers_pkey  |            90112
 2017-02-08 06:21:41.665364+01 | 1486531301.66536 | pgbench_accounts_pkey |        673882112

 2017-02-08 06:21:43.035349+01 | 1486531303.03535 | pgbench_branches_pkey |            16384
 2017-02-08 06:21:43.035349+01 | 1486531303.03535 | pgbench_tellers_pkey  |            90112
 2017-02-08 06:21:43.035349+01 | 1486531303.03535 | pgbench_accounts_pkey |        673882112

 2017-02-08 06:21:44.411855+01 | 1486531304.41185 | pgbench_branches_pkey |            16384
 2017-02-08 06:21:44.411855+01 | 1486531304.41185 | pgbench_tellers_pkey  |            90112
 2017-02-08 06:21:44.411855+01 | 1486531304.41185 | pgbench_accounts_pkey |        673882112

 2017-02-08 06:21:45.780828+01 | 1486531305.78083 | pgbench_branches_pkey |            16384
 2017-02-08 06:21:45.780828+01 | 1486531305.78083 | pgbench_tellers_pkey  |            90112
 2017-02-08 06:21:45.780828+01 | 1486531305.78083 | pgbench_accounts_pkey |        673882112

 2017-02-08 06:21:47.152865+01 | 1486531307.15286 | pgbench_branches_pkey |            16384
 2017-02-08 06:21:47.152865+01 | 1486531307.15286 | pgbench_tellers_pkey  |            90112
 2017-02-08 06:21:47.152865+01 | 1486531307.15286 | pgbench_accounts_pkey |        673882112

 2017-02-08 06:21:48.528475+01 | 1486531308.52848 | pgbench_branches_pkey |            16384
 2017-02-08 06:21:48.528475+01 | 1486531308.52848 | pgbench_tellers_pkey  |            90112
 2017-02-08 06:21:48.528475+01 | 1486531308.52848 | pgbench_accounts_pkey |        673882112

 2017-02-08 06:21:49.882177+01 | 1486531309.88218 | pgbench_branches_pkey |            16384
 2017-02-08 06:21:49.882177+01 | 1486531309.88218 | pgbench_tellers_pkey  |            90112
 2017-02-08 06:21:49.882177+01 | 1486531309.88218 | pgbench_accounts_pkey |        673882112

 2017-02-08 06:21:51.243952+01 | 1486531311.24395 | pgbench_branches_pkey |            16384
 2017-02-08 06:21:51.243952+01 | 1486531311.24395 | pgbench_tellers_pkey  |            90112
 2017-02-08 06:21:51.243952+01 | 1486531311.24395 | pgbench_accounts_pkey |        673882112

 2017-02-08 06:21:52.601973+01 | 1486531312.60197 | pgbench_branches_pkey |            16384
 2017-02-08 06:21:52.601973+01 | 1486531312.60197 | pgbench_tellers_pkey  |            90112
 2017-02-08 06:21:52.601973+01 | 1486531312.60197 | pgbench_accounts_pkey |        673882112

 2017-02-08 06:21:54.004834+01 | 1486531314.00483 | pgbench_branches_pkey |            16384
 2017-02-08 06:21:54.004834+01 | 1486531314.00483 | pgbench_tellers_pkey  |            90112
 2017-02-08 06:21:54.004834+01 | 1486531314.00483 | pgbench_accounts_pkey |        673882112

 2017-02-08 06:21:55.314744+01 | 1486531315.31474 | pgbench_branches_pkey |            16384
 2017-02-08 06:21:55.314744+01 | 1486531315.31474 | pgbench_tellers_pkey  |            90112
 2017-02-08 06:21:55.314744+01 | 1486531315.31474 | pgbench_accounts_pkey |        673882112

 2017-02-08 06:21:56.641113+01 | 1486531316.64111 | pgbench_branches_pkey |            16384
 2017-02-08 06:21:56.641113+01 | 1486531316.64111 | pgbench_tellers_pkey  |            90112
 2017-02-08 06:21:56.641113+01 | 1486531316.64111 | pgbench_accounts_pkey |        673882112

 2017-02-08 06:21:57.993651+01 | 1486531317.99365 | pgbench_branches_pkey |            16384
 2017-02-08 06:21:57.993651+01 | 1486531317.99365 | pgbench_tellers_pkey  |            90112
 2017-02-08 06:21:57.993651+01 | 1486531317.99365 | pgbench_accounts_pkey |        673882112

 2017-02-08 06:21:59.343047+01 | 1486531319.34305 | pgbench_branches_pkey |            16384
 2017-02-08 06:21:59.343047+01 | 1486531319.34305 | pgbench_tellers_pkey  |            90112
 2017-02-08 06:21:59.343047+01 | 1486531319.34305 | pgbench_accounts_pkey |        673882112

 2017-02-08 06:22:00.723972+01 | 1486531320.72397 | pgbench_branches_pkey |            16384
 2017-02-08 06:22:00.723972+01 | 1486531320.72397 | pgbench_tellers_pkey  |            90112
 2017-02-08 06:22:00.723972+01 | 1486531320.72397 | pgbench_accounts_pkey |        673882112

 2017-02-08 06:22:02.092876+01 | 1486531322.09288 | pgbench_branches_pkey |            16384
 2017-02-08 06:22:02.092876+01 | 1486531322.09288 | pgbench_tellers_pkey  |            90112
 2017-02-08 06:22:02.092876+01 | 1486531322.09288 | pgbench_accounts_pkey |        673882112

 2017-02-08 06:22:03.479743+01 | 1486531323.47974 | pgbench_branches_pkey |            16384
 2017-02-08 06:22:03.479743+01 | 1486531323.47974 | pgbench_tellers_pkey  |            90112
 2017-02-08 06:22:03.479743+01 | 1486531323.47974 | pgbench_accounts_pkey |        673882112

 2017-02-08 06:22:04.899648+01 | 1486531324.89965 | pgbench_branches_pkey |            16384
 2017-02-08 06:22:04.899648+01 | 1486531324.89965 | pgbench_tellers_pkey  |            90112
 2017-02-08 06:22:04.899648+01 | 1486531324.89965 | pgbench_accounts_pkey |        673882112

 2017-02-08 06:22:06.235935+01 | 1486531326.23593 | pgbench_branches_pkey |            16384
 2017-02-08 06:22:06.235935+01 | 1486531326.23593 | pgbench_tellers_pkey  |            90112
 2017-02-08 06:22:06.235935+01 | 1486531326.23593 | pgbench_accounts_pkey |        673882112

 2017-02-08 06:22:07.586381+01 | 1486531327.58638 | pgbench_branches_pkey |            16384
 2017-02-08 06:22:07.586381+01 | 1486531327.58638 | pgbench_tellers_pkey  |            90112
 2017-02-08 06:22:07.586381+01 | 1486531327.58638 | pgbench_accounts_pkey |        673882112

 2017-02-08 06:22:08.9236+01 | 1486531328.9236 | pgbench_branches_pkey |            16384
 2017-02-08 06:22:08.9236+01 | 1486531328.9236 | pgbench_tellers_pkey  |            90112
 2017-02-08 06:22:08.9236+01 | 1486531328.9236 | pgbench_accounts_pkey |        673882112

 2017-02-08 06:22:10.293466+01 | 1486531330.29347 | pgbench_branches_pkey |            16384
 2017-02-08 06:22:10.293466+01 | 1486531330.29347 | pgbench_tellers_pkey  |            90112
 2017-02-08 06:22:10.293466+01 | 1486531330.29347 | pgbench_accounts_pkey |        673882112

 2017-02-08 06:22:11.666093+01 | 1486531331.66609 | pgbench_branches_pkey |            16384
 2017-02-08 06:22:11.666093+01 | 1486531331.66609 | pgbench_tellers_pkey  |            90112
 2017-02-08 06:22:11.666093+01 | 1486531331.66609 | pgbench_accounts_pkey |        673882112

 2017-02-08 06:22:13.027889+01 | 1486531333.02789 | pgbench_branches_pkey |            16384
 2017-02-08 06:22:13.027889+01 | 1486531333.02789 | pgbench_tellers_pkey  |            90112
 2017-02-08 06:22:13.027889+01 | 1486531333.02789 | pgbench_accounts_pkey |        673882112

 2017-02-08 06:22:14.421976+01 | 1486531334.42198 | pgbench_branches_pkey |            16384
 2017-02-08 06:22:14.421976+01 | 1486531334.42198 | pgbench_tellers_pkey  |            90112
 2017-02-08 06:22:14.421976+01 | 1486531334.42198 | pgbench_accounts_pkey |        673882112

 2017-02-08 06:22:15.771844+01 | 1486531335.77184 | pgbench_branches_pkey |            16384
 2017-02-08 06:22:15.771844+01 | 1486531335.77184 | pgbench_tellers_pkey  |            90112
 2017-02-08 06:22:15.771844+01 | 1486531335.77184 | pgbench_accounts_pkey |        673882112

 2017-02-08 06:22:17.13793+01 | 1486531337.13793 | pgbench_branches_pkey |            16384
 2017-02-08 06:22:17.13793+01 | 1486531337.13793 | pgbench_tellers_pkey  |            90112
 2017-02-08 06:22:17.13793+01 | 1486531337.13793 | pgbench_accounts_pkey |        673882112

 2017-02-08 06:22:18.461471+01 | 1486531338.46147 | pgbench_branches_pkey |            16384
 2017-02-08 06:22:18.461471+01 | 1486531338.46147 | pgbench_tellers_pkey  |            90112
 2017-02-08 06:22:18.461471+01 | 1486531338.46147 | pgbench_accounts_pkey |        673882112

 2017-02-08 06:22:19.804998+01 | 1486531339.805 | pgbench_branches_pkey |            16384
 2017-02-08 06:22:19.804998+01 | 1486531339.805 | pgbench_tellers_pkey  |            90112
 2017-02-08 06:22:19.804998+01 | 1486531339.805 | pgbench_accounts_pkey |        673882112

 2017-02-08 06:22:21.161553+01 | 1486531341.16155 | pgbench_branches_pkey |            16384
 2017-02-08 06:22:21.161553+01 | 1486531341.16155 | pgbench_tellers_pkey  |            90112
 2017-02-08 06:22:21.161553+01 | 1486531341.16155 | pgbench_accounts_pkey |        673882112

 2017-02-08 06:22:22.527848+01 | 1486531342.52785 | pgbench_branches_pkey |            16384
 2017-02-08 06:22:22.527848+01 | 1486531342.52785 | pgbench_tellers_pkey  |            90112
 2017-02-08 06:22:22.527848+01 | 1486531342.52785 | pgbench_accounts_pkey |        673882112

