 2017-02-08 18:52:57.682428+01 | 1486576377.68243 | pgbench_branches_pkey |            16384
 2017-02-08 18:52:57.682428+01 | 1486576377.68243 | pgbench_tellers_pkey  |            32768
 2017-02-08 18:52:57.682428+01 | 1486576377.68243 | pgbench_accounts_pkey |        112336896

 2017-02-08 18:52:58.743923+01 | 1486576378.74392 | pgbench_branches_pkey |            16384
 2017-02-08 18:52:58.743923+01 | 1486576378.74392 | pgbench_tellers_pkey  |            32768
 2017-02-08 18:52:58.743923+01 | 1486576378.74392 | pgbench_accounts_pkey |        112336896

 2017-02-08 18:52:59.813567+01 | 1486576379.81357 | pgbench_branches_pkey |            16384
 2017-02-08 18:52:59.813567+01 | 1486576379.81357 | pgbench_tellers_pkey  |            32768
 2017-02-08 18:52:59.813567+01 | 1486576379.81357 | pgbench_accounts_pkey |        112336896

 2017-02-08 18:53:00.871606+01 | 1486576380.87161 | pgbench_branches_pkey |            16384
 2017-02-08 18:53:00.871606+01 | 1486576380.87161 | pgbench_tellers_pkey  |            32768
 2017-02-08 18:53:00.871606+01 | 1486576380.87161 | pgbench_accounts_pkey |        112336896

 2017-02-08 18:53:01.941436+01 | 1486576381.94144 | pgbench_branches_pkey |            16384
 2017-02-08 18:53:01.941436+01 | 1486576381.94144 | pgbench_tellers_pkey  |            32768
 2017-02-08 18:53:01.941436+01 | 1486576381.94144 | pgbench_accounts_pkey |        112336896

 2017-02-08 18:53:03.011681+01 | 1486576383.01168 | pgbench_branches_pkey |            16384
 2017-02-08 18:53:03.011681+01 | 1486576383.01168 | pgbench_tellers_pkey  |            32768
 2017-02-08 18:53:03.011681+01 | 1486576383.01168 | pgbench_accounts_pkey |        112336896

 2017-02-08 18:53:04.080633+01 | 1486576384.08063 | pgbench_branches_pkey |            16384
 2017-02-08 18:53:04.080633+01 | 1486576384.08063 | pgbench_tellers_pkey  |            32768
 2017-02-08 18:53:04.080633+01 | 1486576384.08063 | pgbench_accounts_pkey |        112336896

 2017-02-08 18:53:05.142517+01 | 1486576385.14252 | pgbench_branches_pkey |            16384
 2017-02-08 18:53:05.142517+01 | 1486576385.14252 | pgbench_tellers_pkey  |            32768
 2017-02-08 18:53:05.142517+01 | 1486576385.14252 | pgbench_accounts_pkey |        112336896

 2017-02-08 18:53:06.20198+01 | 1486576386.20198 | pgbench_branches_pkey |            16384
 2017-02-08 18:53:06.20198+01 | 1486576386.20198 | pgbench_tellers_pkey  |            32768
 2017-02-08 18:53:06.20198+01 | 1486576386.20198 | pgbench_accounts_pkey |        112336896

 2017-02-08 18:53:07.269514+01 | 1486576387.26951 | pgbench_branches_pkey |            16384
 2017-02-08 18:53:07.269514+01 | 1486576387.26951 | pgbench_tellers_pkey  |            32768
 2017-02-08 18:53:07.269514+01 | 1486576387.26951 | pgbench_accounts_pkey |        112336896

 2017-02-08 18:53:08.356149+01 | 1486576388.35615 | pgbench_branches_pkey |            16384
 2017-02-08 18:53:08.356149+01 | 1486576388.35615 | pgbench_tellers_pkey  |            32768
 2017-02-08 18:53:08.356149+01 | 1486576388.35615 | pgbench_accounts_pkey |        112336896

 2017-02-08 18:53:09.426455+01 | 1486576389.42646 | pgbench_branches_pkey |            16384
 2017-02-08 18:53:09.426455+01 | 1486576389.42646 | pgbench_tellers_pkey  |            32768
 2017-02-08 18:53:09.426455+01 | 1486576389.42646 | pgbench_accounts_pkey |        112336896

 2017-02-08 18:53:10.488225+01 | 1486576390.48822 | pgbench_branches_pkey |            16384
 2017-02-08 18:53:10.488225+01 | 1486576390.48822 | pgbench_tellers_pkey  |            32768
 2017-02-08 18:53:10.488225+01 | 1486576390.48822 | pgbench_accounts_pkey |        112336896

 2017-02-08 18:53:11.553376+01 | 1486576391.55338 | pgbench_branches_pkey |            16384
 2017-02-08 18:53:11.553376+01 | 1486576391.55338 | pgbench_tellers_pkey  |            32768
 2017-02-08 18:53:11.553376+01 | 1486576391.55338 | pgbench_accounts_pkey |        112336896

 2017-02-08 18:53:12.61886+01 | 1486576392.61886 | pgbench_branches_pkey |            16384
 2017-02-08 18:53:12.61886+01 | 1486576392.61886 | pgbench_tellers_pkey  |            32768
 2017-02-08 18:53:12.61886+01 | 1486576392.61886 | pgbench_accounts_pkey |        112336896

 2017-02-08 18:53:13.691858+01 | 1486576393.69186 | pgbench_branches_pkey |            16384
 2017-02-08 18:53:13.691858+01 | 1486576393.69186 | pgbench_tellers_pkey  |            32768
 2017-02-08 18:53:13.691858+01 | 1486576393.69186 | pgbench_accounts_pkey |        112336896

 2017-02-08 18:53:14.761171+01 | 1486576394.76117 | pgbench_branches_pkey |            16384
 2017-02-08 18:53:14.761171+01 | 1486576394.76117 | pgbench_tellers_pkey  |            32768
 2017-02-08 18:53:14.761171+01 | 1486576394.76117 | pgbench_accounts_pkey |        112336896

 2017-02-08 18:53:15.833485+01 | 1486576395.83348 | pgbench_branches_pkey |            16384
 2017-02-08 18:53:15.833485+01 | 1486576395.83348 | pgbench_tellers_pkey  |            32768
 2017-02-08 18:53:15.833485+01 | 1486576395.83348 | pgbench_accounts_pkey |        112336896

 2017-02-08 18:53:16.913985+01 | 1486576396.91399 | pgbench_branches_pkey |            16384
 2017-02-08 18:53:16.913985+01 | 1486576396.91399 | pgbench_tellers_pkey  |            32768
 2017-02-08 18:53:16.913985+01 | 1486576396.91399 | pgbench_accounts_pkey |        112336896

 2017-02-08 18:53:17.985571+01 | 1486576397.98557 | pgbench_branches_pkey |            16384
 2017-02-08 18:53:17.985571+01 | 1486576397.98557 | pgbench_tellers_pkey  |            32768
 2017-02-08 18:53:17.985571+01 | 1486576397.98557 | pgbench_accounts_pkey |        112336896

 2017-02-08 18:53:19.061609+01 | 1486576399.06161 | pgbench_branches_pkey |            16384
 2017-02-08 18:53:19.061609+01 | 1486576399.06161 | pgbench_tellers_pkey  |            32768
 2017-02-08 18:53:19.061609+01 | 1486576399.06161 | pgbench_accounts_pkey |        112336896

 2017-02-08 18:53:20.129188+01 | 1486576400.12919 | pgbench_branches_pkey |            16384
 2017-02-08 18:53:20.129188+01 | 1486576400.12919 | pgbench_tellers_pkey  |            32768
 2017-02-08 18:53:20.129188+01 | 1486576400.12919 | pgbench_accounts_pkey |        112336896

 2017-02-08 18:53:21.195661+01 | 1486576401.19566 | pgbench_branches_pkey |            16384
 2017-02-08 18:53:21.195661+01 | 1486576401.19566 | pgbench_tellers_pkey  |            32768
 2017-02-08 18:53:21.195661+01 | 1486576401.19566 | pgbench_accounts_pkey |        112336896

 2017-02-08 18:53:22.267997+01 | 1486576402.268 | pgbench_branches_pkey |            16384
 2017-02-08 18:53:22.267997+01 | 1486576402.268 | pgbench_tellers_pkey  |            32768
 2017-02-08 18:53:22.267997+01 | 1486576402.268 | pgbench_accounts_pkey |        112336896

 2017-02-08 18:53:23.332667+01 | 1486576403.33267 | pgbench_branches_pkey |            16384
 2017-02-08 18:53:23.332667+01 | 1486576403.33267 | pgbench_tellers_pkey  |            32768
 2017-02-08 18:53:23.332667+01 | 1486576403.33267 | pgbench_accounts_pkey |        112336896

 2017-02-08 18:53:24.38661+01 | 1486576404.38661 | pgbench_branches_pkey |            16384
 2017-02-08 18:53:24.38661+01 | 1486576404.38661 | pgbench_tellers_pkey  |            32768
 2017-02-08 18:53:24.38661+01 | 1486576404.38661 | pgbench_accounts_pkey |        112336896

 2017-02-08 18:53:25.456943+01 | 1486576405.45694 | pgbench_branches_pkey |            16384
 2017-02-08 18:53:25.456943+01 | 1486576405.45694 | pgbench_tellers_pkey  |            32768
 2017-02-08 18:53:25.456943+01 | 1486576405.45694 | pgbench_accounts_pkey |        112336896

 2017-02-08 18:53:26.526017+01 | 1486576406.52602 | pgbench_branches_pkey |            16384
 2017-02-08 18:53:26.526017+01 | 1486576406.52602 | pgbench_tellers_pkey  |            32768
 2017-02-08 18:53:26.526017+01 | 1486576406.52602 | pgbench_accounts_pkey |        112336896

 2017-02-08 18:53:27.592804+01 | 1486576407.5928 | pgbench_branches_pkey |            16384
 2017-02-08 18:53:27.592804+01 | 1486576407.5928 | pgbench_tellers_pkey  |            32768
 2017-02-08 18:53:27.592804+01 | 1486576407.5928 | pgbench_accounts_pkey |        112336896

 2017-02-08 18:53:28.65844+01 | 1486576408.65844 | pgbench_branches_pkey |            16384
 2017-02-08 18:53:28.65844+01 | 1486576408.65844 | pgbench_tellers_pkey  |            32768
 2017-02-08 18:53:28.65844+01 | 1486576408.65844 | pgbench_accounts_pkey |        112336896

 2017-02-08 18:53:29.711183+01 | 1486576409.71118 | pgbench_branches_pkey |            16384
 2017-02-08 18:53:29.711183+01 | 1486576409.71118 | pgbench_tellers_pkey  |            32768
 2017-02-08 18:53:29.711183+01 | 1486576409.71118 | pgbench_accounts_pkey |        112336896

 2017-02-08 18:53:30.776501+01 | 1486576410.7765 | pgbench_branches_pkey |            16384
 2017-02-08 18:53:30.776501+01 | 1486576410.7765 | pgbench_tellers_pkey  |            32768
 2017-02-08 18:53:30.776501+01 | 1486576410.7765 | pgbench_accounts_pkey |        112336896

 2017-02-08 18:53:31.851221+01 | 1486576411.85122 | pgbench_branches_pkey |            16384
 2017-02-08 18:53:31.851221+01 | 1486576411.85122 | pgbench_tellers_pkey  |            32768
 2017-02-08 18:53:31.851221+01 | 1486576411.85122 | pgbench_accounts_pkey |        112336896

 2017-02-08 18:53:32.9075+01 | 1486576412.9075 | pgbench_branches_pkey |            16384
 2017-02-08 18:53:32.9075+01 | 1486576412.9075 | pgbench_tellers_pkey  |            32768
 2017-02-08 18:53:32.9075+01 | 1486576412.9075 | pgbench_accounts_pkey |        112336896

 2017-02-08 18:53:33.970902+01 | 1486576413.9709 | pgbench_branches_pkey |            16384
 2017-02-08 18:53:33.970902+01 | 1486576413.9709 | pgbench_tellers_pkey  |            32768
 2017-02-08 18:53:33.970902+01 | 1486576413.9709 | pgbench_accounts_pkey |        112336896

 2017-02-08 18:53:35.032134+01 | 1486576415.03213 | pgbench_branches_pkey |            16384
 2017-02-08 18:53:35.032134+01 | 1486576415.03213 | pgbench_tellers_pkey  |            32768
 2017-02-08 18:53:35.032134+01 | 1486576415.03213 | pgbench_accounts_pkey |        112336896

 2017-02-08 18:53:36.103541+01 | 1486576416.10354 | pgbench_branches_pkey |            16384
 2017-02-08 18:53:36.103541+01 | 1486576416.10354 | pgbench_tellers_pkey  |            32768
 2017-02-08 18:53:36.103541+01 | 1486576416.10354 | pgbench_accounts_pkey |        112336896

 2017-02-08 18:53:37.162951+01 | 1486576417.16295 | pgbench_branches_pkey |            16384
 2017-02-08 18:53:37.162951+01 | 1486576417.16295 | pgbench_tellers_pkey  |            32768
 2017-02-08 18:53:37.162951+01 | 1486576417.16295 | pgbench_accounts_pkey |        112336896

 2017-02-08 18:53:38.239557+01 | 1486576418.23956 | pgbench_branches_pkey |            16384
 2017-02-08 18:53:38.239557+01 | 1486576418.23956 | pgbench_tellers_pkey  |            32768
 2017-02-08 18:53:38.239557+01 | 1486576418.23956 | pgbench_accounts_pkey |        112336896

 2017-02-08 18:53:39.3041+01 | 1486576419.3041 | pgbench_branches_pkey |            16384
 2017-02-08 18:53:39.3041+01 | 1486576419.3041 | pgbench_tellers_pkey  |            32768
 2017-02-08 18:53:39.3041+01 | 1486576419.3041 | pgbench_accounts_pkey |        112336896

 2017-02-08 18:53:40.377561+01 | 1486576420.37756 | pgbench_branches_pkey |            16384
 2017-02-08 18:53:40.377561+01 | 1486576420.37756 | pgbench_tellers_pkey  |            32768
 2017-02-08 18:53:40.377561+01 | 1486576420.37756 | pgbench_accounts_pkey |        112336896

 2017-02-08 18:53:41.449701+01 | 1486576421.4497 | pgbench_branches_pkey |            16384
 2017-02-08 18:53:41.449701+01 | 1486576421.4497 | pgbench_tellers_pkey  |            32768
 2017-02-08 18:53:41.449701+01 | 1486576421.4497 | pgbench_accounts_pkey |        112336896

 2017-02-08 18:53:42.52397+01 | 1486576422.52397 | pgbench_branches_pkey |            16384
 2017-02-08 18:53:42.52397+01 | 1486576422.52397 | pgbench_tellers_pkey  |            32768
 2017-02-08 18:53:42.52397+01 | 1486576422.52397 | pgbench_accounts_pkey |        112336896

 2017-02-08 18:53:43.604655+01 | 1486576423.60466 | pgbench_branches_pkey |            16384
 2017-02-08 18:53:43.604655+01 | 1486576423.60466 | pgbench_tellers_pkey  |            32768
 2017-02-08 18:53:43.604655+01 | 1486576423.60466 | pgbench_accounts_pkey |        112336896

 2017-02-08 18:53:44.668927+01 | 1486576424.66893 | pgbench_branches_pkey |            16384
 2017-02-08 18:53:44.668927+01 | 1486576424.66893 | pgbench_tellers_pkey  |            32768
 2017-02-08 18:53:44.668927+01 | 1486576424.66893 | pgbench_accounts_pkey |        112336896

 2017-02-08 18:53:45.745013+01 | 1486576425.74501 | pgbench_branches_pkey |            16384
 2017-02-08 18:53:45.745013+01 | 1486576425.74501 | pgbench_tellers_pkey  |            32768
 2017-02-08 18:53:45.745013+01 | 1486576425.74501 | pgbench_accounts_pkey |        112336896

 2017-02-08 18:53:46.819503+01 | 1486576426.8195 | pgbench_branches_pkey |            16384
 2017-02-08 18:53:46.819503+01 | 1486576426.8195 | pgbench_tellers_pkey  |            32768
 2017-02-08 18:53:46.819503+01 | 1486576426.8195 | pgbench_accounts_pkey |        112336896

 2017-02-08 18:53:47.893336+01 | 1486576427.89334 | pgbench_branches_pkey |            16384
 2017-02-08 18:53:47.893336+01 | 1486576427.89334 | pgbench_tellers_pkey  |            32768
 2017-02-08 18:53:47.893336+01 | 1486576427.89334 | pgbench_accounts_pkey |        112336896

 2017-02-08 18:53:48.967588+01 | 1486576428.96759 | pgbench_branches_pkey |            16384
 2017-02-08 18:53:48.967588+01 | 1486576428.96759 | pgbench_tellers_pkey  |            32768
 2017-02-08 18:53:48.967588+01 | 1486576428.96759 | pgbench_accounts_pkey |        112336896

 2017-02-08 18:53:50.041937+01 | 1486576430.04194 | pgbench_branches_pkey |            16384
 2017-02-08 18:53:50.041937+01 | 1486576430.04194 | pgbench_tellers_pkey  |            32768
 2017-02-08 18:53:50.041937+01 | 1486576430.04194 | pgbench_accounts_pkey |        112336896

 2017-02-08 18:53:51.109353+01 | 1486576431.10935 | pgbench_branches_pkey |            16384
 2017-02-08 18:53:51.109353+01 | 1486576431.10935 | pgbench_tellers_pkey  |            32768
 2017-02-08 18:53:51.109353+01 | 1486576431.10935 | pgbench_accounts_pkey |        112336896

 2017-02-08 18:53:52.182514+01 | 1486576432.18251 | pgbench_branches_pkey |            16384
 2017-02-08 18:53:52.182514+01 | 1486576432.18251 | pgbench_tellers_pkey  |            32768
 2017-02-08 18:53:52.182514+01 | 1486576432.18251 | pgbench_accounts_pkey |        112336896

 2017-02-08 18:53:53.243383+01 | 1486576433.24338 | pgbench_branches_pkey |            16384
 2017-02-08 18:53:53.243383+01 | 1486576433.24338 | pgbench_tellers_pkey  |            32768
 2017-02-08 18:53:53.243383+01 | 1486576433.24338 | pgbench_accounts_pkey |        112336896

 2017-02-08 18:53:54.307971+01 | 1486576434.30797 | pgbench_branches_pkey |            16384
 2017-02-08 18:53:54.307971+01 | 1486576434.30797 | pgbench_tellers_pkey  |            32768
 2017-02-08 18:53:54.307971+01 | 1486576434.30797 | pgbench_accounts_pkey |        112336896

 2017-02-08 18:53:55.40143+01 | 1486576435.40143 | pgbench_branches_pkey |            16384
 2017-02-08 18:53:55.40143+01 | 1486576435.40143 | pgbench_tellers_pkey  |            32768
 2017-02-08 18:53:55.40143+01 | 1486576435.40143 | pgbench_accounts_pkey |        112336896

 2017-02-08 18:53:56.48235+01 | 1486576436.48235 | pgbench_branches_pkey |            16384
 2017-02-08 18:53:56.48235+01 | 1486576436.48235 | pgbench_tellers_pkey  |            32768
 2017-02-08 18:53:56.48235+01 | 1486576436.48235 | pgbench_accounts_pkey |        112336896

 2017-02-08 18:53:57.547853+01 | 1486576437.54785 | pgbench_branches_pkey |            16384
 2017-02-08 18:53:57.547853+01 | 1486576437.54785 | pgbench_tellers_pkey  |            32768
 2017-02-08 18:53:57.547853+01 | 1486576437.54785 | pgbench_accounts_pkey |        112336896

 2017-02-08 18:53:58.617562+01 | 1486576438.61756 | pgbench_branches_pkey |            16384
 2017-02-08 18:53:58.617562+01 | 1486576438.61756 | pgbench_tellers_pkey  |            32768
 2017-02-08 18:53:58.617562+01 | 1486576438.61756 | pgbench_accounts_pkey |        112336896

 2017-02-08 18:53:59.68608+01 | 1486576439.68608 | pgbench_branches_pkey |            16384
 2017-02-08 18:53:59.68608+01 | 1486576439.68608 | pgbench_tellers_pkey  |            32768
 2017-02-08 18:53:59.68608+01 | 1486576439.68608 | pgbench_accounts_pkey |        112336896

 2017-02-08 18:54:00.754349+01 | 1486576440.75435 | pgbench_branches_pkey |            16384
 2017-02-08 18:54:00.754349+01 | 1486576440.75435 | pgbench_tellers_pkey  |            32768
 2017-02-08 18:54:00.754349+01 | 1486576440.75435 | pgbench_accounts_pkey |        112336896

 2017-02-08 18:54:01.822733+01 | 1486576441.82273 | pgbench_branches_pkey |            16384
 2017-02-08 18:54:01.822733+01 | 1486576441.82273 | pgbench_tellers_pkey  |            32768
 2017-02-08 18:54:01.822733+01 | 1486576441.82273 | pgbench_accounts_pkey |        112336896

 2017-02-08 18:54:02.899548+01 | 1486576442.89955 | pgbench_branches_pkey |            16384
 2017-02-08 18:54:02.899548+01 | 1486576442.89955 | pgbench_tellers_pkey  |            32768
 2017-02-08 18:54:02.899548+01 | 1486576442.89955 | pgbench_accounts_pkey |        112336896

 2017-02-08 18:54:03.969322+01 | 1486576443.96932 | pgbench_branches_pkey |            16384
 2017-02-08 18:54:03.969322+01 | 1486576443.96932 | pgbench_tellers_pkey  |            32768
 2017-02-08 18:54:03.969322+01 | 1486576443.96932 | pgbench_accounts_pkey |        112336896

 2017-02-08 18:54:05.026828+01 | 1486576445.02683 | pgbench_branches_pkey |            16384
 2017-02-08 18:54:05.026828+01 | 1486576445.02683 | pgbench_tellers_pkey  |            32768
 2017-02-08 18:54:05.026828+01 | 1486576445.02683 | pgbench_accounts_pkey |        112336896

 2017-02-08 18:54:06.085364+01 | 1486576446.08536 | pgbench_branches_pkey |            16384
 2017-02-08 18:54:06.085364+01 | 1486576446.08536 | pgbench_tellers_pkey  |            32768
 2017-02-08 18:54:06.085364+01 | 1486576446.08536 | pgbench_accounts_pkey |        112336896

 2017-02-08 18:54:07.150264+01 | 1486576447.15026 | pgbench_branches_pkey |            16384
 2017-02-08 18:54:07.150264+01 | 1486576447.15026 | pgbench_tellers_pkey  |            32768
 2017-02-08 18:54:07.150264+01 | 1486576447.15026 | pgbench_accounts_pkey |        112336896

 2017-02-08 18:54:08.217149+01 | 1486576448.21715 | pgbench_branches_pkey |            16384
 2017-02-08 18:54:08.217149+01 | 1486576448.21715 | pgbench_tellers_pkey  |            32768
 2017-02-08 18:54:08.217149+01 | 1486576448.21715 | pgbench_accounts_pkey |        112336896

 2017-02-08 18:54:09.291599+01 | 1486576449.2916 | pgbench_branches_pkey |            16384
 2017-02-08 18:54:09.291599+01 | 1486576449.2916 | pgbench_tellers_pkey  |            32768
 2017-02-08 18:54:09.291599+01 | 1486576449.2916 | pgbench_accounts_pkey |        112336896

 2017-02-08 18:54:10.355409+01 | 1486576450.35541 | pgbench_branches_pkey |            16384
 2017-02-08 18:54:10.355409+01 | 1486576450.35541 | pgbench_tellers_pkey  |            32768
 2017-02-08 18:54:10.355409+01 | 1486576450.35541 | pgbench_accounts_pkey |        112336896

 2017-02-08 18:54:11.422546+01 | 1486576451.42255 | pgbench_branches_pkey |            16384
 2017-02-08 18:54:11.422546+01 | 1486576451.42255 | pgbench_tellers_pkey  |            32768
 2017-02-08 18:54:11.422546+01 | 1486576451.42255 | pgbench_accounts_pkey |        112336896

 2017-02-08 18:54:12.489424+01 | 1486576452.48942 | pgbench_branches_pkey |            16384
 2017-02-08 18:54:12.489424+01 | 1486576452.48942 | pgbench_tellers_pkey  |            32768
 2017-02-08 18:54:12.489424+01 | 1486576452.48942 | pgbench_accounts_pkey |        112336896

 2017-02-08 18:54:13.547773+01 | 1486576453.54777 | pgbench_branches_pkey |            16384
 2017-02-08 18:54:13.547773+01 | 1486576453.54777 | pgbench_tellers_pkey  |            32768
 2017-02-08 18:54:13.547773+01 | 1486576453.54777 | pgbench_accounts_pkey |        112336896

 2017-02-08 18:54:14.607139+01 | 1486576454.60714 | pgbench_branches_pkey |            16384
 2017-02-08 18:54:14.607139+01 | 1486576454.60714 | pgbench_tellers_pkey  |            32768
 2017-02-08 18:54:14.607139+01 | 1486576454.60714 | pgbench_accounts_pkey |        112336896

 2017-02-08 18:54:15.673911+01 | 1486576455.67391 | pgbench_branches_pkey |            16384
 2017-02-08 18:54:15.673911+01 | 1486576455.67391 | pgbench_tellers_pkey  |            32768
 2017-02-08 18:54:15.673911+01 | 1486576455.67391 | pgbench_accounts_pkey |        112336896

 2017-02-08 18:54:16.736818+01 | 1486576456.73682 | pgbench_branches_pkey |            16384
 2017-02-08 18:54:16.736818+01 | 1486576456.73682 | pgbench_tellers_pkey  |            32768
 2017-02-08 18:54:16.736818+01 | 1486576456.73682 | pgbench_accounts_pkey |        112336896

 2017-02-08 18:54:17.80651+01 | 1486576457.80651 | pgbench_branches_pkey |            16384
 2017-02-08 18:54:17.80651+01 | 1486576457.80651 | pgbench_tellers_pkey  |            32768
 2017-02-08 18:54:17.80651+01 | 1486576457.80651 | pgbench_accounts_pkey |        112336896

 2017-02-08 18:54:18.886319+01 | 1486576458.88632 | pgbench_branches_pkey |            16384
 2017-02-08 18:54:18.886319+01 | 1486576458.88632 | pgbench_tellers_pkey  |            32768
 2017-02-08 18:54:18.886319+01 | 1486576458.88632 | pgbench_accounts_pkey |        112336896

 2017-02-08 18:54:19.959392+01 | 1486576459.95939 | pgbench_branches_pkey |            16384
 2017-02-08 18:54:19.959392+01 | 1486576459.95939 | pgbench_tellers_pkey  |            32768
 2017-02-08 18:54:19.959392+01 | 1486576459.95939 | pgbench_accounts_pkey |        112336896

 2017-02-08 18:54:21.030022+01 | 1486576461.03002 | pgbench_branches_pkey |            16384
 2017-02-08 18:54:21.030022+01 | 1486576461.03002 | pgbench_tellers_pkey  |            32768
 2017-02-08 18:54:21.030022+01 | 1486576461.03002 | pgbench_accounts_pkey |        112336896

 2017-02-08 18:54:22.107601+01 | 1486576462.1076 | pgbench_branches_pkey |            16384
 2017-02-08 18:54:22.107601+01 | 1486576462.1076 | pgbench_tellers_pkey  |            32768
 2017-02-08 18:54:22.107601+01 | 1486576462.1076 | pgbench_accounts_pkey |        112336896

 2017-02-08 18:54:23.16761+01 | 1486576463.16761 | pgbench_branches_pkey |            16384
 2017-02-08 18:54:23.16761+01 | 1486576463.16761 | pgbench_tellers_pkey  |            32768
 2017-02-08 18:54:23.16761+01 | 1486576463.16761 | pgbench_accounts_pkey |        112336896

 2017-02-08 18:54:24.233529+01 | 1486576464.23353 | pgbench_branches_pkey |            16384
 2017-02-08 18:54:24.233529+01 | 1486576464.23353 | pgbench_tellers_pkey  |            32768
 2017-02-08 18:54:24.233529+01 | 1486576464.23353 | pgbench_accounts_pkey |        112336896

 2017-02-08 18:54:25.294101+01 | 1486576465.2941 | pgbench_branches_pkey |            16384
 2017-02-08 18:54:25.294101+01 | 1486576465.2941 | pgbench_tellers_pkey  |            32768
 2017-02-08 18:54:25.294101+01 | 1486576465.2941 | pgbench_accounts_pkey |        112336896

 2017-02-08 18:54:26.351098+01 | 1486576466.3511 | pgbench_branches_pkey |            16384
 2017-02-08 18:54:26.351098+01 | 1486576466.3511 | pgbench_tellers_pkey  |            32768
 2017-02-08 18:54:26.351098+01 | 1486576466.3511 | pgbench_accounts_pkey |        112336896

 2017-02-08 18:54:27.413395+01 | 1486576467.41339 | pgbench_branches_pkey |            16384
 2017-02-08 18:54:27.413395+01 | 1486576467.41339 | pgbench_tellers_pkey  |            32768
 2017-02-08 18:54:27.413395+01 | 1486576467.41339 | pgbench_accounts_pkey |        112336896

 2017-02-08 18:54:28.492713+01 | 1486576468.49271 | pgbench_branches_pkey |            16384
 2017-02-08 18:54:28.492713+01 | 1486576468.49271 | pgbench_tellers_pkey  |            32768
 2017-02-08 18:54:28.492713+01 | 1486576468.49271 | pgbench_accounts_pkey |        112336896

 2017-02-08 18:54:29.56294+01 | 1486576469.56294 | pgbench_branches_pkey |            16384
 2017-02-08 18:54:29.56294+01 | 1486576469.56294 | pgbench_tellers_pkey  |            32768
 2017-02-08 18:54:29.56294+01 | 1486576469.56294 | pgbench_accounts_pkey |        112336896

 2017-02-08 18:54:30.625017+01 | 1486576470.62502 | pgbench_branches_pkey |            16384
 2017-02-08 18:54:30.625017+01 | 1486576470.62502 | pgbench_tellers_pkey  |            32768
 2017-02-08 18:54:30.625017+01 | 1486576470.62502 | pgbench_accounts_pkey |        112336896

 2017-02-08 18:54:31.688814+01 | 1486576471.68881 | pgbench_branches_pkey |            16384
 2017-02-08 18:54:31.688814+01 | 1486576471.68881 | pgbench_tellers_pkey  |            32768
 2017-02-08 18:54:31.688814+01 | 1486576471.68881 | pgbench_accounts_pkey |        112336896

 2017-02-08 18:54:32.760693+01 | 1486576472.76069 | pgbench_branches_pkey |            16384
 2017-02-08 18:54:32.760693+01 | 1486576472.76069 | pgbench_tellers_pkey  |            32768
 2017-02-08 18:54:32.760693+01 | 1486576472.76069 | pgbench_accounts_pkey |        112336896

 2017-02-08 18:54:33.82938+01 | 1486576473.82938 | pgbench_branches_pkey |            16384
 2017-02-08 18:54:33.82938+01 | 1486576473.82938 | pgbench_tellers_pkey  |            32768
 2017-02-08 18:54:33.82938+01 | 1486576473.82938 | pgbench_accounts_pkey |        112336896

 2017-02-08 18:54:34.896323+01 | 1486576474.89632 | pgbench_branches_pkey |            16384
 2017-02-08 18:54:34.896323+01 | 1486576474.89632 | pgbench_tellers_pkey  |            32768
 2017-02-08 18:54:34.896323+01 | 1486576474.89632 | pgbench_accounts_pkey |        112336896

 2017-02-08 18:54:35.95887+01 | 1486576475.95887 | pgbench_branches_pkey |            16384
 2017-02-08 18:54:35.95887+01 | 1486576475.95887 | pgbench_tellers_pkey  |            32768
 2017-02-08 18:54:35.95887+01 | 1486576475.95887 | pgbench_accounts_pkey |        112336896

 2017-02-08 18:54:37.037599+01 | 1486576477.0376 | pgbench_branches_pkey |            16384
 2017-02-08 18:54:37.037599+01 | 1486576477.0376 | pgbench_tellers_pkey  |            32768
 2017-02-08 18:54:37.037599+01 | 1486576477.0376 | pgbench_accounts_pkey |        112336896

 2017-02-08 18:54:38.098353+01 | 1486576478.09835 | pgbench_branches_pkey |            16384
 2017-02-08 18:54:38.098353+01 | 1486576478.09835 | pgbench_tellers_pkey  |            32768
 2017-02-08 18:54:38.098353+01 | 1486576478.09835 | pgbench_accounts_pkey |        112336896

 2017-02-08 18:54:39.163889+01 | 1486576479.16389 | pgbench_branches_pkey |            16384
 2017-02-08 18:54:39.163889+01 | 1486576479.16389 | pgbench_tellers_pkey  |            32768
 2017-02-08 18:54:39.163889+01 | 1486576479.16389 | pgbench_accounts_pkey |        112336896

 2017-02-08 18:54:40.242691+01 | 1486576480.24269 | pgbench_branches_pkey |            16384
 2017-02-08 18:54:40.242691+01 | 1486576480.24269 | pgbench_tellers_pkey  |            32768
 2017-02-08 18:54:40.242691+01 | 1486576480.24269 | pgbench_accounts_pkey |        112336896

 2017-02-08 18:54:41.310571+01 | 1486576481.31057 | pgbench_branches_pkey |            16384
 2017-02-08 18:54:41.310571+01 | 1486576481.31057 | pgbench_tellers_pkey  |            32768
 2017-02-08 18:54:41.310571+01 | 1486576481.31057 | pgbench_accounts_pkey |        112336896

 2017-02-08 18:54:42.386719+01 | 1486576482.38672 | pgbench_branches_pkey |            16384
 2017-02-08 18:54:42.386719+01 | 1486576482.38672 | pgbench_tellers_pkey  |            32768
 2017-02-08 18:54:42.386719+01 | 1486576482.38672 | pgbench_accounts_pkey |        112336896

 2017-02-08 18:54:43.454195+01 | 1486576483.4542 | pgbench_branches_pkey |            16384
 2017-02-08 18:54:43.454195+01 | 1486576483.4542 | pgbench_tellers_pkey  |            32768
 2017-02-08 18:54:43.454195+01 | 1486576483.4542 | pgbench_accounts_pkey |        112336896

 2017-02-08 18:54:44.527585+01 | 1486576484.52759 | pgbench_branches_pkey |            16384
 2017-02-08 18:54:44.527585+01 | 1486576484.52759 | pgbench_tellers_pkey  |            32768
 2017-02-08 18:54:44.527585+01 | 1486576484.52759 | pgbench_accounts_pkey |        112336896

 2017-02-08 18:54:45.583966+01 | 1486576485.58397 | pgbench_branches_pkey |            16384
 2017-02-08 18:54:45.583966+01 | 1486576485.58397 | pgbench_tellers_pkey  |            32768
 2017-02-08 18:54:45.583966+01 | 1486576485.58397 | pgbench_accounts_pkey |        112336896

 2017-02-08 18:54:46.640718+01 | 1486576486.64072 | pgbench_branches_pkey |            16384
 2017-02-08 18:54:46.640718+01 | 1486576486.64072 | pgbench_tellers_pkey  |            32768
 2017-02-08 18:54:46.640718+01 | 1486576486.64072 | pgbench_accounts_pkey |        112336896

 2017-02-08 18:54:47.701483+01 | 1486576487.70148 | pgbench_branches_pkey |            16384
 2017-02-08 18:54:47.701483+01 | 1486576487.70148 | pgbench_tellers_pkey  |            32768
 2017-02-08 18:54:47.701483+01 | 1486576487.70148 | pgbench_accounts_pkey |        112336896

 2017-02-08 18:54:48.766676+01 | 1486576488.76668 | pgbench_branches_pkey |            16384
 2017-02-08 18:54:48.766676+01 | 1486576488.76668 | pgbench_tellers_pkey  |            32768
 2017-02-08 18:54:48.766676+01 | 1486576488.76668 | pgbench_accounts_pkey |        112336896

 2017-02-08 18:54:49.837678+01 | 1486576489.83768 | pgbench_branches_pkey |            16384
 2017-02-08 18:54:49.837678+01 | 1486576489.83768 | pgbench_tellers_pkey  |            32768
 2017-02-08 18:54:49.837678+01 | 1486576489.83768 | pgbench_accounts_pkey |        112336896

 2017-02-08 18:54:50.900944+01 | 1486576490.90094 | pgbench_branches_pkey |            16384
 2017-02-08 18:54:50.900944+01 | 1486576490.90094 | pgbench_tellers_pkey  |            32768
 2017-02-08 18:54:50.900944+01 | 1486576490.90094 | pgbench_accounts_pkey |        112336896

 2017-02-08 18:54:51.972602+01 | 1486576491.9726 | pgbench_branches_pkey |            16384
 2017-02-08 18:54:51.972602+01 | 1486576491.9726 | pgbench_tellers_pkey  |            32768
 2017-02-08 18:54:51.972602+01 | 1486576491.9726 | pgbench_accounts_pkey |        112336896

 2017-02-08 18:54:53.048116+01 | 1486576493.04812 | pgbench_branches_pkey |            16384
 2017-02-08 18:54:53.048116+01 | 1486576493.04812 | pgbench_tellers_pkey  |            32768
 2017-02-08 18:54:53.048116+01 | 1486576493.04812 | pgbench_accounts_pkey |        112336896

 2017-02-08 18:54:54.122679+01 | 1486576494.12268 | pgbench_branches_pkey |            16384
 2017-02-08 18:54:54.122679+01 | 1486576494.12268 | pgbench_tellers_pkey  |            32768
 2017-02-08 18:54:54.122679+01 | 1486576494.12268 | pgbench_accounts_pkey |        112336896

 2017-02-08 18:54:55.187243+01 | 1486576495.18724 | pgbench_branches_pkey |            16384
 2017-02-08 18:54:55.187243+01 | 1486576495.18724 | pgbench_tellers_pkey  |            32768
 2017-02-08 18:54:55.187243+01 | 1486576495.18724 | pgbench_accounts_pkey |        112336896

 2017-02-08 18:54:56.251549+01 | 1486576496.25155 | pgbench_branches_pkey |            16384
 2017-02-08 18:54:56.251549+01 | 1486576496.25155 | pgbench_tellers_pkey  |            32768
 2017-02-08 18:54:56.251549+01 | 1486576496.25155 | pgbench_accounts_pkey |        112336896

 2017-02-08 18:54:57.326207+01 | 1486576497.32621 | pgbench_branches_pkey |            16384
 2017-02-08 18:54:57.326207+01 | 1486576497.32621 | pgbench_tellers_pkey  |            32768
 2017-02-08 18:54:57.326207+01 | 1486576497.32621 | pgbench_accounts_pkey |        112336896

 2017-02-08 18:54:58.394212+01 | 1486576498.39421 | pgbench_branches_pkey |            16384
 2017-02-08 18:54:58.394212+01 | 1486576498.39421 | pgbench_tellers_pkey  |            32768
 2017-02-08 18:54:58.394212+01 | 1486576498.39421 | pgbench_accounts_pkey |        112336896

 2017-02-08 18:54:59.466559+01 | 1486576499.46656 | pgbench_branches_pkey |            16384
 2017-02-08 18:54:59.466559+01 | 1486576499.46656 | pgbench_tellers_pkey  |            32768
 2017-02-08 18:54:59.466559+01 | 1486576499.46656 | pgbench_accounts_pkey |        112336896

 2017-02-08 18:55:00.522256+01 | 1486576500.52226 | pgbench_branches_pkey |            16384
 2017-02-08 18:55:00.522256+01 | 1486576500.52226 | pgbench_tellers_pkey  |            32768
 2017-02-08 18:55:00.522256+01 | 1486576500.52226 | pgbench_accounts_pkey |        112336896

 2017-02-08 18:55:01.592622+01 | 1486576501.59262 | pgbench_branches_pkey |            16384
 2017-02-08 18:55:01.592622+01 | 1486576501.59262 | pgbench_tellers_pkey  |            32768
 2017-02-08 18:55:01.592622+01 | 1486576501.59262 | pgbench_accounts_pkey |        112336896

 2017-02-08 18:55:02.664922+01 | 1486576502.66492 | pgbench_branches_pkey |            16384
 2017-02-08 18:55:02.664922+01 | 1486576502.66492 | pgbench_tellers_pkey  |            32768
 2017-02-08 18:55:02.664922+01 | 1486576502.66492 | pgbench_accounts_pkey |        112336896

 2017-02-08 18:55:03.740227+01 | 1486576503.74023 | pgbench_branches_pkey |            16384
 2017-02-08 18:55:03.740227+01 | 1486576503.74023 | pgbench_tellers_pkey  |            32768
 2017-02-08 18:55:03.740227+01 | 1486576503.74023 | pgbench_accounts_pkey |        112336896

 2017-02-08 18:55:04.805656+01 | 1486576504.80566 | pgbench_branches_pkey |            16384
 2017-02-08 18:55:04.805656+01 | 1486576504.80566 | pgbench_tellers_pkey  |            32768
 2017-02-08 18:55:04.805656+01 | 1486576504.80566 | pgbench_accounts_pkey |        112336896

 2017-02-08 18:55:05.870801+01 | 1486576505.8708 | pgbench_branches_pkey |            16384
 2017-02-08 18:55:05.870801+01 | 1486576505.8708 | pgbench_tellers_pkey  |            32768
 2017-02-08 18:55:05.870801+01 | 1486576505.8708 | pgbench_accounts_pkey |        112336896

 2017-02-08 18:55:06.951228+01 | 1486576506.95123 | pgbench_branches_pkey |            16384
 2017-02-08 18:55:06.951228+01 | 1486576506.95123 | pgbench_tellers_pkey  |            32768
 2017-02-08 18:55:06.951228+01 | 1486576506.95123 | pgbench_accounts_pkey |        112336896

 2017-02-08 18:55:08.03162+01 | 1486576508.03162 | pgbench_branches_pkey |            16384
 2017-02-08 18:55:08.03162+01 | 1486576508.03162 | pgbench_tellers_pkey  |            32768
 2017-02-08 18:55:08.03162+01 | 1486576508.03162 | pgbench_accounts_pkey |        112336896

 2017-02-08 18:55:09.095371+01 | 1486576509.09537 | pgbench_branches_pkey |            16384
 2017-02-08 18:55:09.095371+01 | 1486576509.09537 | pgbench_tellers_pkey  |            32768
 2017-02-08 18:55:09.095371+01 | 1486576509.09537 | pgbench_accounts_pkey |        112336896

 2017-02-08 18:55:10.160935+01 | 1486576510.16093 | pgbench_branches_pkey |            16384
 2017-02-08 18:55:10.160935+01 | 1486576510.16093 | pgbench_tellers_pkey  |            32768
 2017-02-08 18:55:10.160935+01 | 1486576510.16093 | pgbench_accounts_pkey |        112336896

 2017-02-08 18:55:11.223081+01 | 1486576511.22308 | pgbench_branches_pkey |            16384
 2017-02-08 18:55:11.223081+01 | 1486576511.22308 | pgbench_tellers_pkey  |            32768
 2017-02-08 18:55:11.223081+01 | 1486576511.22308 | pgbench_accounts_pkey |        112336896

 2017-02-08 18:55:12.287933+01 | 1486576512.28793 | pgbench_branches_pkey |            16384
 2017-02-08 18:55:12.287933+01 | 1486576512.28793 | pgbench_tellers_pkey  |            32768
 2017-02-08 18:55:12.287933+01 | 1486576512.28793 | pgbench_accounts_pkey |        112336896

 2017-02-08 18:55:13.352928+01 | 1486576513.35293 | pgbench_branches_pkey |            16384
 2017-02-08 18:55:13.352928+01 | 1486576513.35293 | pgbench_tellers_pkey  |            32768
 2017-02-08 18:55:13.352928+01 | 1486576513.35293 | pgbench_accounts_pkey |        112336896

 2017-02-08 18:55:14.41478+01 | 1486576514.41478 | pgbench_branches_pkey |            16384
 2017-02-08 18:55:14.41478+01 | 1486576514.41478 | pgbench_tellers_pkey  |            32768
 2017-02-08 18:55:14.41478+01 | 1486576514.41478 | pgbench_accounts_pkey |        112336896

 2017-02-08 18:55:15.476745+01 | 1486576515.47674 | pgbench_branches_pkey |            16384
 2017-02-08 18:55:15.476745+01 | 1486576515.47674 | pgbench_tellers_pkey  |            32768
 2017-02-08 18:55:15.476745+01 | 1486576515.47674 | pgbench_accounts_pkey |        112336896

 2017-02-08 18:55:16.543252+01 | 1486576516.54325 | pgbench_branches_pkey |            16384
 2017-02-08 18:55:16.543252+01 | 1486576516.54325 | pgbench_tellers_pkey  |            32768
 2017-02-08 18:55:16.543252+01 | 1486576516.54325 | pgbench_accounts_pkey |        112336896

 2017-02-08 18:55:17.601437+01 | 1486576517.60144 | pgbench_branches_pkey |            16384
 2017-02-08 18:55:17.601437+01 | 1486576517.60144 | pgbench_tellers_pkey  |            32768
 2017-02-08 18:55:17.601437+01 | 1486576517.60144 | pgbench_accounts_pkey |        112336896

 2017-02-08 18:55:18.673943+01 | 1486576518.67394 | pgbench_branches_pkey |            16384
 2017-02-08 18:55:18.673943+01 | 1486576518.67394 | pgbench_tellers_pkey  |            32768
 2017-02-08 18:55:18.673943+01 | 1486576518.67394 | pgbench_accounts_pkey |        112336896

 2017-02-08 18:55:19.747382+01 | 1486576519.74738 | pgbench_branches_pkey |            16384
 2017-02-08 18:55:19.747382+01 | 1486576519.74738 | pgbench_tellers_pkey  |            32768
 2017-02-08 18:55:19.747382+01 | 1486576519.74738 | pgbench_accounts_pkey |        112336896

 2017-02-08 18:55:20.826608+01 | 1486576520.82661 | pgbench_branches_pkey |            16384
 2017-02-08 18:55:20.826608+01 | 1486576520.82661 | pgbench_tellers_pkey  |            32768
 2017-02-08 18:55:20.826608+01 | 1486576520.82661 | pgbench_accounts_pkey |        112336896

 2017-02-08 18:55:21.902289+01 | 1486576521.90229 | pgbench_branches_pkey |            16384
 2017-02-08 18:55:21.902289+01 | 1486576521.90229 | pgbench_tellers_pkey  |            32768
 2017-02-08 18:55:21.902289+01 | 1486576521.90229 | pgbench_accounts_pkey |        112336896

 2017-02-08 18:55:22.976784+01 | 1486576522.97678 | pgbench_branches_pkey |            16384
 2017-02-08 18:55:22.976784+01 | 1486576522.97678 | pgbench_tellers_pkey  |            32768
 2017-02-08 18:55:22.976784+01 | 1486576522.97678 | pgbench_accounts_pkey |        112336896

 2017-02-08 18:55:24.053871+01 | 1486576524.05387 | pgbench_branches_pkey |            16384
 2017-02-08 18:55:24.053871+01 | 1486576524.05387 | pgbench_tellers_pkey  |            32768
 2017-02-08 18:55:24.053871+01 | 1486576524.05387 | pgbench_accounts_pkey |        112336896

 2017-02-08 18:55:25.11757+01 | 1486576525.11757 | pgbench_branches_pkey |            16384
 2017-02-08 18:55:25.11757+01 | 1486576525.11757 | pgbench_tellers_pkey  |            32768
 2017-02-08 18:55:25.11757+01 | 1486576525.11757 | pgbench_accounts_pkey |        112336896

 2017-02-08 18:55:26.181126+01 | 1486576526.18113 | pgbench_branches_pkey |            16384
 2017-02-08 18:55:26.181126+01 | 1486576526.18113 | pgbench_tellers_pkey  |            32768
 2017-02-08 18:55:26.181126+01 | 1486576526.18113 | pgbench_accounts_pkey |        112336896

 2017-02-08 18:55:27.243351+01 | 1486576527.24335 | pgbench_branches_pkey |            16384
 2017-02-08 18:55:27.243351+01 | 1486576527.24335 | pgbench_tellers_pkey  |            32768
 2017-02-08 18:55:27.243351+01 | 1486576527.24335 | pgbench_accounts_pkey |        112336896

 2017-02-08 18:55:28.308726+01 | 1486576528.30873 | pgbench_branches_pkey |            16384
 2017-02-08 18:55:28.308726+01 | 1486576528.30873 | pgbench_tellers_pkey  |            32768
 2017-02-08 18:55:28.308726+01 | 1486576528.30873 | pgbench_accounts_pkey |        112336896

 2017-02-08 18:55:29.382394+01 | 1486576529.38239 | pgbench_branches_pkey |            16384
 2017-02-08 18:55:29.382394+01 | 1486576529.38239 | pgbench_tellers_pkey  |            32768
 2017-02-08 18:55:29.382394+01 | 1486576529.38239 | pgbench_accounts_pkey |        112336896

 2017-02-08 18:55:30.454105+01 | 1486576530.4541 | pgbench_branches_pkey |            16384
 2017-02-08 18:55:30.454105+01 | 1486576530.4541 | pgbench_tellers_pkey  |            32768
 2017-02-08 18:55:30.454105+01 | 1486576530.4541 | pgbench_accounts_pkey |        112336896

 2017-02-08 18:55:31.519469+01 | 1486576531.51947 | pgbench_branches_pkey |            16384
 2017-02-08 18:55:31.519469+01 | 1486576531.51947 | pgbench_tellers_pkey  |            32768
 2017-02-08 18:55:31.519469+01 | 1486576531.51947 | pgbench_accounts_pkey |        112336896

 2017-02-08 18:55:32.570934+01 | 1486576532.57093 | pgbench_branches_pkey |            16384
 2017-02-08 18:55:32.570934+01 | 1486576532.57093 | pgbench_tellers_pkey  |            32768
 2017-02-08 18:55:32.570934+01 | 1486576532.57093 | pgbench_accounts_pkey |        112336896

 2017-02-08 18:55:33.631869+01 | 1486576533.63187 | pgbench_branches_pkey |            16384
 2017-02-08 18:55:33.631869+01 | 1486576533.63187 | pgbench_tellers_pkey  |            32768
 2017-02-08 18:55:33.631869+01 | 1486576533.63187 | pgbench_accounts_pkey |        112336896

 2017-02-08 18:55:34.699563+01 | 1486576534.69956 | pgbench_branches_pkey |            16384
 2017-02-08 18:55:34.699563+01 | 1486576534.69956 | pgbench_tellers_pkey  |            32768
 2017-02-08 18:55:34.699563+01 | 1486576534.69956 | pgbench_accounts_pkey |        112336896

 2017-02-08 18:55:35.781411+01 | 1486576535.78141 | pgbench_branches_pkey |            16384
 2017-02-08 18:55:35.781411+01 | 1486576535.78141 | pgbench_tellers_pkey  |            32768
 2017-02-08 18:55:35.781411+01 | 1486576535.78141 | pgbench_accounts_pkey |        112336896

 2017-02-08 18:55:36.852058+01 | 1486576536.85206 | pgbench_branches_pkey |            16384
 2017-02-08 18:55:36.852058+01 | 1486576536.85206 | pgbench_tellers_pkey  |            32768
 2017-02-08 18:55:36.852058+01 | 1486576536.85206 | pgbench_accounts_pkey |        112336896

 2017-02-08 18:55:37.936888+01 | 1486576537.93689 | pgbench_branches_pkey |            16384
 2017-02-08 18:55:37.936888+01 | 1486576537.93689 | pgbench_tellers_pkey  |            32768
 2017-02-08 18:55:37.936888+01 | 1486576537.93689 | pgbench_accounts_pkey |        112336896

 2017-02-08 18:55:39.005885+01 | 1486576539.00588 | pgbench_branches_pkey |            16384
 2017-02-08 18:55:39.005885+01 | 1486576539.00588 | pgbench_tellers_pkey  |            32768
 2017-02-08 18:55:39.005885+01 | 1486576539.00588 | pgbench_accounts_pkey |        112336896

 2017-02-08 18:55:40.082901+01 | 1486576540.0829 | pgbench_branches_pkey |            16384
 2017-02-08 18:55:40.082901+01 | 1486576540.0829 | pgbench_tellers_pkey  |            32768
 2017-02-08 18:55:40.082901+01 | 1486576540.0829 | pgbench_accounts_pkey |        112336896

 2017-02-08 18:55:41.155481+01 | 1486576541.15548 | pgbench_branches_pkey |            16384
 2017-02-08 18:55:41.155481+01 | 1486576541.15548 | pgbench_tellers_pkey  |            32768
 2017-02-08 18:55:41.155481+01 | 1486576541.15548 | pgbench_accounts_pkey |        112336896

 2017-02-08 18:55:42.217938+01 | 1486576542.21794 | pgbench_branches_pkey |            16384
 2017-02-08 18:55:42.217938+01 | 1486576542.21794 | pgbench_tellers_pkey  |            32768
 2017-02-08 18:55:42.217938+01 | 1486576542.21794 | pgbench_accounts_pkey |        112336896

 2017-02-08 18:55:43.281454+01 | 1486576543.28145 | pgbench_branches_pkey |            16384
 2017-02-08 18:55:43.281454+01 | 1486576543.28145 | pgbench_tellers_pkey  |            32768
 2017-02-08 18:55:43.281454+01 | 1486576543.28145 | pgbench_accounts_pkey |        112336896

 2017-02-08 18:55:44.3499+01 | 1486576544.3499 | pgbench_branches_pkey |            16384
 2017-02-08 18:55:44.3499+01 | 1486576544.3499 | pgbench_tellers_pkey  |            32768
 2017-02-08 18:55:44.3499+01 | 1486576544.3499 | pgbench_accounts_pkey |        112336896

 2017-02-08 18:55:45.425295+01 | 1486576545.4253 | pgbench_branches_pkey |            16384
 2017-02-08 18:55:45.425295+01 | 1486576545.4253 | pgbench_tellers_pkey  |            32768
 2017-02-08 18:55:45.425295+01 | 1486576545.4253 | pgbench_accounts_pkey |        112336896

 2017-02-08 18:55:46.502272+01 | 1486576546.50227 | pgbench_branches_pkey |            16384
 2017-02-08 18:55:46.502272+01 | 1486576546.50227 | pgbench_tellers_pkey  |            32768
 2017-02-08 18:55:46.502272+01 | 1486576546.50227 | pgbench_accounts_pkey |        112336896

 2017-02-08 18:55:47.577816+01 | 1486576547.57782 | pgbench_branches_pkey |            16384
 2017-02-08 18:55:47.577816+01 | 1486576547.57782 | pgbench_tellers_pkey  |            32768
 2017-02-08 18:55:47.577816+01 | 1486576547.57782 | pgbench_accounts_pkey |        112336896

 2017-02-08 18:55:48.637999+01 | 1486576548.638 | pgbench_branches_pkey |            16384
 2017-02-08 18:55:48.637999+01 | 1486576548.638 | pgbench_tellers_pkey  |            32768
 2017-02-08 18:55:48.637999+01 | 1486576548.638 | pgbench_accounts_pkey |        112336896

 2017-02-08 18:55:49.714604+01 | 1486576549.7146 | pgbench_branches_pkey |            16384
 2017-02-08 18:55:49.714604+01 | 1486576549.7146 | pgbench_tellers_pkey  |            32768
 2017-02-08 18:55:49.714604+01 | 1486576549.7146 | pgbench_accounts_pkey |        112336896

 2017-02-08 18:55:50.796785+01 | 1486576550.79679 | pgbench_branches_pkey |            16384
 2017-02-08 18:55:50.796785+01 | 1486576550.79679 | pgbench_tellers_pkey  |            32768
 2017-02-08 18:55:50.796785+01 | 1486576550.79679 | pgbench_accounts_pkey |        112336896

 2017-02-08 18:55:51.862347+01 | 1486576551.86235 | pgbench_branches_pkey |            16384
 2017-02-08 18:55:51.862347+01 | 1486576551.86235 | pgbench_tellers_pkey  |            32768
 2017-02-08 18:55:51.862347+01 | 1486576551.86235 | pgbench_accounts_pkey |        112336896

 2017-02-08 18:55:52.9242+01 | 1486576552.9242 | pgbench_branches_pkey |            16384
 2017-02-08 18:55:52.9242+01 | 1486576552.9242 | pgbench_tellers_pkey  |            32768
 2017-02-08 18:55:52.9242+01 | 1486576552.9242 | pgbench_accounts_pkey |        112336896

 2017-02-08 18:55:53.99457+01 | 1486576553.99457 | pgbench_branches_pkey |            16384
 2017-02-08 18:55:53.99457+01 | 1486576553.99457 | pgbench_tellers_pkey  |            32768
 2017-02-08 18:55:53.99457+01 | 1486576553.99457 | pgbench_accounts_pkey |        112336896

 2017-02-08 18:55:55.067833+01 | 1486576555.06783 | pgbench_branches_pkey |            16384
 2017-02-08 18:55:55.067833+01 | 1486576555.06783 | pgbench_tellers_pkey  |            32768
 2017-02-08 18:55:55.067833+01 | 1486576555.06783 | pgbench_accounts_pkey |        112336896

 2017-02-08 18:55:56.152195+01 | 1486576556.15219 | pgbench_branches_pkey |            16384
 2017-02-08 18:55:56.152195+01 | 1486576556.15219 | pgbench_tellers_pkey  |            32768
 2017-02-08 18:55:56.152195+01 | 1486576556.15219 | pgbench_accounts_pkey |        112336896

 2017-02-08 18:55:57.213427+01 | 1486576557.21343 | pgbench_branches_pkey |            16384
 2017-02-08 18:55:57.213427+01 | 1486576557.21343 | pgbench_tellers_pkey  |            32768
 2017-02-08 18:55:57.213427+01 | 1486576557.21343 | pgbench_accounts_pkey |        112336896

 2017-02-08 18:55:58.274075+01 | 1486576558.27408 | pgbench_branches_pkey |            16384
 2017-02-08 18:55:58.274075+01 | 1486576558.27408 | pgbench_tellers_pkey  |            32768
 2017-02-08 18:55:58.274075+01 | 1486576558.27408 | pgbench_accounts_pkey |        112336896

 2017-02-08 18:55:59.332212+01 | 1486576559.33221 | pgbench_branches_pkey |            16384
 2017-02-08 18:55:59.332212+01 | 1486576559.33221 | pgbench_tellers_pkey  |            32768
 2017-02-08 18:55:59.332212+01 | 1486576559.33221 | pgbench_accounts_pkey |        112336896

 2017-02-08 18:56:00.399047+01 | 1486576560.39905 | pgbench_branches_pkey |            16384
 2017-02-08 18:56:00.399047+01 | 1486576560.39905 | pgbench_tellers_pkey  |            32768
 2017-02-08 18:56:00.399047+01 | 1486576560.39905 | pgbench_accounts_pkey |        112336896

 2017-02-08 18:56:01.462948+01 | 1486576561.46295 | pgbench_branches_pkey |            16384
 2017-02-08 18:56:01.462948+01 | 1486576561.46295 | pgbench_tellers_pkey  |            32768
 2017-02-08 18:56:01.462948+01 | 1486576561.46295 | pgbench_accounts_pkey |        112336896

 2017-02-08 18:56:02.521437+01 | 1486576562.52144 | pgbench_branches_pkey |            16384
 2017-02-08 18:56:02.521437+01 | 1486576562.52144 | pgbench_tellers_pkey  |            32768
 2017-02-08 18:56:02.521437+01 | 1486576562.52144 | pgbench_accounts_pkey |        112336896

 2017-02-08 18:56:03.58417+01 | 1486576563.58417 | pgbench_branches_pkey |            16384
 2017-02-08 18:56:03.58417+01 | 1486576563.58417 | pgbench_tellers_pkey  |            32768
 2017-02-08 18:56:03.58417+01 | 1486576563.58417 | pgbench_accounts_pkey |        112336896

 2017-02-08 18:56:04.667938+01 | 1486576564.66794 | pgbench_branches_pkey |            16384
 2017-02-08 18:56:04.667938+01 | 1486576564.66794 | pgbench_tellers_pkey  |            32768
 2017-02-08 18:56:04.667938+01 | 1486576564.66794 | pgbench_accounts_pkey |        112336896

 2017-02-08 18:56:05.7274+01 | 1486576565.7274 | pgbench_branches_pkey |            16384
 2017-02-08 18:56:05.7274+01 | 1486576565.7274 | pgbench_tellers_pkey  |            32768
 2017-02-08 18:56:05.7274+01 | 1486576565.7274 | pgbench_accounts_pkey |        112336896

 2017-02-08 18:56:06.8002+01 | 1486576566.8002 | pgbench_branches_pkey |            16384
 2017-02-08 18:56:06.8002+01 | 1486576566.8002 | pgbench_tellers_pkey  |            32768
 2017-02-08 18:56:06.8002+01 | 1486576566.8002 | pgbench_accounts_pkey |        112336896

 2017-02-08 18:56:07.861148+01 | 1486576567.86115 | pgbench_branches_pkey |            16384
 2017-02-08 18:56:07.861148+01 | 1486576567.86115 | pgbench_tellers_pkey  |            32768
 2017-02-08 18:56:07.861148+01 | 1486576567.86115 | pgbench_accounts_pkey |        112336896

 2017-02-08 18:56:08.938913+01 | 1486576568.93891 | pgbench_branches_pkey |            16384
 2017-02-08 18:56:08.938913+01 | 1486576568.93891 | pgbench_tellers_pkey  |            32768
 2017-02-08 18:56:08.938913+01 | 1486576568.93891 | pgbench_accounts_pkey |        112336896

 2017-02-08 18:56:10.00805+01 | 1486576570.00805 | pgbench_branches_pkey |            16384
 2017-02-08 18:56:10.00805+01 | 1486576570.00805 | pgbench_tellers_pkey  |            32768
 2017-02-08 18:56:10.00805+01 | 1486576570.00805 | pgbench_accounts_pkey |        112336896

 2017-02-08 18:56:11.064146+01 | 1486576571.06415 | pgbench_branches_pkey |            16384
 2017-02-08 18:56:11.064146+01 | 1486576571.06415 | pgbench_tellers_pkey  |            32768
 2017-02-08 18:56:11.064146+01 | 1486576571.06415 | pgbench_accounts_pkey |        112336896

 2017-02-08 18:56:12.14095+01 | 1486576572.14095 | pgbench_branches_pkey |            16384
 2017-02-08 18:56:12.14095+01 | 1486576572.14095 | pgbench_tellers_pkey  |            32768
 2017-02-08 18:56:12.14095+01 | 1486576572.14095 | pgbench_accounts_pkey |        112336896

 2017-02-08 18:56:13.205783+01 | 1486576573.20578 | pgbench_branches_pkey |            16384
 2017-02-08 18:56:13.205783+01 | 1486576573.20578 | pgbench_tellers_pkey  |            32768
 2017-02-08 18:56:13.205783+01 | 1486576573.20578 | pgbench_accounts_pkey |        112336896

 2017-02-08 18:56:14.279098+01 | 1486576574.2791 | pgbench_branches_pkey |            16384
 2017-02-08 18:56:14.279098+01 | 1486576574.2791 | pgbench_tellers_pkey  |            32768
 2017-02-08 18:56:14.279098+01 | 1486576574.2791 | pgbench_accounts_pkey |        112336896

 2017-02-08 18:56:15.357124+01 | 1486576575.35712 | pgbench_branches_pkey |            16384
 2017-02-08 18:56:15.357124+01 | 1486576575.35712 | pgbench_tellers_pkey  |            32768
 2017-02-08 18:56:15.357124+01 | 1486576575.35712 | pgbench_accounts_pkey |        112336896

 2017-02-08 18:56:16.417615+01 | 1486576576.41761 | pgbench_branches_pkey |            16384
 2017-02-08 18:56:16.417615+01 | 1486576576.41761 | pgbench_tellers_pkey  |            32768
 2017-02-08 18:56:16.417615+01 | 1486576576.41761 | pgbench_accounts_pkey |        112336896

 2017-02-08 18:56:17.499835+01 | 1486576577.49984 | pgbench_branches_pkey |            16384
 2017-02-08 18:56:17.499835+01 | 1486576577.49984 | pgbench_tellers_pkey  |            32768
 2017-02-08 18:56:17.499835+01 | 1486576577.49984 | pgbench_accounts_pkey |        112336896

 2017-02-08 18:56:18.562611+01 | 1486576578.56261 | pgbench_branches_pkey |            16384
 2017-02-08 18:56:18.562611+01 | 1486576578.56261 | pgbench_tellers_pkey  |            32768
 2017-02-08 18:56:18.562611+01 | 1486576578.56261 | pgbench_accounts_pkey |        112336896

 2017-02-08 18:56:19.62329+01 | 1486576579.62329 | pgbench_branches_pkey |            16384
 2017-02-08 18:56:19.62329+01 | 1486576579.62329 | pgbench_tellers_pkey  |            32768
 2017-02-08 18:56:19.62329+01 | 1486576579.62329 | pgbench_accounts_pkey |        112336896

 2017-02-08 18:56:20.69044+01 | 1486576580.69044 | pgbench_branches_pkey |            16384
 2017-02-08 18:56:20.69044+01 | 1486576580.69044 | pgbench_tellers_pkey  |            32768
 2017-02-08 18:56:20.69044+01 | 1486576580.69044 | pgbench_accounts_pkey |        112336896

 2017-02-08 18:56:21.754375+01 | 1486576581.75437 | pgbench_branches_pkey |            16384
 2017-02-08 18:56:21.754375+01 | 1486576581.75437 | pgbench_tellers_pkey  |            32768
 2017-02-08 18:56:21.754375+01 | 1486576581.75437 | pgbench_accounts_pkey |        112336896

 2017-02-08 18:56:22.819445+01 | 1486576582.81944 | pgbench_branches_pkey |            16384
 2017-02-08 18:56:22.819445+01 | 1486576582.81944 | pgbench_tellers_pkey  |            32768
 2017-02-08 18:56:22.819445+01 | 1486576582.81944 | pgbench_accounts_pkey |        112336896

 2017-02-08 18:56:23.877052+01 | 1486576583.87705 | pgbench_branches_pkey |            16384
 2017-02-08 18:56:23.877052+01 | 1486576583.87705 | pgbench_tellers_pkey  |            32768
 2017-02-08 18:56:23.877052+01 | 1486576583.87705 | pgbench_accounts_pkey |        112336896

 2017-02-08 18:56:24.933433+01 | 1486576584.93343 | pgbench_branches_pkey |            16384
 2017-02-08 18:56:24.933433+01 | 1486576584.93343 | pgbench_tellers_pkey  |            32768
 2017-02-08 18:56:24.933433+01 | 1486576584.93343 | pgbench_accounts_pkey |        112336896

 2017-02-08 18:56:25.989619+01 | 1486576585.98962 | pgbench_branches_pkey |            16384
 2017-02-08 18:56:25.989619+01 | 1486576585.98962 | pgbench_tellers_pkey  |            32768
 2017-02-08 18:56:25.989619+01 | 1486576585.98962 | pgbench_accounts_pkey |        112336896

 2017-02-08 18:56:27.061938+01 | 1486576587.06194 | pgbench_branches_pkey |            16384
 2017-02-08 18:56:27.061938+01 | 1486576587.06194 | pgbench_tellers_pkey  |            32768
 2017-02-08 18:56:27.061938+01 | 1486576587.06194 | pgbench_accounts_pkey |        112336896

 2017-02-08 18:56:28.126657+01 | 1486576588.12666 | pgbench_branches_pkey |            16384
 2017-02-08 18:56:28.126657+01 | 1486576588.12666 | pgbench_tellers_pkey  |            32768
 2017-02-08 18:56:28.126657+01 | 1486576588.12666 | pgbench_accounts_pkey |        112336896

 2017-02-08 18:56:29.191421+01 | 1486576589.19142 | pgbench_branches_pkey |            16384
 2017-02-08 18:56:29.191421+01 | 1486576589.19142 | pgbench_tellers_pkey  |            32768
 2017-02-08 18:56:29.191421+01 | 1486576589.19142 | pgbench_accounts_pkey |        112336896

 2017-02-08 18:56:30.255805+01 | 1486576590.25581 | pgbench_branches_pkey |            16384
 2017-02-08 18:56:30.255805+01 | 1486576590.25581 | pgbench_tellers_pkey  |            32768
 2017-02-08 18:56:30.255805+01 | 1486576590.25581 | pgbench_accounts_pkey |        112336896

 2017-02-08 18:56:31.335046+01 | 1486576591.33505 | pgbench_branches_pkey |            16384
 2017-02-08 18:56:31.335046+01 | 1486576591.33505 | pgbench_tellers_pkey  |            32768
 2017-02-08 18:56:31.335046+01 | 1486576591.33505 | pgbench_accounts_pkey |        112336896

 2017-02-08 18:56:32.405655+01 | 1486576592.40565 | pgbench_branches_pkey |            16384
 2017-02-08 18:56:32.405655+01 | 1486576592.40565 | pgbench_tellers_pkey  |            32768
 2017-02-08 18:56:32.405655+01 | 1486576592.40565 | pgbench_accounts_pkey |        112336896

 2017-02-08 18:56:33.474793+01 | 1486576593.47479 | pgbench_branches_pkey |            16384
 2017-02-08 18:56:33.474793+01 | 1486576593.47479 | pgbench_tellers_pkey  |            32768
 2017-02-08 18:56:33.474793+01 | 1486576593.47479 | pgbench_accounts_pkey |        112336896

 2017-02-08 18:56:34.557263+01 | 1486576594.55726 | pgbench_branches_pkey |            16384
 2017-02-08 18:56:34.557263+01 | 1486576594.55726 | pgbench_tellers_pkey  |            32768
 2017-02-08 18:56:34.557263+01 | 1486576594.55726 | pgbench_accounts_pkey |        112336896

 2017-02-08 18:56:35.620111+01 | 1486576595.62011 | pgbench_branches_pkey |            16384
 2017-02-08 18:56:35.620111+01 | 1486576595.62011 | pgbench_tellers_pkey  |            32768
 2017-02-08 18:56:35.620111+01 | 1486576595.62011 | pgbench_accounts_pkey |        112336896

 2017-02-08 18:56:36.685795+01 | 1486576596.6858 | pgbench_branches_pkey |            16384
 2017-02-08 18:56:36.685795+01 | 1486576596.6858 | pgbench_tellers_pkey  |            32768
 2017-02-08 18:56:36.685795+01 | 1486576596.6858 | pgbench_accounts_pkey |        112336896

 2017-02-08 18:56:37.750025+01 | 1486576597.75003 | pgbench_branches_pkey |            16384
 2017-02-08 18:56:37.750025+01 | 1486576597.75003 | pgbench_tellers_pkey  |            32768
 2017-02-08 18:56:37.750025+01 | 1486576597.75003 | pgbench_accounts_pkey |        112336896

 2017-02-08 18:56:38.821006+01 | 1486576598.82101 | pgbench_branches_pkey |            16384
 2017-02-08 18:56:38.821006+01 | 1486576598.82101 | pgbench_tellers_pkey  |            32768
 2017-02-08 18:56:38.821006+01 | 1486576598.82101 | pgbench_accounts_pkey |        112336896

 2017-02-08 18:56:39.884882+01 | 1486576599.88488 | pgbench_branches_pkey |            16384
 2017-02-08 18:56:39.884882+01 | 1486576599.88488 | pgbench_tellers_pkey  |            32768
 2017-02-08 18:56:39.884882+01 | 1486576599.88488 | pgbench_accounts_pkey |        112336896

 2017-02-08 18:56:40.945298+01 | 1486576600.9453 | pgbench_branches_pkey |            16384
 2017-02-08 18:56:40.945298+01 | 1486576600.9453 | pgbench_tellers_pkey  |            32768
 2017-02-08 18:56:40.945298+01 | 1486576600.9453 | pgbench_accounts_pkey |        112336896

 2017-02-08 18:56:42.023029+01 | 1486576602.02303 | pgbench_branches_pkey |            16384
 2017-02-08 18:56:42.023029+01 | 1486576602.02303 | pgbench_tellers_pkey  |            32768
 2017-02-08 18:56:42.023029+01 | 1486576602.02303 | pgbench_accounts_pkey |        112336896

 2017-02-08 18:56:43.104556+01 | 1486576603.10456 | pgbench_branches_pkey |            16384
 2017-02-08 18:56:43.104556+01 | 1486576603.10456 | pgbench_tellers_pkey  |            32768
 2017-02-08 18:56:43.104556+01 | 1486576603.10456 | pgbench_accounts_pkey |        112336896

 2017-02-08 18:56:44.178399+01 | 1486576604.1784 | pgbench_branches_pkey |            16384
 2017-02-08 18:56:44.178399+01 | 1486576604.1784 | pgbench_tellers_pkey  |            32768
 2017-02-08 18:56:44.178399+01 | 1486576604.1784 | pgbench_accounts_pkey |        112336896

 2017-02-08 18:56:45.249485+01 | 1486576605.24949 | pgbench_branches_pkey |            16384
 2017-02-08 18:56:45.249485+01 | 1486576605.24949 | pgbench_tellers_pkey  |            32768
 2017-02-08 18:56:45.249485+01 | 1486576605.24949 | pgbench_accounts_pkey |        112336896

 2017-02-08 18:56:46.314537+01 | 1486576606.31454 | pgbench_branches_pkey |            16384
 2017-02-08 18:56:46.314537+01 | 1486576606.31454 | pgbench_tellers_pkey  |            32768
 2017-02-08 18:56:46.314537+01 | 1486576606.31454 | pgbench_accounts_pkey |        112336896

 2017-02-08 18:56:47.392119+01 | 1486576607.39212 | pgbench_branches_pkey |            16384
 2017-02-08 18:56:47.392119+01 | 1486576607.39212 | pgbench_tellers_pkey  |            32768
 2017-02-08 18:56:47.392119+01 | 1486576607.39212 | pgbench_accounts_pkey |        112336896

 2017-02-08 18:56:48.463961+01 | 1486576608.46396 | pgbench_branches_pkey |            16384
 2017-02-08 18:56:48.463961+01 | 1486576608.46396 | pgbench_tellers_pkey  |            32768
 2017-02-08 18:56:48.463961+01 | 1486576608.46396 | pgbench_accounts_pkey |        112336896

 2017-02-08 18:56:49.531744+01 | 1486576609.53174 | pgbench_branches_pkey |            16384
 2017-02-08 18:56:49.531744+01 | 1486576609.53174 | pgbench_tellers_pkey  |            32768
 2017-02-08 18:56:49.531744+01 | 1486576609.53174 | pgbench_accounts_pkey |        112336896

 2017-02-08 18:56:50.594018+01 | 1486576610.59402 | pgbench_branches_pkey |            16384
 2017-02-08 18:56:50.594018+01 | 1486576610.59402 | pgbench_tellers_pkey  |            32768
 2017-02-08 18:56:50.594018+01 | 1486576610.59402 | pgbench_accounts_pkey |        112336896

 2017-02-08 18:56:51.65716+01 | 1486576611.65716 | pgbench_branches_pkey |            16384
 2017-02-08 18:56:51.65716+01 | 1486576611.65716 | pgbench_tellers_pkey  |            32768
 2017-02-08 18:56:51.65716+01 | 1486576611.65716 | pgbench_accounts_pkey |        112336896

 2017-02-08 18:56:52.721386+01 | 1486576612.72139 | pgbench_branches_pkey |            16384
 2017-02-08 18:56:52.721386+01 | 1486576612.72139 | pgbench_tellers_pkey  |            32768
 2017-02-08 18:56:52.721386+01 | 1486576612.72139 | pgbench_accounts_pkey |        112336896

 2017-02-08 18:56:53.797221+01 | 1486576613.79722 | pgbench_branches_pkey |            16384
 2017-02-08 18:56:53.797221+01 | 1486576613.79722 | pgbench_tellers_pkey  |            32768
 2017-02-08 18:56:53.797221+01 | 1486576613.79722 | pgbench_accounts_pkey |        112336896

 2017-02-08 18:56:54.861253+01 | 1486576614.86125 | pgbench_branches_pkey |            16384
 2017-02-08 18:56:54.861253+01 | 1486576614.86125 | pgbench_tellers_pkey  |            32768
 2017-02-08 18:56:54.861253+01 | 1486576614.86125 | pgbench_accounts_pkey |        112336896

 2017-02-08 18:56:55.927541+01 | 1486576615.92754 | pgbench_branches_pkey |            16384
 2017-02-08 18:56:55.927541+01 | 1486576615.92754 | pgbench_tellers_pkey  |            32768
 2017-02-08 18:56:55.927541+01 | 1486576615.92754 | pgbench_accounts_pkey |        112336896

 2017-02-08 18:56:56.994342+01 | 1486576616.99434 | pgbench_branches_pkey |            16384
 2017-02-08 18:56:56.994342+01 | 1486576616.99434 | pgbench_tellers_pkey  |            32768
 2017-02-08 18:56:56.994342+01 | 1486576616.99434 | pgbench_accounts_pkey |        112336896

 2017-02-08 18:56:58.066449+01 | 1486576618.06645 | pgbench_branches_pkey |            16384
 2017-02-08 18:56:58.066449+01 | 1486576618.06645 | pgbench_tellers_pkey  |            32768
 2017-02-08 18:56:58.066449+01 | 1486576618.06645 | pgbench_accounts_pkey |        112336896

 2017-02-08 18:56:59.146324+01 | 1486576619.14632 | pgbench_branches_pkey |            16384
 2017-02-08 18:56:59.146324+01 | 1486576619.14632 | pgbench_tellers_pkey  |            32768
 2017-02-08 18:56:59.146324+01 | 1486576619.14632 | pgbench_accounts_pkey |        112336896

 2017-02-08 18:57:00.224428+01 | 1486576620.22443 | pgbench_branches_pkey |            16384
 2017-02-08 18:57:00.224428+01 | 1486576620.22443 | pgbench_tellers_pkey  |            32768
 2017-02-08 18:57:00.224428+01 | 1486576620.22443 | pgbench_accounts_pkey |        112336896

 2017-02-08 18:57:01.293163+01 | 1486576621.29316 | pgbench_branches_pkey |            16384
 2017-02-08 18:57:01.293163+01 | 1486576621.29316 | pgbench_tellers_pkey  |            32768
 2017-02-08 18:57:01.293163+01 | 1486576621.29316 | pgbench_accounts_pkey |        112336896

 2017-02-08 18:57:02.372047+01 | 1486576622.37205 | pgbench_branches_pkey |            16384
 2017-02-08 18:57:02.372047+01 | 1486576622.37205 | pgbench_tellers_pkey  |            32768
 2017-02-08 18:57:02.372047+01 | 1486576622.37205 | pgbench_accounts_pkey |        112336896

 2017-02-08 18:57:03.442062+01 | 1486576623.44206 | pgbench_branches_pkey |            16384
 2017-02-08 18:57:03.442062+01 | 1486576623.44206 | pgbench_tellers_pkey  |            32768
 2017-02-08 18:57:03.442062+01 | 1486576623.44206 | pgbench_accounts_pkey |        112336896

 2017-02-08 18:57:04.516481+01 | 1486576624.51648 | pgbench_branches_pkey |            16384
 2017-02-08 18:57:04.516481+01 | 1486576624.51648 | pgbench_tellers_pkey  |            32768
 2017-02-08 18:57:04.516481+01 | 1486576624.51648 | pgbench_accounts_pkey |        112336896

 2017-02-08 18:57:05.575632+01 | 1486576625.57563 | pgbench_branches_pkey |            16384
 2017-02-08 18:57:05.575632+01 | 1486576625.57563 | pgbench_tellers_pkey  |            32768
 2017-02-08 18:57:05.575632+01 | 1486576625.57563 | pgbench_accounts_pkey |        112336896

 2017-02-08 18:57:06.650506+01 | 1486576626.65051 | pgbench_branches_pkey |            16384
 2017-02-08 18:57:06.650506+01 | 1486576626.65051 | pgbench_tellers_pkey  |            32768
 2017-02-08 18:57:06.650506+01 | 1486576626.65051 | pgbench_accounts_pkey |        112336896

 2017-02-08 18:57:07.718707+01 | 1486576627.71871 | pgbench_branches_pkey |            16384
 2017-02-08 18:57:07.718707+01 | 1486576627.71871 | pgbench_tellers_pkey  |            32768
 2017-02-08 18:57:07.718707+01 | 1486576627.71871 | pgbench_accounts_pkey |        112336896

 2017-02-08 18:57:08.780857+01 | 1486576628.78086 | pgbench_branches_pkey |            16384
 2017-02-08 18:57:08.780857+01 | 1486576628.78086 | pgbench_tellers_pkey  |            32768
 2017-02-08 18:57:08.780857+01 | 1486576628.78086 | pgbench_accounts_pkey |        112336896

 2017-02-08 18:57:09.83665+01 | 1486576629.83665 | pgbench_branches_pkey |            16384
 2017-02-08 18:57:09.83665+01 | 1486576629.83665 | pgbench_tellers_pkey  |            32768
 2017-02-08 18:57:09.83665+01 | 1486576629.83665 | pgbench_accounts_pkey |        112336896

 2017-02-08 18:57:10.896917+01 | 1486576630.89692 | pgbench_branches_pkey |            16384
 2017-02-08 18:57:10.896917+01 | 1486576630.89692 | pgbench_tellers_pkey  |            32768
 2017-02-08 18:57:10.896917+01 | 1486576630.89692 | pgbench_accounts_pkey |        112336896

 2017-02-08 18:57:11.957324+01 | 1486576631.95732 | pgbench_branches_pkey |            16384
 2017-02-08 18:57:11.957324+01 | 1486576631.95732 | pgbench_tellers_pkey  |            32768
 2017-02-08 18:57:11.957324+01 | 1486576631.95732 | pgbench_accounts_pkey |        112336896

 2017-02-08 18:57:13.007907+01 | 1486576633.00791 | pgbench_branches_pkey |            16384
 2017-02-08 18:57:13.007907+01 | 1486576633.00791 | pgbench_tellers_pkey  |            32768
 2017-02-08 18:57:13.007907+01 | 1486576633.00791 | pgbench_accounts_pkey |        112336896

 2017-02-08 18:57:14.079929+01 | 1486576634.07993 | pgbench_branches_pkey |            16384
 2017-02-08 18:57:14.079929+01 | 1486576634.07993 | pgbench_tellers_pkey  |            32768
 2017-02-08 18:57:14.079929+01 | 1486576634.07993 | pgbench_accounts_pkey |        112336896

 2017-02-08 18:57:15.146701+01 | 1486576635.1467 | pgbench_branches_pkey |            16384
 2017-02-08 18:57:15.146701+01 | 1486576635.1467 | pgbench_tellers_pkey  |            32768
 2017-02-08 18:57:15.146701+01 | 1486576635.1467 | pgbench_accounts_pkey |        112336896

 2017-02-08 18:57:16.221082+01 | 1486576636.22108 | pgbench_branches_pkey |            16384
 2017-02-08 18:57:16.221082+01 | 1486576636.22108 | pgbench_tellers_pkey  |            32768
 2017-02-08 18:57:16.221082+01 | 1486576636.22108 | pgbench_accounts_pkey |        112336896

 2017-02-08 18:57:17.27946+01 | 1486576637.27946 | pgbench_branches_pkey |            16384
 2017-02-08 18:57:17.27946+01 | 1486576637.27946 | pgbench_tellers_pkey  |            32768
 2017-02-08 18:57:17.27946+01 | 1486576637.27946 | pgbench_accounts_pkey |        112336896

 2017-02-08 18:57:18.341133+01 | 1486576638.34113 | pgbench_branches_pkey |            16384
 2017-02-08 18:57:18.341133+01 | 1486576638.34113 | pgbench_tellers_pkey  |            32768
 2017-02-08 18:57:18.341133+01 | 1486576638.34113 | pgbench_accounts_pkey |        112336896

 2017-02-08 18:57:19.405661+01 | 1486576639.40566 | pgbench_branches_pkey |            16384
 2017-02-08 18:57:19.405661+01 | 1486576639.40566 | pgbench_tellers_pkey  |            32768
 2017-02-08 18:57:19.405661+01 | 1486576639.40566 | pgbench_accounts_pkey |        112336896

 2017-02-08 18:57:20.47517+01 | 1486576640.47517 | pgbench_branches_pkey |            16384
 2017-02-08 18:57:20.47517+01 | 1486576640.47517 | pgbench_tellers_pkey  |            32768
 2017-02-08 18:57:20.47517+01 | 1486576640.47517 | pgbench_accounts_pkey |        112336896

 2017-02-08 18:57:21.538325+01 | 1486576641.53833 | pgbench_branches_pkey |            16384
 2017-02-08 18:57:21.538325+01 | 1486576641.53833 | pgbench_tellers_pkey  |            32768
 2017-02-08 18:57:21.538325+01 | 1486576641.53833 | pgbench_accounts_pkey |        112336896

 2017-02-08 18:57:22.601887+01 | 1486576642.60189 | pgbench_branches_pkey |            16384
 2017-02-08 18:57:22.601887+01 | 1486576642.60189 | pgbench_tellers_pkey  |            32768
 2017-02-08 18:57:22.601887+01 | 1486576642.60189 | pgbench_accounts_pkey |        112336896

 2017-02-08 18:57:23.660376+01 | 1486576643.66038 | pgbench_branches_pkey |            16384
 2017-02-08 18:57:23.660376+01 | 1486576643.66038 | pgbench_tellers_pkey  |            32768
 2017-02-08 18:57:23.660376+01 | 1486576643.66038 | pgbench_accounts_pkey |        112336896

 2017-02-08 18:57:24.730573+01 | 1486576644.73057 | pgbench_branches_pkey |            16384
 2017-02-08 18:57:24.730573+01 | 1486576644.73057 | pgbench_tellers_pkey  |            32768
 2017-02-08 18:57:24.730573+01 | 1486576644.73057 | pgbench_accounts_pkey |        112336896

 2017-02-08 18:57:25.795368+01 | 1486576645.79537 | pgbench_branches_pkey |            16384
 2017-02-08 18:57:25.795368+01 | 1486576645.79537 | pgbench_tellers_pkey  |            32768
 2017-02-08 18:57:25.795368+01 | 1486576645.79537 | pgbench_accounts_pkey |        112336896

 2017-02-08 18:57:26.863336+01 | 1486576646.86334 | pgbench_branches_pkey |            16384
 2017-02-08 18:57:26.863336+01 | 1486576646.86334 | pgbench_tellers_pkey  |            32768
 2017-02-08 18:57:26.863336+01 | 1486576646.86334 | pgbench_accounts_pkey |        112336896

 2017-02-08 18:57:27.925634+01 | 1486576647.92563 | pgbench_branches_pkey |            16384
 2017-02-08 18:57:27.925634+01 | 1486576647.92563 | pgbench_tellers_pkey  |            32768
 2017-02-08 18:57:27.925634+01 | 1486576647.92563 | pgbench_accounts_pkey |        112336896

 2017-02-08 18:57:29.00194+01 | 1486576649.00194 | pgbench_branches_pkey |            16384
 2017-02-08 18:57:29.00194+01 | 1486576649.00194 | pgbench_tellers_pkey  |            32768
 2017-02-08 18:57:29.00194+01 | 1486576649.00194 | pgbench_accounts_pkey |        112336896

 2017-02-08 18:57:30.060691+01 | 1486576650.06069 | pgbench_branches_pkey |            16384
 2017-02-08 18:57:30.060691+01 | 1486576650.06069 | pgbench_tellers_pkey  |            32768
 2017-02-08 18:57:30.060691+01 | 1486576650.06069 | pgbench_accounts_pkey |        112336896

 2017-02-08 18:57:31.132529+01 | 1486576651.13253 | pgbench_branches_pkey |            16384
 2017-02-08 18:57:31.132529+01 | 1486576651.13253 | pgbench_tellers_pkey  |            32768
 2017-02-08 18:57:31.132529+01 | 1486576651.13253 | pgbench_accounts_pkey |        112336896

 2017-02-08 18:57:32.203549+01 | 1486576652.20355 | pgbench_branches_pkey |            16384
 2017-02-08 18:57:32.203549+01 | 1486576652.20355 | pgbench_tellers_pkey  |            32768
 2017-02-08 18:57:32.203549+01 | 1486576652.20355 | pgbench_accounts_pkey |        112336896

 2017-02-08 18:57:33.271875+01 | 1486576653.27187 | pgbench_branches_pkey |            16384
 2017-02-08 18:57:33.271875+01 | 1486576653.27187 | pgbench_tellers_pkey  |            32768
 2017-02-08 18:57:33.271875+01 | 1486576653.27187 | pgbench_accounts_pkey |        112336896

 2017-02-08 18:57:34.341957+01 | 1486576654.34196 | pgbench_branches_pkey |            16384
 2017-02-08 18:57:34.341957+01 | 1486576654.34196 | pgbench_tellers_pkey  |            32768
 2017-02-08 18:57:34.341957+01 | 1486576654.34196 | pgbench_accounts_pkey |        112336896

 2017-02-08 18:57:35.417435+01 | 1486576655.41743 | pgbench_branches_pkey |            16384
 2017-02-08 18:57:35.417435+01 | 1486576655.41743 | pgbench_tellers_pkey  |            32768
 2017-02-08 18:57:35.417435+01 | 1486576655.41743 | pgbench_accounts_pkey |        112336896

 2017-02-08 18:57:36.486809+01 | 1486576656.48681 | pgbench_branches_pkey |            16384
 2017-02-08 18:57:36.486809+01 | 1486576656.48681 | pgbench_tellers_pkey  |            32768
 2017-02-08 18:57:36.486809+01 | 1486576656.48681 | pgbench_accounts_pkey |        112336896

 2017-02-08 18:57:37.574802+01 | 1486576657.5748 | pgbench_branches_pkey |            16384
 2017-02-08 18:57:37.574802+01 | 1486576657.5748 | pgbench_tellers_pkey  |            32768
 2017-02-08 18:57:37.574802+01 | 1486576657.5748 | pgbench_accounts_pkey |        112336896

 2017-02-08 18:57:38.646336+01 | 1486576658.64634 | pgbench_branches_pkey |            16384
 2017-02-08 18:57:38.646336+01 | 1486576658.64634 | pgbench_tellers_pkey  |            32768
 2017-02-08 18:57:38.646336+01 | 1486576658.64634 | pgbench_accounts_pkey |        112336896

 2017-02-08 18:57:39.715679+01 | 1486576659.71568 | pgbench_branches_pkey |            16384
 2017-02-08 18:57:39.715679+01 | 1486576659.71568 | pgbench_tellers_pkey  |            32768
 2017-02-08 18:57:39.715679+01 | 1486576659.71568 | pgbench_accounts_pkey |        112336896

 2017-02-08 18:57:40.783955+01 | 1486576660.78396 | pgbench_branches_pkey |            16384
 2017-02-08 18:57:40.783955+01 | 1486576660.78396 | pgbench_tellers_pkey  |            32768
 2017-02-08 18:57:40.783955+01 | 1486576660.78396 | pgbench_accounts_pkey |        112336896

 2017-02-08 18:57:41.850828+01 | 1486576661.85083 | pgbench_branches_pkey |            16384
 2017-02-08 18:57:41.850828+01 | 1486576661.85083 | pgbench_tellers_pkey  |            32768
 2017-02-08 18:57:41.850828+01 | 1486576661.85083 | pgbench_accounts_pkey |        112336896

 2017-02-08 18:57:42.930685+01 | 1486576662.93069 | pgbench_branches_pkey |            16384
 2017-02-08 18:57:42.930685+01 | 1486576662.93069 | pgbench_tellers_pkey  |            32768
 2017-02-08 18:57:42.930685+01 | 1486576662.93069 | pgbench_accounts_pkey |        112336896

 2017-02-08 18:57:44.013888+01 | 1486576664.01389 | pgbench_branches_pkey |            16384
 2017-02-08 18:57:44.013888+01 | 1486576664.01389 | pgbench_tellers_pkey  |            32768
 2017-02-08 18:57:44.013888+01 | 1486576664.01389 | pgbench_accounts_pkey |        112336896

 2017-02-08 18:57:45.088711+01 | 1486576665.08871 | pgbench_branches_pkey |            16384
 2017-02-08 18:57:45.088711+01 | 1486576665.08871 | pgbench_tellers_pkey  |            32768
 2017-02-08 18:57:45.088711+01 | 1486576665.08871 | pgbench_accounts_pkey |        112336896

 2017-02-08 18:57:46.164086+01 | 1486576666.16409 | pgbench_branches_pkey |            16384
 2017-02-08 18:57:46.164086+01 | 1486576666.16409 | pgbench_tellers_pkey  |            32768
 2017-02-08 18:57:46.164086+01 | 1486576666.16409 | pgbench_accounts_pkey |        112336896

 2017-02-08 18:57:47.227715+01 | 1486576667.22772 | pgbench_branches_pkey |            16384
 2017-02-08 18:57:47.227715+01 | 1486576667.22772 | pgbench_tellers_pkey  |            32768
 2017-02-08 18:57:47.227715+01 | 1486576667.22772 | pgbench_accounts_pkey |        112336896

 2017-02-08 18:57:48.307698+01 | 1486576668.3077 | pgbench_branches_pkey |            16384
 2017-02-08 18:57:48.307698+01 | 1486576668.3077 | pgbench_tellers_pkey  |            32768
 2017-02-08 18:57:48.307698+01 | 1486576668.3077 | pgbench_accounts_pkey |        112336896

 2017-02-08 18:57:49.377282+01 | 1486576669.37728 | pgbench_branches_pkey |            16384
 2017-02-08 18:57:49.377282+01 | 1486576669.37728 | pgbench_tellers_pkey  |            32768
 2017-02-08 18:57:49.377282+01 | 1486576669.37728 | pgbench_accounts_pkey |        112336896

 2017-02-08 18:57:50.456337+01 | 1486576670.45634 | pgbench_branches_pkey |            16384
 2017-02-08 18:57:50.456337+01 | 1486576670.45634 | pgbench_tellers_pkey  |            32768
 2017-02-08 18:57:50.456337+01 | 1486576670.45634 | pgbench_accounts_pkey |        112336896

 2017-02-08 18:57:51.533258+01 | 1486576671.53326 | pgbench_branches_pkey |            16384
 2017-02-08 18:57:51.533258+01 | 1486576671.53326 | pgbench_tellers_pkey  |            32768
 2017-02-08 18:57:51.533258+01 | 1486576671.53326 | pgbench_accounts_pkey |        112336896

 2017-02-08 18:57:52.593375+01 | 1486576672.59337 | pgbench_branches_pkey |            16384
 2017-02-08 18:57:52.593375+01 | 1486576672.59337 | pgbench_tellers_pkey  |            32768
 2017-02-08 18:57:52.593375+01 | 1486576672.59337 | pgbench_accounts_pkey |        112336896

 2017-02-08 18:57:53.667094+01 | 1486576673.66709 | pgbench_branches_pkey |            16384
 2017-02-08 18:57:53.667094+01 | 1486576673.66709 | pgbench_tellers_pkey  |            32768
 2017-02-08 18:57:53.667094+01 | 1486576673.66709 | pgbench_accounts_pkey |        112336896

 2017-02-08 18:57:54.734167+01 | 1486576674.73417 | pgbench_branches_pkey |            16384
 2017-02-08 18:57:54.734167+01 | 1486576674.73417 | pgbench_tellers_pkey  |            32768
 2017-02-08 18:57:54.734167+01 | 1486576674.73417 | pgbench_accounts_pkey |        112336896

 2017-02-08 18:57:55.802114+01 | 1486576675.80211 | pgbench_branches_pkey |            16384
 2017-02-08 18:57:55.802114+01 | 1486576675.80211 | pgbench_tellers_pkey  |            32768
 2017-02-08 18:57:55.802114+01 | 1486576675.80211 | pgbench_accounts_pkey |        112336896

 2017-02-08 18:57:56.875128+01 | 1486576676.87513 | pgbench_branches_pkey |            16384
 2017-02-08 18:57:56.875128+01 | 1486576676.87513 | pgbench_tellers_pkey  |            32768
 2017-02-08 18:57:56.875128+01 | 1486576676.87513 | pgbench_accounts_pkey |        112336896

