 2017-02-08 23:01:31.485128+01 | 1486591291.48513 |                 0 |               8 |                   886 |                  213 |              97140 |       1038092 |            10374 |        23577211 |                     0 |     148341217 | 2017-02-08 22:25:38.675853+01

 2017-02-08 23:01:32.670316+01 | 1486591292.67032 |                 0 |               8 |                   886 |                  213 |              97140 |       1038461 |            10377 |        23577211 |                     0 |     148434393 | 2017-02-08 22:25:38.675853+01

 2017-02-08 23:01:33.819921+01 | 1486591293.81992 |                 0 |               8 |                   886 |                  213 |              97140 |       1039061 |            10383 |        23577211 |                     0 |     148524331 | 2017-02-08 22:25:38.675853+01

 2017-02-08 23:01:34.970775+01 | 1486591294.97077 |                 0 |               8 |                   886 |                  213 |              97140 |       1039561 |            10388 |        23577211 |                     0 |     148600066 | 2017-02-08 22:25:38.675853+01

 2017-02-08 23:01:36.199126+01 | 1486591296.19913 |                 0 |               8 |                   886 |                  213 |              97140 |       1040161 |            10394 |        23577211 |                     0 |     148683104 | 2017-02-08 22:25:38.675853+01

 2017-02-08 23:01:37.333211+01 | 1486591297.33321 |                 0 |               8 |                   886 |                  213 |              97140 |       1040761 |            10400 |        23577211 |                     0 |     148774345 | 2017-02-08 22:25:38.675853+01

 2017-02-08 23:01:38.454727+01 | 1486591298.45473 |                 0 |               8 |                   886 |                  213 |              97140 |       1041361 |            10406 |        23577211 |                     0 |     148866680 | 2017-02-08 22:25:38.675853+01

 2017-02-08 23:01:39.56162+01 | 1486591299.56162 |                 0 |               8 |                   886 |                  213 |              97140 |       1041861 |            10411 |        23639479 |                     0 |     148946272 | 2017-02-08 22:25:38.675853+01

 2017-02-08 23:01:40.722244+01 | 1486591300.72224 |                 0 |               8 |                   886 |                  213 |              97140 |       1042461 |            10417 |        23639479 |                     0 |     149040159 | 2017-02-08 22:25:38.675853+01

 2017-02-08 23:01:41.844136+01 | 1486591301.84414 |                 0 |               8 |                   886 |                  213 |              97140 |       1043061 |            10423 |        23639479 |                     0 |     149136512 | 2017-02-08 22:25:38.675853+01

 2017-02-08 23:01:43.05882+01 | 1486591303.05882 |                 0 |               8 |                   886 |                  213 |              97140 |       1043561 |            10428 |        23639479 |                     0 |     149215326 | 2017-02-08 22:25:38.675853+01

 2017-02-08 23:01:44.246335+01 | 1486591304.24634 |                 0 |               8 |                   886 |                  213 |              97140 |       1044161 |            10434 |        23702315 |                     0 |     149310490 | 2017-02-08 22:25:38.675853+01

 2017-02-08 23:01:45.447592+01 | 1486591305.44759 |                 0 |               8 |                   886 |                  213 |              97140 |       1044761 |            10440 |        23702315 |                     0 |     149405709 | 2017-02-08 22:25:38.675853+01

 2017-02-08 23:01:46.620477+01 | 1486591306.62048 |                 0 |               8 |                   886 |                  213 |              97140 |       1045361 |            10446 |        23702315 |                     0 |     149500425 | 2017-02-08 22:25:38.675853+01

 2017-02-08 23:01:47.68473+01 | 1486591307.68473 |                 0 |               8 |                   886 |                  213 |              97140 |       1045961 |            10452 |        23702315 |                     0 |     149598370 | 2017-02-08 22:25:38.675853+01

 2017-02-08 23:01:48.89479+01 | 1486591308.89479 |                 0 |               8 |                   886 |                  213 |              97140 |       1046461 |            10457 |        23702315 |                     0 |     149676350 | 2017-02-08 22:25:38.675853+01

 2017-02-08 23:01:50.099188+01 | 1486591310.09919 |                 0 |               8 |                   886 |                  213 |              97140 |       1047061 |            10463 |        23765051 |                     0 |     149773088 | 2017-02-08 22:25:38.675853+01

 2017-02-08 23:01:51.276003+01 | 1486591311.276 |                 0 |               8 |                   886 |                  213 |              97140 |       1047661 |            10469 |        23765051 |                     0 |     149869514 | 2017-02-08 22:25:38.675853+01

 2017-02-08 23:01:52.467844+01 | 1486591312.46784 |                 0 |               8 |                   886 |                  213 |              97140 |       1048261 |            10475 |        23765051 |                     0 |     149963844 | 2017-02-08 22:25:38.675853+01

 2017-02-08 23:01:53.619364+01 | 1486591313.61936 |                 0 |               8 |                   886 |                  213 |              97140 |       1048861 |            10481 |        23765051 |                     0 |     150062486 | 2017-02-08 22:25:38.675853+01

 2017-02-08 23:01:54.807553+01 | 1486591314.80755 |                 0 |               8 |                   886 |                  213 |              97140 |       1049461 |            10487 |        23765051 |                     0 |     150158134 | 2017-02-08 22:25:38.675853+01

 2017-02-08 23:01:56.028544+01 | 1486591316.02854 |                 0 |               8 |                   886 |                  213 |              97140 |       1050061 |            10493 |        23827986 |                     0 |     150254044 | 2017-02-08 22:25:38.675853+01

 2017-02-08 23:01:57.208+01 | 1486591317.208 |                 0 |               8 |                   886 |                  213 |              97140 |       1050661 |            10499 |        23827986 |                     0 |     150353356 | 2017-02-08 22:25:38.675853+01

 2017-02-08 23:01:58.370331+01 | 1486591318.37033 |                 0 |               8 |                   886 |                  213 |              97140 |       1051261 |            10505 |        23827986 |                     0 |     150451149 | 2017-02-08 22:25:38.675853+01

 2017-02-08 23:01:59.543259+01 | 1486591319.54326 |                 0 |               8 |                   886 |                  213 |              97140 |       1051761 |            10510 |        23827986 |                     0 |     150529282 | 2017-02-08 22:25:38.675853+01

 2017-02-08 23:02:00.724223+01 | 1486591320.72422 |                 0 |               8 |                   886 |                  213 |              97140 |       1052361 |            10516 |        23890824 |                     0 |     150629884 | 2017-02-08 22:25:38.675853+01

 2017-02-08 23:02:01.933978+01 | 1486591321.93398 |                 0 |               8 |                   886 |                  213 |              97140 |       1052961 |            10522 |        23890824 |                     0 |     150726870 | 2017-02-08 22:25:38.675853+01

 2017-02-08 23:02:03.082663+01 | 1486591323.08266 |                 0 |               8 |                   886 |                  213 |              97140 |       1053561 |            10528 |        23890824 |                     0 |     150822005 | 2017-02-08 22:25:38.675853+01

 2017-02-08 23:02:04.224277+01 | 1486591324.22428 |                 0 |               8 |                   886 |                  213 |              97140 |       1054161 |            10534 |        23890824 |                     0 |     150921323 | 2017-02-08 22:25:38.675853+01

 2017-02-08 23:02:05.408128+01 | 1486591325.40813 |                 0 |               8 |                   886 |                  213 |              97140 |       1054661 |            10539 |        23890824 |                     0 |     151001063 | 2017-02-08 22:25:38.675853+01

 2017-02-08 23:02:06.663249+01 | 1486591326.66325 |                 0 |               8 |                   886 |                  213 |              97140 |       1055361 |            10546 |        23953760 |                     0 |     151115431 | 2017-02-08 22:25:38.675853+01

 2017-02-08 23:02:07.777313+01 | 1486591327.77731 |                 0 |               8 |                   886 |                  213 |              97140 |       1055961 |            10552 |        23953760 |                     0 |     151216359 | 2017-02-08 22:25:38.675853+01

 2017-02-08 23:02:08.998145+01 | 1486591328.99815 |                 0 |               8 |                   886 |                  213 |              97140 |       1056461 |            10557 |        23953760 |                     0 |     151295508 | 2017-02-08 22:25:38.675853+01

 2017-02-08 23:02:10.201534+01 | 1486591330.20153 |                 0 |               8 |                   886 |                  213 |              97140 |       1056961 |            10562 |        23953760 |                     0 |     151379340 | 2017-02-08 22:25:38.675853+01

 2017-02-08 23:02:11.374062+01 | 1486591331.37406 |                 0 |               8 |                   886 |                  213 |              97140 |       1057661 |            10569 |        24016596 |                     0 |     151493145 | 2017-02-08 22:25:38.675853+01

 2017-02-08 23:02:12.531386+01 | 1486591332.53139 |                 0 |               8 |                   886 |                  213 |              97140 |       1058261 |            10575 |        24016596 |                     0 |     151590424 | 2017-02-08 22:25:38.675853+01

 2017-02-08 23:02:13.688164+01 | 1486591333.68816 |                 0 |               8 |                   886 |                  213 |              97140 |       1058861 |            10581 |        24016596 |                     0 |     151686013 | 2017-02-08 22:25:38.675853+01

 2017-02-08 23:02:14.875287+01 | 1486591334.87529 |                 0 |               8 |                   886 |                  213 |              97140 |       1059361 |            10586 |        24016596 |                     0 |     151769176 | 2017-02-08 22:25:38.675853+01

 2017-02-08 23:02:16.03495+01 | 1486591336.03495 |                 0 |               8 |                   886 |                  213 |              97140 |       1059961 |            10592 |        24016596 |                     0 |     151866307 | 2017-02-08 22:25:38.675853+01

 2017-02-08 23:02:17.199025+01 | 1486591337.19902 |                 0 |               8 |                   886 |                  213 |              97140 |       1060561 |            10598 |        24079532 |                     0 |     151965239 | 2017-02-08 22:25:38.675853+01

 2017-02-08 23:02:18.418229+01 | 1486591338.41823 |                 0 |               8 |                   886 |                  213 |              97140 |       1061161 |            10604 |        24079532 |                     0 |     152062565 | 2017-02-08 22:25:38.675853+01

 2017-02-08 23:02:19.60971+01 | 1486591339.60971 |                 0 |               8 |                   886 |                  213 |              97140 |       1061761 |            10610 |        24079532 |                     0 |     152159723 | 2017-02-08 22:25:38.675853+01

 2017-02-08 23:02:20.813772+01 | 1486591340.81377 |                 0 |               8 |                   886 |                  213 |              97140 |       1062361 |            10616 |        24079532 |                     0 |     152260384 | 2017-02-08 22:25:38.675853+01

 2017-02-08 23:02:22.038046+01 | 1486591342.03805 |                 0 |               8 |                   886 |                  213 |              97140 |       1062961 |            10622 |        24142369 |                     0 |     152357316 | 2017-02-08 22:25:38.675853+01

 2017-02-08 23:02:23.180103+01 | 1486591343.1801 |                 0 |               8 |                   886 |                  213 |              97140 |       1063561 |            10628 |        24142369 |                     0 |     152454090 | 2017-02-08 22:25:38.675853+01

 2017-02-08 23:02:24.3598+01 | 1486591344.3598 |                 0 |               8 |                   886 |                  213 |              97140 |       1064161 |            10634 |        24142369 |                     0 |     152552391 | 2017-02-08 22:25:38.675853+01

 2017-02-08 23:02:25.587219+01 | 1486591345.58722 |                 0 |               8 |                   886 |                  213 |              97140 |       1064661 |            10639 |        24142369 |                     0 |     152634878 | 2017-02-08 22:25:38.675853+01

 2017-02-08 23:02:26.779018+01 | 1486591346.77902 |                 0 |               8 |                   886 |                  213 |              97140 |       1065361 |            10646 |        24142369 |                     0 |     152750654 | 2017-02-08 22:25:38.675853+01

 2017-02-08 23:02:28.011269+01 | 1486591348.01127 |                 0 |               8 |                   886 |                  213 |              97140 |       1065861 |            10651 |        24205305 |                     0 |     152834268 | 2017-02-08 22:25:38.675853+01

 2017-02-08 23:02:29.139727+01 | 1486591349.13973 |                 0 |               8 |                   886 |                  213 |              97140 |       1066461 |            10657 |        24205305 |                     0 |     152932840 | 2017-02-08 22:25:38.675853+01

 2017-02-08 23:02:30.335539+01 | 1486591350.33554 |                 0 |               8 |                   886 |                  213 |              97140 |       1067061 |            10663 |        24205305 |                     0 |     153029427 | 2017-02-08 22:25:38.675853+01

 2017-02-08 23:02:31.580329+01 | 1486591351.58033 |                 0 |               8 |                   886 |                  213 |              97140 |       1067661 |            10669 |        24205305 |                     0 |     153129887 | 2017-02-08 22:25:38.675853+01

 2017-02-08 23:02:32.715858+01 | 1486591352.71586 |                 0 |               8 |                   886 |                  213 |              97140 |       1068261 |            10675 |        24268241 |                     0 |     153229195 | 2017-02-08 22:25:38.675853+01

 2017-02-08 23:02:33.914144+01 | 1486591353.91414 |                 0 |               8 |                   886 |                  213 |              97140 |       1068861 |            10681 |        24268241 |                     0 |     153328527 | 2017-02-08 22:25:38.675853+01

 2017-02-08 23:02:35.133231+01 | 1486591355.13323 |                 0 |               8 |                   886 |                  213 |              97140 |       1069461 |            10687 |        24268241 |                     0 |     153425256 | 2017-02-08 22:25:38.675853+01

 2017-02-08 23:02:36.251233+01 | 1486591356.25123 |                 0 |               8 |                   886 |                  213 |              97140 |       1070061 |            10693 |        24268241 |                     0 |     153526750 | 2017-02-08 22:25:38.675853+01

 2017-02-08 23:02:37.413445+01 | 1486591357.41344 |                 0 |               8 |                   886 |                  213 |              97140 |       1070561 |            10698 |        24331178 |                     0 |     153606655 | 2017-02-08 22:25:38.675853+01

 2017-02-08 23:02:38.591953+01 | 1486591358.59195 |                 0 |               8 |                   886 |                  213 |              97140 |       1071161 |            10704 |        24331178 |                     0 |     153705544 | 2017-02-08 22:25:38.675853+01

 2017-02-08 23:02:39.75985+01 | 1486591359.75985 |                 0 |               8 |                   886 |                  213 |              97140 |       1071761 |            10710 |        24331178 |                     0 |     153805847 | 2017-02-08 22:25:38.675853+01

 2017-02-08 23:02:40.984195+01 | 1486591360.98419 |                 0 |               8 |                   886 |                  213 |              97140 |       1072361 |            10716 |        24331178 |                     0 |     153903114 | 2017-02-08 22:25:38.675853+01

 2017-02-08 23:02:42.134908+01 | 1486591362.13491 |                 0 |               8 |                   886 |                  213 |              97140 |       1072961 |            10722 |        24331178 |                     0 |     154000887 | 2017-02-08 22:25:38.675853+01

 2017-02-08 23:02:43.253577+01 | 1486591363.25358 |                 0 |               8 |                   886 |                  213 |              97140 |       1073561 |            10728 |        24394114 |                     0 |     154102319 | 2017-02-08 22:25:38.675853+01

 2017-02-08 23:02:44.439401+01 | 1486591364.4394 |                 0 |               8 |                   886 |                  213 |              97140 |       1074061 |            10733 |        24394114 |                     0 |     154183397 | 2017-02-08 22:25:38.675853+01

 2017-02-08 23:02:45.615442+01 | 1486591365.61544 |                 0 |               8 |                   886 |                  213 |              97140 |       1074661 |            10739 |        24394114 |                     0 |     154282534 | 2017-02-08 22:25:38.675853+01

 2017-02-08 23:02:46.766448+01 | 1486591366.76645 |                 0 |               8 |                   886 |                  213 |              97140 |       1075261 |            10745 |        24394114 |                     0 |     154384492 | 2017-02-08 22:25:38.675853+01

 2017-02-08 23:02:47.981048+01 | 1486591367.98105 |                 0 |               8 |                   886 |                  213 |              97140 |       1075861 |            10751 |        24457050 |                     0 |     154483565 | 2017-02-08 22:25:38.675853+01

 2017-02-08 23:02:49.099644+01 | 1486591369.09964 |                 0 |               8 |                   886 |                  213 |              97140 |       1076461 |            10757 |        24457050 |                     0 |     154581110 | 2017-02-08 22:25:38.675853+01

 2017-02-08 23:02:50.320564+01 | 1486591370.32056 |                 0 |               8 |                   886 |                  213 |              97140 |       1076961 |            10762 |        24457050 |                     0 |     154664956 | 2017-02-08 22:25:38.675853+01

 2017-02-08 23:02:51.581875+01 | 1486591371.58188 |                 0 |               8 |                   886 |                  213 |              97140 |       1077561 |            10768 |        24457050 |                     0 |     154763230 | 2017-02-08 22:25:38.675853+01

 2017-02-08 23:02:52.815691+01 | 1486591372.81569 |                 0 |               8 |                   886 |                  213 |              97140 |       1078261 |            10775 |        24457050 |                     0 |     154878948 | 2017-02-08 22:25:38.675853+01

 2017-02-08 23:02:53.996775+01 | 1486591373.99677 |                 0 |               8 |                   886 |                  213 |              97140 |       1078861 |            10781 |        24519986 |                     0 |     154977260 | 2017-02-08 22:25:38.675853+01

 2017-02-08 23:02:55.214206+01 | 1486591375.21421 |                 0 |               8 |                   886 |                  213 |              97140 |       1079461 |            10787 |        24519986 |                     0 |     155077265 | 2017-02-08 22:25:38.675853+01

 2017-02-08 23:02:56.363489+01 | 1486591376.36349 |                 0 |               8 |                   886 |                  213 |              97140 |       1079961 |            10792 |        24519986 |                     0 |     155158354 | 2017-02-08 22:25:38.675853+01

 2017-02-08 23:02:57.558306+01 | 1486591377.55831 |                 0 |               8 |                   886 |                  213 |              97140 |       1080561 |            10798 |        24519986 |                     0 |     155261961 | 2017-02-08 22:25:38.675853+01

 2017-02-08 23:02:58.710878+01 | 1486591378.71088 |                 0 |               8 |                   886 |                  213 |              97140 |       1081161 |            10804 |        24582922 |                     0 |     155359480 | 2017-02-08 22:25:38.675853+01

 2017-02-08 23:02:59.905066+01 | 1486591379.90507 |                 0 |               8 |                   886 |                  213 |              97140 |       1081761 |            10810 |        24582922 |                     0 |     155458647 | 2017-02-08 22:25:38.675853+01

 2017-02-08 23:03:01.102578+01 | 1486591381.10258 |                 0 |               8 |                   886 |                  213 |              97140 |       1082361 |            10816 |        24582922 |                     0 |     155557116 | 2017-02-08 22:25:38.675853+01

 2017-02-08 23:03:02.277491+01 | 1486591382.27749 |                 0 |               8 |                   886 |                  213 |              97140 |       1082961 |            10822 |        24582922 |                     0 |     155659940 | 2017-02-08 22:25:38.675853+01

 2017-02-08 23:03:03.523697+01 | 1486591383.5237 |                 0 |               8 |                   886 |                  213 |              97140 |       1083461 |            10827 |        24582922 |                     0 |     155741481 | 2017-02-08 22:25:38.675853+01

 2017-02-08 23:03:04.689935+01 | 1486591384.68993 |                 0 |               8 |                   886 |                  213 |              97140 |       1084161 |            10834 |        24645859 |                     0 |     155858339 | 2017-02-08 22:25:38.675853+01

 2017-02-08 23:03:05.768985+01 | 1486591385.76899 |                 0 |               8 |                   886 |                  213 |              97140 |       1084661 |            10839 |        24645859 |                     0 |     155942153 | 2017-02-08 22:25:38.675853+01

 2017-02-08 23:03:06.993675+01 | 1486591386.99367 |                 0 |               8 |                   886 |                  213 |              97140 |       1085261 |            10845 |        24645859 |                     0 |     156039540 | 2017-02-08 22:25:38.675853+01

 2017-02-08 23:03:08.177466+01 | 1486591388.17747 |                 0 |               8 |                   886 |                  213 |              97140 |       1085861 |            10851 |        24645859 |                     0 |     156140440 | 2017-02-08 22:25:38.675853+01

 2017-02-08 23:03:09.319422+01 | 1486591389.31942 |                 0 |               8 |                   886 |                  213 |              97140 |       1086461 |            10857 |        24708797 |                     0 |     156242040 | 2017-02-08 22:25:38.675853+01

 2017-02-08 23:03:10.489182+01 | 1486591390.48918 |                 0 |               8 |                   886 |                  213 |              97140 |       1087061 |            10863 |        24708797 |                     0 |     156338220 | 2017-02-08 22:25:38.675853+01

 2017-02-08 23:03:11.724129+01 | 1486591391.72413 |                 0 |               8 |                   886 |                  213 |              97140 |       1087561 |            10868 |        24708797 |                     0 |     156421919 | 2017-02-08 22:25:38.675853+01

 2017-02-08 23:03:12.836396+01 | 1486591392.8364 |                 0 |               8 |                   886 |                  213 |              97140 |       1088161 |            10874 |        24708797 |                     0 |     156522026 | 2017-02-08 22:25:38.675853+01

 2017-02-08 23:03:14.045482+01 | 1486591394.04548 |                 0 |               8 |                   886 |                  213 |              97140 |       1088761 |            10880 |        24771833 |                     0 |     156620997 | 2017-02-08 22:25:38.675853+01

 2017-02-08 23:03:15.236634+01 | 1486591395.23663 |                 0 |               8 |                   886 |                  213 |              97140 |       1089361 |            10886 |        24771833 |                     0 |     156719509 | 2017-02-08 22:25:38.675853+01

 2017-02-08 23:03:16.459381+01 | 1486591396.45938 |                 0 |               8 |                   886 |                  213 |              97140 |       1089961 |            10892 |        24771833 |                     0 |     156822528 | 2017-02-08 22:25:38.675853+01

 2017-02-08 23:03:17.637027+01 | 1486591397.63703 |                 0 |               8 |                   886 |                  213 |              97140 |       1090561 |            10898 |        24771833 |                     0 |     156921050 | 2017-02-08 22:25:38.675853+01

 2017-02-08 23:03:18.792315+01 | 1486591398.79232 |                 0 |               8 |                   886 |                  213 |              97140 |       1091161 |            10904 |        24771833 |                     0 |     157020229 | 2017-02-08 22:25:38.675853+01

 2017-02-08 23:03:19.958783+01 | 1486591399.95878 |                 0 |               8 |                   886 |                  213 |              97140 |       1091661 |            10909 |        24834670 |                     0 |     157102051 | 2017-02-08 22:25:38.675853+01

 2017-02-08 23:03:21.115924+01 | 1486591401.11592 |                 0 |               8 |                   886 |                  213 |              97140 |       1092261 |            10915 |        24834670 |                     0 |     157199711 | 2017-02-08 22:25:38.675853+01

 2017-02-08 23:03:22.326992+01 | 1486591402.32699 |                 0 |               8 |                   886 |                  213 |              97140 |       1092861 |            10921 |        24834670 |                     0 |     157296358 | 2017-02-08 22:25:38.675853+01

 2017-02-08 23:03:23.535054+01 | 1486591403.53505 |                 0 |               8 |                   886 |                  213 |              97140 |       1093461 |            10927 |        24834670 |                     0 |     157397401 | 2017-02-08 22:25:38.675853+01

 2017-02-08 23:03:24.657378+01 | 1486591404.65738 |                 0 |               8 |                   886 |                  213 |              97140 |       1094061 |            10933 |        24897806 |                     0 |     157498080 | 2017-02-08 22:25:38.675853+01

 2017-02-08 23:03:25.912009+01 | 1486591405.91201 |                 0 |               8 |                   886 |                  213 |              97140 |       1094661 |            10939 |        24897806 |                     0 |     157597727 | 2017-02-08 22:25:38.675853+01

 2017-02-08 23:03:27.154479+01 | 1486591407.15448 |                 0 |               8 |                   886 |                  213 |              97140 |       1095261 |            10945 |        24897806 |                     0 |     157695323 | 2017-02-08 22:25:38.675853+01

 2017-02-08 23:03:28.333319+01 | 1486591408.33332 |                 0 |               8 |                   886 |                  213 |              97140 |       1095861 |            10951 |        24897806 |                     0 |     157795786 | 2017-02-08 22:25:38.675853+01

 2017-02-08 23:03:29.564874+01 | 1486591409.56487 |                 0 |               8 |                   886 |                  213 |              97140 |       1096461 |            10957 |        24960942 |                     0 |     157893859 | 2017-02-08 22:25:38.675853+01

 2017-02-08 23:03:30.710077+01 | 1486591410.71008 |                 0 |               8 |                   886 |                  213 |              97140 |       1097061 |            10963 |        24960942 |                     0 |     157995607 | 2017-02-08 22:25:38.675853+01

 2017-02-08 23:03:31.946222+01 | 1486591411.94622 |                 0 |               8 |                   886 |                  213 |              97140 |       1097661 |            10969 |        24960942 |                     0 |     158094088 | 2017-02-08 22:25:38.675853+01

 2017-02-08 23:03:33.246783+01 | 1486591413.24678 |                 0 |               8 |                   886 |                  213 |              97140 |       1098261 |            10975 |        24960942 |                     0 |     158193825 | 2017-02-08 22:25:38.675853+01

 2017-02-08 23:03:34.426364+01 | 1486591414.42636 |                 0 |               8 |                   886 |                  213 |              97140 |       1098861 |            10981 |        25023978 |                     0 |     158291119 | 2017-02-08 22:25:38.675853+01

 2017-02-08 23:03:35.513138+01 | 1486591415.51314 |                 0 |               8 |                   886 |                  213 |              97140 |       1099461 |            10987 |        25023978 |                     0 |     158391578 | 2017-02-08 22:25:38.675853+01

 2017-02-08 23:03:36.719849+01 | 1486591416.71985 |                 0 |               8 |                   886 |                  213 |              97140 |       1100061 |            10993 |        25023978 |                     0 |     158489316 | 2017-02-08 22:25:38.675853+01

 2017-02-08 23:03:37.947566+01 | 1486591417.94757 |                 0 |               8 |                   886 |                  213 |              97140 |       1100661 |            10999 |        25023978 |                     0 |     158588646 | 2017-02-08 22:25:38.675853+01

 2017-02-08 23:03:39.07155+01 | 1486591419.07155 |                 0 |               8 |                   886 |                  213 |              97140 |       1101261 |            11005 |        25023978 |                     0 |     158686360 | 2017-02-08 22:25:38.675853+01

 2017-02-08 23:03:40.243983+01 | 1486591420.24398 |                 0 |               8 |                   886 |                  213 |              97140 |       1101761 |            11010 |        25086914 |                     0 |     158769923 | 2017-02-08 22:25:38.675853+01

 2017-02-08 23:03:41.488842+01 | 1486591421.48884 |                 0 |               8 |                   886 |                  213 |              97140 |       1102361 |            11016 |        25086914 |                     0 |     158866635 | 2017-02-08 22:25:38.675853+01

 2017-02-08 23:03:42.707765+01 | 1486591422.70777 |                 0 |               8 |                   886 |                  213 |              97140 |       1102961 |            11022 |        25086914 |                     0 |     158967563 | 2017-02-08 22:25:38.675853+01

 2017-02-08 23:03:43.848455+01 | 1486591423.84845 |                 0 |               8 |                   886 |                  213 |              97140 |       1103561 |            11028 |        25086914 |                     0 |     159069573 | 2017-02-08 22:25:38.675853+01

 2017-02-08 23:03:45.077085+01 | 1486591425.07709 |                 0 |               8 |                   886 |                  213 |              97140 |       1104161 |            11034 |        25149850 |                     0 |     159166887 | 2017-02-08 22:25:38.675853+01

 2017-02-08 23:03:46.276383+01 | 1486591426.27638 |                 0 |               8 |                   886 |                  213 |              97140 |       1104761 |            11040 |        25149850 |                     0 |     159264314 | 2017-02-08 22:25:38.675853+01

 2017-02-08 23:03:47.486087+01 | 1486591427.48609 |                 0 |               8 |                   886 |                  213 |              97140 |       1105361 |            11046 |        25149850 |                     0 |     159366930 | 2017-02-08 22:25:38.675853+01

 2017-02-08 23:03:48.718099+01 | 1486591428.7181 |                 0 |               8 |                   886 |                  213 |              97140 |       1105961 |            11052 |        25149850 |                     0 |     159465689 | 2017-02-08 22:25:38.675853+01

 2017-02-08 23:03:49.946882+01 | 1486591429.94688 |                 0 |               8 |                   886 |                  213 |              97140 |       1106561 |            11058 |        25212886 |                     0 |     159563593 | 2017-02-08 22:25:38.675853+01

 2017-02-08 23:03:51.177857+01 | 1486591431.17786 |                 0 |               8 |                   886 |                  213 |              97140 |       1107161 |            11064 |        25212886 |                     0 |     159666193 | 2017-02-08 22:25:38.675853+01

 2017-02-08 23:03:52.414875+01 | 1486591432.41488 |                 0 |               8 |                   886 |                  213 |              97140 |       1107761 |            11070 |        25212886 |                     0 |     159764858 | 2017-02-08 22:25:38.675853+01

 2017-02-08 23:03:53.612253+01 | 1486591433.61225 |                 0 |               8 |                   886 |                  213 |              97140 |       1108361 |            11076 |        25212886 |                     0 |     159862136 | 2017-02-08 22:25:38.675853+01

 2017-02-08 23:03:54.835163+01 | 1486591434.83516 |                 0 |               8 |                   886 |                  213 |              97140 |       1108961 |            11082 |        25275822 |                     0 |     159965327 | 2017-02-08 22:25:38.675853+01

 2017-02-08 23:03:55.954194+01 | 1486591435.95419 |                 0 |               8 |                   886 |                  213 |              97140 |       1109561 |            11088 |        25275822 |                     0 |     160064526 | 2017-02-08 22:25:38.675853+01

 2017-02-08 23:03:57.186496+01 | 1486591437.1865 |                 0 |               8 |                   886 |                  213 |              97140 |       1110161 |            11094 |        25275822 |                     0 |     160164242 | 2017-02-08 22:25:38.675853+01

 2017-02-08 23:03:58.474099+01 | 1486591438.4741 |                 0 |               8 |                   886 |                  213 |              97140 |       1110761 |            11100 |        25275822 |                     0 |     160263377 | 2017-02-08 22:25:38.675853+01

 2017-02-08 23:03:59.701977+01 | 1486591439.70198 |                 0 |               8 |                   886 |                  213 |              97140 |       1111461 |            11107 |        25275822 |                     0 |     160381448 | 2017-02-08 22:25:38.675853+01

 2017-02-08 23:04:00.865692+01 | 1486591440.86569 |                 0 |               8 |                   886 |                  213 |              97140 |       1112061 |            11113 |        25338777 |                     0 |     160482892 | 2017-02-08 22:25:38.675853+01

 2017-02-08 23:04:02.112312+01 | 1486591442.11231 |                 0 |               8 |                   886 |                  213 |              97140 |       1112661 |            11119 |        25338777 |                     0 |     160584386 | 2017-02-08 22:25:38.675853+01

 2017-02-08 23:04:03.353165+01 | 1486591443.35316 |                 0 |               8 |                   886 |                  213 |              97140 |       1113261 |            11125 |        25338777 |                     0 |     160683757 | 2017-02-08 22:25:38.675853+01

 2017-02-08 23:04:04.51801+01 | 1486591444.51801 |                 0 |               8 |                   886 |                  213 |              97140 |       1113861 |            11131 |        25338777 |                     0 |     160783007 | 2017-02-08 22:25:38.675853+01

 2017-02-08 23:04:05.71833+01 | 1486591445.71833 |                 0 |               8 |                   886 |                  213 |              97140 |       1114361 |            11136 |        25401795 |                     0 |     160866344 | 2017-02-08 22:25:38.675853+01

 2017-02-08 23:04:06.920599+01 | 1486591446.9206 |                 0 |               8 |                   886 |                  213 |              97140 |       1114961 |            11142 |        25401795 |                     0 |     160966701 | 2017-02-08 22:25:38.675853+01

 2017-02-08 23:04:08.117667+01 | 1486591448.11767 |                 0 |               8 |                   886 |                  213 |              97140 |       1115661 |            11149 |        25401795 |                     0 |     161083816 | 2017-02-08 22:25:38.675853+01

 2017-02-08 23:04:09.267454+01 | 1486591449.26745 |                 0 |               8 |                   886 |                  213 |              97140 |       1116161 |            11154 |        25401795 |                     0 |     161169298 | 2017-02-08 22:25:38.675853+01

 2017-02-08 23:04:10.484033+01 | 1486591450.48403 |                 0 |               8 |                   886 |                  213 |              97140 |       1116761 |            11160 |        25464731 |                     0 |     161266860 | 2017-02-08 22:25:38.675853+01

 2017-02-08 23:04:11.684457+01 | 1486591451.68446 |                 0 |               8 |                   886 |                  213 |              97140 |       1117361 |            11166 |        25464731 |                     0 |     161364249 | 2017-02-08 22:25:38.675853+01

 2017-02-08 23:04:12.875309+01 | 1486591452.87531 |                 0 |               8 |                   886 |                  213 |              97140 |       1117961 |            11172 |        25464731 |                     0 |     161465068 | 2017-02-08 22:25:38.675853+01

 2017-02-08 23:04:14.021522+01 | 1486591454.02152 |                 0 |               8 |                   886 |                  213 |              97140 |       1118561 |            11178 |        25464731 |                     0 |     161567466 | 2017-02-08 22:25:38.675853+01

 2017-02-08 23:04:15.247814+01 | 1486591455.24781 |                 0 |               8 |                   886 |                  213 |              97140 |       1119161 |            11184 |        25464731 |                     0 |     161665805 | 2017-02-08 22:25:38.675853+01

 2017-02-08 23:04:16.492744+01 | 1486591456.49274 |                 0 |               8 |                   886 |                  213 |              97140 |       1119761 |            11190 |        25527767 |                     0 |     161764966 | 2017-02-08 22:25:38.675853+01

 2017-02-08 23:04:17.712464+01 | 1486591457.71246 |                 0 |               8 |                   886 |                  213 |              97140 |       1120361 |            11196 |        25527767 |                     0 |     161862852 | 2017-02-08 22:25:38.675853+01

 2017-02-08 23:04:18.922435+01 | 1486591458.92244 |                 0 |               8 |                   886 |                  213 |              97140 |       1120961 |            11202 |        25527767 |                     0 |     161965999 | 2017-02-08 22:25:38.675853+01

 2017-02-08 23:04:20.170043+01 | 1486591460.17004 |                 0 |               8 |                   886 |                  213 |              97140 |       1121561 |            11208 |        25527767 |                     0 |     162063397 | 2017-02-08 22:25:38.675853+01

 2017-02-08 23:04:21.387937+01 | 1486591461.38794 |                 0 |               8 |                   886 |                  213 |              97140 |       1122161 |            11214 |        25590703 |                     0 |     162162729 | 2017-02-08 22:25:38.675853+01

 2017-02-08 23:04:22.612572+01 | 1486591462.61257 |                 0 |               8 |                   886 |                  213 |              97140 |       1122761 |            11220 |        25590703 |                     0 |     162261865 | 2017-02-08 22:25:38.675853+01

 2017-02-08 23:04:23.815336+01 | 1486591463.81534 |                 0 |               8 |                   886 |                  213 |              97140 |       1123361 |            11226 |        25590703 |                     0 |     162364461 | 2017-02-08 22:25:38.675853+01

 2017-02-08 23:04:25.040124+01 | 1486591465.04012 |                 0 |               8 |                   886 |                  213 |              97140 |       1123961 |            11232 |        25590703 |                     0 |     162463427 | 2017-02-08 22:25:38.675853+01

 2017-02-08 23:04:26.226773+01 | 1486591466.22677 |                 0 |               8 |                   886 |                  213 |              97140 |       1124561 |            11238 |        25653739 |                     0 |     162560790 | 2017-02-08 22:25:38.675853+01

 2017-02-08 23:04:27.368256+01 | 1486591467.36826 |                 0 |               8 |                   886 |                  213 |              97140 |       1125161 |            11244 |        25653739 |                     0 |     162659029 | 2017-02-08 22:25:38.675853+01

 2017-02-08 23:04:28.463678+01 | 1486591468.46368 |                 0 |               8 |                   886 |                  213 |              97140 |       1125761 |            11250 |        25653739 |                     0 |     162762477 | 2017-02-08 22:25:38.675853+01

 2017-02-08 23:04:29.687389+01 | 1486591469.68739 |                 0 |               8 |                   886 |                  213 |              97140 |       1126261 |            11255 |        25653739 |                     0 |     162843145 | 2017-02-08 22:25:38.675853+01

 2017-02-08 23:04:30.841672+01 | 1486591470.84167 |                 0 |               8 |                   886 |                  213 |              97140 |       1126961 |            11262 |        25716704 |                     0 |     162959578 | 2017-02-08 22:25:38.675853+01

 2017-02-08 23:04:32.023219+01 | 1486591472.02322 |                 0 |               8 |                   886 |                  213 |              97140 |       1127461 |            11267 |        25716704 |                     0 |     163042184 | 2017-02-08 22:25:38.675853+01

 2017-02-08 23:04:33.274941+01 | 1486591473.27494 |                 0 |               8 |                   886 |                  213 |              97140 |       1128061 |            11273 |        25716704 |                     0 |     163141731 | 2017-02-08 22:25:38.675853+01

 2017-02-08 23:04:34.524896+01 | 1486591474.5249 |                 0 |               8 |                   886 |                  213 |              97140 |       1128661 |            11279 |        25716704 |                     0 |     163238749 | 2017-02-08 22:25:38.675853+01

 2017-02-08 23:04:35.766377+01 | 1486591475.76638 |                 0 |               8 |                   886 |                  213 |              97140 |       1129361 |            11286 |        25716704 |                     0 |     163356611 | 2017-02-08 22:25:38.675853+01

 2017-02-08 23:04:36.972435+01 | 1486591476.97243 |                 0 |               8 |                   886 |                  213 |              97140 |       1129961 |            11292 |        25779640 |                     0 |     163454890 | 2017-02-08 22:25:38.675853+01

 2017-02-08 23:04:38.258357+01 | 1486591478.25836 |                 0 |               8 |                   886 |                  213 |              97140 |       1130561 |            11298 |        25779640 |                     0 |     163557075 | 2017-02-08 22:25:38.675853+01

 2017-02-08 23:04:39.448913+01 | 1486591479.44891 |                 0 |               8 |                   886 |                  213 |              97140 |       1131161 |            11304 |        25779640 |                     0 |     163657200 | 2017-02-08 22:25:38.675853+01

 2017-02-08 23:04:40.652164+01 | 1486591480.65216 |                 0 |               8 |                   886 |                  213 |              97140 |       1131761 |            11310 |        25779640 |                     0 |     163756336 | 2017-02-08 22:25:38.675853+01

 2017-02-08 23:04:41.861556+01 | 1486591481.86156 |                 0 |               8 |                   886 |                  213 |              97140 |       1132361 |            11316 |        25842677 |                     0 |     163855181 | 2017-02-08 22:25:38.675853+01

 2017-02-08 23:04:43.09824+01 | 1486591483.09824 |                 0 |               8 |                   886 |                  213 |              97140 |       1132961 |            11322 |        25842677 |                     0 |     163956649 | 2017-02-08 22:25:38.675853+01

 2017-02-08 23:04:44.232581+01 | 1486591484.23258 |                 0 |               8 |                   886 |                  213 |              97140 |       1133561 |            11328 |        25842677 |                     0 |     164056580 | 2017-02-08 22:25:38.675853+01

 2017-02-08 23:04:45.458073+01 | 1486591485.45807 |                 0 |               8 |                   886 |                  213 |              97140 |       1134161 |            11334 |        25842677 |                     0 |     164154447 | 2017-02-08 22:25:38.675853+01

 2017-02-08 23:04:46.726132+01 | 1486591486.72613 |                 0 |               8 |                   886 |                  213 |              97140 |       1134761 |            11340 |        25905713 |                     0 |     164254260 | 2017-02-08 22:25:38.675853+01

 2017-02-08 23:04:47.960012+01 | 1486591487.96001 |                 0 |               8 |                   886 |                  213 |              97140 |       1135361 |            11346 |        25905713 |                     0 |     164353774 | 2017-02-08 22:25:38.675853+01

 2017-02-08 23:04:49.124415+01 | 1486591489.12441 |                 0 |               8 |                   886 |                  213 |              97140 |       1135961 |            11352 |        25905713 |                     0 |     164457775 | 2017-02-08 22:25:38.675853+01

 2017-02-08 23:04:50.333711+01 | 1486591490.33371 |                 0 |               8 |                   886 |                  213 |              97140 |       1136561 |            11358 |        25905713 |                     0 |     164558446 | 2017-02-08 22:25:38.675853+01

 2017-02-08 23:04:51.564575+01 | 1486591491.56457 |                 0 |               8 |                   886 |                  213 |              97140 |       1137161 |            11364 |        25968749 |                     0 |     164659827 | 2017-02-08 22:25:38.675853+01

 2017-02-08 23:04:52.719607+01 | 1486591492.71961 |                 0 |               8 |                   886 |                  213 |              97140 |       1137761 |            11370 |        25968749 |                     0 |     164762115 | 2017-02-08 22:25:38.675853+01

 2017-02-08 23:04:53.875668+01 | 1486591493.87567 |                 0 |               8 |                   886 |                  213 |              97140 |       1138361 |            11376 |        25968749 |                     0 |     164861891 | 2017-02-08 22:25:38.675853+01

 2017-02-08 23:04:55.062935+01 | 1486591495.06294 |                 0 |               8 |                   886 |                  213 |              97140 |       1138961 |            11382 |        25968749 |                     0 |     164959865 | 2017-02-08 22:25:38.675853+01

 2017-02-08 23:04:56.274377+01 | 1486591496.27438 |                 0 |               8 |                   886 |                  213 |              97140 |       1139461 |            11387 |        25968749 |                     0 |     165045914 | 2017-02-08 22:25:38.675853+01

 2017-02-08 23:04:57.43929+01 | 1486591497.43929 |                 0 |               8 |                   886 |                  213 |              97140 |       1140061 |            11393 |        26031685 |                     0 |     165147390 | 2017-02-08 22:25:38.675853+01

 2017-02-08 23:04:58.667518+01 | 1486591498.66752 |                 0 |               8 |                   886 |                  213 |              97140 |       1140661 |            11399 |        26031685 |                     0 |     165247426 | 2017-02-08 22:25:38.675853+01

 2017-02-08 23:04:59.817659+01 | 1486591499.81766 |                 0 |               8 |                   886 |                  213 |              97140 |       1141261 |            11405 |        26031685 |                     0 |     165346563 | 2017-02-08 22:25:38.675853+01

 2017-02-08 23:05:01.054545+01 | 1486591501.05454 |                 0 |               8 |                   886 |                  213 |              97140 |       1141861 |            11411 |        26031685 |                     0 |     165445850 | 2017-02-08 22:25:38.675853+01

 2017-02-08 23:05:02.187617+01 | 1486591502.18762 |                 0 |               8 |                   886 |                  213 |              97140 |       1142461 |            11417 |        26094722 |                     0 |     165547655 | 2017-02-08 22:25:38.675853+01

 2017-02-08 23:05:03.413768+01 | 1486591503.41377 |                 0 |               8 |                   886 |                  213 |              97140 |       1143061 |            11423 |        26094722 |                     0 |     165647541 | 2017-02-08 22:25:38.675853+01

 2017-02-08 23:05:04.653925+01 | 1486591504.65392 |                 0 |               8 |                   886 |                  213 |              97140 |       1143661 |            11429 |        26094722 |                     0 |     165745479 | 2017-02-08 22:25:38.675853+01

 2017-02-08 23:05:05.779471+01 | 1486591505.77947 |                 0 |               8 |                   886 |                  213 |              97140 |       1144261 |            11435 |        26094722 |                     0 |     165844713 | 2017-02-08 22:25:38.675853+01

 2017-02-08 23:05:06.914271+01 | 1486591506.91427 |                 0 |               8 |                   886 |                  213 |              97140 |       1144861 |            11441 |        26157758 |                     0 |     165948026 | 2017-02-08 22:25:38.675853+01

 2017-02-08 23:05:08.162786+01 | 1486591508.16279 |                 0 |               8 |                   886 |                  213 |              97140 |       1145361 |            11446 |        26157758 |                     0 |     166032368 | 2017-02-08 22:25:38.675853+01

 2017-02-08 23:05:09.353136+01 | 1486591509.35314 |                 0 |               8 |                   886 |                  213 |              97140 |       1145961 |            11452 |        26157758 |                     0 |     166133936 | 2017-02-08 22:25:38.675853+01

 2017-02-08 23:05:10.618598+01 | 1486591510.6186 |                 0 |               8 |                   886 |                  213 |              97140 |       1146661 |            11459 |        26157758 |                     0 |     166252144 | 2017-02-08 22:25:38.675853+01

 2017-02-08 23:05:11.753164+01 | 1486591511.75316 |                 0 |               8 |                   886 |                  213 |              97140 |       1147261 |            11465 |        26220794 |                     0 |     166352802 | 2017-02-08 22:25:38.675853+01

 2017-02-08 23:05:12.878147+01 | 1486591512.87815 |                 0 |               8 |                   886 |                  213 |              97140 |       1147761 |            11470 |        26220794 |                     0 |     166436848 | 2017-02-08 22:25:38.675853+01

 2017-02-08 23:05:14.104424+01 | 1486591514.10442 |                 0 |               8 |                   886 |                  213 |              97140 |       1148361 |            11476 |        26220794 |                     0 |     166536987 | 2017-02-08 22:25:38.675853+01

 2017-02-08 23:05:15.32902+01 | 1486591515.32902 |                 0 |               8 |                   886 |                  213 |              97140 |       1148961 |            11482 |        26220794 |                     0 |     166636036 | 2017-02-08 22:25:38.675853+01

 2017-02-08 23:05:16.508293+01 | 1486591516.50829 |                 0 |               8 |                   886 |                  213 |              97140 |       1149561 |            11488 |        26220794 |                     0 |     166738329 | 2017-02-08 22:25:38.675853+01

 2017-02-08 23:05:17.6819+01 | 1486591517.6819 |                 0 |               8 |                   886 |                  213 |              97140 |       1150161 |            11494 |        26283730 |                     0 |     166838372 | 2017-02-08 22:25:38.675853+01

 2017-02-08 23:05:18.814531+01 | 1486591518.81453 |                 0 |               8 |                   886 |                  213 |              97140 |       1150761 |            11500 |        26283730 |                     0 |     166939150 | 2017-02-08 22:25:38.675853+01

 2017-02-08 23:05:20.006223+01 | 1486591520.00622 |                 0 |               8 |                   886 |                  213 |              97140 |       1151361 |            11506 |        26283730 |                     0 |     167038314 | 2017-02-08 22:25:38.675853+01

 2017-02-08 23:05:21.153416+01 | 1486591521.15342 |                 0 |               8 |                   886 |                  213 |              97140 |       1151861 |            11511 |        26283730 |                     0 |     167122765 | 2017-02-08 22:25:38.675853+01

 2017-02-08 23:05:22.26217+01 | 1486591522.26217 |                 0 |               8 |                   886 |                  213 |              97140 |       1152461 |            11517 |        26346766 |                     0 |     167224013 | 2017-02-08 22:25:38.675853+01

 2017-02-08 23:05:23.475476+01 | 1486591523.47548 |                 0 |               8 |                   886 |                  213 |              97140 |       1152961 |            11522 |        26346766 |                     0 |     167308945 | 2017-02-08 22:25:38.675853+01

 2017-02-08 23:05:24.637359+01 | 1486591524.63736 |                 0 |               8 |                   886 |                  213 |              97140 |       1153661 |            11529 |        26346766 |                     0 |     167423692 | 2017-02-08 22:25:38.675853+01

 2017-02-08 23:05:25.893008+01 | 1486591525.89301 |                 0 |               8 |                   886 |                  213 |              97140 |       1154161 |            11534 |        26346766 |                     0 |     167507174 | 2017-02-08 22:25:38.675853+01

 2017-02-08 23:05:27.067016+01 | 1486591527.06702 |                 0 |               8 |                   886 |                  213 |              97140 |       1154861 |            11541 |        26409802 |                     0 |     167625165 | 2017-02-08 22:25:38.675853+01

 2017-02-08 23:05:28.297708+01 | 1486591528.29771 |                 0 |               8 |                   886 |                  213 |              97140 |       1155461 |            11547 |        26409802 |                     0 |     167723661 | 2017-02-08 22:25:38.675853+01

 2017-02-08 23:05:29.516648+01 | 1486591529.51665 |                 0 |               8 |                   886 |                  213 |              97140 |       1156061 |            11553 |        26409802 |                     0 |     167823696 | 2017-02-08 22:25:38.675853+01

 2017-02-08 23:05:30.693876+01 | 1486591530.69388 |                 0 |               8 |                   886 |                  213 |              97140 |       1156561 |            11558 |        26409802 |                     0 |     167908495 | 2017-02-08 22:25:38.675853+01

 2017-02-08 23:05:31.906712+01 | 1486591531.90671 |                 0 |               8 |                   886 |                  213 |              97140 |       1157161 |            11564 |        26472838 |                     0 |     168007775 | 2017-02-08 22:25:38.675853+01

 2017-02-08 23:05:33.087976+01 | 1486591533.08798 |                 0 |               8 |                   886 |                  213 |              97140 |       1157761 |            11570 |        26472838 |                     0 |     168106234 | 2017-02-08 22:25:38.675853+01

 2017-02-08 23:05:34.337628+01 | 1486591534.33763 |                 0 |               8 |                   886 |                  213 |              97140 |       1158361 |            11576 |        26472838 |                     0 |     168209411 | 2017-02-08 22:25:38.675853+01

 2017-02-08 23:05:35.448805+01 | 1486591535.44881 |                 0 |               8 |                   886 |                  213 |              97140 |       1158961 |            11582 |        26472838 |                     0 |     168310097 | 2017-02-08 22:25:38.675853+01

 2017-02-08 23:05:36.624956+01 | 1486591536.62496 |                 0 |               8 |                   886 |                  213 |              97140 |       1159561 |            11588 |        26472838 |                     0 |     168409169 | 2017-02-08 22:25:38.675853+01

 2017-02-08 23:05:37.895688+01 | 1486591537.89569 |                 0 |               8 |                   886 |                  213 |              97140 |       1160161 |            11594 |        26535874 |                     0 |     168508936 | 2017-02-08 22:25:38.675853+01

 2017-02-08 23:05:39.131206+01 | 1486591539.13121 |                 0 |               8 |                   886 |                  213 |              97140 |       1160761 |            11600 |        26535874 |                     0 |     168608194 | 2017-02-08 22:25:38.675853+01

 2017-02-08 23:05:40.326036+01 | 1486591540.32604 |                 0 |               8 |                   886 |                  213 |              97140 |       1161361 |            11606 |        26535874 |                     0 |     168710635 | 2017-02-08 22:25:38.675853+01

 2017-02-08 23:05:41.533737+01 | 1486591541.53374 |                 0 |               8 |                   886 |                  213 |              97140 |       1161961 |            11612 |        26535874 |                     0 |     168810152 | 2017-02-08 22:25:38.675853+01

 2017-02-08 23:05:42.79208+01 | 1486591542.79208 |                 0 |               8 |                   886 |                  213 |              97140 |       1162561 |            11618 |        26598910 |                     0 |     168909542 | 2017-02-08 22:25:38.675853+01

 2017-02-08 23:05:44.009903+01 | 1486591544.0099 |                 0 |               8 |                   886 |                  213 |              97140 |       1163161 |            11624 |        26598910 |                     0 |     169012342 | 2017-02-08 22:25:38.675853+01

 2017-02-08 23:05:45.094805+01 | 1486591545.09481 |                 0 |               8 |                   886 |                  213 |              97140 |       1163761 |            11630 |        26598910 |                     0 |     169109331 | 2017-02-08 22:25:38.675853+01

 2017-02-08 23:05:46.297637+01 | 1486591546.29764 |                 0 |               8 |                   886 |                  213 |              97140 |       1164361 |            11636 |        26598910 |                     0 |     169207733 | 2017-02-08 22:25:38.675853+01

 2017-02-08 23:05:47.527773+01 | 1486591547.52777 |                 0 |               8 |                   886 |                  213 |              97140 |       1164961 |            11642 |        26661946 |                     0 |     169307340 | 2017-02-08 22:25:38.675853+01

 2017-02-08 23:05:48.715624+01 | 1486591548.71562 |                 0 |               8 |                   886 |                  213 |              97140 |       1165561 |            11648 |        26661946 |                     0 |     169407060 | 2017-02-08 22:25:38.675853+01

 2017-02-08 23:05:49.890846+01 | 1486591549.89085 |                 0 |               8 |                   886 |                  213 |              97140 |       1166161 |            11654 |        26661946 |                     0 |     169507795 | 2017-02-08 22:25:38.675853+01

 2017-02-08 23:05:51.133446+01 | 1486591551.13345 |                 0 |               8 |                   886 |                  213 |              97140 |       1166761 |            11660 |        26661946 |                     0 |     169608807 | 2017-02-08 22:25:38.675853+01

 2017-02-08 23:05:52.360327+01 | 1486591552.36033 |                 0 |               8 |                   886 |                  213 |              97140 |       1167361 |            11666 |        26724882 |                     0 |     169708228 | 2017-02-08 22:25:38.675853+01

 2017-02-08 23:05:53.506087+01 | 1486591553.50609 |                 0 |               8 |                   886 |                  213 |              97140 |       1167961 |            11672 |        26724882 |                     0 |     169808762 | 2017-02-08 22:25:38.675853+01

 2017-02-08 23:05:54.773144+01 | 1486591554.77314 |                 0 |               8 |                   886 |                  213 |              97140 |       1168561 |            11678 |        26724882 |                     0 |     169908775 | 2017-02-08 22:25:38.675853+01

 2017-02-08 23:05:55.977389+01 | 1486591555.97739 |                 0 |               8 |                   886 |                  213 |              97140 |       1169161 |            11684 |        26724882 |                     0 |     170008331 | 2017-02-08 22:25:38.675853+01

 2017-02-08 23:05:57.180603+01 | 1486591557.1806 |                 0 |               8 |                   886 |                  213 |              97140 |       1169761 |            11690 |        26788019 |                     0 |     170111881 | 2017-02-08 22:25:38.675853+01

 2017-02-08 23:05:58.390692+01 | 1486591558.39069 |                 0 |               8 |                   886 |                  213 |              97140 |       1170361 |            11696 |        26788019 |                     0 |     170212415 | 2017-02-08 22:25:38.675853+01

 2017-02-08 23:05:59.577337+01 | 1486591559.57734 |                 0 |               8 |                   886 |                  213 |              97140 |       1170961 |            11702 |        26788019 |                     0 |     170310835 | 2017-02-08 22:25:38.675853+01

 2017-02-08 23:06:00.820629+01 | 1486591560.82063 |                 0 |               8 |                   886 |                  213 |              97140 |       1171561 |            11708 |        26788019 |                     0 |     170410372 | 2017-02-08 22:25:38.675853+01

 2017-02-08 23:06:02.04011+01 | 1486591562.04011 |                 0 |               8 |                   886 |                  213 |              97140 |       1172161 |            11714 |        26788019 |                     0 |     170510691 | 2017-02-08 22:25:38.675853+01

 2017-02-08 23:06:03.196984+01 | 1486591563.19698 |                 0 |               8 |                   886 |                  213 |              97140 |       1172761 |            11720 |        26850955 |                     0 |     170612311 | 2017-02-08 22:25:38.675853+01

 2017-02-08 23:06:04.483056+01 | 1486591564.48306 |                 0 |               8 |                   886 |                  213 |              97140 |       1173361 |            11726 |        26850955 |                     0 |     170710660 | 2017-02-08 22:25:38.675853+01

 2017-02-08 23:06:05.640632+01 | 1486591565.64063 |                 0 |               8 |                   886 |                  213 |              97140 |       1173961 |            11732 |        26850955 |                     0 |     170809192 | 2017-02-08 22:25:38.675853+01

 2017-02-08 23:06:06.839273+01 | 1486591566.83927 |                 0 |               8 |                   886 |                  213 |              97140 |       1174561 |            11738 |        26850955 |                     0 |     170910761 | 2017-02-08 22:25:38.675853+01

 2017-02-08 23:06:07.973141+01 | 1486591567.97314 |                 0 |               8 |                   886 |                  213 |              97140 |       1175061 |            11743 |        26913995 |                     0 |     170995782 | 2017-02-08 22:25:38.675853+01

 2017-02-08 23:06:09.164637+01 | 1486591569.16464 |                 0 |               8 |                   886 |                  213 |              97140 |       1175661 |            11749 |        26913995 |                     0 |     171096841 | 2017-02-08 22:25:38.675853+01

 2017-02-08 23:06:10.341221+01 | 1486591570.34122 |                 0 |               8 |                   886 |                  213 |              97140 |       1176061 |            11753 |        26913995 |                     0 |     171161446 | 2017-02-08 22:25:38.675853+01

 2017-02-08 23:06:11.539562+01 | 1486591571.53956 |                 0 |               8 |                   886 |                  213 |              97140 |       1176861 |            11761 |        26913995 |                     0 |     171292490 | 2017-02-08 22:25:38.675853+01

 2017-02-08 23:06:12.782892+01 | 1486591572.78289 |                 0 |               8 |                   886 |                  213 |              97140 |       1177461 |            11767 |        26977130 |                     0 |     171392395 | 2017-02-08 22:25:38.675853+01

 2017-02-08 23:06:13.867853+01 | 1486591573.86785 |                 0 |               8 |                   886 |                  213 |              97140 |       1178061 |            11773 |        26977130 |                     0 |     171492727 | 2017-02-08 22:25:38.675853+01

 2017-02-08 23:06:15.079604+01 | 1486591575.0796 |                 0 |               8 |                   886 |                  213 |              97140 |       1178661 |            11779 |        26977130 |                     0 |     171590427 | 2017-02-08 22:25:38.675853+01

 2017-02-08 23:06:16.304567+01 | 1486591576.30457 |                 0 |               8 |                   886 |                  213 |              97140 |       1179261 |            11785 |        26977130 |                     0 |     171689131 | 2017-02-08 22:25:38.675853+01

 2017-02-08 23:06:17.504344+01 | 1486591577.50434 |                 0 |               8 |                   886 |                  213 |              97140 |       1179861 |            11791 |        27040266 |                     0 |     171788316 | 2017-02-08 22:25:38.675853+01

 2017-02-08 23:06:18.690731+01 | 1486591578.69073 |                 0 |               8 |                   886 |                  213 |              97140 |       1180461 |            11797 |        27040266 |                     0 |     171888305 | 2017-02-08 22:25:38.675853+01

 2017-02-08 23:06:19.896718+01 | 1486591579.89672 |                 0 |               8 |                   886 |                  213 |              97140 |       1180961 |            11802 |        27040266 |                     0 |     171973289 | 2017-02-08 22:25:38.675853+01

 2017-02-08 23:06:21.04707+01 | 1486591581.04707 |                 0 |               8 |                   886 |                  213 |              97140 |       1181561 |            11808 |        27040266 |                     0 |     172069298 | 2017-02-08 22:25:38.675853+01

 2017-02-08 23:06:22.171518+01 | 1486591582.17152 |                 0 |               8 |                   886 |                  213 |              97140 |       1182161 |            11814 |        27103403 |                     0 |     172167171 | 2017-02-08 22:25:38.675853+01

 2017-02-08 23:06:23.363466+01 | 1486591583.36347 |                 0 |               8 |                   886 |                  213 |              97140 |       1182761 |            11820 |        27103403 |                     0 |     172267287 | 2017-02-08 22:25:38.675853+01

 2017-02-08 23:06:24.565656+01 | 1486591584.56566 |                 0 |               8 |                   886 |                  213 |              97140 |       1183361 |            11826 |        27103403 |                     0 |     172367418 | 2017-02-08 22:25:38.675853+01

 2017-02-08 23:06:25.757419+01 | 1486591585.75742 |                 0 |               8 |                   886 |                  213 |              97140 |       1183961 |            11832 |        27103403 |                     0 |     172464017 | 2017-02-08 22:25:38.675853+01

 2017-02-08 23:06:26.924558+01 | 1486591586.92456 |                 0 |               8 |                   886 |                  213 |              97140 |       1184461 |            11837 |        27166539 |                     0 |     172548094 | 2017-02-08 22:25:38.675853+01

 2017-02-08 23:06:28.168609+01 | 1486591588.16861 |                 0 |               8 |                   886 |                  213 |              97140 |       1185061 |            11843 |        27166539 |                     0 |     172646745 | 2017-02-08 22:25:38.675853+01

 2017-02-08 23:06:29.393147+01 | 1486591589.39315 |                 0 |               8 |                   886 |                  213 |              97140 |       1185661 |            11849 |        27166539 |                     0 |     172746420 | 2017-02-08 22:25:38.675853+01

 2017-02-08 23:06:30.584607+01 | 1486591590.58461 |                 0 |               8 |                   886 |                  213 |              97140 |       1186361 |            11856 |        27166539 |                     0 |     172863810 | 2017-02-08 22:25:38.675853+01

